{
    "text": "<p>This section reflects a selection of assignments used in the course.</p> <p>Simplified Errors Table - Abbreviations (<a href=\"./resolveuid/497b8324ab958f3470f6cf91de531114\">PDF</a>) (Used for correcting assignments.)</p> <p>Vivaldi Domine Fili Exercise (<a href=\"./resolveuid/3caadf1b9ffdfc60318187f88a0a0290\">PDF</a>)</p> <p>Assignment 1&nbsp;(<a href=\"./resolveuid/6832bc8959d3cf094daa3ff0db0dfa43\">PDF</a>)</p> <p>Assignment 2 (<a href=\"./resolveuid/2aa5a9f0c064677fdb79b8becdbf2fc5\">PDF</a>)</p> <p>Assignment 2 (cont.) (<a href=\"./resolveuid/1c211eed4e5995d42c701ee93de0a06e\">PDF</a>)</p> <p>Assignment 3 (<a href=\"./resolveuid/ee19a1342a38393be325ef17f64fb912\">PDF</a>)</p> <p>Assignment 4 (<a href=\"./resolveuid/63900e60a0c16bf3ba082fec7f6d1ffc\">PDF</a>)</p>  <p>Assignment 5 (<a href=\"./resolveuid/1e2dff536bc156dd3f2f903885c3ff4c\">PDF</a>)</p> <p>Assignment 6 (<a href=\"./resolveuid/046c37cfc429863034cbed20884ac4f5\">PDF</a>)</p>  <p>Assignment 7 (<a href=\"./resolveuid/ed83a353dbf1eba4734a4512bf60a68b\">PDF</a>)</p>  <p>Assignment 8 (<a href=\"./resolveuid/9f1f34322d040d8ee01cb057c9c380e7\">PDF</a>)</p>  <p>Assignment 9 (<a href=\"./resolveuid/5f64e1d0404db05e04b1e9dd4269f0cd\">PDF</a>)</p> <p>Assignment 9 (Short) (<a href=\"./resolveuid/7a5b7daed8720a358b3f463a708657ba\">PDF</a>)</p> <p>Assignment 10 (<a href=\"./resolveuid/22b7b1e0abd9440cbf1162dcaac3b1f0\">PDF</a>)</p> <p>Assignment 10 (Short) (<a href=\"./resolveuid/f4f8c1e6eeda8a71cc48618544e3c0e7\">PDF</a>)</p> <p>Assignment 11 (<a href=\"./resolveuid/5f842ed7ac257f95aa7b382ab0c79da9\">PDF</a>)<br /> Assignment 11 (Student Solutions) (<a href=\"./resolveuid/33ad43496c8f656d0d96610efcbf28bd\">PDF</a>)</p> <p>Assignment 12 (<a href=\"./resolveuid/40bd714ddc8b64faa4be7053ce61a9eb\">PDF</a>)</p> <p>Assignment 13 (<a href=\"./resolveuid/8f044de630ca01eb48394643a83a6784\">PDF</a>)</p> <p>Assignment 14 (<a href=\"./resolveuid/c336ee9d28df67d4541453acea808bd3\">PDF</a>)</p>  <p>Assignment 15 (<a href=\"./resolveuid/773fd096b64bf7ba4b496e1857ad3e00\">PDF</a>)</p> <p>Assignment 16 (<a href=\"./resolveuid/560dc098d9204124b4c2dcff49fba9e1\">PDF</a>)</p>", 
    "_content_type_license": "text/plain", 
    "_uid": "84e4eb93b285ee61df33ba27bf276d5d", 
    "title": "Assignments", 
    "_ac_local_roles": {
        "admin": [
            "Owner"
        ]
    }, 
    "location": "", 
    "_content_type_course_identifier": "text/plain", 
    "_atbrefs": {}, 
    "constrainTypesMode": 0, 
    "technical_location": "https://ocw.mit.edu/courses/music-and-theater-arts/21m-301-harmony-and-counterpoint-i-spring-2005/assignments", 
    "software_requirements": [
        {
            "software_type_col": "Browser", 
            "minimum_version_col": "40.0", 
            "software_name_col": "Chrome", 
            "maximum_version_col": ""
        }, 
        {
            "software_type_col": "Browser", 
            "minimum_version_col": "8.0", 
            "software_name_col": "Safari", 
            "maximum_version_col": ""
        }, 
        {
            "software_type_col": "Browser", 
            "minimum_version_col": "38.0", 
            "software_name_col": "Mozilla Firefox", 
            "maximum_version_col": ""
        }, 
        {
            "software_type_col": "Browser", 
            "minimum_version_col": "9.0", 
            "software_name_col": "Internet Explorer", 
            "maximum_version_col": ""
        }, 
        {
            "software_type_col": "Browser", 
            "minimum_version_col": "13.1", 
            "software_name_col": "Edge", 
            "maximum_version_col": ""
        }
    ], 
    "_content_type_technical_location": "text/plain", 
    "_content_type_rights": "text/html", 
    "_directly_provided": [
        "Products.CMFEditions.interfaces.IVersioned"
    ], 
    "parent_uid": "4a16a746d8d94c67b1cd15a83a556ab8", 
    "excludeFromNav": false, 
    "_content_type_unique_identifier": "text/plain", 
    "allowDiscussion": false, 
    "metadata_contributor_list": [], 
    "locallyAllowedTypes": [
        "OCWImage", 
        "CourseSection", 
        "OCWExtFile", 
        "OCWFile"
    ], 
    "_content_type_text": "text/html", 
    "ad_type": "HOUSE", 
    "creation_date": "2010/05/14 13:04:29.127 GMT-4", 
    "aggregationlevel": 3, 
    "duration": "", 
    "immediatelyAddableTypes": [
        "OCWImage", 
        "CourseSection", 
        "OCWExtFile", 
        "OCWFile"
    ], 
    "subject": [], 
    "_content_type_short_page_title": "text/plain", 
    "effectiveDate": "2012/02/13 01:57:38.127 US/Eastern", 
    "parent_module": "4a16a746d8d94c67b1cd15a83a556ab8", 
    "is_mathml_document": false, 
    "bottomtext": "", 
    "short_page_title": "Assignments", 
    "section_identifier": null, 
    "related_mit_links": "", 
    "_content_type_ad_type": "text/plain", 
    "_layout": "custom_view", 
    "_workflow_history": {
        "page_workflow": [
            {
                "action": null, 
                "review_state": "waiting_for_authoring", 
                "actor": "admin", 
                "comments": "", 
                "time": "2010/05/14 13:04:29.133 GMT-4"
            }, 
            {
                "action": "approve_to_staging", 
                "review_state": "ready_for_staging", 
                "comments": "", 
                "actor": "admin", 
                "time": "2010/05/16 11:45:08.728 GMT-4"
            }, 
            {
                "action": "decline", 
                "review_state": "waiting_for_authoring", 
                "actor": "abohra", 
                "comments": "", 
                "time": "2012/02/13 01:57:38.271 US/Eastern"
            }, 
            {
                "action": "approve_to_staging", 
                "review_state": "ready_for_staging", 
                "comments": "", 
                "actor": "abohra", 
                "time": "2012/02/13 02:52:05.477 US/Eastern"
            }, 
            {
                "action": "decline", 
                "review_state": "waiting_for_authoring", 
                "actor": "vsin44", 
                "comments": "", 
                "time": "2012/06/06 23:57:48.567 GMT-4"
            }, 
            {
                "action": "approve_to_staging", 
                "review_state": "ready_for_staging", 
                "comments": "", 
                "actor": "vsin44", 
                "time": "2012/06/07 00:01:14.858 GMT-4"
            }, 
            {
                "action": "decline", 
                "review_state": "waiting_for_authoring", 
                "actor": "vsin44", 
                "comments": "", 
                "time": "2012/06/07 03:40:14.389 GMT-4"
            }, 
            {
                "action": "approve_to_staging", 
                "review_state": "ready_for_staging", 
                "actor": "vsin44", 
                "comments": "", 
                "time": "2012/06/07 03:40:45.180 GMT-4"
            }
        ]
    }, 
    "_classname": "CourseSection", 
    "_content_type_materialtype": "text/plain", 
    "_userdefined_roles": [], 
    "publisher": "MIT OpenCourseWare", 
    "nextPreviousEnabled": false, 
    "language": "", 
    "url_rewrite_patterns": [], 
    "widgets_features": [], 
    "category_features": [], 
    "firstTimeEdit": true, 
    "feature_requirements": [], 
    "list_in_left_nav": false, 
    "short_name_tlp": "Assignments", 
    "expirationDate": "None", 
    "_content_type_id": "text/plain", 
    "contributor_list": [
        {}
    ], 
    "is_media_gallery": false, 
    "contributors": [], 
    "_gopip": 5, 
    "_content_type_title": "text/plain", 
    "course_linking": [], 
    "_atrefs": {
        "BelongsTo": [
            "4a16a746d8d94c67b1cd15a83a556ab8"
        ], 
        "isReferencing": [
            "c336ee9d28df67d4541453acea808bd3", 
            "6832bc8959d3cf094daa3ff0db0dfa43", 
            "1c211eed4e5995d42c701ee93de0a06e", 
            "22b7b1e0abd9440cbf1162dcaac3b1f0", 
            "497b8324ab958f3470f6cf91de531114", 
            "773fd096b64bf7ba4b496e1857ad3e00", 
            "ee19a1342a38393be325ef17f64fb912", 
            "ed83a353dbf1eba4734a4512bf60a68b", 
            "f4f8c1e6eeda8a71cc48618544e3c0e7", 
            "33ad43496c8f656d0d96610efcbf28bd", 
            "8f044de630ca01eb48394643a83a6784", 
            "046c37cfc429863034cbed20884ac4f5", 
            "5f64e1d0404db05e04b1e9dd4269f0cd", 
            "560dc098d9204124b4c2dcff49fba9e1", 
            "5f842ed7ac257f95aa7b382ab0c79da9", 
            "9f1f34322d040d8ee01cb057c9c380e7", 
            "2aa5a9f0c064677fdb79b8becdbf2fc5", 
            "40bd714ddc8b64faa4be7053ce61a9eb", 
            "1e2dff536bc156dd3f2f903885c3ff4c", 
            "63900e60a0c16bf3ba082fec7f6d1ffc", 
            "7a5b7daed8720a358b3f463a708657ba", 
            "3caadf1b9ffdfc60318187f88a0a0290"
        ]
    }, 
    "other_platform_requirements": "", 
    "license": "http://creativecommons.org/licenses/by-nc-sa/3.0/us/", 
    "rights": "This site (c) Massachusetts Institute of Technology 2010.  Content within individual courses is (c) by the individual authors unless otherwise noted. The Massachusetts Institute of Technology is providing this Work (as defined below) under the terms of this Creative Commons public license (\"CCPL\" or \"license\") unless otherwise noted. The Work is protected by copyright and/or other applicable law. Any use of the work other than as authorized under this license is prohibited. By exercising any of the rights to the Work provided here, You (as defined below) accept and agree to be bound by the terms of this license. The Licensor, the Massachusetts Institute of Technology, grants You the rights contained here in consideration of Your acceptance of such terms and conditions.", 
    "hide_Page_title": null, 
    "_defaultpage": "", 
    "tcATmit_subject_tags": [], 
    "features_tracking": [], 
    "ad_champion_text": "", 
    "has_inline_embed": false, 
    "unique_identifier": "https://ocw.mit.edu/courses/music-and-theater-arts/21m-301-harmony-and-counterpoint-i-spring-2005/assignments", 
    "is_image_gallery": false, 
    "id": "assignments", 
    "materialtype": "Other", 
    "_type": "CourseSection", 
    "description": "This section reflects a selection of assignments used in the course.", 
    "course_identifier": "https://ocw.mit.edu/courses/music-and-theater-arts/21m-301-harmony-and-counterpoint-i-spring-2005", 
    "_content_type_publisher": "text/plain", 
    "tcATmit_instructional_tags": [], 
    "_content_type": "text/html", 
    "creators": [
        "admin"
    ], 
    "modification_date": "2016/09/24 08:09:44.752 GMT-4", 
    "always_publish": false, 
    "_content_type_description": "text/plain", 
    "_owner": "admin", 
    "_permissions": {
        "Change portal events": {
            "acquire": false, 
            "roles": [
                "Editor", 
                "Manager", 
                "MetadataEditor", 
                "Owner"
            ]
        }, 
        "Modify portal content": {
            "acquire": false, 
            "roles": [
                "Manager", 
                "MetadataEditor"
            ]
        }, 
        "Access contents information": {
            "acquire": false, 
            "roles": [
                "Authenticated"
            ]
        }, 
        "List folder contents": {
            "acquire": false, 
            "roles": [
                "Editor", 
                "Manager", 
                "MetadataEditor", 
                "Owner"
            ]
        }, 
        "View": {
            "acquire": false, 
            "roles": [
                "Authenticated"
            ]
        }
    }, 
    "_properties": [
        [
            "title", 
            "Assignments", 
            "string"
        ]
    ], 
    "_id": "assignments", 
    "courselist_features": [], 
    "_content_type_short_name_tlp": "text/plain", 
    "_path": "/Plone/courses/music-and-theater-arts/21m-301-harmony-and-counterpoint-i-spring-2005/assignments"
}