{
    "rsi_top_html_area": "", 
    "text": "<div class=\"labwarning\">\r\n<p class=\"title\"><strong>WARNING NOTICE</strong></p>\r\n<p>The experiments described in these materials are potentially hazardous.  Among other things, the experiments should include the following safety measures: a high level of safety training, special facilities and equipment, the use of proper personal protective equipment, and supervision by appropriate individuals. You bear the sole responsibility, liability, and risk for the implementation of such safety procedures and measures. MIT and Dow shall have no responsibility, liability, or risk for the content or implementation of any of the material presented. <a href=\"./resolveuid/93820a56046423e59ec92fa37666f5e9\">Legal Notice</a></p>\r\n</div>\r\n<p>&nbsp;</p>", 
    "_content_type_license": "text/plain", 
    "_uid": "f8161c3707e2fd9e3953a01d9232e561", 
    "pg_section": "", 
    "title": "Let It Snow", 
    "_ac_local_roles": {
        "Kcanavan": [
            "Owner"
        ]
    }, 
    "_content_type_about_this_resource_text": "text/html", 
    "template_type": "Tabbed", 
    "location": "", 
    "ad_department": "", 
    "_content_type_course_identifier": "text/plain", 
    "_atbrefs": {}, 
    "constrainTypesMode": 0, 
    "_content_type_section_identifier": "text/plain", 
    "technical_location": "https://ocw.mit.edu/high-school/chemistry/demonstrations/videos/let-it-snow", 
    "software_requirements": [
        {
            "software_type_col": "Browser", 
            "minimum_version_col": "6.0", 
            "software_name_col": "Internet Explorer", 
            "maximum_version_col": ""
        }, 
        {
            "software_type_col": "Browser", 
            "minimum_version_col": "3.0", 
            "software_name_col": "Mozilla Firefox", 
            "maximum_version_col": ""
        }, 
        {
            "software_type_col": "Browser", 
            "minimum_version_col": "4.0", 
            "software_name_col": "Safari", 
            "maximum_version_col": ""
        }
    ], 
    "_content_type_technical_location": "text/plain", 
    "start_time": "", 
    "_content_type_rights": "text/html", 
    "_directly_provided": [
        "Products.CMFEditions.interfaces.IVersioned"
    ], 
    "pg_tlp": "", 
    "media_rights": "(CC BY-NC-SA)", 
    "parent_uid": "d9a67c3fee3a44a67ef5b123920ab682", 
    "excludeFromNav": false, 
    "about_this_resource_text": "<p>Discover what disposable diapers and fake snow have in common.</p>  <p><em>Teaching Notes:</em> Superabsorbent Polymers (<a href=\"./resolveuid/4d222e598851fdc704c54a013a0884a1\">PDF</a>)</p> <p><em>Chemistry Magician:</em> Dr. John Dolhun</p> <p>&nbsp;</p> <p>You can also <a href=\"http://techtv.mit.edu/videos/21344-let-it-snow\">view this video on TechTV</a>.</p>", 
    "_content_type_unique_identifier": "text/plain", 
    "end_time": "", 
    "allowDiscussion": false, 
    "_content_type_materialtype": "text/plain", 
    "locallyAllowedTypes": [
        "OCWImage", 
        "OCWFile", 
        "OCWMediaAsset"
    ], 
    "ad_slot_c": "", 
    "_content_type_text": "text/html", 
    "optional_tab_title": "", 
    "ad_type": "HOUSE", 
    "creation_date": "2012/11/06 13:43:06.488 US/Eastern", 
    "aggregationlevel": 2, 
    "bottom_html_area": "", 
    "duration": "", 
    "immediatelyAddableTypes": [
        "OCWImage", 
        "OCWFile", 
        "OCWMediaAsset"
    ], 
    "_content_type_template_type": "text/plain", 
    "subject": [], 
    "_content_type_short_page_title": "text/plain", 
    "effectiveDate": "2012/11/06 13:44:46.380 US/Eastern", 
    "parent_module": "da5043f5acaf2d713d1216ce1cf5cc89", 
    "is_mathml_document": false, 
    "bottomtext": "", 
    "short_page_title": "Let It Snow", 
    "section_identifier": "https://ocw.mit.edu/high-school/chemistry/demonstrations", 
    "show_captions_outside_player": false, 
    "related_mit_links": "", 
    "_content_type_ad_type": "text/plain", 
    "_layout": "custom_view", 
    "_workflow_history": {
        "page_workflow": [
            {
                "action": null, 
                "review_state": "waiting_for_authoring", 
                "comments": "", 
                "actor": "Kcanavan", 
                "time": "2012/11/06 13:43:06.500 US/Eastern"
            }, 
            {
                "action": "approve_to_staging", 
                "review_state": "ready_for_staging", 
                "actor": "Kcanavan", 
                "comments": "", 
                "time": "2012/11/06 13:44:46.436 US/Eastern"
            }, 
            {
                "action": "decline_to_qa", 
                "review_state": "waiting_for_qa", 
                "comments": "", 
                "actor": "Jcplayer", 
                "time": "2017/05/09 14:54:01.223 GMT-4"
            }, 
            {
                "action": "approve_to_staging", 
                "review_state": "ready_for_staging", 
                "actor": "Jcplayer", 
                "comments": "", 
                "time": "2017/05/09 14:54:27.176 GMT-4"
            }
        ]
    }, 
    "pg_area": "", 
    "_content_type_transcript": "text/html", 
    "metadata_contributor_list": [], 
    "_userdefined_roles": [], 
    "_content_type_inline_embed_id": "text/plain", 
    "publisher": "MIT OpenCourseWare", 
    "nextPreviousEnabled": false, 
    "_gopip": 9, 
    "license": "http://creativecommons.org/licenses/by-nc-sa/3.0/us/", 
    "url_rewrite_patterns": [], 
    "widgets_features": [], 
    "category_features": [], 
    "resource_contributor_list": [], 
    "show_jump_back_5_seconds_button": false, 
    "firstTimeEdit": false, 
    "_content_type_media_rights": "text/plain", 
    "feature_requirements": [], 
    "list_in_left_nav": false, 
    "inline_embed_id": "49738441letitsnow12937777", 
    "_classname": "HFHMediaResource", 
    "short_name_tlp": "", 
    "expirationDate": "None", 
    "_content_type_id": "text/plain", 
    "ad_slot_b": "", 
    "contributor_list": [], 
    "is_media_gallery": false, 
    "contributors": [], 
    "media_locations": [], 
    "_content_type_media_resource_type": "text/plain", 
    "ad_slot_a": "", 
    "_content_type_title": "text/plain", 
    "subtitle_exemption": "None", 
    "_content_type": "text/html", 
    "resource_index_text": "", 
    "_atrefs": {
        "BelongsTo": [
            "da5043f5acaf2d713d1216ce1cf5cc89"
        ], 
        "isReferencing": [
            "4d222e598851fdc704c54a013a0884a1", 
            "93820a56046423e59ec92fa37666f5e9"
        ]
    }, 
    "media_slides": [], 
    "other_platform_requirements": "", 
    "language": "", 
    "rights": "This site (c) Massachusetts Institute of Technology 2012.  Content within individual courses is (c) by the individual authors unless otherwise noted. The Massachusetts Institute of Technology is providing this Work (as defined below) under the terms of this Creative Commons public license (\"CCPL\" or \"license\") unless otherwise noted. The Work is protected by copyright and/or other applicable law. Any use of the work other than as authorized under this license is prohibited. By exercising any of the rights to the Work provided here, You (as defined below) accept and agree to be bound by the terms of this license. The Licensor, the Massachusetts Institute of Technology, grants You the rights contained here in consideration of Your acceptance of such terms and conditions.", 
    "hide_Page_title": false, 
    "_defaultpage": "", 
    "related_resources_text": "", 
    "tcATmit_subject_tags": [], 
    "features_tracking": [], 
    "ad_champion_text": "", 
    "has_inline_embed": false, 
    "unique_identifier": "https://ocw.mit.edu/high-school/chemistry/demonstrations/videos/let-it-snow", 
    "link_text": "Let It Snow", 
    "is_image_gallery": false, 
    "id": "let-it-snow", 
    "_content_type_subtitle_exemption": "text/plain", 
    "materialtype": "Other", 
    "optional_text": "", 
    "_type": "HFHMediaResource", 
    "description": "", 
    "media_resource_type": "Video", 
    "course_identifier": "https://ocw.mit.edu/high-school/chemistry", 
    "_content_type_publisher": "text/plain", 
    "tcATmit_instructional_tags": [], 
    "transcript": "<p><span m='7340'>JESSICA HARROP:</span> <span m='7500'>Hi,</span> <span m='7980'>I'm</span> <span m='8060'>Jessica.</span> <span m='8540'>And</span> <span m='8630'>I'm</span> <span m='8690'>going</span> <span m='8810'>to</span> <span m='8870'>be</span> <span m='8960'>talking</span> <span m='9290'>about</span> <span m='9530'>a</span> <span m='9590'>chemical</span> <span m='9980'>demonstration</span> <span m='10700'>today</span> <span m='11090'>that</span> <span m='11300'>I</span> <span m='11510'>like</span> <span m='11750'>to</span> <span m='11840'>call</span> <span m='12470'>let</span> <span m='12710'>it</span> <span m='12860'>snow.</span> <span m='14670'>MIT's</span> <span m='15220'>Dr.</span> <span m='15590'>John</span> <span m='16010'>Dolhun--</span> <span m='17210'>here</span> <span m='17480'>he</span> <span m='17600'>is--</span> <span m='18190'>and</span> <span m='18400'>his</span> <span m='18510'>assistant,</span> <span m='18980'>Arielle,</span> <span m='19460'>are</span> <span m='19550'>going</span> <span m='19820'>to</span> <span m='19880'>perform</span> <span m='20450'>two</span> <span m='20930'>magic</span> <span m='21350'>tricks</span> <span m='21770'>involving</span> <span m='22220'>super</span> <span m='22670'>absorbent</span> <span m='23180'>polymers.</span> <span m='24260'>Let's</span> <span m='24500'>watch</span> <span m='24860'>as</span> <span m='24920'>they</span> <span m='25070'>show</span> <span m='25280'>us</span> <span m='25500'>the</span> <span m='25520'>first</span> <span m='25820'>one</span> <span m='26120'>at</span> <span m='26240'>the</span> <span m='26330'>Cambridge</span> <span m='26960'>Science</span> <span m='27500'>Festival.</span> </p><p><span m='28655'>[WHOOSH]</span> </p><p><span m='29000'>JOHN DOLHUN:</span> <span m='29045'>And</span> <span m='29090'>what</span> <span m='29240'>I'm</span> <span m='29390'>going</span> <span m='29600'>to</span> <span m='29720'>do</span> <span m='29930'>is</span> <span m='30080'>I'm</span> <span m='30230'>going</span> <span m='30410'>to</span> <span m='30500'>pour</span> <span m='30770'>some</span> <span m='31040'>water</span> <span m='31490'>into</span> <span m='31790'>the</span> <span m='31910'>beaker</span> <span m='32299'>that</span> <span m='32500'>she's</span> <span m='32750'>holding.</span> <span m='34400'>And</span> <span m='34520'>you</span> <span m='34820'>keep</span> <span m='35120'>your</span> <span m='35270'>eyes</span> <span m='35660'>on</span> <span m='35900'>the</span> <span m='35990'>beaker.</span> <span m='37880'>Bring</span> <span m='38090'>it</span> <span m='38180'>down</span> <span m='38420'>just</span> <span m='38660'>a bit.</span> <span m='40220'>Hold</span> <span m='40400'>it</span> <span m='40680'>firmly.</span> <span m='47700'>Turn</span> <span m='47940'>it</span> <span m='48070'>to--</span> <span m='51710'>we</span> <span m='51860'>are</span> <span m='51950'>making</span> <span m='52400'>snow.</span> <span m='54200'>We're</span> <span m='54320'>making</span> <span m='54680'>snow</span> <span m='55010'>today,</span> <span m='55290'>Arielle.</span> </p><p><span m='56015'>ARIELLE LUBIN:</span> <span m='56257'>Oh,</span> <span m='56500'>boy.</span> <span m='59900'>It's</span> <span m='60020'>so</span> <span m='60230'>cold</span> <span m='60560'>and</span> <span m='60710'>wet.</span> <span m='61070'>It's</span> <span m='61220'>just</span> <span m='61400'>like</span> <span m='61580'>real</span> <span m='61770'>snow.</span> <span m='62280'>Look!</span> </p><p><span m='65472'>[WHOOSH]</span> </p><p><span m='65930'>JESSICA HARROP:</span> <span m='66035'>So</span> <span m='66140'>what</span> <span m='66320'>happened?</span> <span m='67280'>Well,</span> <span m='67640'>Arielle</span> <span m='68060'>was</span> <span m='68210'>holding</span> <span m='68510'>a</span> <span m='68570'>beaker</span> <span m='68990'>containing</span> <span m='69440'>some</span> <span m='69590'>sodium</span> <span m='69910'>polyacrylate,</span> <span m='71510'>which</span> <span m='71780'>is</span> <span m='72170'>a</span> <span m='72260'>polymer.</span> <span m='73820'>Now</span> <span m='74300'>a polymer</span> <span m='74420'>is a</span> <span m='74510'>big</span> <span m='74810'>molecule</span> <span m='75380'>that's</span> <span m='75560'>a</span> <span m='75620'>chain</span> <span m='76220'>of</span> <span m='76610'>repeating</span> <span m='77450'>units.</span> <span m='79350'>This</span> <span m='79580'>is</span> <span m='79790'>the</span> <span m='79910'>unit.</span> <span m='85090'>And</span> <span m='85210'>this</span> <span m='85360'>is</span> <span m='85450'>what</span> <span m='85570'>it</span> <span m='85660'>looks</span> <span m='85900'>like</span> <span m='86230'>in</span> <span m='86380'>a</span> <span m='86440'>chain.</span> </p><p><span m='100910'>Now,</span> <span m='100970'>different</span> <span m='101300'>chains</span> <span m='101720'>are</span> <span m='101810'>held</span> <span m='102020'>together</span> <span m='102410'>by</span> <span m='102650'>cross</span> <span m='103190'>links.</span> <span m='105700'>The</span> <span m='106360'>et cetera</span> <span m='106910'>just</span> <span m='107090'>means</span> <span m='107360'>that</span> <span m='107480'>this</span> <span m='107630'>could</span> <span m='107780'>be</span> <span m='107930'>thousands</span> <span m='108620'>of</span> <span m='108710'>carbons</span> <span m='109280'>long.</span> <span m='109760'>This</span> <span m='109910'>is</span> <span m='110000'>just</span> <span m='110180'>a</span> <span m='110240'>small</span> <span m='110600'>part</span> <span m='111080'>of</span> <span m='111530'>the</span> <span m='111620'>chain</span> <span m='112160'>and</span> <span m='112280'>the</span> <span m='112370'>polymer.</span> <span m='113880'>Now</span> <span m='113940'>when</span> <span m='114110'>water</span> <span m='114500'>is</span> <span m='114650'>added</span> <span m='114950'>to</span> <span m='115070'>the</span> <span m='115190'>polymer,</span> <span m='115940'>it</span> <span m='116090'>wants</span> <span m='116390'>to</span> <span m='116540'>rush</span> <span m='117020'>into</span> <span m='117290'>the</span> <span m='117380'>material</span> <span m='118010'>because</span> <span m='118280'>of</span> <span m='118370'>the</span> <span m='118460'>presence</span> <span m='119000'>of</span> <span m='119120'>so</span> <span m='119330'>many</span> <span m='119540'>sodium</span> <span m='120590'>and</span> <span m='120860'>carboxylate</span> <span m='121970'>ions.</span> </p><p><span m='146950'>The</span> <span m='147070'>water</span> <span m='147700'>displaces</span> <span m='148300'>the</span> <span m='148420'>sodium</span> <span m='148930'>ions</span> <span m='149710'>leaving</span> <span m='150040'>negatively</span> <span m='150640'>charged</span> <span m='151180'>carboxylic</span> <span m='152020'>ions.</span> <span m='152980'>These</span> <span m='153190'>repel</span> <span m='153610'>each</span> <span m='153790'>other</span> <span m='154480'>and</span> <span m='154590'>the</span> <span m='154660'>repulsion</span> <span m='155230'>causes</span> <span m='155590'>the</span> <span m='155710'>polymer,</span> <span m='156250'>which</span> <span m='156460'>starts</span> <span m='156790'>out</span> <span m='157030'>wound</span> <span m='157480'>together,</span> <span m='158050'>to</span> <span m='158290'>unwind,</span> <span m='158950'>swell,</span> <span m='159580'>and</span> <span m='159790'>stretch.</span> <span m='161350'>The</span> <span m='161440'>cross</span> <span m='161860'>lengths,</span> <span m='162370'>which</span> <span m='162610'>connect</span> <span m='163090'>the</span> <span m='163180'>polymer</span> <span m='163540'>chains</span> <span m='163900'>together,</span> <span m='164680'>prevent</span> <span m='165130'>them</span> <span m='165370'>from</span> <span m='165550'>breaking</span> <span m='165970'>apart</span> <span m='166480'>in</span> <span m='166660'>the</span> <span m='166780'>water.</span> <span m='167890'>And</span> <span m='168040'>the</span> <span m='168130'>fake</span> <span m='168430'>snow</span> <span m='168820'>that's</span> <span m='169060'>created</span> <span m='169570'>is</span> <span m='169690'>the</span> <span m='169810'>same</span> <span m='170200'>snow</span> <span m='170530'>they</span> <span m='170680'>use</span> <span m='171070'>in</span> <span m='171220'>Hollywood</span> <span m='171850'>movie</span> <span m='172120'>sets.</span> <span m='173110'>Now,</span> <span m='173260'>let's</span> <span m='173500'>watch</span> <span m='173770'>Dr.</span> <span m='174070'>Dolhun</span> <span m='174400'>and</span> <span m='174520'>Arielle</span> <span m='174940'>turn</span> <span m='175220'>this</span> <span m='175540'>same</span> <span m='175930'>polymer</span> <span m='176650'>into</span> <span m='176830'>something</span> <span m='177220'>totally</span> <span m='177670'>different.</span> </p><p><span m='178570'>[WHOOSH]</span> </p><p><span m='180250'>JOHN DOLHUN:</span> <span m='180340'>OK,</span> <span m='180430'>so</span> <span m='180640'>I've</span> <span m='180790'>got</span> <span m='181180'>another</span> <span m='181750'>beaker</span> <span m='182150'>she's</span> <span m='182410'>holding.</span> <span m='183250'>And</span> <span m='183610'>I'm</span> <span m='183710'>going</span> <span m='183850'>to</span> <span m='183910'>pour</span> <span m='184360'>some</span> <span m='184660'>water</span> <span m='185020'>in</span> <span m='185140'>it</span> <span m='186310'>and</span> <span m='186820'>observe.</span> <span m='197310'>Turn</span> <span m='197550'>it</span> <span m='197640'>over,</span> <span m='198030'>Arielle.</span> <span m='201550'>You</span> <span m='201640'>don't</span> <span m='201850'>have</span> <span m='202000'>to</span> <span m='202120'>hold</span> <span m='202330'>your</span> <span m='202480'>hand</span> <span m='202750'>under</span> <span m='202960'>the</span> <span m='203080'>hole.</span> </p><p><span m='206740'>That's</span> <span m='206980'>the</span> <span m='207100'>same</span> <span m='207370'>polymer.</span> <span m='208630'>Only</span> <span m='208930'>this</span> <span m='209230'>time</span> <span m='209650'>the</span> <span m='209770'>polymer</span> <span m='210175'>is</span> <span m='210580'>not</span> <span m='211090'>as</span> <span m='211300'>cross-linked</span> <span m='212260'>as</span> <span m='212470'>the</span> <span m='212590'>first</span> <span m='212980'>one.</span> <span m='213760'>It's</span> <span m='213970'>more</span> <span m='214240'>of</span> <span m='214330'>the</span> <span m='214460'>straight</span> <span m='214840'>chain</span> <span m='215200'>polymer.</span> <span m='216500'>And</span> <span m='216700'>it</span> <span m='216910'>can</span> <span m='217090'>absorb</span> <span m='217930'>many</span> <span m='218290'>more</span> <span m='218560'>times</span> <span m='219750'>its</span> <span m='220390'>weight</span> <span m='220780'>in</span> <span m='220960'>water.</span> <span m='221800'>You'll</span> <span m='221980'>recognize</span> <span m='222700'>this.</span> <span m='223120'>This is</span> <span m='223300'>the</span> <span m='223450'>diaper</span> <span m='223930'>polymer.</span> <span m='226020'>You</span> <span m='226390'>know</span> <span m='226825'>now,</span> <span m='227260'>right?</span> </p><p><span m='228462'>[WHOOSH]</span> </p><p><span m='228880'>JESSICA HARROP:</span> <span m='228955'>So</span> <span m='229030'>Dr.</span> <span m='229360'>Dolhun</span> <span m='229690'>uses</span> <span m='230050'>the</span> <span m='230140'>same</span> <span m='230800'>polymer</span> <span m='231550'>with</span> <span m='231700'>a</span> <span m='231760'>different</span> <span m='232150'>amount</span> <span m='232540'>of</span> <span m='232690'>cross</span> <span m='233230'>linking.</span> <span m='234040'>The</span> <span m='234160'>sodium</span> <span m='234580'>polyacrylate</span> <span m='235330'>that</span> <span m='235420'>makes</span> <span m='235750'>diaper</span> <span m='236110'>gel</span> <span m='236440'>has</span> <span m='236650'>fewer</span> <span m='237280'>cross-links</span> <span m='238210'>and</span> <span m='238330'>therefore</span> <span m='238630'>can</span> <span m='238750'>absorb</span> <span m='239230'>more</span> <span m='239560'>water</span> <span m='239950'>than</span> <span m='240100'>the</span> <span m='240190'>sodium</span> <span m='240730'>polyacrylate</span> <span m='241480'>that</span> <span m='241600'>turned</span> <span m='242050'>into</span> <span m='242350'>snow.</span> <span m='243890'>Overall,</span> <span m='244240'>this</span> <span m='244390'>polymer</span> <span m='244810'>can</span> <span m='244930'>absorb</span> <span m='245380'>up</span> <span m='245530'>to</span> <span m='245710'>800</span> <span m='246370'>times</span> <span m='246820'>its</span> <span m='247000'>own</span> <span m='247300'>weight</span> <span m='247600'>in</span> <span m='247750'>distilled</span> <span m='248200'>water</span> <span m='248980'>and</span> <span m='249100'>about</span> <span m='249340'>30</span> <span m='249760'>times</span> <span m='250120'>its</span> <span m='250300'>own</span> <span m='250510'>weight</span> <span m='250870'>in</span> <span m='251020'>urine.</span> <span m='252050'>It's</span> <span m='252100'>the</span> <span m='252220'>main</span> <span m='252430'>ingredient</span> <span m='252970'>in</span> <span m='253090'>baby</span> <span m='253390'>diapers</span> <span m='253900'>used</span> <span m='254200'>to</span> <span m='254290'>keep</span> <span m='254590'>the</span> <span m='254680'>baby</span> <span m='255010'>dry.</span> </p><p><span m='255715'>[MUSIC PLAYING]</span> </p><p><span m='255970'>Hope</span> <span m='256149'>you</span> <span m='256209'>enjoyed</span> <span m='256450'>the</span> <span m='256510'>video</span> <span m='257019'>and</span> <span m='257140'>I'll</span> <span m='257230'>see</span> <span m='257410'>you</span> <span m='257470'>next</span> <span m='257709'>time.</span> </p>", 
    "_content_type_link_text": "text/plain", 
    "course_linking": [], 
    "_id": "let-it-snow", 
    "modification_date": "2017/05/09 14:54:27.133 GMT-4", 
    "media_index": [], 
    "always_publish": false, 
    "_owner": null, 
    "_permissions": {
        "Change portal events": {
            "acquire": false, 
            "roles": [
                "Editor", 
                "Manager", 
                "MetadataEditor", 
                "Owner"
            ]
        }, 
        "Modify portal content": {
            "acquire": false, 
            "roles": [
                "Manager", 
                "MetadataEditor"
            ]
        }, 
        "Access contents information": {
            "acquire": false, 
            "roles": [
                "Authenticated"
            ]
        }, 
        "List folder contents": {
            "acquire": false, 
            "roles": [
                "Editor", 
                "Manager", 
                "MetadataEditor", 
                "Owner"
            ]
        }, 
        "View": {
            "acquire": false, 
            "roles": [
                "Authenticated"
            ]
        }
    }, 
    "_properties": [
        [
            "title", 
            "Let It Snow", 
            "string"
        ]
    ], 
    "creators": [
        "Kcanavan"
    ], 
    "courselist_features": [], 
    "_path": "/Plone/high-school/chemistry/demonstrations/videos/let-it-snow"
}