{
    "tcATmit_subject_tags": [], 
    "features_tracking": [], 
    "widgets_features": [], 
    "ad_slot_b": "", 
    "ad_slot_c": "", 
    "_content_type_publisher": "text/plain", 
    "_content_type_text": "text/html", 
    "unique_identifier": "https://ocw.mit.edu/high-school/chemistry/do-not-publish/inspirational-chemistry/index.htm", 
    "text": "<p><img width=\"533\" height=\"200\" alt=\"Professors Jacquin Niles, Liz Nolan, and Katharina Ribbeck.\" src=\"./resolveuid/a2d2b74ad48037895cd1c362e3199473\" /></p>\r\n<p class=\"instruction\">Professors Jacquin Niles, Liz Nolan, and Katharina Ribbeck.</p>\r\n<p>This collection of videos highlights the inspiring chemistry research done by three professors at MIT. First, <a href=\"./resolveuid/c61694c2cd81e4481015fe72dc45c40e\">Professor Jacquin Niles</a> discusses growing up in the small Caribbean nation of Anguilla and how that inspired him to study the cause and prevention of malaria. Next, <a href=\"./resolveuid/ad3cec9a500a226b30dbdf82e6f70fb5\">Professor Liz Nolan</a> researches the ways in which bacteria interact with the human body. Finally, <a href=\"./resolveuid/4ab5b3483d46213f60bd3cca7ba510ac\">Professor Katharina Ribbeck</a> explains the ways in which mucus, a type of slime, might be able to predict preterm pregnancy.</p>\r\n<p>&nbsp;</p>", 
    "contributors": [], 
    "_content_type_id": "text/plain", 
    "_content_type_license": "text/plain", 
    "ad_type": "HOUSE", 
    "creation_date": "2013/02/06 06:07:19.240 US/Eastern", 
    "aggregationlevel": 4, 
    "_uid": "cbb888b1c83672eef8de5e52437d8d55", 
    "expirationDate": "None", 
    "_content_type_materialtype": "text/plain", 
    "id": "index.htm", 
    "is_media_gallery": false, 
    "subject": [], 
    "pg_section": "", 
    "related_mit_links": "", 
    "body_text_1": "", 
    "effectiveDate": "2013/02/06 06:53:59.233 US/Eastern", 
    "title": "Inspirational Chemistry", 
    "parent_module": "5c82a77734d090b7b2629d3b474408ca", 
    "_content_type_ad_type": "text/plain", 
    "_userdefined_roles": [], 
    "_gopip": 0, 
    "location": "", 
    "bottomtext": "", 
    "ad_department": "", 
    "_content_type_title": "text/plain", 
    "excludeFromNav": false, 
    "_atbrefs": {}, 
    "_classname": "HFHDefaultPage", 
    "_content_type": "text/html", 
    "_type": "HFHDefaultPage", 
    "technical_location": "https://ocw.mit.edu/high-school/chemistry/do-not-publish/inspirational-chemistry/index.htm", 
    "description": "", 
    "software_requirements": [
        {
            "software_type_col": "Browser", 
            "minimum_version_col": "6.0", 
            "software_name_col": "Internet Explorer", 
            "maximum_version_col": ""
        }, 
        {
            "software_type_col": "Browser", 
            "minimum_version_col": "3.0", 
            "software_name_col": "Mozilla Firefox", 
            "maximum_version_col": ""
        }, 
        {
            "software_type_col": "Browser", 
            "minimum_version_col": "4.0", 
            "software_name_col": "Safari", 
            "maximum_version_col": ""
        }
    ], 
    "_atrefs": {
        "BelongsTo": [
            "5c82a77734d090b7b2629d3b474408ca"
        ], 
        "isReferencing": []
    }, 
    "_content_type_technical_location": "text/plain", 
    "_layout": "custom_view", 
    "_properties": [
        [
            "title", 
            "Inspirational Chemistry", 
            "string"
        ]
    ], 
    "_workflow_history": {
        "page_workflow": [
            {
                "action": null, 
                "review_state": "waiting_for_authoring", 
                "comments": "", 
                "actor": "Kcanavan", 
                "time": "2013/02/06 06:07:19.276 US/Eastern"
            }, 
            {
                "action": "approve_to_qa", 
                "review_state": "waiting_for_qa", 
                "actor": "Kcanavan", 
                "comments": "", 
                "time": "2013/02/06 06:53:59.316 US/Eastern"
            }, 
            {
                "action": "approve_to_staging", 
                "review_state": "ready_for_staging", 
                "comments": "", 
                "actor": "Kcanavan", 
                "time": "2013/02/06 10:21:58.849 US/Eastern"
            }, 
            {
                "action": "decline_to_qa", 
                "review_state": "waiting_for_qa", 
                "actor": "Kcanavan", 
                "comments": "", 
                "time": "2013/02/14 12:57:12.742 US/Eastern"
            }, 
            {
                "action": "decline", 
                "review_state": "waiting_for_authoring", 
                "actor": "Kcanavan", 
                "comments": "", 
                "time": "2013/02/14 13:09:08.738 US/Eastern"
            }, 
            {
                "action": "approve_to_staging", 
                "review_state": "ready_for_staging", 
                "actor": "Kcanavan", 
                "comments": "", 
                "time": "2013/02/14 13:09:36.506 US/Eastern"
            }, 
            {
                "action": "decline_to_qa", 
                "review_state": "waiting_for_qa", 
                "comments": "", 
                "actor": "Jcplayer", 
                "time": "2015/02/03 15:21:35.885 US/Eastern"
            }, 
            {
                "action": "approve_to_staging", 
                "review_state": "ready_for_staging", 
                "actor": "Jcplayer", 
                "comments": "", 
                "time": "2015/02/03 15:21:38.810 US/Eastern"
            }
        ]
    }, 
    "_content_type_rights": "text/html", 
    "pg_area": "", 
    "_directly_provided": [], 
    "pg_tlp": "", 
    "has_inline_embed": false, 
    "metadata_contributor_list": [], 
    "tcATmit_instructional_tags": [], 
    "parent_uid": "5c82a77734d090b7b2629d3b474408ca", 
    "modification_date": "2015/02/03 15:21:38.760 US/Eastern", 
    "course_linking": [], 
    "publisher": "MIT OpenCourseWare", 
    "_id": "index.htm", 
    "language": "", 
    "license": "http://creativecommons.org/licenses/by-nc-sa/3.0/us/", 
    "rights": "This site (c) Massachusetts Institute of Technology 2013.  Content within individual courses is (c) by the individual authors unless otherwise noted. The Massachusetts Institute of Technology is providing this Work (as defined below) under the terms of this Creative Commons public license (\"CCPL\" or \"license\") unless otherwise noted. The Work is protected by copyright and/or other applicable law. Any use of the work other than as authorized under this license is prohibited. By exercising any of the rights to the Work provided here, You (as defined below) accept and agree to be bound by the terms of this license. The Licensor, the Massachusetts Institute of Technology, grants You the rights contained here in consideration of Your acceptance of such terms and conditions.", 
    "url_rewrite_patterns": [], 
    "always_publish": false, 
    "materialtype": "Other", 
    "ad_slot_a": "", 
    "_content_type_unique_identifier": "text/plain", 
    "category_features": [], 
    "_owner": null, 
    "_defaultpage": "", 
    "firstTimeEdit": true, 
    "_permissions": {
        "Modify portal content": {
            "acquire": false, 
            "roles": [
                "Manager", 
                "MetadataEditor"
            ]
        }, 
        "Access contents information": {
            "acquire": false, 
            "roles": [
                "Authenticated"
            ]
        }, 
        "View": {
            "acquire": false, 
            "roles": [
                "Authenticated"
            ]
        }
    }, 
    "ad_champion_text": "", 
    "allowDiscussion": false, 
    "feature_requirements": [], 
    "creators": [
        "Kcanavan"
    ], 
    "courselist_features": [], 
    "_ac_local_roles": {
        "Kcanavan": [
            "Owner"
        ]
    }, 
    "_path": "/Plone/high-school/chemistry/do-not-publish/inspirational-chemistry/index.htm"
}