{
    "text": "<p class=\"sc_nav\">&laquo; <a class=\"sc_prev\" href=\"./resolveuid/4bffe5cc16196016e52210964dbeddc4\">Previous</a> | <a class=\"sc_next\" href=\"./resolveuid/49d44d0cd4d7368fb65410f6924c7265\">Next</a> &raquo;</p> <p>&nbsp;</p> <h2 class=\"subhead\">Overview</h2> <p>When we found the area under the graph of y=x^2 we used a Riemann sum.  These sums of rectangle areas can easily be translated into integrals by allowing the rectangles to become infinitesimally thin.</p> <h2 class=\"subhead\">Lecture Video and Notes</h2> <h3 class=\"subsubhead\">Video Excerpts</h3> <div class=\"embedbg\"><div class=\"medialisting\"><p>79795556clip1:introductiontoriemannsums70833159</p></div></div> <h2 class=\"subhead\">Worked Example</h2> <p>&nbsp;</p> <p>Riemann Sum Practice</p> <ul>     <li><a target=\"_blank\" title=\"Open in a new window.\" href=\"./resolveuid/e79beab68e0b64a7b4bd5ae06ee74313\">Problem (PDF)</a></li>     <li><a target=\"_blank\" title=\"Open in a new window.\" href=\"./resolveuid/4753403f8cb7f8cc48f6e5196c051160\">Solution (PDF)</a></li> </ul> <h2 class=\"subhead\">Recitation Video</h2> <p>&nbsp;</p> <h3 class=\"subsubhead\">Riemann Sum</h3> <p>86441945riemannsum17172024</p> <h2 class=\"subhead\">Lecture Video and Notes</h2> <h3 class=\"subsubhead\">Video Excerpts</h3> <div class=\"embedbg\"><div class=\"medialisting\"><p>70623581clip1:example:cumulativedebts51270171</p></div></div> <h2 class=\"subhead\">Recitation Video</h2> <p>&nbsp;</p> <h3 class=\"subsubhead\">Computing the Volume of a Paraboloid</h3> <p>38713090computingthevolumeofaparaboloid14171352</p> <h3 class=\"subsubhead\">Diffusion of a Chemical</h3> <p>73232130diffusionofachemical11556885</p>  <p>&nbsp;</p> <p class=\"sc_nav_bottom\">&laquo; <a class=\"sc_prev\" href=\"./resolveuid/4bffe5cc16196016e52210964dbeddc4\">Previous</a> | <a class=\"sc_next\" href=\"./resolveuid/49d44d0cd4d7368fb65410f6924c7265\">Next</a> &raquo;</p>", 
    "_content_type_license": "text/plain", 
    "_uid": "d5e0c7a6f17252a3c694d627faf12123", 
    "title": "Session 46: Riemann Sums", 
    "_ac_local_roles": {
        "cc_akuma1": [
            "Owner"
        ]
    }, 
    "location": "", 
    "_content_type_course_identifier": "text/plain", 
    "_atbrefs": {
        "isReferencing": [
            "4c201b00a0470284ebd6c546e0cc59ab", 
            "0b76caa8a52837fdba43c151842bb90a", 
            "4bffe5cc16196016e52210964dbeddc4", 
            "49d44d0cd4d7368fb65410f6924c7265"
        ]
    }, 
    "constrainTypesMode": -1, 
    "_content_type_section_identifier": "text/plain", 
    "technical_location": "https://ocw.mit.edu/courses/mathematics/18-01sc-single-variable-calculus-fall-2010/unit-3-the-definite-integral-and-its-applications/part-a-definition-of-the-definite-integral-and-first-fundamental-theorem/session-46-riemann-sums", 
    "software_requirements": [
        {
            "software_type_col": "Browser", 
            "minimum_version_col": "40.0", 
            "software_name_col": "Chrome", 
            "maximum_version_col": ""
        }, 
        {
            "software_type_col": "Browser", 
            "minimum_version_col": "8.0", 
            "software_name_col": "Safari", 
            "maximum_version_col": ""
        }, 
        {
            "software_type_col": "Browser", 
            "minimum_version_col": "38.0", 
            "software_name_col": "Mozilla Firefox", 
            "maximum_version_col": ""
        }, 
        {
            "software_type_col": "Browser", 
            "minimum_version_col": "9.0", 
            "software_name_col": "Internet Explorer", 
            "maximum_version_col": ""
        }, 
        {
            "software_type_col": "Browser", 
            "minimum_version_col": "13.1", 
            "software_name_col": "Edge", 
            "maximum_version_col": ""
        }
    ], 
    "_content_type_technical_location": "text/plain", 
    "_content_type_rights": "text/html", 
    "_directly_provided": [
        "Products.CMFEditions.interfaces.IVersioned"
    ], 
    "parent_uid": "0b76caa8a52837fdba43c151842bb90a", 
    "excludeFromNav": false, 
    "_content_type_unique_identifier": "text/plain", 
    "allowDiscussion": false, 
    "metadata_contributor_list": [], 
    "locallyAllowedTypes": [
        "OCWImage", 
        "CourseSection", 
        "OCWExtFile", 
        "OCWFile", 
        "MediaResource"
    ], 
    "_content_type_text": "text/html", 
    "ad_type": "HOUSE", 
    "creation_date": "2010/11/17 14:52:44.478 US/Eastern", 
    "aggregationlevel": 3, 
    "duration": "", 
    "immediatelyAddableTypes": [
        "OCWImage", 
        "CourseSection", 
        "OCWExtFile", 
        "OCWFile", 
        "MediaResource"
    ], 
    "subject": [], 
    "_content_type_short_page_title": "text/plain", 
    "effectiveDate": "2010/11/17 14:52:51.631 US/Eastern", 
    "parent_module": "bfe41979b9593362793fd930b36efa01", 
    "is_mathml_document": false, 
    "bottomtext": "", 
    "short_page_title": "Session 46: Riemann Sums", 
    "section_identifier": "https://ocw.mit.edu/courses/mathematics/18-01sc-single-variable-calculus-fall-2010/unit-3-the-definite-integral-and-its-applications", 
    "related_mit_links": "", 
    "_content_type_ad_type": "text/plain", 
    "_layout": "custom_view", 
    "_workflow_history": {
        "page_workflow": [
            {
                "action": null, 
                "review_state": "waiting_for_authoring", 
                "comments": "", 
                "actor": "Kcanavan", 
                "time": "2010/11/17 14:52:44.487 US/Eastern"
            }, 
            {
                "action": "approve_to_staging", 
                "review_state": "ready_for_staging", 
                "actor": "Kcanavan", 
                "comments": "", 
                "time": "2010/11/17 14:52:51.673 US/Eastern"
            }, 
            {
                "action": "decline", 
                "review_state": "waiting_for_authoring", 
                "comments": "", 
                "actor": "cc_gegrov", 
                "time": "2010/12/23 01:53:32.852 US/Eastern"
            }, 
            {
                "action": "approve_to_staging", 
                "review_state": "ready_for_staging", 
                "comments": "", 
                "actor": "cc_gegrov", 
                "time": "2010/12/23 06:48:40.439 US/Eastern"
            }, 
            {
                "action": "decline", 
                "review_state": "waiting_for_authoring", 
                "comments": "", 
                "actor": "Carchidi", 
                "time": "2010/12/23 13:39:32.665 US/Eastern"
            }, 
            {
                "action": "approve_to_staging", 
                "review_state": "ready_for_staging", 
                "comments": "", 
                "actor": "Carchidi", 
                "time": "2010/12/23 13:40:27.752 US/Eastern"
            }, 
            {
                "action": "decline_to_qa", 
                "review_state": "waiting_for_qa", 
                "actor": "Kcanavan", 
                "comments": "", 
                "time": "2011/01/06 16:55:05.691 US/Eastern"
            }, 
            {
                "action": "approve_to_staging", 
                "review_state": "ready_for_staging", 
                "comments": "", 
                "actor": "Kcanavan", 
                "time": "2011/01/07 12:09:26.239 US/Eastern"
            }, 
            {
                "action": "decline_to_qa", 
                "review_state": "waiting_for_qa", 
                "actor": "Kcanavan", 
                "comments": "", 
                "time": "2011/01/08 23:21:38.003 US/Eastern"
            }, 
            {
                "action": "approve_to_staging", 
                "review_state": "ready_for_staging", 
                "comments": "", 
                "actor": "Kcanavan", 
                "time": "2011/01/09 00:10:45.042 US/Eastern"
            }, 
            {
                "action": "decline_to_qa", 
                "review_state": "waiting_for_qa", 
                "actor": "Kcanavan", 
                "comments": "", 
                "time": "2011/01/10 11:13:17.315 US/Eastern"
            }, 
            {
                "action": "approve_to_staging", 
                "review_state": "ready_for_staging", 
                "comments": "", 
                "actor": "Kcanavan", 
                "time": "2011/01/10 12:43:22.846 US/Eastern"
            }, 
            {
                "action": "decline_to_qa", 
                "review_state": "waiting_for_qa", 
                "comments": "", 
                "actor": "Kcanavan", 
                "time": "2011/01/10 17:10:11.744 US/Eastern"
            }, 
            {
                "action": "approve_to_staging", 
                "review_state": "ready_for_staging", 
                "comments": "", 
                "actor": "Kcanavan", 
                "time": "2011/01/10 17:10:51.642 US/Eastern"
            }, 
            {
                "action": "decline_to_qa", 
                "review_state": "waiting_for_qa", 
                "actor": "Kcanavan", 
                "comments": "", 
                "time": "2011/01/12 08:40:15.937 US/Eastern"
            }, 
            {
                "action": "approve_to_staging", 
                "review_state": "ready_for_staging", 
                "comments": "", 
                "actor": "Kcanavan", 
                "time": "2011/01/12 09:07:07.716 US/Eastern"
            }, 
            {
                "action": "decline_to_qa", 
                "review_state": "waiting_for_qa", 
                "actor": "Jcplayer", 
                "comments": "", 
                "time": "2011/07/26 14:37:52.888 GMT-4"
            }, 
            {
                "action": "approve_to_staging", 
                "review_state": "ready_for_staging", 
                "comments": "", 
                "actor": "Jcplayer", 
                "time": "2011/07/26 16:24:33.498 GMT-4"
            }, 
            {
                "action": "decline", 
                "review_state": "waiting_for_authoring", 
                "actor": "asingh124", 
                "comments": "", 
                "time": "2012/08/01 04:55:36.049 GMT-4"
            }, 
            {
                "action": "approve_to_staging", 
                "review_state": "ready_for_staging", 
                "actor": "asingh124", 
                "comments": "", 
                "time": "2012/08/01 04:56:38.697 GMT-4"
            }, 
            {
                "action": null, 
                "review_state": "waiting_for_authoring", 
                "actor": "cc_akuma1", 
                "comments": "", 
                "time": "2012/11/08 01:02:04.397 US/Eastern"
            }, 
            {
                "action": "approve_to_staging", 
                "review_state": "ready_for_staging", 
                "comments": "", 
                "actor": "ndhamija", 
                "time": "2012/11/09 03:33:28.415 US/Eastern"
            }, 
            {
                "action": "decline", 
                "review_state": "waiting_for_authoring", 
                "actor": "ndhamija", 
                "comments": "", 
                "time": "2012/11/12 06:52:49.114 US/Eastern"
            }, 
            {
                "action": "approve_to_staging", 
                "review_state": "ready_for_staging", 
                "actor": "ndhamija", 
                "comments": "", 
                "time": "2012/11/12 06:56:13.995 US/Eastern"
            }, 
            {
                "action": "decline", 
                "review_state": "waiting_for_authoring", 
                "actor": "abohra", 
                "comments": "", 
                "time": "2012/11/22 23:08:52.362 US/Eastern"
            }, 
            {
                "action": "approve_to_staging", 
                "review_state": "ready_for_staging", 
                "actor": "abohra", 
                "comments": "", 
                "time": "2012/11/23 06:47:53.588 US/Eastern"
            }, 
            {
                "action": "decline_to_qa", 
                "review_state": "waiting_for_qa", 
                "actor": "shellyu", 
                "comments": "", 
                "time": "2012/11/28 17:34:45.613 US/Eastern"
            }, 
            {
                "action": "approve_to_staging", 
                "review_state": "ready_for_staging", 
                "comments": "", 
                "actor": "shellyu", 
                "time": "2012/11/28 17:37:19.905 US/Eastern"
            }, 
            {
                "action": "decline_to_qa", 
                "review_state": "waiting_for_qa", 
                "comments": "", 
                "actor": "shellyu", 
                "time": "2012/11/28 17:37:50.687 US/Eastern"
            }, 
            {
                "action": "approve_to_staging", 
                "review_state": "ready_for_staging", 
                "comments": "", 
                "actor": "shellyu", 
                "time": "2012/11/28 17:39:18.138 US/Eastern"
            }, 
            {
                "action": "decline_to_qa", 
                "review_state": "waiting_for_qa", 
                "actor": "kqli", 
                "comments": "", 
                "time": "2013/01/02 12:18:41.957 US/Eastern"
            }, 
            {
                "action": "approve_to_staging", 
                "review_state": "ready_for_staging", 
                "comments": "", 
                "actor": "kqli", 
                "time": "2013/01/02 12:25:18.517 US/Eastern"
            }, 
            {
                "action": "decline_to_qa", 
                "review_state": "waiting_for_qa", 
                "actor": "Jcplayer", 
                "comments": "", 
                "time": "2013/08/21 17:05:58.157 GMT-4"
            }, 
            {
                "action": "approve_to_staging", 
                "review_state": "ready_for_staging", 
                "actor": "Jcplayer", 
                "comments": "", 
                "time": "2013/08/21 17:07:07.164 GMT-4"
            }, 
            {
                "action": "decline", 
                "review_state": "waiting_for_authoring", 
                "comments": "", 
                "actor": "vverma9", 
                "time": "2014/07/31 06:53:46.981 GMT-4"
            }, 
            {
                "action": "approve_to_staging", 
                "review_state": "ready_for_staging", 
                "comments": "", 
                "actor": "vverma9", 
                "time": "2014/07/31 06:58:23.893 GMT-4"
            }, 
            {
                "action": "decline", 
                "review_state": "waiting_for_authoring", 
                "actor": "vverma9", 
                "comments": "", 
                "time": "2014/08/01 00:27:15.497 GMT-4"
            }, 
            {
                "action": "approve_to_staging", 
                "review_state": "ready_for_staging", 
                "comments": "", 
                "actor": "vverma9", 
                "time": "2014/08/01 01:17:00.071 GMT-4"
            }, 
            {
                "action": "decline", 
                "review_state": "waiting_for_authoring", 
                "actor": "pgandhi3", 
                "comments": "", 
                "time": "2014/09/05 05:19:18.153 GMT-4"
            }, 
            {
                "action": "approve_to_staging", 
                "review_state": "ready_for_staging", 
                "comments": "", 
                "actor": "pgandhi3", 
                "time": "2014/09/05 05:25:30.086 GMT-4"
            }, 
            {
                "action": "decline", 
                "review_state": "waiting_for_authoring", 
                "actor": "pgandhi3", 
                "comments": "", 
                "time": "2014/09/05 05:31:31.797 GMT-4"
            }, 
            {
                "action": "approve_to_staging", 
                "review_state": "ready_for_staging", 
                "comments": "", 
                "actor": "pgandhi3", 
                "time": "2014/09/05 05:35:56.290 GMT-4"
            }, 
            {
                "action": "decline", 
                "review_state": "waiting_for_authoring", 
                "actor": "sbabbar", 
                "comments": "", 
                "time": "2015/12/22 07:04:25.484 US/Eastern"
            }, 
            {
                "action": "approve_to_staging", 
                "review_state": "ready_for_staging", 
                "comments": "", 
                "actor": "sbabbar", 
                "time": "2015/12/29 03:38:18.213 US/Eastern"
            }, 
            {
                "action": "decline", 
                "review_state": "waiting_for_authoring", 
                "actor": "rsharma20", 
                "comments": "", 
                "time": "2016/01/05 15:47:18.967 US/Eastern"
            }, 
            {
                "action": "approve_to_staging", 
                "review_state": "ready_for_staging", 
                "actor": "rsharma20", 
                "comments": "", 
                "time": "2016/01/05 15:51:44.280 US/Eastern"
            }, 
            {
                "action": "decline", 
                "review_state": "waiting_for_authoring", 
                "comments": "", 
                "actor": "sgoel12", 
                "time": "2016/06/30 03:44:22.466 GMT-4"
            }, 
            {
                "action": "approve_to_staging", 
                "review_state": "ready_for_staging", 
                "actor": "sgoel12", 
                "comments": "", 
                "time": "2016/06/30 03:47:56.768 GMT-4"
            }
        ]
    }, 
    "_classname": "CourseSection", 
    "_content_type_materialtype": "text/plain", 
    "_userdefined_roles": [], 
    "publisher": "MIT OpenCourseWare", 
    "nextPreviousEnabled": false, 
    "language": "", 
    "url_rewrite_patterns": [], 
    "widgets_features": [], 
    "category_features": [], 
    "firstTimeEdit": true, 
    "feature_requirements": [], 
    "list_in_left_nav": false, 
    "short_name_tlp": "Session 46: Riemann Sums", 
    "expirationDate": "None", 
    "_content_type_id": "text/plain", 
    "contributor_list": [
        {}
    ], 
    "is_media_gallery": false, 
    "contributors": [], 
    "_gopip": 3, 
    "_content_type_title": "text/plain", 
    "course_linking": [], 
    "_atrefs": {
        "BelongsTo": [
            "bfe41979b9593362793fd930b36efa01"
        ], 
        "isReferencing": [
            "49d44d0cd4d7368fb65410f6924c7265", 
            "4753403f8cb7f8cc48f6e5196c051160", 
            "4bffe5cc16196016e52210964dbeddc4", 
            "e79beab68e0b64a7b4bd5ae06ee74313"
        ]
    }, 
    "other_platform_requirements": "", 
    "license": "http://creativecommons.org/licenses/by-nc-sa/3.0/us/", 
    "rights": "This site (c) Massachusetts Institute of Technology 2010.  Content within individual courses is (c) by the individual authors unless otherwise noted. The Massachusetts Institute of Technology is providing this Work (as defined below) under the terms of this Creative Commons public license (\"CCPL\" or \"license\") unless otherwise noted. The Work is protected by copyright and/or other applicable law. Any use of the work other than as authorized under this license is prohibited. By exercising any of the rights to the Work provided here, You (as defined below) accept and agree to be bound by the terms of this license. The Licensor, the Massachusetts Institute of Technology, grants You the rights contained here in consideration of Your acceptance of such terms and conditions.", 
    "hide_Page_title": null, 
    "_defaultpage": "", 
    "tcATmit_subject_tags": [], 
    "features_tracking": [], 
    "ad_champion_text": "", 
    "has_inline_embed": true, 
    "unique_identifier": "https://ocw.mit.edu/courses/mathematics/18-01sc-single-variable-calculus-fall-2010/unit-3-the-definite-integral-and-its-applications/part-a-definition-of-the-definite-integral-and-first-fundamental-theorem/session-46-riemann-sums", 
    "is_image_gallery": false, 
    "id": "session-46-riemann-sums", 
    "materialtype": "Other", 
    "_type": "CourseSection", 
    "description": "This section contains lecture video excerpts, lecture notes, problem solving videos, and a worked example on Riemann sums.", 
    "course_identifier": "https://ocw.mit.edu/courses/mathematics/18-01sc-single-variable-calculus-fall-2010", 
    "_content_type_publisher": "text/plain", 
    "tcATmit_instructional_tags": [], 
    "_content_type": "text/html", 
    "creators": [
        "Kcanavan"
    ], 
    "modification_date": "2016/09/24 07:48:55.175 GMT-4", 
    "always_publish": true, 
    "_content_type_description": "text/plain", 
    "_owner": null, 
    "_permissions": {
        "Change portal events": {
            "acquire": false, 
            "roles": [
                "Editor", 
                "Manager", 
                "MetadataEditor", 
                "Owner"
            ]
        }, 
        "Modify portal content": {
            "acquire": false, 
            "roles": [
                "Manager", 
                "MetadataEditor"
            ]
        }, 
        "Access contents information": {
            "acquire": false, 
            "roles": [
                "Authenticated"
            ]
        }, 
        "List folder contents": {
            "acquire": false, 
            "roles": [
                "Editor", 
                "Manager", 
                "MetadataEditor", 
                "Owner"
            ]
        }, 
        "View": {
            "acquire": false, 
            "roles": [
                "Authenticated"
            ]
        }
    }, 
    "_properties": [
        [
            "title", 
            "Session 46: Riemann Sums", 
            "string"
        ]
    ], 
    "_id": "session-46-riemann-sums", 
    "courselist_features": [], 
    "_content_type_short_name_tlp": "text/plain", 
    "_path": "/Plone/courses/mathematics/18-01sc-single-variable-calculus-fall-2010/unit-3-the-definite-integral-and-its-applications/part-a-definition-of-the-definite-integral-and-first-fundamental-theorem/session-46-riemann-sums"
}