{
    "rsi_top_html_area": "", 
    "text": "", 
    "_content_type_license": "text/plain", 
    "_uid": "128211cde4959162d2a935a3325ead1e", 
    "title": "Diffusion of a Chemical", 
    "_ac_local_roles": {
        "sbabbar": [
            "Owner"
        ]
    }, 
    "template_type": "Embed", 
    "location": "", 
    "_content_type_course_identifier": "text/plain", 
    "_atbrefs": {}, 
    "constrainTypesMode": 0, 
    "_content_type_section_identifier": "text/plain", 
    "technical_location": "https://ocw.mit.edu/courses/mathematics/18-01sc-single-variable-calculus-fall-2010/unit-3-the-definite-integral-and-its-applications/part-a-definition-of-the-definite-integral-and-first-fundamental-theorem/session-46-riemann-sums/diffusion-of-a-chemical", 
    "software_requirements": [
        {
            "software_type_col": "Browser", 
            "minimum_version_col": "40.0", 
            "software_name_col": "Chrome", 
            "maximum_version_col": ""
        }, 
        {
            "software_type_col": "Browser", 
            "minimum_version_col": "8.0", 
            "software_name_col": "Safari", 
            "maximum_version_col": ""
        }, 
        {
            "software_type_col": "Browser", 
            "minimum_version_col": "38.0", 
            "software_name_col": "Mozilla Firefox", 
            "maximum_version_col": ""
        }, 
        {
            "software_type_col": "Browser", 
            "minimum_version_col": "9.0", 
            "software_name_col": "Internet Explorer", 
            "maximum_version_col": ""
        }, 
        {
            "software_type_col": "Browser", 
            "minimum_version_col": "13.1", 
            "software_name_col": "Edge", 
            "maximum_version_col": ""
        }
    ], 
    "_content_type_technical_location": "text/plain", 
    "start_time": "", 
    "_content_type_rights": "text/html", 
    "_directly_provided": [
        "Products.CMFEditions.interfaces.IVersioned"
    ], 
    "media_rights": "(CC BY-NC-SA)", 
    "parent_uid": "d5e0c7a6f17252a3c694d627faf12123", 
    "excludeFromNav": false, 
    "about_this_resource_text": "", 
    "_content_type_unique_identifier": "text/plain", 
    "end_time": "", 
    "allowDiscussion": false, 
    "_content_type_materialtype": "text/plain", 
    "locallyAllowedTypes": [
        "OCWImage", 
        "OCWFile", 
        "OCWMediaAsset"
    ], 
    "optional_tab_title": "", 
    "ad_type": "HOUSE", 
    "creation_date": "2015/12/22 07:56:52.142 US/Eastern", 
    "aggregationlevel": 2, 
    "bottom_html_area": "", 
    "duration": "", 
    "immediatelyAddableTypes": [
        "OCWImage", 
        "OCWFile", 
        "OCWMediaAsset"
    ], 
    "_content_type_template_type": "text/plain", 
    "subject": [], 
    "_content_type_short_page_title": "text/plain", 
    "effectiveDate": "2015/12/29 03:28:46.930 US/Eastern", 
    "parent_module": "bfe41979b9593362793fd930b36efa01", 
    "is_mathml_document": false, 
    "bottomtext": "", 
    "short_page_title": "Diffusion of a Chemical", 
    "section_identifier": "https://ocw.mit.edu/courses/mathematics/18-01sc-single-variable-calculus-fall-2010/unit-3-the-definite-integral-and-its-applications", 
    "show_captions_outside_player": false, 
    "related_mit_links": "", 
    "_content_type_ad_type": "text/plain", 
    "_layout": "custom_view", 
    "_workflow_history": {
        "page_workflow": [
            {
                "action": null, 
                "review_state": "waiting_for_authoring", 
                "comments": "", 
                "actor": "sbabbar", 
                "time": "2015/12/22 07:56:52.157 US/Eastern"
            }, 
            {
                "action": "approve_to_staging", 
                "review_state": "ready_for_staging", 
                "actor": "sbabbar", 
                "comments": "", 
                "time": "2015/12/29 03:28:47.232 US/Eastern"
            }
        ]
    }, 
    "_content_type_transcript": "text/html", 
    "metadata_contributor_list": [], 
    "_userdefined_roles": [], 
    "_content_type_inline_embed_id": "text/plain", 
    "publisher": "MIT OpenCourseWare", 
    "nextPreviousEnabled": false, 
    "_gopip": 13, 
    "license": "http://creativecommons.org/licenses/by-nc-sa/3.0/us/", 
    "url_rewrite_patterns": [], 
    "widgets_features": [], 
    "category_features": [], 
    "resource_contributor_list": [
        {
            "res_contributor_entity": "Jerison, David", 
            "res_contributor_uid": "b28f05bbf3c3b44d28bc8f11fc7834cd", 
            "res_contributor_role": "Performer"
        }
    ], 
    "show_jump_back_5_seconds_button": false, 
    "firstTimeEdit": false, 
    "_content_type_media_rights": "text/plain", 
    "feature_requirements": [], 
    "list_in_left_nav": false, 
    "inline_embed_id": "73232130diffusionofachemical11556885", 
    "_classname": "MediaResource", 
    "short_name_tlp": "", 
    "expirationDate": "None", 
    "_content_type_id": "text/plain", 
    "contributor_list": [
        {}
    ], 
    "is_media_gallery": false, 
    "contributors": [], 
    "media_locations": [
        {}
    ], 
    "_content_type_media_resource_type": "text/plain", 
    "_content_type_title": "text/plain", 
    "subtitle_exemption": "None", 
    "_content_type": "text/html", 
    "resource_index_text": "", 
    "_atrefs": {
        "BelongsTo": [
            "bfe41979b9593362793fd930b36efa01"
        ]
    }, 
    "media_slides": [], 
    "other_platform_requirements": "", 
    "language": "", 
    "rights": "This site (c) Massachusetts Institute of Technology 2015.  Content within individual courses is (c) by the individual authors unless otherwise noted. The Massachusetts Institute of Technology is providing this Work (as defined below) under the terms of this Creative Commons public license (\"CCPL\" or \"license\") unless otherwise noted. The Work is protected by copyright and/or other applicable law. Any use of the work other than as authorized under this license is prohibited. By exercising any of the rights to the Work provided here, You (as defined below) accept and agree to be bound by the terms of this license. The Licensor, the Massachusetts Institute of Technology, grants You the rights contained here in consideration of Your acceptance of such terms and conditions.", 
    "hide_Page_title": false, 
    "_defaultpage": "", 
    "related_resources_text": "", 
    "tcATmit_subject_tags": [], 
    "features_tracking": [], 
    "ad_champion_text": "", 
    "has_inline_embed": false, 
    "unique_identifier": "https://ocw.mit.edu/courses/mathematics/18-01sc-single-variable-calculus-fall-2010/unit-3-the-definite-integral-and-its-applications/part-a-definition-of-the-definite-integral-and-first-fundamental-theorem/session-46-riemann-sums/diffusion-of-a-chemical", 
    "link_text": "Diffusion of a Chemical", 
    "is_image_gallery": false, 
    "id": "diffusion-of-a-chemical", 
    "_content_type_subtitle_exemption": "text/plain", 
    "materialtype": "Other", 
    "optional_text": "", 
    "_type": "MediaResource", 
    "description": "", 
    "media_resource_type": "Video", 
    "course_identifier": "https://ocw.mit.edu/courses/mathematics/18-01sc-single-variable-calculus-fall-2010", 
    "_content_type_publisher": "text/plain", 
    "tcATmit_instructional_tags": [], 
    "transcript": "<p><span m='6970'>PROFESSOR: Welcome</span> <span m='7410'>back</span> <span m='7580'>to</span> <span m='7670'>recitation.</span> <span m='8910'>In</span> <span m='9010'>this</span> <span m='9150'>video</span> <span m='9470'>I</span> <span m='9540'>want</span> <span m='9710'>us</span> <span m='9850'>to</span> <span m='9970'>work</span> <span m='10260'>on</span> <span m='10490'>the</span> <span m='10580'>following</span> <span m='10900'>problem.</span> <span m='12460'>A</span> <span m='12590'>very</span> <span m='12860'>shallow</span> <span m='13470'>circular</span> <span m='14080'>reflecting</span> <span m='14540'>pool</span> <span m='14770'>has</span> <span m='14950'>uniform</span> <span m='15390'>depth</span> <span m='15610'>D</span> <span m='15940'>and</span> <span m='16160'>radius</span> <span m='16600'>R.</span> <span m='17550'>And</span> <span m='17770'>this</span> <span m='17910'>is</span> <span m='18020'>in</span> <span m='18130'>meters.</span> <span m='19660'>And</span> <span m='19980'>a</span> <span m='20230'>disinfecting</span> <span m='20600'>chemical</span> <span m='20860'>is</span> <span m='21120'>released</span> <span m='21510'>at</span> <span m='21640'>its</span> <span m='21830'>center.</span> <span m='22940'>After</span> <span m='23210'>a</span> <span m='23270'>few</span> <span m='23480'>hours</span> <span m='23850'>of</span> <span m='23960'>symmetrical</span> <span m='24450'>diffusion</span> <span m='24860'>outward,</span> <span m='26140'>the</span> <span m='26250'>concentration</span> <span m='26890'>at</span> <span m='26960'>a</span> <span m='27020'>point</span> <span m='27620'>little</span> <span m='27910'>r</span> <span m='28060'>meters</span> <span m='28350'>from</span> <span m='28480'>the</span> <span m='28570'>center</span> <span m='28950'>is</span> <span m='29490'>k</span> <span m='29840'>over</span> <span m='30140'>1</span> <span m='30330'>plus</span> <span m='30560'>r</span> <span m='30730'>squared</span> <span m='31190'>grams</span> <span m='31570'>per</span> <span m='31730'>cubic</span> <span m='32040'>meter.</span> <span m='32870'>The</span> <span m='32970'>k</span> <span m='33150'>here is</span> <span m='33460'>a</span> <span m='33530'>constant.</span> <span m='34720'>So</span> <span m='35000'>we</span> <span m='35150'>drop</span> <span m='35440'>some</span> <span m='35610'>chemical</span> <span m='35970'>into</span> <span m='36190'>the</span> <span m='36280'>middle</span> <span m='36520'>of</span> <span m='36640'>the</span> <span m='36730'>pool.</span> <span m='37750'>And</span> <span m='38050'>then</span> <span m='38330'>it</span> <span m='38540'>diffuses</span> <span m='39030'>outward.</span> <span m='39510'>That's</span> <span m='39740'>the</span> <span m='39860'>idea</span> <span m='40460'>there.</span> </p><p><span m='41120'>Now</span> <span m='41270'>the</span> <span m='41360'>question</span> <span m='41790'>is</span> <span m='41920'>the</span> <span m='42050'>following.</span> <span m='43020'>What</span> <span m='43400'>amount</span> <span m='44340'>of</span> <span m='44500'>chemical</span> <span m='44970'>was</span> <span m='45120'>released</span> <span m='45540'>into</span> <span m='45740'>the</span> <span m='45830'>pool?</span> <span m='46720'>And</span> <span m='46940'>obviously</span> <span m='47390'>the</span> <span m='47480'>amount</span> <span m='47790'>will</span> <span m='47890'>be</span> <span m='48100'>in</span> <span m='48280'>grams.</span> <span m='49750'>Now</span> <span m='49910'>to</span> <span m='49990'>give</span> <span m='50140'>you</span> <span m='50240'>a</span> <span m='50300'>hint,</span> <span m='50800'>probably</span> <span m='51310'>you</span> <span m='51430'>want</span> <span m='51600'>to</span> <span m='51660'>draw</span> <span m='52070'>a</span> <span m='52840'>picture</span> <span m='53280'>of</span> <span m='53380'>this.</span> <span m='53700'>And</span> <span m='53960'>then</span> <span m='54440'>maybe</span> <span m='54770'>get</span> <span m='54950'>some</span> <span m='55140'>estimates</span> <span m='55930'>or</span> <span m='56080'>some</span> <span m='56240'>approximations</span> <span m='57880'>using</span> <span m='58890'>shells.</span> <span m='59570'>Or</span> <span m='59840'>you</span> <span m='59990'>might</span> <span m='60230'>just</span> <span m='60450'>say, you know,</span> <span m='61480'>some</span> <span m='61700'>strips,</span> <span m='62360'>some</span> <span m='62570'>shells</span> <span m='62940'>probably</span> <span m='63280'>is</span> <span m='63390'>a</span> <span m='63450'>better</span> <span m='63670'>word</span> <span m='63880'>for</span> <span m='64120'>it.</span> <span m='64800'>And</span> <span m='65070'>then</span> <span m='65700'>you</span> <span m='65860'>should</span> <span m='66030'>think</span> <span m='66220'>about</span> <span m='66460'>the</span> <span m='66540'>fact</span> <span m='66860'>that,</span> <span m='67400'>as</span> <span m='67600'>you</span> <span m='67670'>get</span> <span m='67810'>better</span> <span m='68010'>and</span> <span m='68110'>better</span> <span m='68300'>estimates,</span> <span m='69010'>your</span> <span m='69260'>approximation</span> <span m='69970'>should</span> <span m='70190'>tend</span> <span m='70560'>toward</span> <span m='70890'>an</span> <span m='71010'>integral.</span> </p><p><span m='72060'>So</span> <span m='72280'>with</span> <span m='72580'>that</span> <span m='72790'>hint,</span> <span m='73750'>I'll</span> <span m='73920'>give</span> <span m='74070'>you</span> <span m='74130'>a</span> <span m='74170'>little</span> <span m='74360'>time</span> <span m='74550'>to</span> <span m='74640'>work</span> <span m='74850'>on</span> <span m='75000'>this.</span> <span m='75460'>And</span> <span m='75760'>when</span> <span m='75880'>we</span> <span m='75980'>come</span> <span m='76150'>back,</span> <span m='76520'>I'll</span> <span m='76680'>show you</span> <span m='76920'>how</span> <span m='77050'>I</span> <span m='77140'>do</span> <span m='77280'>it.</span> </p><p><span m='86090'>OK,</span> <span m='86310'>welcome</span> <span m='86600'>back.</span> <span m='87760'>Hopefully</span> <span m='88280'>you</span> <span m='88360'>were</span> <span m='88450'>able</span> <span m='88600'>to</span> <span m='88670'>make</span> <span m='88840'>some</span> <span m='88970'>headway.</span> <span m='89380'>And</span> <span m='89650'>so</span> <span m='90050'>let</span> <span m='90220'>me</span> <span m='90360'>start</span> <span m='90660'>off</span> <span m='90910'>by</span> <span m='91030'>doing</span> <span m='91280'>what</span> <span m='91410'>I</span> <span m='91830'>asked</span> <span m='92150'>you</span> <span m='92290'>to</span> <span m='92410'>do,</span> <span m='92540'>which</span> <span m='92720'>is</span> <span m='92810'>draw a</span> <span m='93110'>picture.</span> <span m='93470'>Now</span> <span m='94290'>the</span> <span m='94410'>first</span> <span m='94690'>picture is</span> <span m='95040'>fairly</span> <span m='95390'>simple.</span> <span m='97990'>The</span> <span m='98100'>first</span> <span m='98390'>picture</span> <span m='102490'>is</span> <span m='102680'>my</span> <span m='102840'>pool. Right?</span> <span m='103790'>But</span> <span m='103900'>that's</span> <span m='104100'>not</span> <span m='104480'>quite</span> <span m='104770'>enough</span> <span m='105040'>to</span> <span m='105140'>tell</span> <span m='105330'>me</span> <span m='106420'>some</span> <span m='106650'>estimates.</span> <span m='107150'>But</span> <span m='107760'>what</span> <span m='107980'>do</span> <span m='108040'>we</span> <span m='108160'>have?</span> <span m='108400'>So</span> <span m='108990'>the</span> <span m='109150'>pool</span> <span m='109440'>has</span> <span m='109680'>radius</span> <span m='110170'>capital</span> <span m='110630'>R</span> <span m='111830'>and</span> <span m='112080'>depth</span> <span m='112450'>D.</span> <span m='113940'>And</span> <span m='114350'>when</span> <span m='114610'>I</span> <span m='114840'>said</span> <span m='115150'>we</span> <span m='115230'>want to</span> <span m='115460'>do</span> <span m='115570'>some</span> <span m='115740'>approximation,</span> <span m='116550'>what</span> <span m='116720'>I</span> <span m='116790'>really</span> <span m='117050'>meant</span> <span m='117420'>is</span> <span m='119450'>we</span> <span m='119640'>want</span> <span m='119930'>to--</span> <span m='120260'>let</span> <span m='120420'>me</span> <span m='120510'>actually</span> <span m='120890'>get</span> <span m='121510'>another</span> <span m='121900'>color</span> <span m='122230'>here--</span> <span m='122520'>we</span> <span m='122680'>want</span> <span m='122970'>to say,</span> <span m='123580'>take</span> <span m='124840'>some</span> <span m='125220'>fixed</span> <span m='125610'>radius</span> <span m='126080'>out</span> <span m='126590'>and</span> <span m='126780'>assume</span> <span m='127280'>that--</span> <span m='127960'>let</span> <span m='128110'>me</span> <span m='128290'>actually</span> <span m='128640'>draw</span> <span m='129113'>this</span> <span m='129586'>behind--</span> <span m='130060'>some</span> <span m='130720'>fixed</span> <span m='131010'>radius</span> <span m='131390'>out,</span> <span m='132540'>and</span> <span m='132770'>assume</span> <span m='133480'>that</span> <span m='134360'>the</span> <span m='134460'>diffusion</span> <span m='135060'>is</span> <span m='135220'>constant</span> <span m='136290'>for</span> <span m='136460'>some</span> <span m='136720'>small</span> <span m='138210'>bit.</span> <span m='139360'>Some</span> <span m='139620'>small</span> <span m='139900'>strip</span> <span m='140160'>like</span> <span m='140330'>this.</span> <span m='141070'>Which,</span> <span m='141380'>actually,</span> <span m='141940'>you</span> <span m='142040'>notice</span> <span m='142430'>it's</span> <span m='142580'>going</span> <span m='142780'>to</span> <span m='142850'>be</span> <span m='142950'>rotated</span> <span m='144880'>around.</span> <span m='145670'>Because</span> <span m='147210'>all</span> <span m='147400'>of</span> <span m='147520'>this</span> <span m='147710'>is</span> <span m='147830'>relative</span> <span m='148380'>to</span> <span m='148500'>distance</span> <span m='148870'>from</span> <span m='149060'>the</span> <span m='149150'>center.</span> </p><p><span m='150210'>So,</span> <span m='151560'>I'm</span> <span m='151980'>hoping</span> <span m='152490'>that</span> <span m='152650'>you</span> <span m='152770'>can</span> <span m='153000'>see</span> <span m='153320'>kind</span> <span m='153510'>of</span> <span m='153620'>what</span> <span m='153800'>this</span> <span m='154010'>drawing</span> <span m='154430'>is</span> <span m='154580'>doing.</span> <span m='155300'>Essentially</span> <span m='155810'>what</span> <span m='155960'>we</span> <span m='156080'>have</span> <span m='156410'>here</span> <span m='157090'>is</span> <span m='157320'>if</span> <span m='157430'>we</span> <span m='157580'>open</span> <span m='157940'>that</span> <span m='158200'>up,</span> <span m='158900'>this</span> <span m='159170'>blue</span> <span m='160130'>cylindrical</span> <span m='160910'>shell</span> <span m='161830'>is</span> <span m='162070'>approximately</span> <span m='165060'>a</span> <span m='165160'>piece--</span> <span m='167720'>oh</span> <span m='167910'>it</span> <span m='168020'>doesn't</span> <span m='168320'>quite</span> <span m='168590'>look</span> <span m='168750'>flat--</span> <span m='169630'>but,</span> <span m='169950'>a</span> <span m='170010'>piece</span> <span m='170380'>that</span> <span m='170530'>looks</span> <span m='170770'>like--</span> <span m='172530'>oh</span> <span m='172760'>well</span> <span m='173190'>we'll</span> <span m='173360'>just</span> <span m='173590'>stick</span> <span m='173780'>with</span> <span m='173930'>that--</span> <span m='174540'>a</span> <span m='174670'>little</span> <span m='174880'>prism</span> <span m='175290'>here.</span> <span m='179650'>So</span> <span m='179840'>that's</span> <span m='180440'>approximately,</span> <span m='181300'>if</span> <span m='181440'>I</span> <span m='181530'>were</span> <span m='181670'>to</span> <span m='181750'>cut</span> <span m='182710'>this</span> <span m='182980'>blue</span> <span m='183470'>cylindrical</span> <span m='184470'>shell</span> <span m='184790'>here</span> <span m='185640'>open</span> <span m='186480'>and</span> <span m='186730'>lay it</span> <span m='186900'>down</span> <span m='187110'>flat,</span> <span m='187350'>it</span> <span m='187410'>would</span> <span m='187540'>be</span> <span m='187650'>approximately</span> <span m='188450'>a</span> <span m='188550'>piece</span> <span m='188830'>kind</span> <span m='189010'>of</span> <span m='189080'>like</span> <span m='189280'>this. Right?</span> </p><p><span m='190810'>And</span> <span m='190970'>so,</span> <span m='191380'>what</span> <span m='191620'>we're</span> <span m='191720'>going</span> <span m='191940'>to</span> <span m='192030'>do</span> <span m='192260'>is</span> <span m='193440'>estimate</span> <span m='194090'>first</span> <span m='195430'>what</span> <span m='195630'>amount</span> <span m='195990'>of</span> <span m='196080'>chemical</span> <span m='196500'>is</span> <span m='196610'>released</span> <span m='197130'>based</span> <span m='197490'>on</span> <span m='198070'>pieces</span> <span m='198530'>that</span> <span m='198650'>look</span> <span m='198800'>like</span> <span m='199000'>this.</span> <span m='199380'>And</span> <span m='199480'>then</span> <span m='199620'>we're</span> <span m='199810'>going to</span> <span m='199890'>let</span> <span m='200040'>those</span> <span m='200280'>pieces</span> <span m='200710'>get</span> <span m='201300'>very,</span> <span m='201550'>very</span> <span m='201790'>narrow</span> <span m='202220'>and</span> <span m='202710'>get</span> <span m='202860'>more</span> <span m='203110'>and</span> <span m='203220'>more</span> <span m='203440'>of</span> <span m='203540'>them.</span> <span m='204590'>And</span> <span m='204830'>this</span> <span m='204940'>should</span> <span m='205270'>remind</span> <span m='205770'>you</span> <span m='206070'>of</span> <span m='206540'>Riemann</span> <span m='206700'>sums.</span> <span m='207480'>And</span> <span m='207640'>how</span> <span m='207760'>Riemann</span> <span m='208180'>sums,</span> <span m='208550'>as</span> <span m='208790'>you</span> <span m='209480'>let</span> <span m='209820'>the</span> <span m='211310'>number</span> <span m='211910'>of</span> <span m='212210'>things</span> <span m='212490'>you're</span> <span m='212610'>summing</span> <span m='212950'>over</span> <span m='214400'>tend</span> <span m='214650'>to 0-- sorry-- tend to </span> <span m='214780'>infinity,</span> <span m='216710'>so</span> <span m='218180'>that</span> <span m='218400'>the</span> <span m='219010'>little</span> <span m='219220'>pieces</span> <span m='219660'>are</span> <span m='219740'>getting</span> <span m='219970'>narrower</span> <span m='220390'>and</span> <span m='220580'>narrower,</span> <span m='221500'>you're</span> <span m='221810'>actually</span> <span m='222250'>going</span> <span m='222500'>to</span> <span m='222610'>end</span> <span m='222820'>up</span> <span m='222960'>with</span> <span m='223080'>an</span> <span m='223180'>integral.</span> <span m='223730'>So</span> <span m='223890'>this</span> <span m='224070'>is</span> <span m='224180'>where</span> <span m='224370'>we're</span> <span m='224500'>headed.</span> </p><p><span m='225700'>So</span> <span m='226080'>let's</span> <span m='226940'>just</span> <span m='227150'>make</span> <span m='227320'>sure</span> <span m='227510'>we</span> <span m='227630'>understand kind of</span> <span m='228870'>all</span> <span m='228990'>the</span> <span m='229090'>pieces</span> <span m='229490'>that</span> <span m='229590'>are</span> <span m='229660'>happening.</span> <span m='230510'>What</span> <span m='230730'>we're</span> <span m='230840'>going</span> <span m='231050'>to</span> <span m='231140'>do</span> <span m='231360'>is</span> <span m='231470'>we're</span> <span m='231570'>going</span> <span m='231730'>to</span> <span m='231830'>take</span> <span m='232220'>a</span> <span m='232320'>bunch</span> <span m='232610'>of</span> <span m='232700'>these</span> <span m='232840'>cylinders,</span> <span m='234220'>and</span> <span m='234430'>let's</span> <span m='234860'>just</span> <span m='235220'>determine</span> <span m='235680'>that</span> <span m='235800'>we'll</span> <span m='235900'>take</span> <span m='236320'>n</span> <span m='236720'>of</span> <span m='236810'>them.</span> <span m='237070'>I</span> <span m='237200'>shouldn't</span> <span m='237460'>say</span> <span m='237590'>cylinder.</span> <span m='238020'>Sorry,</span> <span m='238290'>I</span> <span m='238330'>should</span> <span m='238530'>say</span> <span m='238670'>shells.</span> <span m='239040'>We're</span> <span m='239160'>going</span> <span m='239300'>to</span> <span m='239380'>take</span> <span m='239640'>n</span> <span m='239830'>of</span> <span m='239920'>these</span> <span m='240100'>shell-type</span> <span m='240640'>things.</span> <span m='241490'>So</span> <span m='241670'>I'm</span> <span m='241790'>going</span> <span m='242030'>to</span> <span m='242150'>say</span> <span m='242370'>the</span> <span m='242480'>radii--</span> <span m='243910'>I'm</span> <span m='244170'>going</span> <span m='244340'>to</span> <span m='244400'>start with</span> <span m='244650'>r_0</span> <span m='245420'>equals</span> <span m='245740'>0.</span> <span m='247620'>And</span> <span m='247790'>I'm</span> <span m='247920'>going</span> <span m='248120'>to</span> <span m='248220'>take</span> <span m='248830'>n</span> <span m='249200'>different</span> <span m='249490'>radii.</span> <span m='249850'>So</span> <span m='250170'>r_0,</span> <span m='252580'>r_1,</span> <span m='253920'>up</span> <span m='254150'>to--</span> <span m='256415'>sorry this is 0--</span> <span m='257480'>so</span> <span m='257630'>r_n</span> <span m='257870'>is</span> <span m='258610'>equal</span> <span m='258780'>to</span> <span m='258880'>capital</span> <span m='259230'>R.</span> <span m='259750'>So</span> <span m='259910'>I</span> <span m='259940'>guess</span> <span m='260110'>I'm</span> <span m='260210'>taking</span> <span m='260480'>n</span> <span m='260610'>plus</span> <span m='260840'>1,</span> <span m='261100'>but</span> <span m='261240'>0</span> <span m='261610'>is</span> <span m='261740'>not</span> <span m='261960'>really</span> <span m='263060'>a</span> <span m='263450'>radius.</span> <span m='263850'>But</span> <span m='264000'>I</span> <span m='264080'>have</span> <span m='264760'>n</span> <span m='265110'>different</span> <span m='265400'>partitions.</span> </p><p><span m='266390'>For</span> <span m='266600'>each</span> <span m='266880'>partition</span> <span m='267690'>of</span> <span m='268650'>this</span> <span m='270100'>big</span> <span m='270430'>cylinder,</span> <span m='271390'>I</span> <span m='271530'>get</span> <span m='271680'>a</span> <span m='271730'>piece</span> <span m='272010'>like</span> <span m='272190'>this. Right?</span> <span m='273590'>I</span> <span m='273640'>get</span> <span m='273780'>a</span> <span m='273830'>piece</span> <span m='274110'>that,</span> <span m='274250'>when</span> <span m='274410'>I</span> <span m='274640'>open</span> <span m='274940'>it</span> <span m='275050'>up,</span> <span m='275800'>looks</span> <span m='276040'>approximately</span> <span m='276700'>like</span> <span m='276930'>this.</span> <span m='278070'>Now,</span> <span m='278860'>what</span> <span m='279150'>I</span> <span m='279270'>want</span> <span m='279690'>is</span> <span m='279860'>a</span> <span m='279930'>total</span> <span m='280200'>amount.</span> <span m='280650'>I</span> <span m='280760'>want</span> <span m='280990'>grams. Right?</span> <span m='282700'>And</span> <span m='282850'>what</span> <span m='282980'>I'm</span> <span m='283180'>given--</span> <span m='284200'>if</span> <span m='284380'>we</span> <span m='284480'>come</span> <span m='284660'>back</span> <span m='284880'>over</span> <span m='285070'>here--</span> <span m='285330'>what</span> <span m='285470'>I'm</span> <span m='285600'>given</span> <span m='285920'>is</span> <span m='286090'>the</span> <span m='286180'>concentration</span> <span m='287740'>at</span> <span m='287900'>a</span> <span m='288080'>certain</span> <span m='288390'>radius.</span> <span m='290170'>It's</span> <span m='290370'>k</span> <span m='290590'>over</span> <span m='290830'>1</span> <span m='291020'>plus</span> <span m='291240'>r</span> <span m='291400'>squared</span> <span m='292180'>grams</span> <span m='292530'>per</span> <span m='292710'>cubic</span> <span m='293060'>meter.</span> <span m='294170'>Now,</span> <span m='294470'>if</span> <span m='294640'>nothing</span> <span m='295120'>else,</span> <span m='296110'>you</span> <span m='296410'>should</span> <span m='296580'>have</span> <span m='296700'>looked</span> <span m='296920'>at</span> <span m='297000'>this</span> <span m='297150'>problem</span> <span m='297450'>and seen,</span> <span m='297690'>well</span> <span m='297930'>if</span> <span m='298060'>I</span> <span m='298130'>want</span> <span m='298390'>grams</span> <span m='299050'>and</span> <span m='299210'>I</span> <span m='299280'>have</span> <span m='299470'>something</span> <span m='299710'>in</span> <span m='299790'>grams</span> <span m='300050'>per</span> <span m='300200'>cubic</span> <span m='300490'>meter,</span> <span m='301260'>somewhere</span> <span m='301820'>I'm</span> <span m='301940'>going to</span> <span m='302140'>need</span> <span m='302430'>something</span> <span m='302780'>with</span> <span m='302930'>cubic</span> <span m='303220'>meters</span> <span m='304140'>to</span> <span m='304260'>cancel</span> <span m='304610'>this</span> <span m='304810'>unit,</span> <span m='305150'>so</span> <span m='305260'>I</span> <span m='305340'>end</span> <span m='305520'>up</span> <span m='305640'>with</span> <span m='305770'>grams.</span> <span m='306500'>So</span> <span m='306740'>if</span> <span m='306890'>nothing</span> <span m='307280'>else,</span> <span m='307650'>then</span> <span m='307830'>maybe</span> <span m='308180'>you</span> <span m='308360'>can</span> <span m='308620'>you</span> <span m='308780'>can</span> <span m='308950'>think,</span> <span m='309260'>oh</span> <span m='309540'>I</span> <span m='309680'>need</span> <span m='309890'>to</span> <span m='310030'>understand</span> <span m='311460'>volume</span> <span m='312190'>of</span> <span m='312280'>something</span> <span m='313430'>in</span> <span m='313710'>order</span> <span m='314020'>to</span> <span m='314610'>solve</span> <span m='314950'>this</span> <span m='315120'>problem. Right?</span> </p><p><span m='317760'>Now</span> <span m='318180'>if</span> <span m='318400'>we</span> <span m='318540'>have</span> <span m='319120'>n</span> <span m='319420'>different</span> <span m='319800'>partitions--</span> <span m='320470'>so</span> <span m='320710'>n</span> <span m='321010'>shells--</span> <span m='321800'>that</span> <span m='321970'>all</span> <span m='322140'>started</span> <span m='322520'>off</span> <span m='322720'>as</span> <span m='322830'>this</span> <span m='322960'>sort</span> <span m='323160'>of</span> <span m='323240'>blue-type</span> <span m='323780'>thing</span> <span m='323990'>and</span> <span m='324090'>I</span> <span m='324140'>open</span> <span m='324430'>up</span> <span m='324580'>and</span> <span m='324680'>look</span> <span m='324800'>like</span> <span m='324980'>this.</span> <span m='325870'>Then</span> <span m='326030'>I</span> <span m='326100'>want</span> <span m='326290'>to</span> <span m='326350'>figure</span> <span m='326690'>out</span> <span m='326930'>what</span> <span m='327070'>is</span> <span m='327200'>the</span> <span m='327270'>volume</span> <span m='327850'>of</span> <span m='327960'>these</span> <span m='328100'>shells.</span> <span m='329250'>Once</span> <span m='329630'>I</span> <span m='329700'>know</span> <span m='329850'>the</span> <span m='329950'>volume</span> <span m='330390'>of</span> <span m='330480'>that</span> <span m='330670'>shell,</span> <span m='331130'>I</span> <span m='331250'>can</span> <span m='331420'>figure</span> <span m='331810'>out</span> <span m='331980'>the</span> <span m='332100'>amount,</span> <span m='333790'>roughly,</span> <span m='335050'>of</span> <span m='335380'>chemical</span> <span m='335920'>in</span> <span m='336210'>that</span> <span m='336510'>piece</span> <span m='337470'>by</span> <span m='337610'>multiplying</span> <span m='339040'>by</span> <span m='339170'>the</span> <span m='339270'>concentration.</span> </p><p><span m='341300'>So</span> <span m='341510'>let's</span> <span m='341770'>figure</span> <span m='342120'>out</span> <span m='342360'>what</span> <span m='342620'>this</span> <span m='342790'>volume</span> <span m='343300'>is</span> <span m='344410'>in</span> <span m='344610'>terms</span> <span m='345010'>of</span> <span m='345120'>these</span> <span m='345320'>little</span> <span m='345530'>radii</span> <span m='345920'>I'm</span> <span m='346130'>looking</span> <span m='346400'>at.</span> <span m='346640'>Well,</span> <span m='347280'>when</span> <span m='347540'>I</span> <span m='347660'>open</span> <span m='348040'>it</span> <span m='348150'>up,</span> <span m='348830'>what</span> <span m='349000'>do</span> <span m='349080'>I</span> <span m='349180'>get?</span> <span m='349850'>We're</span> <span m='350060'>assuming</span> <span m='350570'>this</span> <span m='351650'>here</span> <span m='352450'>is</span> <span m='352730'>this</span> <span m='352980'>little</span> <span m='353900'>segment</span> <span m='354320'>here,</span> <span m='354600'>and</span> <span m='354760'>so</span> <span m='354870'>that's</span> <span m='355150'>our</span> <span m='355270'>delta</span> <span m='355650'>r,</span> <span m='356170'>that's</span> <span m='356380'>our</span> <span m='356480'>change in</span> <span m='356980'>radius.</span> <span m='358540'>That's</span> <span m='358760'>how</span> <span m='358870'>much</span> <span m='359100'>I'm</span> <span m='359190'>changing.</span> <span m='359480'>So</span> <span m='359620'>this</span> <span m='359810'>would</span> <span m='359920'>be</span> <span m='360080'>some</span> <span m='360440'>r</span> <span m='361210'>subscript</span> <span m='361750'>i</span> <span m='362170'>and</span> <span m='362360'>this</span> <span m='362500'>would</span> <span m='362610'>be</span> <span m='362730'>some</span> <span m='362950'>r</span> <span m='363400'>subscript</span> <span m='363650'>i</span> <span m='363740'>plus</span> <span m='364010'>1.</span> <span m='364930'>And</span> <span m='365140'>let's</span> <span m='365330'>assume</span> <span m='365860'>that</span> <span m='365970'>we're</span> <span m='366070'>taking</span> <span m='366430'>everything</span> <span m='366880'>from</span> <span m='367150'>the</span> <span m='367920'>smaller</span> <span m='368370'>radius.</span> <span m='368840'>We're</span> <span m='368930'>going to</span> <span m='369090'>do</span> <span m='369190'>everything</span> <span m='369520'>from</span> <span m='369690'>the</span> <span m='369780'>smaller</span> <span m='370130'>radius.</span> <span m='371220'>So</span> <span m='371400'>then,</span> <span m='371720'>when</span> <span m='371970'>I</span> <span m='372160'>open</span> <span m='372540'>this</span> <span m='372730'>up,</span> <span m='373460'>this</span> <span m='373970'>circle</span> <span m='374900'>is</span> <span m='375100'>going</span> <span m='375300'>to</span> <span m='375370'>be</span> <span m='375500'>my</span> <span m='375680'>length.</span> <span m='376840'>So</span> <span m='377070'>my</span> <span m='377240'>length</span> <span m='378300'>is</span> <span m='378640'>2</span> <span m='378920'>pi</span> <span m='382110'>r</span> <span m='382600'>sub i.</span> <span m='384140'>And</span> <span m='384320'>then</span> <span m='384450'>the</span> <span m='384550'>height</span> <span m='385920'>is</span> <span m='386090'>easy.</span> <span m='386350'>The</span> <span m='386450'>height</span> <span m='386700'>is</span> <span m='386850'>constant.</span> <span m='387430'>The</span> <span m='387510'>height</span> <span m='387740'>is</span> <span m='387860'>just</span> <span m='388080'>capital</span> <span m='388480'>D. Right?</span> </p><p><span m='392410'>So</span> <span m='392710'>the</span> <span m='392880'>volume</span> <span m='393620'>of</span> <span m='394040'>each</span> <span m='394330'>shell--</span> <span m='396605'>let me</span> <span m='397060'>come</span> <span m='397340'>over</span> <span m='397550'>here--</span> <span m='400980'>the</span> <span m='401130'>volume</span> <span m='401600'>of</span> <span m='401720'>a</span> <span m='401770'>shell</span> <span m='403350'>is</span> <span m='403610'>something</span> <span m='404050'>like</span> <span m='405540'>2</span> <span m='406020'>pi</span> <span m='406760'>r</span> <span m='407430'>sub</span> <span m='407720'>i</span> <span m='408900'>times</span> <span m='409360'>D</span> <span m='411670'>times</span> <span m='412020'>delta</span> <span m='412380'>r.</span> <span m='414640'>And</span> <span m='414890'>so</span> <span m='415060'>then,</span> <span m='415260'>the</span> <span m='415370'>amount</span> <span m='415860'>of</span> <span m='415980'>chemical</span> <span m='416460'>in</span> <span m='416700'>the</span> <span m='416810'>shell</span> <span m='424720'>is</span> <span m='424950'>going</span> <span m='425200'>to</span> <span m='425300'>be</span> <span m='425480'>the</span> <span m='425600'>volume</span> <span m='429110'>times</span> <span m='429490'>the</span> <span m='429580'>concentration. Right?</span> <span m='434790'>The</span> <span m='434870'>volume</span> <span m='435200'>times</span> <span m='435410'>the</span> <span m='435460'>concentration.</span> <span m='436310'>So</span> <span m='436470'>the</span> <span m='436560'>volume</span> <span m='436950'>is,</span> <span m='437050'>again,</span> <span m='437340'>this.</span> <span m='438540'>I'm</span> <span m='438670'>going to</span> <span m='438810'>put</span> <span m='438980'>the</span> <span m='439050'>D</span> <span m='439380'>in</span> <span m='439500'>front</span> <span m='439690'>of</span> <span m='439750'>the</span> <span m='439830'>r</span> <span m='439970'>sub i.</span> <span m='440450'>2</span> <span m='440660'>pi</span> <span m='440960'>D</span> <span m='441690'>r</span> <span m='442010'>sub</span> <span m='442120'>i</span> <span m='442930'>delta</span> <span m='443290'>r</span> <span m='444580'>times</span> <span m='445100'>the</span> <span m='445190'>concentration,</span> <span m='446090'>which</span> <span m='446320'>if</span> <span m='446410'>we</span> <span m='446510'>come</span> <span m='446680'>back</span> <span m='446930'>over</span> <span m='447130'>here,</span> <span m='448080'>the</span> <span m='448190'>concentration</span> <span m='449010'>is</span> <span m='449220'>k</span> <span m='450120'>divided</span> <span m='450450'>by</span> <span m='450570'>1</span> <span m='450830'>plus</span> <span m='451110'>r</span> <span m='451330'>squared</span> <span m='452330'>grams</span> <span m='452620'>per</span> <span m='452750'>cubic</span> <span m='453020'>meter.</span> <span m='453810'>The</span> <span m='453940'>r</span> <span m='454240'>in</span> <span m='454360'>this</span> <span m='454520'>case</span> <span m='454780'>is</span> <span m='454890'>the</span> <span m='455000'>r</span> <span m='455160'>sub i.</span> <span m='455890'>I'm</span> <span m='456150'>assuming,</span> <span m='457210'>because</span> <span m='457470'>I'm</span> <span m='457550'>approximating</span> <span m='458200'>this,</span> <span m='458410'>that</span> <span m='458520'>everywhere</span> <span m='458960'>in</span> <span m='459070'>the</span> <span m='459140'>shell</span> <span m='460440'>has</span> <span m='460660'>the</span> <span m='460750'>same</span> <span m='460970'>concentration,</span> <span m='461670'>has</span> <span m='461840'>the</span> <span m='461900'>concentration</span> <span m='462460'>of</span> <span m='462530'>the</span> <span m='462640'>interior</span> <span m='463150'>radius.</span> </p><p><span m='464550'>So</span> <span m='464790'>if we</span> <span m='464910'>come</span> <span m='465050'>back</span> <span m='465230'>over</span> <span m='465400'>here,</span> <span m='467190'>we're</span> <span m='467320'>going to</span> <span m='467450'>write</span> <span m='467660'>k</span> <span m='468280'>over</span> <span m='469020'>1</span> <span m='469270'>plus</span> <span m='470190'>r</span> <span m='470420'>sub i</span> <span m='470930'>squared.</span> <span m='472620'>And</span> <span m='472910'>now</span> <span m='473030'>what</span> <span m='473180'>do</span> <span m='473270'>I</span> <span m='473630'>do</span> <span m='474130'>to</span> <span m='474250'>estimate</span> <span m='474830'>the</span> <span m='474930'>amount</span> <span m='475340'>in</span> <span m='475410'>the</span> <span m='475490'>entire</span> <span m='475830'>pool?</span> <span m='476540'>Well</span> <span m='476790'>I</span> <span m='476870'>add</span> <span m='477140'>all</span> <span m='477280'>of</span> <span m='477390'>these</span> <span m='477610'>up.</span> <span m='478870'>So</span> <span m='479070'>let</span> <span m='479330'>me</span> <span m='481970'>come</span> <span m='482190'>over</span> <span m='482390'>here</span> <span m='482740'>and</span> <span m='482900'>write</span> <span m='483120'>down</span> <span m='483360'>what</span> <span m='483480'>the</span> <span m='483570'>sum will</span> <span m='483940'>look</span> <span m='484130'>like.</span> </p><p><span m='484800'>So</span> <span m='484940'>I'm</span> <span m='485030'>going</span> <span m='485160'>to</span> <span m='485220'>be</span> <span m='485350'>summing</span> <span m='485910'>from</span> <span m='486270'>i</span> <span m='486640'>equals--</span> <span m='487220'>I</span> <span m='487360'>said</span> <span m='487580'>I</span> <span m='487620'>was</span> <span m='487780'>taking</span> <span m='488060'>the</span> <span m='488240'>interior</span> <span m='488820'>radius,</span> <span m='489470'>I</span> <span m='489610'>think--</span> <span m='490000'>i</span> <span m='490170'>equals</span> <span m='490440'>0</span> <span m='490740'>to</span> <span m='490840'>n</span> <span m='491080'>minus</span> <span m='491410'>1</span> <span m='493370'>of</span> <span m='493950'>this</span> <span m='494270'>quantity.</span> <span m='496080'>2*pi*D--</span> <span m='497730'>let</span> <span m='497890'>me</span> <span m='497990'>put</span> <span m='498240'>the</span> <span m='498330'>k</span> <span m='498720'>in</span> <span m='498870'>there</span> <span m='499110'>as</span> <span m='499210'>well--</span> <span m='500590'>k.</span> <span m='502250'>And</span> <span m='502490'>then</span> <span m='503200'>r sub i</span> <span m='504590'>over</span> <span m='504990'>1</span> <span m='505320'>plus</span> <span m='505840'>r sub i</span> <span m='506670'>squared</span> <span m='509230'>delta</span> <span m='509940'>r.</span> <span m='511640'>So</span> <span m='511830'>this</span> <span m='512070'>is</span> <span m='512190'>our</span> <span m='512330'>approximation</span> <span m='514030'>of</span> <span m='514310'>the</span> <span m='514590'>amount</span> <span m='515000'>of</span> <span m='515080'>chemical</span> <span m='517570'>in</span> <span m='517700'>the</span> <span m='517770'>pool.</span> </p><p><span m='518750'>And</span> <span m='518940'>again,</span> <span m='519220'>we</span> <span m='519320'>always</span> <span m='519590'>want</span> <span m='519740'>to</span> <span m='519800'>check</span> <span m='520030'>and</span> <span m='520130'>make</span> <span m='520260'>sure.</span> <span m='520550'>I</span> <span m='520700'>didn't</span> <span m='520930'>write</span> <span m='521120'>in</span> <span m='521260'>any</span> <span m='521470'>units,</span> <span m='521810'>but</span> <span m='521940'>do</span> <span m='522020'>the</span> <span m='522130'>units</span> <span m='522390'>make</span> <span m='522600'>sense?</span> <span m='523350'>Well</span> <span m='523670'>we</span> <span m='523790'>know</span> <span m='523930'>the</span> <span m='524020'>units</span> <span m='524280'>make</span> <span m='524490'>sense</span> <span m='524900'>because</span> <span m='525340'>when</span> <span m='525480'>I</span> <span m='525560'>did</span> <span m='525960'>the</span> <span m='526110'>amounts</span> <span m='526430'>in</span> <span m='526540'>the</span> <span m='526580'>shell,</span> <span m='527200'>I</span> <span m='527540'>did</span> <span m='527730'>volume</span> <span m='528100'>times</span> <span m='528340'>concentration.</span> <span m='529170'>And</span> <span m='529290'>volume</span> <span m='529750'>times</span> <span m='529980'>concentration</span> <span m='530620'>is</span> <span m='530710'>going</span> <span m='530900'>to</span> <span m='530960'>be</span> <span m='531080'>in</span> <span m='531190'>grams.</span> <span m='532030'>This</span> <span m='532250'>is</span> <span m='532380'>in</span> <span m='532480'>cubic</span> <span m='532770'>meters.</span> <span m='533540'>This is in</span> <span m='533860'>grams</span> <span m='534150'>per</span> <span m='534280'>cubic</span> <span m='534530'>meter.</span> <span m='535100'>So</span> <span m='535300'>I</span> <span m='535400'>know</span> <span m='535880'>I</span> <span m='536020'>have</span> <span m='536260'>the</span> <span m='536360'>right</span> <span m='536550'>unit.</span> <span m='536890'>So</span> <span m='537000'>that's</span> <span m='537220'>a</span> <span m='537860'>good</span> <span m='538030'>way</span> <span m='538210'>to</span> <span m='538300'>check.</span> <span m='539025'>It</span> <span m='539320'>doesn't</span> <span m='539720'>guarantee</span> <span m='540110'>you've</span> <span m='540270'>done</span> <span m='540430'>it</span> <span m='540510'>correctly.</span> <span m='540880'>But</span> <span m='541000'>at</span> <span m='541080'>least</span> <span m='541370'>you</span> <span m='541450'>can</span> <span m='541600'>check</span> <span m='541830'>and</span> <span m='541920'>make</span> <span m='542060'>sure</span> <span m='542230'>you</span> <span m='542340'>didn't</span> <span m='542600'>do</span> <span m='542750'>it, you know that--</span> <span m='546000'>how</span> <span m='546160'>would</span> <span m='546290'>I</span> <span m='546350'>say</span> <span m='546540'>this?</span> <span m='546810'>I</span> <span m='546890'>would</span> <span m='547020'>say</span> <span m='547860'>that</span> <span m='548170'>if</span> <span m='548680'>the</span> <span m='548850'>units</span> <span m='549260'>are</span> <span m='549400'>not</span> <span m='549570'>in</span> <span m='549650'>grams,</span> <span m='549970'>you</span> <span m='550060'>know</span> <span m='550200'>you</span> <span m='550340'>did</span> <span m='550480'>something</span> <span m='550760'>wrong.</span> <span m='551410'>So</span> <span m='551700'>at</span> <span m='551850'>least</span> <span m='552080'>now</span> <span m='552220'>we</span> <span m='552370'>know,</span> <span m='553200'>OK,</span> <span m='553920'>it</span> <span m='554260'>passes</span> <span m='554670'>the</span> <span m='554780'>first</span> <span m='555100'>smell test.</span> </p><p><span m='556150'>Now</span> <span m='556450'>what</span> <span m='556610'>do</span> <span m='556720'>I</span> <span m='556820'>do</span> <span m='557210'>to</span> <span m='557330'>find</span> <span m='557810'>the</span> <span m='558100'>exact</span> <span m='558650'>value?</span> <span m='559260'>Well</span> <span m='559880'>what</span> <span m='560070'>I</span> <span m='560110'>want to</span> <span m='560350'>do</span> <span m='560500'>is,</span> <span m='560610'>I</span> <span m='560680'>want to</span> <span m='560810'>come</span> <span m='561030'>back</span> <span m='561250'>over</span> <span m='562070'>to</span> <span m='562190'>the</span> <span m='562270'>picture</span> <span m='562560'>I</span> <span m='562650'>have</span> <span m='562830'>here</span> <span m='563490'>and</span> <span m='563720'>I</span> <span m='563750'>want to</span> <span m='563940'>let</span> <span m='564070'>these</span> <span m='564240'>shells</span> <span m='564620'>get</span> <span m='564770'>smaller</span> <span m='565100'>and</span> <span m='565190'>smaller.</span> <span m='566240'>And</span> <span m='566440'>how</span> <span m='566550'>do</span> <span m='566640'>I</span> <span m='566740'>let</span> <span m='566910'>those</span> <span m='567080'>shells</span> <span m='567350'>get</span> <span m='567540'>smaller</span> <span m='567840'>and</span> <span m='567950'>smaller?</span> <span m='569100'>Narrower</span> <span m='569580'>and</span> <span m='569750'>narrower,</span> <span m='570140'>I</span> <span m='570230'>should</span> <span m='570450'>say.</span> <span m='571250'>I</span> <span m='571400'>let</span> <span m='571590'>them</span> <span m='571700'>get</span> <span m='571850'>narrower</span> <span m='572380'>by</span> <span m='572640'>increasing</span> <span m='573220'>the</span> <span m='573310'>number</span> <span m='573780'>of</span> <span m='575150'>radii</span> <span m='575790'>on</span> <span m='575960'>which</span> <span m='576170'>I</span> <span m='576290'>do</span> <span m='576510'>this</span> <span m='576740'>kind</span> <span m='576980'>of</span> <span m='577230'>operation.</span> <span m='578140'>So</span> <span m='578390'>I'm</span> <span m='578550'>coming</span> <span m='578850'>over</span> <span m='579860'>here</span> <span m='580370'>and</span> <span m='580550'>now</span> <span m='580790'>I'm</span> <span m='580930'>letting</span> <span m='581200'>the n</span> <span m='581700'>get</span> <span m='581870'>bigger</span> <span m='582140'>and</span> <span m='582280'>bigger.</span> <span m='583780'>And</span> <span m='583940'>as</span> <span m='584030'>n</span> <span m='584230'>gets</span> <span m='584400'>bigger</span> <span m='584600'>and</span> <span m='584700'>bigger,</span> <span m='585130'>these</span> <span m='585520'>values</span> <span m='586440'>are</span> <span m='586580'>still</span> <span m='587030'>determined</span> <span m='587520'>the</span> <span m='587610'>same</span> <span m='587890'>way.</span> <span m='588890'>But</span> <span m='589150'>over</span> <span m='589340'>here</span> <span m='589610'>this</span> <span m='589830'>n</span> <span m='590080'>is</span> <span m='590190'>getting</span> <span m='590420'>larger</span> <span m='590740'>and</span> <span m='590870'>larger.</span> </p><p><span m='592310'>So</span> <span m='592550'>I</span> <span m='592740'>can</span> <span m='592910'>take</span> <span m='593110'>the</span> <span m='593190'>limit,</span> <span m='594280'>as</span> <span m='594440'>n</span> <span m='594620'>goes</span> <span m='594780'>to</span> <span m='594970'>infinity,</span> <span m='596170'>of</span> <span m='596370'>this</span> <span m='596550'>quantity</span> <span m='597140'>to</span> <span m='597270'>get</span> <span m='597420'>the</span> <span m='597510'>exact</span> <span m='597880'>amount.</span> <span m='598660'>What</span> <span m='599060'>is</span> <span m='599210'>the</span> <span m='599300'>limit</span> <span m='599690'>as</span> <span m='599780'>n</span> <span m='599960'>goes</span> <span m='600330'>to infinity</span> <span m='600840'>of</span> <span m='601400'>this?</span> <span m='601630'>This</span> <span m='601770'>is</span> <span m='601900'>actually</span> <span m='602290'>an</span> <span m='602380'>integral.</span> <span m='603290'>It's</span> <span m='603440'>the</span> <span m='603540'>integral</span> <span m='603700'>from</span> <span m='603990'>0</span> <span m='604380'>to</span> <span m='604520'>capital</span> <span m='604920'>R--</span> <span m='605520'>because</span> <span m='605780'>my</span> <span m='605920'>radius</span> <span m='606410'>is</span> <span m='606540'>ranging</span> <span m='606910'>from</span> <span m='607650'>0</span> <span m='607950'>to</span> <span m='608050'>that</span> <span m='608280'>big</span> <span m='608470'>R--</span> <span m='609380'>of</span> <span m='609810'>this</span> <span m='610570'>exact</span> <span m='611070'>function</span> <span m='611590'>of</span> <span m='612080'>R. Right?</span> </p><p><span m='613320'>So</span> <span m='613470'>I'm</span> <span m='613610'>going to</span> <span m='613740'>put</span> <span m='613890'>the</span> <span m='614190'>2*pi*D*k</span> <span m='616090'>out</span> <span m='616350'>here.</span> <span m='617410'>And</span> <span m='617640'>then</span> <span m='617760'>I</span> <span m='617860'>get</span> <span m='618240'>little</span> <span m='618750'>r</span> <span m='619060'>over</span> <span m='619940'>1</span> <span m='620110'>plus</span> <span m='620330'>r</span> <span m='620520'>squared</span> <span m='620940'>and</span> <span m='621060'>the delta</span> <span m='621420'>r</span> <span m='622170'>becomes</span> <span m='622560'>our</span> <span m='622680'>dr.</span> <span m='623970'>So</span> <span m='624190'>this</span> <span m='624400'>is,</span> <span m='624530'>in</span> <span m='624640'>fact,</span> <span m='625750'>going</span> <span m='626000'>to</span> <span m='626090'>be</span> <span m='626240'>the</span> <span m='626360'>amount,</span> <span m='626760'>in</span> <span m='626950'>grams,</span> <span m='627370'>of</span> <span m='627450'>the</span> <span m='627530'>chemical</span> <span m='627870'>that</span> <span m='627980'>was</span> <span m='628120'>released</span> <span m='628490'>into</span> <span m='628670'>the</span> <span m='628750'>pool.</span> </p><p><span m='630090'>So</span> <span m='630300'>we've</span> <span m='630490'>set up</span> <span m='630890'>our</span> <span m='631090'>integral.</span> <span m='631340'>I</span> <span m='631450'>think</span> <span m='631660'>I'll</span> <span m='631790'>stop</span> <span m='632190'>here.</span> <span m='632900'>If</span> <span m='633080'>you</span> <span m='633170'>want to</span> <span m='633380'>go</span> <span m='633480'>further</span> <span m='633900'>and</span> <span m='634020'>determine</span> <span m='634400'>it,</span> <span m='634500'>you</span> <span m='634620'>can.</span> <span m='636130'>And</span> <span m='637370'>you</span> <span m='637550'>may</span> <span m='637750'>want</span> <span m='637940'>to</span> <span m='638000'>think</span> <span m='638210'>about</span> <span m='639120'>what</span> <span m='639410'>strategy,</span> <span m='640020'>obviously,</span> <span m='640430'>what</span> <span m='640640'>strategy</span> <span m='640900'>you</span> <span m='641130'>want to</span> <span m='641360'>use</span> <span m='641690'>in</span> <span m='641770'>order</span> <span m='641950'>to</span> <span m='642030'>solve</span> <span m='642280'>this</span> <span m='642430'>problem.</span> <span m='642890'>I'll</span> <span m='643020'>give</span> <span m='643170'>you</span> <span m='643260'>a</span> <span m='643310'>hint.</span> <span m='644150'>Maybe</span> <span m='644440'>the</span> <span m='644530'>best</span> <span m='644870'>way</span> <span m='645010'>to</span> <span m='645110'>solve</span> <span m='645370'>this</span> <span m='645500'>problem</span> <span m='646360'>is</span> <span m='646600'>the</span> <span m='646670'>fact</span> <span m='646940'>that</span> <span m='647040'>when</span> <span m='647150'>you</span> <span m='647230'>take</span> <span m='647430'>the</span> <span m='647500'>derivative</span> <span m='648160'>of</span> <span m='648300'>1</span> <span m='648510'>plus</span> <span m='648760'>r</span> <span m='648940'>squared,</span> <span m='649910'>you</span> <span m='650150'>actually</span> <span m='650530'>get</span> <span m='651140'>2r.</span> <span m='652180'>And</span> <span m='652430'>so</span> <span m='652580'>that</span> <span m='652810'>derivative</span> <span m='653260'>is</span> <span m='653380'>almost</span> <span m='653950'>up</span> <span m='654080'>here.</span> <span m='654330'>So</span> <span m='654510'>maybe</span> <span m='654760'>this</span> <span m='654960'>is</span> <span m='655480'>a</span> <span m='655600'>good</span> <span m='656340'>hint</span> <span m='656570'>to</span> <span m='656670'>give</span> <span m='656840'>you</span> <span m='656930'>how</span> <span m='657080'>you</span> <span m='657220'>would</span> <span m='657360'>continue</span> <span m='657760'>this</span> <span m='657920'>problem.</span> </p><p><span m='658640'>But</span> <span m='658890'>I'll</span> <span m='659010'>stop</span> <span m='659290'>there.</span> <span m='659490'>So</span> <span m='659620'>let</span> <span m='659720'>me</span> <span m='659810'>just</span> <span m='660650'>go</span> <span m='660760'>back</span> <span m='661000'>one</span> <span m='661130'>more</span> <span m='661260'>time and</span> <span m='661450'>remind</span> <span m='661790'>you</span> <span m='662280'>what</span> <span m='662510'>we</span> <span m='662610'>were</span> <span m='662740'>doing.</span> <span m='663890'>What</span> <span m='664180'>we</span> <span m='664300'>were</span> <span m='664420'>doing,</span> <span m='665250'>if</span> <span m='665310'>we</span> <span m='665430'>come</span> <span m='665590'>back</span> <span m='665800'>over</span> <span m='665990'>here,</span> <span m='667500'>is</span> <span m='667680'>we</span> <span m='667790'>were</span> <span m='667910'>given</span> <span m='668200'>a</span> <span m='668280'>situation</span> <span m='669000'>where</span> <span m='669590'>we</span> <span m='669850'>knew</span> <span m='670070'>a</span> <span m='670170'>certain</span> <span m='670450'>function</span> <span m='672520'>of</span> <span m='672790'>the</span> <span m='672960'>radius,</span> <span m='673470'>the</span> <span m='673540'>distance</span> <span m='673860'>from</span> <span m='674030'>the</span> <span m='674110'>center.</span> <span m='675230'>And</span> <span m='675480'>we</span> <span m='675560'>wanted</span> <span m='675880'>to</span> <span m='675990'>determine</span> <span m='676440'>the</span> <span m='676520'>total</span> <span m='676830'>amount</span> <span m='677210'>of</span> <span m='678850'>chemical</span> <span m='679250'>that</span> <span m='679360'>was</span> <span m='679500'>released</span> <span m='679930'>into</span> <span m='680100'>the</span> <span m='680190'>pool.</span> <span m='680920'>And</span> <span m='681100'>so</span> <span m='681220'>we</span> <span m='681370'>estimated.</span> <span m='682130'>We</span> <span m='682260'>figured</span> <span m='682620'>out</span> <span m='682740'>a</span> <span m='682790'>way</span> <span m='683210'>to</span> <span m='683430'>estimate it</span> <span m='684110'>in</span> <span m='684250'>terms</span> <span m='684610'>of</span> <span m='685140'>splitting</span> <span m='685700'>up</span> <span m='685930'>the</span> <span m='686030'>radii.</span> <span m='687190'>We</span> <span m='687350'>had</span> <span m='688030'>the</span> <span m='688110'>radius</span> <span m='688470'>from</span> <span m='688650'>0</span> <span m='688870'>to</span> <span m='689510'>big</span> <span m='689930'>R.</span> <span m='690200'>And</span> <span m='690300'>we</span> <span m='690380'>just</span> <span m='690590'>divided</span> <span m='690920'>up</span> <span m='691010'>the</span> <span m='691110'>radii</span> <span m='691430'>and</span> <span m='691640'>assumed</span> <span m='691970'>certain</span> <span m='692230'>things</span> <span m='692450'>were</span> <span m='692550'>constant</span> <span m='693540'>in</span> <span m='694130'>these</span> <span m='694330'>regions.</span> </p><p><span m='695390'>And</span> <span m='695540'>we</span> <span m='695640'>determined</span> <span m='696050'>the</span> <span m='696130'>right</span> <span m='696540'>function</span> <span m='697110'>to</span> <span m='697220'>find--</span> <span m='698030'>if</span> <span m='698160'>we</span> <span m='698270'>move</span> <span m='698510'>over</span> <span m='698700'>here, over here--</span> <span m='700760'>we</span> <span m='700910'>would</span> <span m='701010'>determine</span> <span m='701370'>the</span> <span m='701460'>right</span> <span m='701690'>function</span> <span m='701960'>to</span> <span m='702030'>find</span> <span m='702320'>the</span> <span m='702380'>amount</span> <span m='702760'>of</span> <span m='702970'>chemical</span> <span m='703730'>in</span> <span m='703930'>a</span> <span m='704010'>certain</span> <span m='704270'>shell,</span> <span m='704830'>assuming</span> <span m='705760'>that</span> <span m='705970'>the</span> <span m='706050'>concentration</span> <span m='706610'>was</span> <span m='706810'>constant</span> <span m='707620'>throughout</span> <span m='707950'>that</span> <span m='708110'>shell.</span> <span m='709250'>And</span> <span m='709650'>then,</span> <span m='709850'>what</span> <span m='709990'>we</span> <span m='710140'>do</span> <span m='710450'>is</span> <span m='710650'>we</span> <span m='710800'>know</span> <span m='711250'>that</span> <span m='711430'>if</span> <span m='711530'>we</span> <span m='711650'>let</span> <span m='711880'>those</span> <span m='712080'>shells</span> <span m='712420'>get</span> <span m='712940'>arbitrarily</span> <span m='713650'>narrow,</span> <span m='714820'>that</span> <span m='715000'>means</span> <span m='715250'>that</span> <span m='715360'>we're</span> <span m='715470'>letting</span> <span m='715770'>the</span> <span m='715840'>number</span> <span m='716230'>of</span> <span m='716340'>radii</span> <span m='716780'>over</span> <span m='716980'>which</span> <span m='717160'>we're</span> <span m='717270'>doing</span> <span m='717500'>this</span> <span m='717660'>go</span> <span m='717780'>to</span> <span m='717910'>infinity.</span> <span m='719000'>And</span> <span m='719200'>we</span> <span m='719300'>know</span> <span m='719510'>that</span> <span m='719700'>this</span> <span m='719880'>summation</span> <span m='720410'>that</span> <span m='720530'>we</span> <span m='720620'>have</span> <span m='720870'>here,</span> <span m='722050'>as</span> <span m='722300'>n</span> <span m='722480'>goes</span> <span m='722660'>to</span> <span m='722750'>infinity,</span> <span m='723270'>becomes</span> <span m='723720'>an</span> <span m='723820'>integral.</span> <span m='725540'>So</span> <span m='725720'>that's</span> <span m='725920'>really,</span> <span m='726180'>we</span> <span m='726310'>exploited</span> <span m='726850'>what</span> <span m='727010'>we</span> <span m='727120'>know</span> <span m='727340'>about</span> <span m='727670'>this</span> <span m='728330'>sum</span> <span m='728690'>and</span> <span m='729790'>letting</span> <span m='730090'>this</span> <span m='730270'>partition,</span> <span m='731240'>letting</span> <span m='731490'>the</span> <span m='731580'>delta</span> <span m='731830'>r</span> <span m='732260'>get</span> <span m='732520'>arbitrarily</span> <span m='733090'>small.</span> <span m='734270'>That</span> <span m='734400'>that,</span> <span m='734670'>in</span> <span m='734780'>the</span> <span m='734870'>limit,</span> <span m='735260'>goes</span> <span m='735520'>to</span> <span m='735630'>an</span> <span m='735710'>integral.</span> <span m='736160'>And</span> <span m='736310'>then</span> <span m='736420'>that's</span> <span m='736630'>something</span> <span m='737020'>we</span> <span m='737130'>can</span> <span m='737260'>definitively</span> <span m='737820'>calculate.</span> <span m='739090'>So</span> <span m='739380'>I</span> <span m='739510'>think</span> <span m='739720'>I</span> <span m='739790'>will</span> <span m='739910'>stop</span> <span m='740140'>there.</span> </p>", 
    "_content_type_link_text": "text/plain", 
    "course_linking": [], 
    "_id": "diffusion-of-a-chemical", 
    "modification_date": "2016/09/25 01:20:26.542 GMT-4", 
    "media_index": [], 
    "always_publish": false, 
    "_owner": null, 
    "_permissions": {
        "Change portal events": {
            "acquire": false, 
            "roles": [
                "Editor", 
                "Manager", 
                "MetadataEditor", 
                "Owner"
            ]
        }, 
        "Modify portal content": {
            "acquire": false, 
            "roles": [
                "Manager", 
                "MetadataEditor"
            ]
        }, 
        "Access contents information": {
            "acquire": false, 
            "roles": [
                "Authenticated"
            ]
        }, 
        "List folder contents": {
            "acquire": false, 
            "roles": [
                "Editor", 
                "Manager", 
                "MetadataEditor", 
                "Owner"
            ]
        }, 
        "View": {
            "acquire": false, 
            "roles": [
                "Authenticated"
            ]
        }
    }, 
    "_properties": [
        [
            "title", 
            "Diffusion of a Chemical", 
            "string"
        ]
    ], 
    "creators": [
        "sbabbar"
    ], 
    "courselist_features": [], 
    "_path": "/Plone/courses/mathematics/18-01sc-single-variable-calculus-fall-2010/unit-3-the-definite-integral-and-its-applications/part-a-definition-of-the-definite-integral-and-first-fundamental-theorem/session-46-riemann-sums/diffusion-of-a-chemical"
}