{
    "rsi_top_html_area": "", 
    "text": "", 
    "_content_type_license": "text/plain", 
    "_uid": "59437ff025d8721880b85a663e9c3fba", 
    "title": "Definite Integral by Substitution", 
    "_ac_local_roles": {
        "sbabbar": [
            "Owner"
        ]
    }, 
    "template_type": "Embed", 
    "location": "", 
    "_content_type_course_identifier": "text/plain", 
    "_atbrefs": {}, 
    "constrainTypesMode": 0, 
    "_content_type_section_identifier": "text/plain", 
    "technical_location": "https://ocw.mit.edu/courses/mathematics/18-01sc-single-variable-calculus-fall-2010/unit-3-the-definite-integral-and-its-applications/part-a-definition-of-the-definite-integral-and-first-fundamental-theorem/session-49-applications-of-the-fundamental-theorem-of-calculus/definite-integral-by-substitution", 
    "software_requirements": [
        {
            "software_type_col": "Browser", 
            "minimum_version_col": "40.0", 
            "software_name_col": "Chrome", 
            "maximum_version_col": ""
        }, 
        {
            "software_type_col": "Browser", 
            "minimum_version_col": "8.0", 
            "software_name_col": "Safari", 
            "maximum_version_col": ""
        }, 
        {
            "software_type_col": "Browser", 
            "minimum_version_col": "38.0", 
            "software_name_col": "Mozilla Firefox", 
            "maximum_version_col": ""
        }, 
        {
            "software_type_col": "Browser", 
            "minimum_version_col": "9.0", 
            "software_name_col": "Internet Explorer", 
            "maximum_version_col": ""
        }, 
        {
            "software_type_col": "Browser", 
            "minimum_version_col": "13.1", 
            "software_name_col": "Edge", 
            "maximum_version_col": ""
        }
    ], 
    "_content_type_technical_location": "text/plain", 
    "start_time": "", 
    "_content_type_rights": "text/html", 
    "_directly_provided": [
        "Products.CMFEditions.interfaces.IVersioned"
    ], 
    "media_rights": "(CC BY-NC-SA)", 
    "parent_uid": "bd925f6f8a78fde6be8c709ded2799e9", 
    "excludeFromNav": false, 
    "about_this_resource_text": "", 
    "_content_type_unique_identifier": "text/plain", 
    "end_time": "", 
    "allowDiscussion": false, 
    "_content_type_materialtype": "text/plain", 
    "locallyAllowedTypes": [
        "OCWImage", 
        "OCWFile", 
        "OCWMediaAsset"
    ], 
    "optional_tab_title": "", 
    "ad_type": "HOUSE", 
    "creation_date": "2015/12/22 22:53:49.998 US/Eastern", 
    "aggregationlevel": 2, 
    "bottom_html_area": "", 
    "duration": "", 
    "immediatelyAddableTypes": [
        "OCWImage", 
        "OCWFile", 
        "OCWMediaAsset"
    ], 
    "_content_type_template_type": "text/plain", 
    "subject": [], 
    "_content_type_short_page_title": "text/plain", 
    "effectiveDate": "2015/12/29 03:48:25.913 US/Eastern", 
    "parent_module": "bfe41979b9593362793fd930b36efa01", 
    "is_mathml_document": false, 
    "bottomtext": "", 
    "short_page_title": "Definite Integral by Substitution", 
    "section_identifier": "https://ocw.mit.edu/courses/mathematics/18-01sc-single-variable-calculus-fall-2010/unit-3-the-definite-integral-and-its-applications", 
    "show_captions_outside_player": false, 
    "related_mit_links": "", 
    "_content_type_ad_type": "text/plain", 
    "_layout": "custom_view", 
    "_workflow_history": {
        "page_workflow": [
            {
                "action": null, 
                "review_state": "waiting_for_authoring", 
                "comments": "", 
                "actor": "sbabbar", 
                "time": "2015/12/22 22:53:50.010 US/Eastern"
            }, 
            {
                "action": "approve_to_staging", 
                "review_state": "ready_for_staging", 
                "actor": "sbabbar", 
                "comments": "", 
                "time": "2015/12/29 03:48:28.544 US/Eastern"
            }
        ]
    }, 
    "_content_type_transcript": "text/html", 
    "metadata_contributor_list": [], 
    "_userdefined_roles": [], 
    "_content_type_inline_embed_id": "text/plain", 
    "publisher": "MIT OpenCourseWare", 
    "nextPreviousEnabled": false, 
    "_gopip": 10, 
    "license": "http://creativecommons.org/licenses/by-nc-sa/3.0/us/", 
    "url_rewrite_patterns": [], 
    "widgets_features": [], 
    "category_features": [], 
    "resource_contributor_list": [
        {
            "res_contributor_entity": "Jerison, David", 
            "res_contributor_uid": "b28f05bbf3c3b44d28bc8f11fc7834cd", 
            "res_contributor_role": "Performer"
        }
    ], 
    "show_jump_back_5_seconds_button": false, 
    "firstTimeEdit": false, 
    "_content_type_media_rights": "text/plain", 
    "feature_requirements": [], 
    "list_in_left_nav": false, 
    "inline_embed_id": "88329296definiteintegralbysubstitution89412799", 
    "_classname": "MediaResource", 
    "short_name_tlp": "", 
    "expirationDate": "None", 
    "_content_type_id": "text/plain", 
    "contributor_list": [
        {}
    ], 
    "is_media_gallery": false, 
    "contributors": [], 
    "media_locations": [
        {}
    ], 
    "_content_type_media_resource_type": "text/plain", 
    "_content_type_title": "text/plain", 
    "subtitle_exemption": "None", 
    "_content_type": "text/html", 
    "resource_index_text": "", 
    "_atrefs": {
        "BelongsTo": [
            "bfe41979b9593362793fd930b36efa01"
        ]
    }, 
    "media_slides": [], 
    "other_platform_requirements": "", 
    "language": "", 
    "rights": "This site (c) Massachusetts Institute of Technology 2015.  Content within individual courses is (c) by the individual authors unless otherwise noted. The Massachusetts Institute of Technology is providing this Work (as defined below) under the terms of this Creative Commons public license (\"CCPL\" or \"license\") unless otherwise noted. The Work is protected by copyright and/or other applicable law. Any use of the work other than as authorized under this license is prohibited. By exercising any of the rights to the Work provided here, You (as defined below) accept and agree to be bound by the terms of this license. The Licensor, the Massachusetts Institute of Technology, grants You the rights contained here in consideration of Your acceptance of such terms and conditions.", 
    "hide_Page_title": false, 
    "_defaultpage": "", 
    "related_resources_text": "", 
    "tcATmit_subject_tags": [], 
    "features_tracking": [], 
    "ad_champion_text": "", 
    "has_inline_embed": false, 
    "unique_identifier": "https://ocw.mit.edu/courses/mathematics/18-01sc-single-variable-calculus-fall-2010/unit-3-the-definite-integral-and-its-applications/part-a-definition-of-the-definite-integral-and-first-fundamental-theorem/session-49-applications-of-the-fundamental-theorem-of-calculus/definite-integral-by-substitution", 
    "link_text": "Definite Integral by Substitution", 
    "is_image_gallery": false, 
    "id": "definite-integral-by-substitution", 
    "_content_type_subtitle_exemption": "text/plain", 
    "materialtype": "Other", 
    "optional_text": "", 
    "_type": "MediaResource", 
    "description": "", 
    "media_resource_type": "Video", 
    "course_identifier": "https://ocw.mit.edu/courses/mathematics/18-01sc-single-variable-calculus-fall-2010", 
    "_content_type_publisher": "text/plain", 
    "tcATmit_instructional_tags": [], 
    "transcript": "<p><span m='7150'>PROFESSOR: Hi.</span> <span m='7560'>Welcome</span> <span m='7900'>back</span> <span m='8100'>to</span> <span m='8190'>recitation.</span> <span m='9140'>Today</span> <span m='9560'>we're</span> <span m='9710'>going to</span> <span m='9910'>do</span> <span m='10160'>another</span> <span m='10500'>example</span> <span m='10970'>of</span> <span m='11070'>a</span> <span m='11160'>definite</span> <span m='11680'>integral.</span> <span m='12210'>This</span> <span m='12400'>time,</span> <span m='12830'>it's</span> <span m='13040'>going to</span> <span m='13210'>be</span> <span m='13300'>one</span> <span m='13940'>that</span> <span m='14100'>you're</span> <span m='14220'>going to</span> <span m='14650'>need</span> <span m='14950'>to</span> <span m='15050'>do</span> <span m='15400'>some</span> <span m='16000'>substitution</span> <span m='16620'>for.</span> <span m='16810'>You're</span> <span m='16940'>not</span> <span m='17080'>going to</span> <span m='17250'>know</span> <span m='17430'>the</span> <span m='17690'>antiderivative</span> <span m='18190'>right</span> <span m='18370'>off</span> <span m='18510'>the</span> <span m='18580'>top</span> <span m='18790'>of</span> <span m='18860'>your</span> <span m='18960'>head,</span> <span m='19130'>I</span> <span m='19190'>think.</span> </p><p><span m='19820'>So,</span> <span m='20020'>I've</span> <span m='20160'>got</span> <span m='20350'>it</span> <span m='20440'>on</span> <span m='20570'>the</span> <span m='20950'>board</span> <span m='21260'>behind</span> <span m='21570'>me.</span> <span m='21710'>So</span> <span m='21890'>it's</span> <span m='22040'>compute</span> <span m='22840'>the</span> <span m='23200'>integral</span> <span m='23450'>from</span> <span m='23660'>minus</span> <span m='24010'>2</span> <span m='24290'>to 2</span> <span m='24760'>of</span> <span m='25070'>the</span> <span m='25180'>function</span> <span m='25710'>x</span> <span m='25990'>squared</span> <span m='26790'>cosine</span> <span m='27360'>of</span> <span m='27470'>the</span> <span m='27570'>quantity</span> <span m='28500'>x cubed</span> <span m='29240'>over</span> <span m='29500'>8</span> <span m='29820'>dx.</span> <span m='30570'>So,</span> <span m='31470'>this</span> <span m='31650'>is</span> <span m='31710'>a</span> <span m='31760'>kind</span> <span m='31950'>of</span> <span m='32060'>a weird</span> <span m='32560'>integrand.</span> <span m='34430'>Roughly,</span> <span m='35560'>you</span> <span m='35670'>know,</span> <span m='35810'>very,</span> <span m='36130'>very</span> <span m='36390'>rough</span> <span m='36950'>graph</span> <span m='37380'>of</span> <span m='37800'>kind</span> <span m='38030'>of</span> <span m='38090'>what</span> <span m='38240'>it</span> <span m='38330'>looks</span> <span m='38530'>like.</span> <span m='38740'>So</span> <span m='38850'>this</span> <span m='39010'>is</span> <span m='39470'>sort</span> <span m='39670'>of</span> <span m='39770'>the</span> <span m='39840'>area</span> <span m='40790'>of</span> <span m='41030'>this</span> <span m='41250'>region.</span> <span m='41600'>It's</span> <span m='41920'>a</span> <span m='41990'>positive</span> <span m='42580'>function</span> <span m='43060'>over</span> <span m='43300'>this</span> <span m='43460'>interval.</span> <span m='43870'>So</span> <span m='44020'>it's</span> <span m='44710'>the</span> <span m='44920'>area</span> <span m='45320'>of</span> <span m='45440'>this</span> <span m='45600'>region</span> <span m='46400'>that</span> <span m='47130'>I'm</span> <span m='47260'>asking</span> <span m='47610'>you</span> <span m='47670'>to</span> <span m='47760'>compute.</span> <span m='48700'>So, all right,</span> <span m='50070'>so definite</span> <span m='50530'>integral.</span> <span m='51690'>Why</span> <span m='51850'>don't</span> <span m='51920'>you</span> <span m='52180'>pause</span> <span m='52420'>the</span> <span m='52490'>video,</span> <span m='53150'>take</span> <span m='53370'>a</span> <span m='53410'>couple</span> <span m='53650'>minutes,</span> <span m='53950'>work</span> <span m='54180'>this</span> <span m='54330'>out</span> <span m='54490'>yourself,</span> <span m='55170'>come</span> <span m='55390'>back,</span> <span m='55670'>we</span> <span m='55780'>can</span> <span m='55900'>work</span> <span m='56070'>it</span> <span m='56130'>out</span> <span m='56280'>together.</span> </p><p><span m='63780'>All</span> <span m='63910'>right,</span> <span m='64220'>welcome</span> <span m='64530'>back.</span> <span m='64890'>So,</span> <span m='66050'>from</span> <span m='66300'>looking</span> <span m='66630'>at</span> <span m='66720'>this</span> <span m='66860'>integrand</span> <span m='67450'>here,</span> <span m='67750'>it</span> <span m='67860'>seems</span> <span m='68170'>to</span> <span m='68300'>me</span> <span m='68900'>that</span> <span m='69310'>I</span> <span m='69450'>don't</span> <span m='69700'>know</span> <span m='70010'>immediately</span> <span m='70610'>off</span> <span m='70790'>the</span> <span m='70880'>top</span> <span m='71110'>of</span> <span m='71190'>my</span> <span m='71320'>head</span> <span m='71640'>what</span> <span m='72490'>its</span> <span m='72800'>antiderivative</span> <span m='73350'>is.</span> <span m='73620'>So,</span> <span m='74890'>I</span> <span m='75000'>can't</span> <span m='75320'>just</span> <span m='75470'>sort</span> <span m='75610'>of</span> <span m='76380'>apply</span> <span m='76930'>the</span> <span m='77130'>fundamental</span> <span m='77600'>theorem of</span> <span m='77920'>calculus</span> <span m='78350'>directly</span> <span m='78820'>without</span> <span m='79080'>a</span> <span m='79130'>little</span> <span m='79350'>bit</span> <span m='79480'>of</span> <span m='79600'>work.</span> </p><p><span m='80580'>So</span> <span m='80730'>there are</span> <span m='80890'>two</span> <span m='81170'>different</span> <span m='81450'>ways</span> <span m='81840'>that</span> <span m='81950'>I</span> <span m='82020'>can</span> <span m='82860'>go</span> <span m='83060'>about</span> <span m='84480'>computing</span> <span m='84940'>this then, about computing this</span> <span m='85440'>definite</span> <span m='85760'>integral.</span> <span m='86250'>One</span> <span m='86680'>is,</span> <span m='87270'>that</span> <span m='87390'>I</span> <span m='87460'>can</span> <span m='87610'>forget</span> <span m='88090'>for</span> <span m='88210'>the</span> <span m='88320'>minute</span> <span m='88770'>that</span> <span m='88950'>it's</span> <span m='89070'>a</span> <span m='89140'>definite</span> <span m='89540'>integral</span> <span m='90170'>and</span> <span m='90320'>compute</span> <span m='90730'>the</span> <span m='90830'>antiderivative</span> <span m='91760'>and</span> <span m='92000'>then</span> <span m='92140'>use</span> <span m='92340'>the</span> <span m='92430'>fundamental</span> <span m='92870'>theorem of</span> <span m='93210'>calculus.</span> <span m='94180'>So,</span> <span m='94760'>let's</span> <span m='94990'>try</span> <span m='95200'>that</span> <span m='95400'>way</span> <span m='95510'>first</span> <span m='95860'>and</span> <span m='96010'>then</span> <span m='96120'>we'll</span> <span m='96520'>do</span> <span m='96650'>it</span> <span m='96740'>a</span> <span m='96780'>second</span> <span m='97110'>way</span> <span m='97270'>as</span> <span m='97390'>well.</span> <span m='97930'>So,</span> <span m='103090'>method</span> <span m='103470'>one</span> <span m='104950'>is</span> <span m='105150'>to</span> <span m='105240'>compute</span> <span m='115265'>the antiderivative.</span> <span m='116620'>So</span> <span m='116810'>we</span> <span m='116960'>compute</span> <span m='117910'>the</span> <span m='118140'>antiderivative</span> <span m='119220'>of</span> <span m='119560'>x</span> <span m='119860'>squared</span> <span m='121600'>cosine</span> <span m='123500'>of x cubed</span> <span m='124340'>over</span> <span m='124610'>8</span> <span m='126100'>dx.</span> <span m='126430'>So</span> <span m='126530'>here,</span> <span m='126830'>it's</span> <span m='126970'>not</span> <span m='127200'>a</span> <span m='127230'>definite</span> <span m='127640'>integral</span> <span m='128010'>anymore.</span> <span m='128320'>Now</span> <span m='128470'>I'm</span> <span m='128590'>just</span> <span m='128790'>looking</span> <span m='129050'>at</span> <span m='129130'>the</span> <span m='129220'>antiderivative.</span> <span m='130410'>And</span> <span m='130660'>so, OK, so</span> <span m='132090'>either</span> <span m='132360'>by</span> <span m='132920'>intelligent</span> <span m='133660'>guessing</span> <span m='134200'>or that--</span> <span m='136100'>I</span> <span m='136210'>forget</span> <span m='137260'>if</span> <span m='137400'>that's</span> <span m='137610'>what</span> <span m='137930'>Professor</span> <span m='138360'>Jerison</span> <span m='138700'>called it--</span> <span m='138960'>or</span> <span m='139270'>by</span> <span m='139860'>just</span> <span m='140180'>a</span> <span m='140530'>substitution</span> <span m='140825'>method.</span> <span m='141580'>So,</span> <span m='141810'>a</span> <span m='142350'>good</span> <span m='142630'>thing</span> <span m='142850'>to</span> <span m='142970'>substitute</span> <span m='143450'>here,</span> <span m='143860'>is</span> <span m='144310'>we</span> <span m='144420'>see</span> <span m='144840'>inside</span> <span m='145950'>this</span> <span m='146350'>function</span> <span m='146700'>we</span> <span m='146790'>have</span> <span m='146920'>this</span> <span m='147060'>x cubed</span> <span m='147780'>part</span> <span m='148200'>and</span> <span m='148420'>then</span> <span m='148530'>outside</span> <span m='149010'>we</span> <span m='149090'>have</span> <span m='149570'>an</span> <span m='149730'>x</span> <span m='149930'>squared</span> <span m='150380'>part.</span> <span m='150670'>So</span> <span m='151060'>x</span> <span m='151300'>squared</span> <span m='151670'>dx,</span> <span m='152060'>that's</span> <span m='152330'>closely</span> <span m='152860'>related</span> <span m='153360'>to</span> <span m='154490'>the</span> <span m='154960'>differential</span> <span m='155680'>of</span> <span m='156260'>x cubed.</span> </p><p><span m='157120'>So</span> <span m='157290'>we</span> <span m='157410'>might</span> <span m='157660'>try</span> <span m='158090'>the</span> <span m='158520'>substitution--</span> <span m='160940'>we</span> <span m='161060'>might</span> <span m='161290'>try</span> <span m='161500'>the</span> <span m='161580'>substitution</span> <span m='162230'>u</span> <span m='162580'>equals--</span> <span m='163200'>well</span> <span m='163420'>we</span> <span m='163530'>can</span> <span m='163960'>maybe</span> <span m='164270'>get</span> <span m='164480'>rid</span> <span m='164600'>of</span> <span m='164680'>all of</span> <span m='164930'>that at</span> <span m='165260'>once--</span> <span m='165410'>so</span> <span m='165600'>make</span> <span m='165850'>u</span> <span m='166130'>equals</span> <span m='167010'>x cubed</span> <span m='167740'>over</span> <span m='168070'>8.</span> <span m='168970'>So</span> <span m='169180'>in</span> <span m='169270'>that</span> <span m='169480'>case,</span> <span m='170240'>du</span> <span m='171520'>is</span> <span m='171720'>equal</span> <span m='171960'>to</span> <span m='172070'>3/8</span> <span m='175430'>x</span> <span m='175700'>squared</span> <span m='176830'>dx.</span> <span m='177550'>And</span> <span m='177790'>so</span> <span m='177910'>this</span> <span m='178380'>integral</span> <span m='179570'>is</span> <span m='179840'>equal</span> <span m='180230'>to</span> <span m='181640'>the</span> <span m='181710'>integral</span> <span m='182170'>of--</span> <span m='182950'>well</span> <span m='183180'>so,</span> <span m='183820'>x</span> <span m='184100'>squared</span> <span m='184570'>dx,</span> <span m='184990'>we</span> <span m='185130'>have</span> <span m='185490'>that.</span> <span m='186130'>So</span> <span m='186350'>we</span> <span m='186460'>need</span> <span m='186670'>to</span> <span m='186810'>multiply</span> <span m='187680'>and</span> <span m='187860'>divide</span> <span m='188230'>by</span> <span m='188360'>3/8.</span> <span m='188730'>So</span> <span m='188920'>this</span> <span m='189080'>is,</span> <span m='189930'>8/3</span> <span m='192590'>cosine</span> <span m='192910'>of</span> <span m='193230'>u</span> <span m='194620'>du.</span> </p><p><span m='196470'>All</span> <span m='196650'>right,</span> <span m='197090'>and</span> <span m='197360'>so</span> <span m='197480'>now, OK,</span> <span m='198470'>so</span> <span m='198600'>the</span> <span m='198700'>8/3,</span> <span m='199230'>that's</span> <span m='199420'>just</span> <span m='199590'>a</span> <span m='199660'>constant.</span> <span m='200090'>That</span> <span m='200250'>pulls</span> <span m='200510'>out</span> <span m='200630'>in</span> <span m='200720'>front.</span> <span m='200990'>That's</span> <span m='201200'>not</span> <span m='201640'>hard.</span> <span m='202140'>So</span> <span m='202400'>then</span> <span m='202850'>the</span> <span m='203070'>antiderivative</span> <span m='203370'>of</span> <span m='203830'>cosine</span> <span m='204540'>u du,</span> <span m='205510'>that's</span> <span m='205790'>something</span> <span m='206160'>we</span> <span m='206270'>know.</span> <span m='206820'>So</span> <span m='207030'>this</span> <span m='207190'>is</span> <span m='208640'>8/3</span> <span m='211100'>of</span> <span m='212390'>minus</span> <span m='214340'>sine--</span> <span m='215140'>sorry</span> <span m='215780'>not</span> <span m='216140'>minus;</span> <span m='217500'>I was</span> <span m='217970'>doing the</span> <span m='218230'>derivative</span> <span m='218490'>instead of</span> <span m='218590'>the</span> <span m='218670'>antiderivative.</span> <span m='219620'>Just</span> <span m='220220'>8/3</span> <span m='220730'>sine</span> <span m='221150'>u.</span> <span m='222300'>OK.</span> <span m='222780'>And</span> <span m='224020'>good.</span> <span m='224350'>So</span> <span m='224520'>that's</span> <span m='224790'>the</span> <span m='224910'>anti--</span> <span m='225130'>plus</span> <span m='225390'>the</span> <span m='225470'>constant,</span> <span m='225930'>which</span> <span m='226090'>we</span> <span m='226220'>don't</span> <span m='226780'>need</span> <span m='227010'>because</span> <span m='227160'>we're</span> <span m='227260'>going to</span> <span m='227450'>plug</span> <span m='227760'>this</span> <span m='227880'>in</span> <span m='227960'>the</span> <span m='228040'>fundamental</span> <span m='228450'>theorem</span> <span m='228755'>of</span> <span m='229060'>calculus</span> <span m='229410'>in</span> <span m='229600'>a</span> <span m='229710'>minute.</span> </p><p><span m='230100'>So</span> <span m='230310'>it's</span> <span m='230430'>8/3</span> <span m='230970'>sine</span> <span m='231330'>u.</span> <span m='234540'>And, OK, so, but</span> <span m='234680'>that's</span> <span m='234890'>not</span> <span m='235100'>good.</span> <span m='235290'>I</span> <span m='235530'>need</span> <span m='235700'>it</span> <span m='235770'>back</span> <span m='235970'>in</span> <span m='236050'>terms</span> <span m='236280'>of</span> <span m='236360'>my</span> <span m='236480'>x's.</span> <span m='236700'>And</span> <span m='236810'>so</span> <span m='236920'>I</span> <span m='236990'>have</span> <span m='237110'>to</span> <span m='237860'>back-substitute.</span> <span m='238410'>So</span> <span m='238510'>this</span> <span m='238680'>is</span> <span m='239970'>8/3</span> <span m='242780'>sine</span> <span m='244540'>of</span> <span m='245010'>x cubed</span> <span m='246690'>over</span> <span m='246960'>8.</span> </p><p><span m='248930'>All right, now</span> <span m='249600'>I've</span> <span m='249790'>got</span> <span m='250300'>an</span> <span m='250500'>antiderivative</span> <span m='251540'>of</span> <span m='251720'>this</span> <span m='251860'>expression.</span> <span m='252560'>So</span> <span m='252740'>now</span> <span m='252920'>I</span> <span m='253000'>can</span> <span m='253190'>take</span> <span m='253440'>this</span> <span m='253570'>antiderivative</span> <span m='254410'>and</span> <span m='254640'>apply</span> <span m='254980'>fundamental</span> <span m='255450'>theorem of</span> <span m='255810'>calculus, Right?</span> <span m='257270'>So,</span> <span m='259530'>the</span> <span m='259750'>integral</span> <span m='259960'>from</span> <span m='260160'>minus</span> <span m='260550'>2</span> <span m='261310'>to</span> <span m='261440'>2</span> <span m='262192'>of</span> <span m='262910'>x</span> <span m='263220'>squared</span> <span m='264830'>cosine</span> <span m='265302'>of</span> <span m='266720'>x cubed</span> <span m='267350'>over</span> <span m='267570'>8</span> <span m='268830'>dx</span> <span m='270510'>is</span> <span m='270730'>equal</span> <span m='271140'>to--</span> <span m='271730'>well it's</span> <span m='272100'>equal</span> <span m='272400'>to</span> <span m='272500'>this</span> <span m='272690'>antiderivative--</span> <span m='274050'>8/3</span> <span m='276180'>sine</span> <span m='278100'>x cubed</span> <span m='280020'>over 8</span> <span m='281380'>taken</span> <span m='281770'>between</span> <span m='283980'>x</span> <span m='284350'>equals</span> <span m='284600'>minus</span> <span m='284940'>2</span> <span m='286890'>and x</span> <span m='287270'>equals</span> <span m='287620'>2.</span> </p><p><span m='288480'>So</span> <span m='288690'>this</span> <span m='288870'>is</span> <span m='289000'>equal</span> <span m='289320'>to</span> <span m='291380'>8/3</span> <span m='293230'>times</span> <span m='293630'>sine</span> <span m='294880'>of</span> <span m='295150'>1</span> <span m='296740'>minus</span> <span m='298560'>8/3</span> <span m='300220'>times</span> <span m='300670'>sine</span> <span m='301810'>of</span> <span m='302000'>minus</span> <span m='302490'>1.</span> <span m='303720'>OK, and</span> <span m='304190'>sine</span> <span m='304740'>of</span> <span m='304880'>minus</span> <span m='305260'>x is</span> <span m='305630'>equal</span> <span m='305880'>to</span> <span m='305980'>minus</span> <span m='306440'>sine</span> <span m='306790'>x.</span> <span m='307230'>So</span> <span m='307440'>we</span> <span m='307560'>could</span> <span m='307710'>rewrite</span> <span m='308150'>this</span> <span m='309180'>as</span> <span m='309360'>16/3</span> <span m='311340'>times</span> <span m='311630'>sine</span> <span m='312790'>of</span> <span m='312980'>1.</span> <span m='314460'>So</span> <span m='314590'>that's</span> <span m='314820'>the</span> <span m='314910'>answer.</span> <span m='315270'>That's</span> <span m='315480'>the</span> <span m='315580'>value</span> <span m='316370'>of</span> <span m='316550'>this</span> <span m='316710'>integral.</span> <span m='317490'>And</span> <span m='317710'>we</span> <span m='317810'>did</span> <span m='318010'>this</span> <span m='318540'>first</span> <span m='318870'>method</span> <span m='319540'>by</span> <span m='319750'>first</span> <span m='320170'>computing</span> <span m='320520'>the</span> <span m='320910'>antiderivative</span> <span m='321810'>and</span> <span m='322010'>then</span> <span m='322300'>using</span> <span m='322650'>it</span> <span m='322740'>with</span> <span m='322850'>the</span> <span m='322930'>fundamental</span> <span m='323360'>theorem of</span> <span m='323670'>calculus.</span> </p><p><span m='324530'>The</span> <span m='324650'>second</span> <span m='325080'>way</span> <span m='325190'>we</span> <span m='325340'>can</span> <span m='325490'>do</span> <span m='325730'>it</span> <span m='326020'>is</span> <span m='326260'>the</span> <span m='326340'>one</span> <span m='326570'>that</span> <span m='326660'>we</span> <span m='326770'>just</span> <span m='327020'>learned</span> <span m='327360'>more</span> <span m='327580'>recently</span> <span m='327980'>in</span> <span m='328080'>lecture.</span> <span m='328570'>Which</span> <span m='328740'>is to</span> <span m='328940'>use</span> <span m='329210'>substitution</span> <span m='329880'>directly</span> <span m='330540'>in</span> <span m='330680'>the</span> <span m='330780'>definite</span> <span m='331180'>integral.</span> <span m='332010'>So</span> <span m='332250'>let</span> <span m='332400'>me</span> <span m='333430'>come</span> <span m='333740'>over</span> <span m='333900'>here</span> <span m='334100'>and</span> <span m='334230'>do</span> <span m='334340'>that.</span> <span m='334640'>So,</span> <span m='334925'>method</span> <span m='335210'>two.</span> <span m='355210'>So</span> <span m='355650'>now,</span> <span m='356560'>when</span> <span m='356720'>we</span> <span m='356820'>do</span> <span m='356940'>it</span> <span m='357070'>this</span> <span m='357280'>way,</span> <span m='358040'>mostly</span> <span m='358690'>this</span> <span m='358880'>looks</span> <span m='359120'>the</span> <span m='359230'>same.</span> <span m='360150'>So we</span> <span m='360330'>start</span> <span m='360640'>off,</span> <span m='360860'>we</span> <span m='360950'>don't</span> <span m='361480'>go</span> <span m='361640'>back</span> <span m='361890'>to</span> <span m='361960'>antiderivative.</span> <span m='362670'>We</span> <span m='362790'>start</span> <span m='363110'>off</span> <span m='363320'>with</span> <span m='363430'>the</span> <span m='363490'>definite</span> <span m='363880'>integral.</span> <span m='364600'>So that's</span> <span m='364930'>one</span> <span m='365160'>difference.</span> <span m='370350'>We</span> <span m='370530'>can</span> <span m='370660'>use</span> <span m='370900'>the</span> <span m='371010'>exact</span> <span m='371550'>same</span> <span m='371850'>substitution.</span> <span m='372780'>So</span> <span m='372900'>we</span> <span m='373010'>can</span> <span m='373160'>use</span> <span m='373660'>exactly</span> <span m='374280'>the</span> <span m='374380'>substitution</span> <span m='375000'>that</span> <span m='375090'>we</span> <span m='375180'>used</span> <span m='375410'>before,</span> <span m='375780'>which</span> <span m='375910'>was</span> <span m='376090'>u</span> <span m='376320'>equals</span> <span m='376670'>x cubed</span> <span m='377120'>over</span> <span m='377360'>8.</span> <span m='377740'>That</span> <span m='378070'>doesn't</span> <span m='378390'>change.</span> <span m='384300'>And</span> <span m='384470'>we</span> <span m='384560'>still</span> <span m='384820'>have</span> <span m='385050'>the</span> <span m='385140'>same</span> <span m='385650'>du</span> <span m='387110'>is equal to</span> <span m='387600'>3</span> <span m='389884'>x</span> <span m='391050'>squared</span> <span m='391430'>over</span> <span m='391660'>8,</span> <span m='391950'>but</span> <span m='392240'>what</span> <span m='392440'>does</span> <span m='392880'>change--</span> <span m='393310'>sorry,</span> <span m='395140'>dx. Good.</span> <span m='397190'>You</span> <span m='397580'>need</span> <span m='397810'>a</span> <span m='398300'>differential</span> <span m='399440'>always</span> <span m='399820'>to</span> <span m='399940'>be</span> <span m='400040'>equal</span> <span m='400280'>to</span> <span m='400390'>a</span> <span m='400470'>differential.</span> </p><p><span m='402830'>So</span> <span m='403110'>what</span> <span m='403380'>does</span> <span m='403760'>change</span> <span m='404700'>is</span> <span m='405100'>that</span> <span m='405890'>this--</span> <span m='406600'>I</span> <span m='406750'>need</span> <span m='406940'>to</span> <span m='407030'>change</span> <span m='407400'>the</span> <span m='407500'>bounds. Right?</span> <span m='408290'>If I'm</span> <span m='408490'>keeping</span> <span m='408810'>it</span> <span m='408880'>as</span> <span m='408960'>definite</span> <span m='409610'>integrals</span> <span m='409800'>all</span> <span m='410030'>the</span> <span m='410120'>time, so</span> <span m='410990'>I'm</span> <span m='411060'>changing</span> <span m='412240'>here</span> <span m='412750'>from</span> <span m='412960'>an</span> <span m='413060'>integral</span> <span m='413690'>with</span> <span m='413910'>respect</span> <span m='414330'>to</span> <span m='414430'>x</span> <span m='415010'>to</span> <span m='415140'>an</span> <span m='415210'>integral</span> <span m='415400'>with</span> <span m='415630'>respect</span> <span m='416030'>to</span> <span m='416160'>u.</span> <span m='417060'>And</span> <span m='417240'>so</span> <span m='417330'>that</span> <span m='417570'>means  that</span> <span m='418000'>when</span> <span m='418230'>I</span> <span m='418270'>write</span> <span m='418590'>down</span> <span m='418780'>the</span> <span m='418850'>second</span> <span m='419410'>integral</span> <span m='419680'>with</span> <span m='419950'>respect to</span> <span m='420220'>u,</span> <span m='420810'>the</span> <span m='420940'>bounds</span> <span m='421570'>that</span> <span m='421690'>I</span> <span m='421780'>write</span> <span m='422120'>down</span> <span m='422600'>have</span> <span m='422800'>to</span> <span m='422900'>be</span> <span m='423000'>the</span> <span m='423110'>bounds</span> <span m='423470'>for</span> <span m='423630'>u.</span> <span m='424410'>Not</span> <span m='424670'>for</span> <span m='424820'>x.</span> </p><p><span m='425430'>So</span> <span m='425620'>when</span> <span m='425945'>x</span> <span m='426270'>is</span> <span m='426400'>equal</span> <span m='426630'>to</span> <span m='426720'>minus</span> <span m='427350'>2,</span> <span m='428270'>I</span> <span m='428400'>need</span> <span m='428610'>to</span> <span m='428750'>know</span> <span m='428910'>what the</span> <span m='429060'>corresponding</span> <span m='429760'>value</span> <span m='430180'>of</span> <span m='430290'>u</span> <span m='430630'>is.</span> <span m='431220'>So</span> <span m='431440'>in</span> <span m='431530'>this</span> <span m='431700'>case,</span> <span m='431950'>when</span> <span m='432370'>x is equal</span> <span m='432650'>to</span> <span m='432730'>minus</span> <span m='433130'>2,</span> <span m='433620'>we</span> <span m='433810'>see</span> <span m='433970'>that</span> <span m='434150'>the</span> <span m='434250'>lower</span> <span m='434570'>bound</span> <span m='434930'>here--</span> <span m='435820'>when</span> <span m='435980'>x is</span> <span m='436330'>equal to</span> <span m='436580'>minus</span> <span m='436930'>2--</span> <span m='437520'>the</span> <span m='437620'>lower</span> <span m='437930'>bound</span> <span m='438210'>on</span> <span m='438370'>u</span> <span m='438970'>becomes</span> <span m='439850'>u</span> <span m='440800'>equals, well,</span> <span m='441930'>minus</span> <span m='442460'>2</span> <span m='442690'>cubed</span> <span m='443180'>over</span> <span m='443860'>8.</span> <span m='444220'>That's</span> <span m='444460'>minus</span> <span m='444860'>1.</span> <span m='445650'>And</span> <span m='445840'>when</span> <span m='446250'>x is</span> <span m='446340'>equal</span> <span m='446570'>to</span> <span m='446670'>2,</span> <span m='447370'>the</span> <span m='447650'>upper</span> <span m='447800'>bound,</span> <span m='449140'>u</span> <span m='449580'>becomes</span> <span m='449890'>2</span> <span m='450050'>cubed over</span> <span m='450480'>8.</span> <span m='451030'>So</span> <span m='451250'>u</span> <span m='451440'>becomes</span> <span m='451830'>1.</span> <span m='452170'>So</span> <span m='452320'>we</span> <span m='452420'>have</span> <span m='452530'>this</span> <span m='452740'>extra</span> <span m='453150'>step</span> <span m='453520'>when</span> <span m='453640'>we</span> <span m='453740'>do</span> <span m='453880'>it</span> <span m='453960'>this</span> <span m='454120'>way,</span> <span m='454530'>of</span> <span m='454700'>changing</span> <span m='455180'>the</span> <span m='455280'>bounds.</span> </p><p><span m='456990'>OK, so</span> <span m='457530'>I</span> <span m='457660'>do</span> <span m='457870'>that.</span> <span m='458310'>So</span> <span m='458480'>now</span> <span m='458690'>I</span> <span m='458770'>get</span> <span m='458970'>the</span> <span m='459280'>integral.</span> <span m='459850'>So</span> <span m='460040'>I'm</span> <span m='460130'>going to</span> <span m='460280'>write</span> <span m='460500'>u</span> <span m='460840'>equals</span> <span m='461240'>minus</span> <span m='461620'>1</span> <span m='461780'>here</span> <span m='461940'>just</span> <span m='462110'>to</span> <span m='462190'>remind</span> <span m='462570'>myself</span> <span m='462950'>that</span> <span m='463060'>I</span> <span m='463140'>made</span> <span m='463490'>this</span> <span m='463670'>change</span> <span m='465500'>to</span> <span m='465650'>1.</span> <span m='467070'>OK,</span> <span m='467330'>and</span> <span m='467490'>now</span> <span m='467580'>the</span> <span m='467750'>inside</span> <span m='468160'>transforms</span> <span m='468790'>exactly</span> <span m='469230'>the</span> <span m='469320'>same.</span> <span m='470000'>So</span> <span m='470150'>it's</span> <span m='470340'>8/3</span> <span m='473470'>times</span> <span m='474580'>cosine</span> <span m='476710'>u du.</span> <span m='478340'>OK,</span> <span m='478800'>and</span> <span m='479050'>now</span> <span m='479320'>again,</span> <span m='479950'>this</span> <span m='480150'>is</span> <span m='480270'>something</span> <span m='480900'>for</span> <span m='481060'>which</span> <span m='481260'>I</span> <span m='481350'>already</span> <span m='481650'>know</span> <span m='482170'>the antiderivative.</span> <span m='482910'>So</span> <span m='483030'>I</span> <span m='483160'>apply</span> <span m='483820'>the</span> <span m='483930'>fundamental</span> <span m='484370'>theorem of</span> <span m='484680'>calculus</span> <span m='485130'>here.</span> <span m='485880'>So</span> <span m='486060'>I</span> <span m='486170'>get</span> <span m='487070'>the</span> <span m='487140'>integral</span> <span m='488700'>is</span> <span m='488890'>equal</span> <span m='489140'>to</span> <span m='489250'>8/3</span> <span m='491580'>sine</span> <span m='492220'>of</span> <span m='492480'>u,</span> <span m='493600'>where</span> <span m='493880'>u</span> <span m='494660'>goes</span> <span m='494950'>between</span> <span m='495310'>minus</span> <span m='495630'>1</span> <span m='496080'>and</span> <span m='496430'>1.</span> </p><p><span m='497210'>So</span> <span m='497400'>the</span> <span m='497610'>other</span> <span m='497860'>thing</span> <span m='498130'>that's</span> <span m='498320'>changed</span> <span m='498900'>here</span> <span m='499270'>is that</span> <span m='499650'>now</span> <span m='500030'>I</span> <span m='500120'>don't</span> <span m='500290'>have</span> <span m='500380'>to</span> <span m='500470'>change</span> <span m='500820'>this</span> <span m='500950'>back</span> <span m='501240'>in</span> <span m='501340'>terms</span> <span m='501610'>of</span> <span m='501690'>x's.</span> <span m='502800'>I</span> <span m='502960'>have</span> <span m='503420'>the</span> <span m='503530'>values</span> <span m='504150'>that</span> <span m='504290'>I'm</span> <span m='504390'>going to</span> <span m='504570'>plug</span> <span m='504900'>in</span> <span m='505010'>here</span> <span m='505410'>already</span> <span m='506050'>in</span> <span m='506170'>terms</span> <span m='506500'>of</span> <span m='506630'>u.</span> <span m='507250'>So</span> <span m='507420'>I</span> <span m='507470'>don't</span> <span m='507630'>have</span> <span m='507740'>to</span> <span m='507820'>switch</span> <span m='508160'>back</span> <span m='508460'>in</span> <span m='508550'>terms</span> <span m='508790'>of</span> <span m='508860'>x's.</span> <span m='509410'>And</span> <span m='509560'>so</span> <span m='509650'>I</span> <span m='509740'>just</span> <span m='509920'>plug</span> <span m='510180'>these</span> <span m='510360'>values</span> <span m='510670'>in</span> <span m='510790'>and</span> <span m='510900'>take</span> <span m='511100'>the</span> <span m='511180'>difference.</span> <span m='511870'>So</span> <span m='512100'>this</span> <span m='512240'>is</span> <span m='512380'>equal</span> <span m='513470'>to</span> <span m='513730'>8/3</span> <span m='515850'>sine</span> <span m='516160'>of</span> <span m='516250'>1</span> <span m='516930'>minus</span> <span m='518280'>8/3</span> <span m='520470'>sine</span> <span m='521601'>of</span> <span m='521980'>minus</span> <span m='522350'>1,</span> <span m='522770'>which</span> <span m='523150'>as</span> <span m='523330'>we</span> <span m='523440'>said</span> <span m='523660'>before</span> <span m='524135'>is</span> <span m='524610'>16/3</span> <span m='527210'>times sine of</span> <span m='527670'>1.</span> </p><p><span m='529150'>OK,</span> <span m='529460'>so</span> <span m='529590'>we</span> <span m='529660'>have</span> <span m='529770'>these</span> <span m='529900'>two</span> <span m='530080'>different</span> <span m='530350'>methods.</span> <span m='530910'>They're</span> <span m='531060'>very,</span> <span m='531580'>very,</span> <span m='531900'>very,</span> <span m='532120'>similar</span> <span m='532720'>in</span> <span m='532880'>how</span> <span m='533040'>you</span> <span m='533190'>apply</span> <span m='533530'>them.</span> <span m='533980'>The</span> <span m='534560'>key</span> <span m='534920'>differences</span> <span m='535800'>are,</span> <span m='536360'>that</span> <span m='536480'>when</span> <span m='536590'>you</span> <span m='536690'>do it,</span> <span m='537090'>the</span> <span m='537200'>substitution</span> <span m='537810'>in</span> <span m='537910'>terms</span> <span m='538220'>of</span> <span m='538310'>definite</span> <span m='538810'>integrals,</span> <span m='539140'>you</span> <span m='539300'>have</span> <span m='539550'>to</span> <span m='539640'>change</span> <span m='540080'>your</span> <span m='540190'>bounds of</span> <span m='540570'>integration.</span> <span m='541400'>And</span> <span m='542020'>what</span> <span m='542350'>you</span> <span m='542530'>get</span> <span m='542890'>for</span> <span m='543020'>changing</span> <span m='543410'>your</span> <span m='543700'>bounds of</span> <span m='543790'>integration</span> <span m='544450'>is</span> <span m='544680'>at</span> <span m='544790'>the</span> <span m='544990'>end</span> <span m='545420'>you</span> <span m='545630'>don't</span> <span m='545800'>have</span> <span m='545940'>to</span> <span m='546020'>switch</span> <span m='546420'>back</span> <span m='546730'>from</span> <span m='546920'>u's</span> <span m='547740'>into</span> <span m='548100'>x's.</span> <span m='548960'>Whereas,</span> <span m='549520'>if</span> <span m='549770'>you</span> <span m='549900'>do</span> <span m='550140'>it</span> <span m='550580'>by</span> <span m='550740'>first</span> <span m='551130'>computing</span> <span m='551550'>the</span> <span m='551830'>antiderivative,</span> <span m='552820'>well,</span> <span m='553800'>you</span> <span m='553940'>don't</span> <span m='554150'>have</span> <span m='554410'>any</span> <span m='554570'>bounds</span> <span m='554820'>of</span> <span m='554920'>integration</span> <span m='555430'>when</span> <span m='555560'>you</span> <span m='555630'>compute</span> <span m='555930'>the</span> <span m='556020'>antiderivative</span> <span m='556640'>so</span> <span m='556760'>you</span> <span m='556840'>don't</span> <span m='556980'>have</span> <span m='557080'>to</span> <span m='557170'>change</span> <span m='557530'>them.</span> <span m='558090'>But</span> <span m='558440'>once</span> <span m='558900'>you</span> <span m='559010'>computed the</span> <span m='559410'>antiderivative,</span> <span m='560390'>then</span> <span m='560560'>you</span> <span m='560650'>have</span> <span m='560770'>to</span> <span m='560890'>go</span> <span m='561150'>and</span> <span m='561510'>make</span> <span m='561710'>your</span> <span m='562160'>back</span> <span m='562480'>substitution.</span> <span m='563490'>Put</span> <span m='563730'>everything</span> <span m='564090'>back</span> <span m='564370'>in</span> <span m='564470'>terms</span> <span m='564730'>of</span> <span m='564810'>x's</span> <span m='565370'>before</span> <span m='565830'>going</span> <span m='566160'>on</span> <span m='566340'>to</span> <span m='566750'>compute</span> <span m='567150'>the</span> <span m='567230'>definite</span> <span m='567720'>integral</span> <span m='568000'>that you</span> <span m='568150'>started</span> <span m='568440'>with.</span> </p><p><span m='569450'>So</span> <span m='569950'>the</span> <span m='570180'>those</span> <span m='570450'>are</span> <span m='571470'>the</span> <span m='571620'>two</span> <span m='571790'>different</span> <span m='572060'>ways</span> <span m='572380'>you</span> <span m='572550'>can</span> <span m='572660'>do</span> <span m='572750'>substitution</span> <span m='573250'>in</span> <span m='573720'>definite</span> <span m='574480'>integrals</span> <span m='575140'>and</span> <span m='576070'>I'll</span> <span m='576420'>end</span> <span m='576630'>with</span> <span m='576800'>that.</span> </p>", 
    "_content_type_link_text": "text/plain", 
    "course_linking": [], 
    "_id": "definite-integral-by-substitution", 
    "modification_date": "2016/09/25 01:20:56.587 GMT-4", 
    "media_index": [], 
    "always_publish": false, 
    "_owner": null, 
    "_permissions": {
        "Change portal events": {
            "acquire": false, 
            "roles": [
                "Editor", 
                "Manager", 
                "MetadataEditor", 
                "Owner"
            ]
        }, 
        "Modify portal content": {
            "acquire": false, 
            "roles": [
                "Manager", 
                "MetadataEditor"
            ]
        }, 
        "Access contents information": {
            "acquire": false, 
            "roles": [
                "Authenticated"
            ]
        }, 
        "List folder contents": {
            "acquire": false, 
            "roles": [
                "Editor", 
                "Manager", 
                "MetadataEditor", 
                "Owner"
            ]
        }, 
        "View": {
            "acquire": false, 
            "roles": [
                "Authenticated"
            ]
        }
    }, 
    "_properties": [
        [
            "title", 
            "Definite Integral by Substitution", 
            "string"
        ]
    ], 
    "creators": [
        "sbabbar"
    ], 
    "courselist_features": [], 
    "_path": "/Plone/courses/mathematics/18-01sc-single-variable-calculus-fall-2010/unit-3-the-definite-integral-and-its-applications/part-a-definition-of-the-definite-integral-and-first-fundamental-theorem/session-49-applications-of-the-fundamental-theorem-of-calculus/definite-integral-by-substitution"
}