{
    "text": "<p class=\"sc_nav\">&laquo; <a href=\"./resolveuid/bc72db410b84f2d1a10a6c5a9399e431\" class=\"sc_prev\">Previous</a> | <a href=\"./resolveuid/9b4c6b77599861b820e8c804596b8c24\" class=\"sc_next\">Next</a> &raquo;</p> <p>&nbsp;</p> <p>The Second Fundamental Theorem of Calculus describes how integration is the opposite of differentiation.  It allows us to understand functions defined in terms of definite integrals, some of which are impossible to describe using more elementary methods.  This part of the course also covers the use of integration to calculate volumes of solids.</p> <blockquote> <p>&raquo; <a href=\"./resolveuid/9b4c6b77599861b820e8c804596b8c24\">Session 51: The Second Fundamental Theorem of Calculus</a><br /> &raquo; <a href=\"./resolveuid/593f157526f1927fd6ea05e37c3d4475\">Session 52: Proving the Fundamental Theorem of Calculus</a><br /> &raquo; <a href=\"./resolveuid/28016eb00515039ebda8eb0f6b6ddb58\">Session 53: New Functions From Old</a><br /> &raquo; <a href=\"./resolveuid/435c91b08acc9a35fc0748ce22a11bfe\">Session 54: The Second Fundamental Theorem and ln(x)</a><br /> &raquo; <a href=\"./resolveuid/2c6806175167ca26dcd9f490d43c4c0a\">Session 55: Creating New Functions Using the Second Fundamental Theorem</a><br /> &raquo; <a href=\"./resolveuid/ab02e80b2f16511d81481be8277cb20d\">Session 56: Geometric Interpretation of Definite Integrals</a><br /> &raquo; <a href=\"./resolveuid/896b940a6076521ff57b68f0bccc57a0\">Session 57: How to Calculate Volumes</a><br /> &raquo; <a href=\"./resolveuid/ea17c591946bebd5f9a9889e9e6fa3ee\">Session 58: Volume of a Sphere, Revolving About x-axis</a><br /> &raquo; <a href=\"./resolveuid/2a892d50ed0126e15d3603ad2d218d9e\">Session 59: Volume of a Parabaloid, Revolving About y-axis</a><br /> &raquo; <a href=\"./resolveuid/fdbe350ca59afe09833c9efd91b52a3f\">Problem Set 7</a></p> </blockquote> <p>&nbsp;</p> <p class=\"sc_nav_bottom\">&laquo; <a href=\"./resolveuid/bc72db410b84f2d1a10a6c5a9399e431\" class=\"sc_prev\">Previous</a> | <a href=\"./resolveuid/9b4c6b77599861b820e8c804596b8c24\" class=\"sc_next\">Next</a> &raquo;</p>", 
    "_content_type_license": "text/plain", 
    "_uid": "82a633f32c2b0be84fba01f5e5741006", 
    "title": "Part B: Second Fundamental Theorem, Areas, Volumes", 
    "_ac_local_roles": {
        "cc_akuma1": [
            "Owner"
        ]
    }, 
    "location": "", 
    "_content_type_course_identifier": "text/plain", 
    "_atbrefs": {
        "isReferencing": [
            "4c201b00a0470284ebd6c546e0cc59ab", 
            "bc72db410b84f2d1a10a6c5a9399e431", 
            "9b4c6b77599861b820e8c804596b8c24"
        ]
    }, 
    "constrainTypesMode": 0, 
    "_content_type_section_identifier": "text/plain", 
    "technical_location": "https://ocw.mit.edu/courses/mathematics/18-01sc-single-variable-calculus-fall-2010/unit-3-the-definite-integral-and-its-applications/part-b-second-fundamental-theorem-areas-volumes", 
    "software_requirements": [
        {
            "software_type_col": "Browser", 
            "minimum_version_col": "40.0", 
            "software_name_col": "Chrome", 
            "maximum_version_col": ""
        }, 
        {
            "software_type_col": "Browser", 
            "minimum_version_col": "8.0", 
            "software_name_col": "Safari", 
            "maximum_version_col": ""
        }, 
        {
            "software_type_col": "Browser", 
            "minimum_version_col": "38.0", 
            "software_name_col": "Mozilla Firefox", 
            "maximum_version_col": ""
        }, 
        {
            "software_type_col": "Browser", 
            "minimum_version_col": "9.0", 
            "software_name_col": "Internet Explorer", 
            "maximum_version_col": ""
        }, 
        {
            "software_type_col": "Browser", 
            "minimum_version_col": "13.1", 
            "software_name_col": "Edge", 
            "maximum_version_col": ""
        }
    ], 
    "_content_type_technical_location": "text/plain", 
    "_content_type_rights": "text/html", 
    "_directly_provided": [
        "Products.CMFEditions.interfaces.IVersioned"
    ], 
    "parent_uid": "4c201b00a0470284ebd6c546e0cc59ab", 
    "excludeFromNav": false, 
    "_content_type_unique_identifier": "text/plain", 
    "allowDiscussion": false, 
    "metadata_contributor_list": [], 
    "locallyAllowedTypes": [
        "OCWImage", 
        "CourseSection", 
        "OCWExtFile", 
        "OCWFile", 
        "MediaResource"
    ], 
    "_content_type_text": "text/html", 
    "ad_type": "HOUSE", 
    "creation_date": "2010/11/03 14:15:46.802 GMT-4", 
    "aggregationlevel": 3, 
    "duration": "", 
    "immediatelyAddableTypes": [
        "OCWImage", 
        "CourseSection", 
        "OCWExtFile", 
        "OCWFile", 
        "MediaResource"
    ], 
    "subject": [], 
    "_content_type_short_page_title": "text/plain", 
    "effectiveDate": "2010/11/03 14:31:28.943 GMT-4", 
    "parent_module": "bfe41979b9593362793fd930b36efa01", 
    "is_mathml_document": false, 
    "bottomtext": "", 
    "short_page_title": "Part B: Second Fundamental Theorem, Areas, Volumes", 
    "section_identifier": "https://ocw.mit.edu/courses/mathematics/18-01sc-single-variable-calculus-fall-2010/unit-3-the-definite-integral-and-its-applications", 
    "related_mit_links": "", 
    "_content_type_ad_type": "text/plain", 
    "_layout": "custom_view", 
    "_workflow_history": {
        "page_workflow": [
            {
                "action": null, 
                "review_state": "waiting_for_authoring", 
                "comments": "", 
                "actor": "Kcanavan", 
                "time": "2010/11/03 14:15:46.808 GMT-4"
            }, 
            {
                "action": "approve_to_staging", 
                "review_state": "ready_for_staging", 
                "actor": "Kcanavan", 
                "comments": "", 
                "time": "2010/11/03 14:31:28.966 GMT-4"
            }, 
            {
                "action": "decline_to_qa", 
                "review_state": "waiting_for_qa", 
                "comments": "", 
                "actor": "Kcanavan", 
                "time": "2010/11/17 15:00:04.899 US/Eastern"
            }, 
            {
                "action": "approve_to_staging", 
                "review_state": "ready_for_staging", 
                "actor": "Kcanavan", 
                "comments": "", 
                "time": "2010/11/18 11:42:14.465 US/Eastern"
            }, 
            {
                "action": "decline", 
                "review_state": "waiting_for_authoring", 
                "comments": "", 
                "actor": "cc_gegrov", 
                "time": "2010/12/23 02:00:51.331 US/Eastern"
            }, 
            {
                "action": "approve_to_staging", 
                "review_state": "ready_for_staging", 
                "actor": "cc_gegrov", 
                "comments": "", 
                "time": "2010/12/23 06:48:43.093 US/Eastern"
            }, 
            {
                "action": "decline_to_qa", 
                "review_state": "waiting_for_qa", 
                "comments": "", 
                "actor": "Kcanavan", 
                "time": "2011/01/06 11:13:02.904 US/Eastern"
            }, 
            {
                "action": "approve_to_staging", 
                "review_state": "ready_for_staging", 
                "actor": "Kcanavan", 
                "comments": "", 
                "time": "2011/01/07 13:31:32.759 US/Eastern"
            }, 
            {
                "action": "decline_to_qa", 
                "review_state": "waiting_for_qa", 
                "comments": "", 
                "actor": "Kcanavan", 
                "time": "2011/01/08 23:14:33.565 US/Eastern"
            }, 
            {
                "action": "approve_to_staging", 
                "review_state": "ready_for_staging", 
                "actor": "Kcanavan", 
                "comments": "", 
                "time": "2011/01/09 00:35:02.035 US/Eastern"
            }, 
            {
                "action": "decline_to_qa", 
                "review_state": "waiting_for_qa", 
                "comments": "", 
                "actor": "Kcanavan", 
                "time": "2011/01/10 17:28:49.643 US/Eastern"
            }, 
            {
                "action": "approve_to_staging", 
                "review_state": "ready_for_staging", 
                "actor": "Kcanavan", 
                "comments": "", 
                "time": "2011/01/10 17:29:40.601 US/Eastern"
            }, 
            {
                "action": "decline_to_qa", 
                "review_state": "waiting_for_qa", 
                "actor": "Kcanavan", 
                "comments": "", 
                "time": "2011/01/10 17:30:02.827 US/Eastern"
            }, 
            {
                "action": "approve_to_staging", 
                "review_state": "ready_for_staging", 
                "comments": "", 
                "actor": "Kcanavan", 
                "time": "2011/01/10 17:31:40.849 US/Eastern"
            }, 
            {
                "action": "decline_to_qa", 
                "review_state": "waiting_for_qa", 
                "comments": "", 
                "actor": "Kcanavan", 
                "time": "2011/01/10 17:45:57.434 US/Eastern"
            }, 
            {
                "action": "approve_to_staging", 
                "review_state": "ready_for_staging", 
                "actor": "Kcanavan", 
                "comments": "", 
                "time": "2011/01/10 17:46:28.951 US/Eastern"
            }, 
            {
                "action": null, 
                "review_state": "waiting_for_authoring", 
                "actor": "cc_akuma1", 
                "comments": "", 
                "time": "2012/11/08 01:02:18.443 US/Eastern"
            }, 
            {
                "action": "approve_to_staging", 
                "review_state": "ready_for_staging", 
                "comments": "", 
                "actor": "ndhamija", 
                "time": "2012/11/09 03:16:40.920 US/Eastern"
            }, 
            {
                "action": "decline", 
                "review_state": "waiting_for_authoring", 
                "actor": "ndhamija", 
                "comments": "", 
                "time": "2012/11/13 22:39:57.874 US/Eastern"
            }, 
            {
                "action": "approve_to_staging", 
                "review_state": "ready_for_staging", 
                "actor": "ndhamija", 
                "comments": "", 
                "time": "2012/11/13 22:40:55.458 US/Eastern"
            }, 
            {
                "action": "decline", 
                "review_state": "waiting_for_authoring", 
                "comments": "", 
                "actor": "asingh124", 
                "time": "2012/11/23 00:04:24.176 US/Eastern"
            }, 
            {
                "action": "approve_to_staging", 
                "review_state": "ready_for_staging", 
                "actor": "abohra", 
                "comments": "", 
                "time": "2012/11/23 06:47:33.895 US/Eastern"
            }
        ]
    }, 
    "_classname": "CourseSection", 
    "_content_type_materialtype": "text/plain", 
    "_userdefined_roles": [], 
    "publisher": "MIT OpenCourseWare", 
    "nextPreviousEnabled": false, 
    "language": "", 
    "url_rewrite_patterns": [], 
    "widgets_features": [], 
    "category_features": [], 
    "firstTimeEdit": true, 
    "feature_requirements": [], 
    "list_in_left_nav": true, 
    "short_name_tlp": "Part B: Second Fundamental Theorem, Areas, Volumes", 
    "expirationDate": "None", 
    "_content_type_id": "text/plain", 
    "contributor_list": [
        {}
    ], 
    "is_media_gallery": false, 
    "contributors": [], 
    "_gopip": 1, 
    "_content_type_title": "text/plain", 
    "course_linking": [], 
    "_atrefs": {
        "BelongsTo": [
            "bfe41979b9593362793fd930b36efa01"
        ], 
        "isReferencing": [
            "ab02e80b2f16511d81481be8277cb20d", 
            "896b940a6076521ff57b68f0bccc57a0", 
            "2c6806175167ca26dcd9f490d43c4c0a", 
            "2a892d50ed0126e15d3603ad2d218d9e", 
            "435c91b08acc9a35fc0748ce22a11bfe", 
            "593f157526f1927fd6ea05e37c3d4475", 
            "ea17c591946bebd5f9a9889e9e6fa3ee", 
            "28016eb00515039ebda8eb0f6b6ddb58", 
            "9b4c6b77599861b820e8c804596b8c24", 
            "fdbe350ca59afe09833c9efd91b52a3f", 
            "bc72db410b84f2d1a10a6c5a9399e431"
        ]
    }, 
    "other_platform_requirements": "", 
    "license": "http://creativecommons.org/licenses/by-nc-sa/3.0/us/", 
    "rights": "This site (c) Massachusetts Institute of Technology 2010.  Content within individual courses is (c) by the individual authors unless otherwise noted. The Massachusetts Institute of Technology is providing this Work (as defined below) under the terms of this Creative Commons public license (\"CCPL\" or \"license\") unless otherwise noted. The Work is protected by copyright and/or other applicable law. Any use of the work other than as authorized under this license is prohibited. By exercising any of the rights to the Work provided here, You (as defined below) accept and agree to be bound by the terms of this license. The Licensor, the Massachusetts Institute of Technology, grants You the rights contained here in consideration of Your acceptance of such terms and conditions.", 
    "hide_Page_title": null, 
    "_defaultpage": "", 
    "tcATmit_subject_tags": [], 
    "features_tracking": [], 
    "ad_champion_text": "", 
    "has_inline_embed": false, 
    "unique_identifier": "https://ocw.mit.edu/courses/mathematics/18-01sc-single-variable-calculus-fall-2010/unit-3-the-definite-integral-and-its-applications/part-b-second-fundamental-theorem-areas-volumes", 
    "is_image_gallery": false, 
    "id": "part-b-second-fundamental-theorem-areas-volumes", 
    "materialtype": "Other", 
    "_type": "CourseSection", 
    "description": "This section includes lectures on the second fundamental theorem of calculus, geometric interpretation of definite integrals, and how to calculate volumes.", 
    "course_identifier": "https://ocw.mit.edu/courses/mathematics/18-01sc-single-variable-calculus-fall-2010", 
    "_content_type_publisher": "text/plain", 
    "tcATmit_instructional_tags": [], 
    "_content_type": "text/html", 
    "creators": [
        "Kcanavan"
    ], 
    "modification_date": "2016/09/24 07:48:59.492 GMT-4", 
    "always_publish": false, 
    "_content_type_description": "text/plain", 
    "_owner": null, 
    "_permissions": {
        "Change portal events": {
            "acquire": false, 
            "roles": [
                "Editor", 
                "Manager", 
                "MetadataEditor", 
                "Owner"
            ]
        }, 
        "Modify portal content": {
            "acquire": false, 
            "roles": [
                "Manager", 
                "MetadataEditor"
            ]
        }, 
        "Access contents information": {
            "acquire": false, 
            "roles": [
                "Authenticated"
            ]
        }, 
        "List folder contents": {
            "acquire": false, 
            "roles": [
                "Editor", 
                "Manager", 
                "MetadataEditor", 
                "Owner"
            ]
        }, 
        "View": {
            "acquire": false, 
            "roles": [
                "Authenticated"
            ]
        }
    }, 
    "_properties": [
        [
            "title", 
            "Part B: Second Fundamental Theorem, Areas, Volumes", 
            "string"
        ]
    ], 
    "_id": "part-b-second-fundamental-theorem-areas-volumes", 
    "courselist_features": [], 
    "_content_type_short_name_tlp": "text/plain", 
    "_path": "/Plone/courses/mathematics/18-01sc-single-variable-calculus-fall-2010/unit-3-the-definite-integral-and-its-applications/part-b-second-fundamental-theorem-areas-volumes"
}