{
    "rsi_top_html_area": "", 
    "text": "", 
    "_content_type_license": "text/plain", 
    "_uid": "9667e6c935fc2d3554c5988f8d8a656f", 
    "title": "Applying the Second Fundamental Theorem", 
    "_ac_local_roles": {
        "sbabbar": [
            "Owner"
        ]
    }, 
    "template_type": "Embed", 
    "location": "", 
    "_content_type_course_identifier": "text/plain", 
    "_atbrefs": {}, 
    "constrainTypesMode": 0, 
    "_content_type_section_identifier": "text/plain", 
    "technical_location": "https://ocw.mit.edu/courses/mathematics/18-01sc-single-variable-calculus-fall-2010/unit-3-the-definite-integral-and-its-applications/part-b-second-fundamental-theorem-areas-volumes/session-51-the-second-fundamental-theorem-of-calculus/applying-the-second-fundamental-theorem", 
    "software_requirements": [
        {
            "software_type_col": "Browser", 
            "minimum_version_col": "40.0", 
            "software_name_col": "Chrome", 
            "maximum_version_col": ""
        }, 
        {
            "software_type_col": "Browser", 
            "minimum_version_col": "8.0", 
            "software_name_col": "Safari", 
            "maximum_version_col": ""
        }, 
        {
            "software_type_col": "Browser", 
            "minimum_version_col": "38.0", 
            "software_name_col": "Mozilla Firefox", 
            "maximum_version_col": ""
        }, 
        {
            "software_type_col": "Browser", 
            "minimum_version_col": "9.0", 
            "software_name_col": "Internet Explorer", 
            "maximum_version_col": ""
        }, 
        {
            "software_type_col": "Browser", 
            "minimum_version_col": "13.1", 
            "software_name_col": "Edge", 
            "maximum_version_col": ""
        }
    ], 
    "_content_type_technical_location": "text/plain", 
    "start_time": "", 
    "_content_type_rights": "text/html", 
    "_directly_provided": [
        "Products.CMFEditions.interfaces.IVersioned"
    ], 
    "media_rights": "(CC BY-NC-SA)", 
    "parent_uid": "9b4c6b77599861b820e8c804596b8c24", 
    "excludeFromNav": false, 
    "about_this_resource_text": "", 
    "_content_type_unique_identifier": "text/plain", 
    "end_time": "", 
    "allowDiscussion": false, 
    "_content_type_materialtype": "text/plain", 
    "locallyAllowedTypes": [
        "OCWImage", 
        "OCWFile", 
        "OCWMediaAsset"
    ], 
    "optional_tab_title": "", 
    "ad_type": "HOUSE", 
    "creation_date": "2015/12/23 00:26:34.737 US/Eastern", 
    "aggregationlevel": 2, 
    "bottom_html_area": "", 
    "duration": "", 
    "immediatelyAddableTypes": [
        "OCWImage", 
        "OCWFile", 
        "OCWMediaAsset"
    ], 
    "_content_type_template_type": "text/plain", 
    "subject": [], 
    "_content_type_short_page_title": "text/plain", 
    "effectiveDate": "2015/12/29 03:53:13.242 US/Eastern", 
    "parent_module": "bfe41979b9593362793fd930b36efa01", 
    "is_mathml_document": false, 
    "bottomtext": "", 
    "short_page_title": "Applying the Second Fundamental Theorem", 
    "section_identifier": "https://ocw.mit.edu/courses/mathematics/18-01sc-single-variable-calculus-fall-2010/unit-3-the-definite-integral-and-its-applications", 
    "show_captions_outside_player": false, 
    "related_mit_links": "", 
    "_content_type_ad_type": "text/plain", 
    "_layout": "custom_view", 
    "_workflow_history": {
        "page_workflow": [
            {
                "action": null, 
                "review_state": "waiting_for_authoring", 
                "comments": "", 
                "actor": "sbabbar", 
                "time": "2015/12/23 00:26:34.751 US/Eastern"
            }, 
            {
                "action": "approve_to_staging", 
                "review_state": "ready_for_staging", 
                "actor": "sbabbar", 
                "comments": "", 
                "time": "2015/12/29 03:53:13.291 US/Eastern"
            }
        ]
    }, 
    "_content_type_transcript": "text/html", 
    "metadata_contributor_list": [], 
    "_userdefined_roles": [], 
    "_content_type_inline_embed_id": "text/plain", 
    "publisher": "MIT OpenCourseWare", 
    "nextPreviousEnabled": false, 
    "_gopip": 8, 
    "license": "http://creativecommons.org/licenses/by-nc-sa/3.0/us/", 
    "url_rewrite_patterns": [], 
    "widgets_features": [], 
    "category_features": [], 
    "resource_contributor_list": [
        {
            "res_contributor_entity": "Jerison, David", 
            "res_contributor_uid": "b28f05bbf3c3b44d28bc8f11fc7834cd", 
            "res_contributor_role": "Performer"
        }
    ], 
    "show_jump_back_5_seconds_button": false, 
    "firstTimeEdit": false, 
    "_content_type_media_rights": "text/plain", 
    "feature_requirements": [], 
    "list_in_left_nav": false, 
    "inline_embed_id": "58592223applyingthesecondfundamentaltheorem26459504", 
    "_classname": "MediaResource", 
    "short_name_tlp": "", 
    "expirationDate": "None", 
    "_content_type_id": "text/plain", 
    "contributor_list": [
        {}
    ], 
    "is_media_gallery": false, 
    "contributors": [], 
    "media_locations": [
        {}
    ], 
    "_content_type_media_resource_type": "text/plain", 
    "_content_type_title": "text/plain", 
    "subtitle_exemption": "None", 
    "_content_type": "text/html", 
    "resource_index_text": "", 
    "_atrefs": {
        "BelongsTo": [
            "bfe41979b9593362793fd930b36efa01"
        ]
    }, 
    "media_slides": [], 
    "other_platform_requirements": "", 
    "language": "", 
    "rights": "This site (c) Massachusetts Institute of Technology 2015.  Content within individual courses is (c) by the individual authors unless otherwise noted. The Massachusetts Institute of Technology is providing this Work (as defined below) under the terms of this Creative Commons public license (\"CCPL\" or \"license\") unless otherwise noted. The Work is protected by copyright and/or other applicable law. Any use of the work other than as authorized under this license is prohibited. By exercising any of the rights to the Work provided here, You (as defined below) accept and agree to be bound by the terms of this license. The Licensor, the Massachusetts Institute of Technology, grants You the rights contained here in consideration of Your acceptance of such terms and conditions.", 
    "hide_Page_title": false, 
    "_defaultpage": "", 
    "related_resources_text": "", 
    "tcATmit_subject_tags": [], 
    "features_tracking": [], 
    "ad_champion_text": "", 
    "has_inline_embed": false, 
    "unique_identifier": "https://ocw.mit.edu/courses/mathematics/18-01sc-single-variable-calculus-fall-2010/unit-3-the-definite-integral-and-its-applications/part-b-second-fundamental-theorem-areas-volumes/session-51-the-second-fundamental-theorem-of-calculus/applying-the-second-fundamental-theorem", 
    "link_text": "Applying the Second Fundamental Theorem", 
    "is_image_gallery": false, 
    "id": "applying-the-second-fundamental-theorem", 
    "_content_type_subtitle_exemption": "text/plain", 
    "materialtype": "Other", 
    "optional_text": "", 
    "_type": "MediaResource", 
    "description": "", 
    "media_resource_type": "Video", 
    "course_identifier": "https://ocw.mit.edu/courses/mathematics/18-01sc-single-variable-calculus-fall-2010", 
    "_content_type_publisher": "text/plain", 
    "tcATmit_instructional_tags": [], 
    "transcript": "<p><span m='7620'>PROFESSOR: Welcome</span> <span m='8020'>back</span> <span m='8210'>to</span> <span m='8300'>recitation.</span> <span m='9570'>In</span> <span m='9700'>this</span> <span m='9830'>video</span> <span m='10170'>I</span> <span m='10240'>want</span> <span m='10430'>us</span> <span m='10540'>to</span> <span m='10630'>work</span> <span m='10810'>on</span> <span m='10900'>the</span> <span m='10980'>following</span> <span m='11300'>problem.</span> <span m='12720'>So</span> <span m='12930'>we're</span> <span m='13030'>going</span> <span m='13240'>to</span> <span m='13350'>assume</span> <span m='14000'>little</span> <span m='14300'>f</span> <span m='14580'>is a</span> <span m='14690'>continuous</span> <span m='15190'>function.</span> <span m='16400'>And</span> <span m='16590'>if</span> <span m='16810'>we</span> <span m='16970'>know</span> <span m='17250'>that</span> <span m='17410'>the</span> <span m='17520'>integral</span> <span m='17860'>from</span> <span m='18060'>0</span> <span m='18270'>to</span> <span m='18360'>x</span> <span m='19030'>of</span> <span m='19190'>f</span> <span m='19360'>of</span> <span m='19480'>t</span> <span m='19660'>dt</span> <span m='20380'>is</span> <span m='20600'>equal</span> <span m='20820'>to</span> <span m='20900'>x</span> <span m='21190'>squared</span> <span m='21900'>sine</span> <span m='22350'>pi</span> <span m='22600'>x,</span> <span m='24340'>I</span> <span m='24470'>want</span> <span m='24660'>us</span> <span m='24770'>to</span> <span m='24880'>find</span> <span m='25840'>little</span> <span m='26130'>f</span> <span m='26520'>of</span> <span m='26760'>2.</span> <span m='27940'>So</span> <span m='28120'>I'm</span> <span m='28180'>going to</span> <span m='28350'>give</span> <span m='28490'>you</span> <span m='28570'>a</span> <span m='28600'>little</span> <span m='28810'>while</span> <span m='28930'>to</span> <span m='28990'>work</span> <span m='29150'>on</span> <span m='29240'>the</span> <span m='29310'>problem.</span> <span m='30080'>When</span> <span m='30390'>you're</span> <span m='30560'>ready,</span> <span m='30850'>come</span> <span m='31090'>back</span> <span m='31610'>and</span> <span m='32340'>we'll</span> <span m='32530'>take</span> <span m='32740'>a</span> <span m='32810'>look</span> <span m='32990'>at</span> <span m='33130'>how</span> <span m='33380'>I</span> <span m='33470'>do</span> <span m='33670'>the</span> <span m='33750'>problem.</span> </p><p><span m='43070'>Welcome</span> <span m='43480'>back.</span> <span m='44040'>So</span> <span m='44290'>again,</span> <span m='44610'>we're</span> <span m='44760'>working</span> <span m='45030'>on</span> <span m='45090'>a</span> <span m='45160'>problem</span> <span m='45510'>where</span> <span m='45680'>we</span> <span m='45850'>know</span> <span m='47270'>that</span> <span m='47450'>f</span> <span m='47600'>is</span> <span m='47720'>a</span> <span m='47780'>continuous</span> <span m='48250'>function.</span> <span m='48800'>We</span> <span m='49000'>know</span> <span m='49160'>that the</span> <span m='49270'>integral</span> <span m='49590'>from</span> <span m='49770'>0</span> <span m='49990'>to</span> <span m='50100'>x</span> <span m='50510'>of</span> <span m='50670'>f of</span> <span m='50760'>t</span> <span m='50960'>dt</span> <span m='51450'>is</span> <span m='51620'>equal</span> <span m='51850'>to</span> <span m='51990'>a</span> <span m='52070'>certain</span> <span m='52320'>function.</span> <span m='52820'>And</span> <span m='52950'>we</span> <span m='53040'>want to</span> <span m='53280'>find</span> <span m='53980'>f</span> <span m='54220'>of</span> <span m='54360'>2.</span> <span m='55500'>So</span> <span m='55780'>what</span> <span m='55900'>we're</span> <span m='56000'>going</span> <span m='56160'>to</span> <span m='56230'>use,</span> <span m='56570'>because</span> <span m='56960'>we</span> <span m='57060'>know</span> <span m='57220'>little</span> <span m='57440'>f</span> <span m='57570'>is</span> <span m='57710'>continuous,</span> <span m='58450'>we</span> <span m='58550'>can</span> <span m='58680'>actually</span> <span m='59050'>use</span> <span m='59470'>the</span> <span m='59570'>fundamental</span> <span m='59970'>theorem</span> <span m='60170'>of</span> <span m='60290'>calculus.</span> <span m='61520'>And</span> <span m='61830'>we</span> <span m='61960'>know</span> <span m='62970'>that</span> <span m='63490'>d/dx</span> <span m='65110'>of</span> <span m='65430'>this</span> <span m='65930'>whole</span> <span m='66140'>expression</span> <span m='66650'>here</span> <span m='67600'>is</span> <span m='67770'>actually</span> <span m='68550'>little</span> <span m='68850'>f</span> <span m='69040'>of</span> <span m='69160'>x.</span> </p><p><span m='69950'>So</span> <span m='70190'>let's</span> <span m='70390'>just</span> <span m='70610'>remind</span> <span m='71090'>us--</span> <span m='71960'>I'll write</span> <span m='72260'>it</span> <span m='72350'>down</span> <span m='72570'>formally.</span> <span m='76380'>FTC</span> <span m='77170'>implies</span> <span m='80010'>that</span> <span m='80160'>d/dx,</span> <span m='81960'>the</span> <span m='82580'>interval</span> <span m='82960'>from 0 to x</span> <span m='84360'>f of</span> <span m='84560'>t</span> <span m='84840'>dt</span> <span m='86570'>is</span> <span m='86710'>equal</span> <span m='86800'>to</span> <span m='86970'>f of</span> <span m='87100'>x. Right? We know that.</span> <span m='89960'>So, we</span> <span m='90110'>know</span> <span m='90280'>that</span> <span m='93390'>d/dx</span> <span m='94050'>of</span> <span m='94210'>the</span> <span m='94300'>right-hand</span> <span m='94810'>side</span> <span m='95680'>and</span> <span m='95950'>d/dx</span> <span m='96460'>of</span> <span m='96590'>the</span> <span m='96680'>left-hand</span> <span m='97150'>side</span> <span m='97410'>are</span> <span m='97500'>the</span> <span m='97610'>same.</span> <span m='99190'>And</span> <span m='99370'>so</span> <span m='99520'>we</span> <span m='99690'>know</span> <span m='99890'>that</span> <span m='100030'>if</span> <span m='100120'>we</span> <span m='100240'>take</span> <span m='100590'>d/dx</span> <span m='100950'>of</span> <span m='101030'>the</span> <span m='101100'>right-hand</span> <span m='101500'>side,</span> <span m='101910'>we'll</span> <span m='102090'>get</span> <span m='102310'>little</span> <span m='102510'>f</span> <span m='102710'>of</span> <span m='102800'>x.</span> <span m='103040'>Because</span> <span m='104470'>d/dx</span> <span m='104710'>of</span> <span m='104980'>the</span> <span m='105100'>left-hand</span> <span m='105540'>side</span> <span m='106460'>of</span> <span m='106620'>this</span> <span m='106790'>equation</span> <span m='107200'>is</span> <span m='107810'>little</span> <span m='108050'>f</span> <span m='108190'>of</span> <span m='108290'>x.</span> <span m='108680'>So</span> <span m='108860'>d/dx</span> <span m='109080'>of the</span> <span m='109190'>right-hand</span> <span m='109670'>side</span> <span m='110570'>is</span> <span m='110720'>also</span> <span m='111000'>little</span> <span m='111230'>f</span> <span m='111370'>of</span> <span m='111480'>x.</span> <span m='112430'>So</span> <span m='112600'>now</span> <span m='112900'>what we</span> <span m='113020'>have</span> <span m='113170'>to</span> <span m='113280'>do</span> <span m='113470'>is</span> <span m='113590'>apply</span> <span m='114360'>what</span> <span m='114670'>we</span> <span m='114790'>know</span> <span m='114980'>about</span> <span m='115230'>taking</span> <span m='115530'>derivatives</span> <span m='116850'>to</span> <span m='116990'>find</span> <span m='117600'>little</span> <span m='117900'>f</span> <span m='118050'>of</span> <span m='118140'>x.</span> <span m='119090'>Then</span> <span m='119300'>once</span> <span m='119470'>we</span> <span m='119570'>find</span> <span m='119850'>little</span> <span m='120050'>f</span> <span m='120170'>of</span> <span m='120280'>x we</span> <span m='120630'>can</span> <span m='120770'>evaluate it</span> <span m='121420'>at</span> <span m='121865'>f</span> <span m='122310'>equal</span> <span m='122530'>2,</span> <span m='122840'>at</span> <span m='123250'>2--</span> <span m='123780'>sorry--</span> <span m='124150'>at x</span> <span m='124540'>equal</span> <span m='124800'>2. Sorry about that.</span> </p><p><span m='127210'>So</span> <span m='127530'>let's</span> <span m='127780'>come</span> <span m='127970'>over</span> <span m='128970'>to</span> <span m='129100'>the</span> <span m='129180'>right</span> <span m='129650'>part</span> <span m='129850'>of</span> <span m='129920'>the</span> <span m='130000'>board</span> <span m='130370'>and</span> <span m='130550'>we'll</span> <span m='130920'>find</span> <span m='131290'>d/dx</span> <span m='131720'>of</span> <span m='131840'>this</span> <span m='132770'>function</span> <span m='133210'>here.</span> <span m='141870'>So</span> <span m='142060'>what do</span> <span m='142210'>we</span> <span m='142320'>have</span> <span m='142430'>to</span> <span m='142520'>use?</span> <span m='142830'>We have</span> <span m='143040'>to use</span> <span m='143240'>the</span> <span m='143360'>product</span> <span m='143780'>rule</span> <span m='144190'>and</span> <span m='144360'>then</span> <span m='144480'>we'll</span> <span m='144590'>have</span> <span m='144760'>to</span> <span m='145090'>use</span> <span m='145430'>a</span> <span m='145500'>little</span> <span m='145820'>chain</span> <span m='146090'>rule, a</span> <span m='146550'>really</span> <span m='146820'>simple</span> <span m='147130'>chain</span> <span m='147420'>rule</span> <span m='148100'>in</span> <span m='148290'>the</span> <span m='148380'>second</span> <span m='148720'>term.</span> <span m='149290'>I'm</span> <span m='149440'>going to</span> <span m='149600'>write</span> <span m='149820'>it</span> <span m='149940'>down</span> <span m='150260'>below,</span> <span m='150660'>so</span> <span m='150820'>we</span> <span m='150910'>have</span> <span m='151050'>some</span> <span m='151280'>room</span> <span m='151540'>here.</span> <span m='151770'>So</span> <span m='151930'>the</span> <span m='152040'>first</span> <span m='152390'>term,</span> <span m='152570'>we</span> <span m='152680'>get</span> <span m='152840'>2x</span> <span m='154480'>sine</span> <span m='155160'>pi*x.</span> <span m='156550'>The</span> <span m='156660'>second</span> <span m='157020'>term</span> <span m='157170'>we</span> <span m='157280'>get</span> <span m='157420'>x</span> <span m='157840'>squared.</span> <span m='158690'>Derivative</span> <span m='158930'>of</span> <span m='159170'>sine is</span> <span m='159670'>cosine.</span> <span m='161010'>pi*x.</span> <span m='161690'>And</span> <span m='161790'>then</span> <span m='161900'>we</span> <span m='161990'>have</span> <span m='162150'>to</span> <span m='162250'>pull</span> <span m='162470'>out</span> <span m='162630'>a</span> <span m='162680'>pi.</span> <span m='164210'>Which</span> <span m='164420'>I'll</span> <span m='164540'>just</span> <span m='164770'>put,</span> <span m='165860'>well</span> <span m='166670'>I'll</span> <span m='167050'>put</span> <span m='167260'>it</span> <span m='167360'>here</span> <span m='167570'>for</span> <span m='167730'>the</span> <span m='167840'>moment.</span> <span m='168940'>The</span> <span m='169050'>pi</span> <span m='169330'>comes</span> <span m='169620'>from</span> <span m='169760'>taking</span> <span m='169970'>the</span> <span m='170060'>derivative</span> <span m='170470'>of</span> <span m='170890'>pi*x.</span> </p><p><span m='171980'>And</span> <span m='172220'>now</span> <span m='172380'>all</span> <span m='172490'>we</span> <span m='172640'>need,</span> <span m='173460'>this</span> <span m='173740'>is</span> <span m='173920'>then</span> <span m='174500'>f</span> <span m='174730'>of</span> <span m='174800'>x, right?</span> <span m='176670'>So</span> <span m='176880'>I</span> <span m='177020'>just will</span> <span m='177380'>remind</span> <span m='177780'>us</span> <span m='177900'>this</span> <span m='178130'>is</span> <span m='178260'>f</span> <span m='178400'>of</span> <span m='178520'>x.</span> <span m='179610'>Let</span> <span m='179720'>me</span> <span m='179810'>put</span> <span m='179990'>it</span> <span m='180070'>right</span> <span m='180270'>here,</span> <span m='180760'>a</span> <span m='181250'>little f of x.</span> <span m='182920'>So</span> <span m='183100'>if I</span> <span m='183260'>want</span> <span m='183390'>to</span> <span m='183450'>find</span> <span m='183750'>f</span> <span m='183900'>of</span> <span m='184000'>2,</span> <span m='184870'>all</span> <span m='185060'>I</span> <span m='185120'>have</span> <span m='185280'>to</span> <span m='185390'>do</span> <span m='185570'>is</span> <span m='185690'>evaluate</span> <span m='186290'>this</span> <span m='186920'>at x</span> <span m='187230'>equal</span> <span m='187510'>2.</span> <span m='189100'>So</span> <span m='189140'>f</span> <span m='189330'>of</span> <span m='189480'>2</span> <span m='189826'>is</span> <span m='190172'>going to</span> <span m='190520'>equal--</span> <span m='191060'>2</span> <span m='191200'>times</span> <span m='191460'>2</span> <span m='191650'>is</span> <span m='191810'>4--</span> <span m='193450'>sine</span> <span m='194330'>2*pi</span> <span m='196610'>plus</span> <span m='196930'>4--</span> <span m='197560'>I'll</span> <span m='197680'>bring</span> <span m='197860'>the</span> <span m='197950'>pi</span> <span m='198260'>in</span> <span m='198370'>front--</span> <span m='200050'>4*pi</span> <span m='200790'>cosine</span> <span m='201360'>2*pi.</span> <span m='203040'>So</span> <span m='203210'>what</span> <span m='203300'>do</span> <span m='203370'>I</span> <span m='203440'>get?</span> <span m='204610'>Sine</span> <span m='205040'>2*pi</span> <span m='205120'>is</span> <span m='205530'>0.</span> <span m='207010'>Cosine</span> <span m='207460'>2*pi</span> <span m='207590'>is</span> <span m='207970'>1.</span> <span m='208970'>So</span> <span m='209150'>ultimately,</span> <span m='210170'>I</span> <span m='210420'>just</span> <span m='210670'>get</span> <span m='210830'>4*pi.</span> </p><p><span m='212860'>So,</span> <span m='213050'>hopefully</span> <span m='213750'>you</span> <span m='213900'>were</span> <span m='214000'>able</span> <span m='214150'>to</span> <span m='214230'>solve</span> <span m='214440'>this</span> <span m='214560'>problem and</span> <span m='214860'>get</span> <span m='215000'>the</span> <span m='215090'>same</span> <span m='215320'>answer.</span> <span m='216950'>Now</span> <span m='217070'>let</span> <span m='217240'>me</span> <span m='217340'>remind</span> <span m='217650'>you,</span> <span m='217910'>one</span> <span m='218100'>more</span> <span m='218230'>time what</span> <span m='218510'>we</span> <span m='218650'>did.</span> <span m='220220'>Let's</span> <span m='220620'>come</span> <span m='220810'>over</span> <span m='220990'>here.</span> <span m='221440'>We</span> <span m='221630'>started</span> <span m='222020'>with</span> <span m='222190'>a</span> <span m='222250'>function</span> <span m='222720'>that</span> <span m='222830'>we</span> <span m='222930'>knew</span> <span m='223080'>was</span> <span m='223220'>continuous.</span> <span m='224410'>We</span> <span m='224780'>knew</span> <span m='225370'>the</span> <span m='225560'>integral</span> <span m='225780'>from</span> <span m='225930'>0</span> <span m='226080'>to</span> <span m='226170'>x of</span> <span m='226660'>that</span> <span m='226870'>function</span> <span m='227760'>was</span> <span m='228040'>equal</span> <span m='228280'>to</span> <span m='228450'>a</span> <span m='228520'>certain</span> <span m='228760'>function</span> <span m='229130'>of</span> <span m='229190'>x.</span> <span m='230610'>And</span> <span m='230820'>we</span> <span m='230920'>wanted</span> <span m='231630'>to</span> <span m='231860'>evaluate</span> <span m='232520'>this</span> <span m='232680'>function</span> <span m='233100'>at</span> <span m='233290'>a</span> <span m='233360'>certain, at a certain</span> <span m='234550'>point.</span> <span m='235530'>So</span> <span m='235760'>what</span> <span m='235900'>we</span> <span m='236020'>exploited</span> <span m='236600'>was</span> <span m='236760'>the</span> <span m='236840'>fundamental</span> <span m='237280'>theorem</span> <span m='237430'>of</span> <span m='237570'>calculus.</span> <span m='239030'>And</span> <span m='239170'>the</span> <span m='239230'>fundamental</span> <span m='239700'>theorem</span> <span m='239840'>of</span> <span m='239980'>calculus</span> <span m='240610'>tells</span> <span m='240900'>us</span> <span m='241140'>that</span> <span m='241330'>d/dx</span> <span m='242700'>of</span> <span m='242840'>the</span> <span m='242920'>left-hand</span> <span m='243390'>side</span> <span m='244420'>is</span> <span m='244600'>f</span> <span m='244850'>of</span> <span m='244960'>x.</span> <span m='246010'>And</span> <span m='246240'>so</span> <span m='246410'>that</span> <span m='246580'>we</span> <span m='246720'>can</span> <span m='246870'>take</span> <span m='247090'>d/dx</span> <span m='247340'>of</span> <span m='247630'>the</span> <span m='247730'>right-hand</span> <span m='248130'>side</span> <span m='249260'>and</span> <span m='249460'>figure</span> <span m='249740'>out</span> <span m='249870'>what</span> <span m='250010'>f</span> <span m='250120'>of</span> <span m='250220'>x is.</span> <span m='251070'>And</span> <span m='251180'>then</span> <span m='251290'>we</span> <span m='251400'>just</span> <span m='251600'>evaluate.</span> <span m='253290'>So</span> <span m='253440'>I</span> <span m='253510'>think</span> <span m='253680'>I'll</span> <span m='253780'>stop</span> <span m='253990'>there.</span> </p>", 
    "_content_type_link_text": "text/plain", 
    "course_linking": [], 
    "_id": "applying-the-second-fundamental-theorem", 
    "modification_date": "2016/09/25 01:20:57.286 GMT-4", 
    "media_index": [], 
    "always_publish": false, 
    "_owner": null, 
    "_permissions": {
        "Change portal events": {
            "acquire": false, 
            "roles": [
                "Editor", 
                "Manager", 
                "MetadataEditor", 
                "Owner"
            ]
        }, 
        "Modify portal content": {
            "acquire": false, 
            "roles": [
                "Manager", 
                "MetadataEditor"
            ]
        }, 
        "Access contents information": {
            "acquire": false, 
            "roles": [
                "Authenticated"
            ]
        }, 
        "List folder contents": {
            "acquire": false, 
            "roles": [
                "Editor", 
                "Manager", 
                "MetadataEditor", 
                "Owner"
            ]
        }, 
        "View": {
            "acquire": false, 
            "roles": [
                "Authenticated"
            ]
        }
    }, 
    "_properties": [
        [
            "title", 
            "Applying the Second Fundamental Theorem", 
            "string"
        ]
    ], 
    "creators": [
        "sbabbar"
    ], 
    "courselist_features": [], 
    "_path": "/Plone/courses/mathematics/18-01sc-single-variable-calculus-fall-2010/unit-3-the-definite-integral-and-its-applications/part-b-second-fundamental-theorem-areas-volumes/session-51-the-second-fundamental-theorem-of-calculus/applying-the-second-fundamental-theorem"
}