{
    "rsi_top_html_area": "", 
    "text": "", 
    "_content_type_license": "text/plain", 
    "_uid": "85ee87cdb697f2a6c7d000ab005329c5", 
    "title": "Second Fundamental Theorem and Quadratic Approximation", 
    "_ac_local_roles": {
        "sbabbar": [
            "Owner"
        ]
    }, 
    "template_type": "Embed", 
    "location": "", 
    "_content_type_course_identifier": "text/plain", 
    "_atbrefs": {}, 
    "constrainTypesMode": 0, 
    "_content_type_section_identifier": "text/plain", 
    "technical_location": "https://ocw.mit.edu/courses/mathematics/18-01sc-single-variable-calculus-fall-2010/unit-3-the-definite-integral-and-its-applications/part-b-second-fundamental-theorem-areas-volumes/session-51-the-second-fundamental-theorem-of-calculus/second-fundamental-theorem-and-quadratic-approximation", 
    "software_requirements": [
        {
            "software_type_col": "Browser", 
            "minimum_version_col": "40.0", 
            "software_name_col": "Chrome", 
            "maximum_version_col": ""
        }, 
        {
            "software_type_col": "Browser", 
            "minimum_version_col": "8.0", 
            "software_name_col": "Safari", 
            "maximum_version_col": ""
        }, 
        {
            "software_type_col": "Browser", 
            "minimum_version_col": "38.0", 
            "software_name_col": "Mozilla Firefox", 
            "maximum_version_col": ""
        }, 
        {
            "software_type_col": "Browser", 
            "minimum_version_col": "9.0", 
            "software_name_col": "Internet Explorer", 
            "maximum_version_col": ""
        }, 
        {
            "software_type_col": "Browser", 
            "minimum_version_col": "13.1", 
            "software_name_col": "Edge", 
            "maximum_version_col": ""
        }
    ], 
    "_content_type_technical_location": "text/plain", 
    "start_time": "", 
    "_content_type_rights": "text/html", 
    "_directly_provided": [
        "Products.CMFEditions.interfaces.IVersioned"
    ], 
    "media_rights": "(CC BY-NC-SA)", 
    "parent_uid": "9b4c6b77599861b820e8c804596b8c24", 
    "excludeFromNav": false, 
    "about_this_resource_text": "", 
    "_content_type_unique_identifier": "text/plain", 
    "end_time": "", 
    "allowDiscussion": false, 
    "_content_type_materialtype": "text/plain", 
    "locallyAllowedTypes": [
        "OCWImage", 
        "OCWFile", 
        "OCWMediaAsset"
    ], 
    "optional_tab_title": "", 
    "ad_type": "HOUSE", 
    "creation_date": "2015/12/23 00:27:09.132 US/Eastern", 
    "aggregationlevel": 2, 
    "bottom_html_area": "", 
    "duration": "", 
    "immediatelyAddableTypes": [
        "OCWImage", 
        "OCWFile", 
        "OCWMediaAsset"
    ], 
    "_content_type_template_type": "text/plain", 
    "subject": [], 
    "_content_type_short_page_title": "text/plain", 
    "effectiveDate": "2015/12/29 03:53:42.123 US/Eastern", 
    "parent_module": "bfe41979b9593362793fd930b36efa01", 
    "is_mathml_document": false, 
    "bottomtext": "", 
    "short_page_title": "Second Fundamental Theorem and Quadratic Approximation", 
    "section_identifier": "https://ocw.mit.edu/courses/mathematics/18-01sc-single-variable-calculus-fall-2010/unit-3-the-definite-integral-and-its-applications", 
    "show_captions_outside_player": false, 
    "related_mit_links": "", 
    "_content_type_ad_type": "text/plain", 
    "_layout": "custom_view", 
    "_workflow_history": {
        "page_workflow": [
            {
                "action": null, 
                "review_state": "waiting_for_authoring", 
                "comments": "", 
                "actor": "sbabbar", 
                "time": "2015/12/23 00:27:09.146 US/Eastern"
            }, 
            {
                "action": "approve_to_staging", 
                "review_state": "ready_for_staging", 
                "actor": "sbabbar", 
                "comments": "", 
                "time": "2015/12/29 03:53:42.170 US/Eastern"
            }
        ]
    }, 
    "_content_type_transcript": "text/html", 
    "metadata_contributor_list": [], 
    "_userdefined_roles": [], 
    "_content_type_inline_embed_id": "text/plain", 
    "publisher": "MIT OpenCourseWare", 
    "nextPreviousEnabled": false, 
    "_gopip": 10, 
    "license": "http://creativecommons.org/licenses/by-nc-sa/3.0/us/", 
    "url_rewrite_patterns": [], 
    "widgets_features": [], 
    "category_features": [], 
    "resource_contributor_list": [
        {
            "res_contributor_entity": "Jerison, David", 
            "res_contributor_uid": "b28f05bbf3c3b44d28bc8f11fc7834cd", 
            "res_contributor_role": "Performer"
        }
    ], 
    "show_jump_back_5_seconds_button": false, 
    "firstTimeEdit": false, 
    "_content_type_media_rights": "text/plain", 
    "feature_requirements": [], 
    "list_in_left_nav": false, 
    "inline_embed_id": "1112522secondfundamentaltheoremandquadraticapproximation792469", 
    "_classname": "MediaResource", 
    "short_name_tlp": "", 
    "expirationDate": "None", 
    "_content_type_id": "text/plain", 
    "contributor_list": [
        {}
    ], 
    "is_media_gallery": false, 
    "contributors": [], 
    "media_locations": [
        {}
    ], 
    "_content_type_media_resource_type": "text/plain", 
    "_content_type_title": "text/plain", 
    "subtitle_exemption": "None", 
    "_content_type": "text/html", 
    "resource_index_text": "", 
    "_atrefs": {
        "BelongsTo": [
            "bfe41979b9593362793fd930b36efa01"
        ]
    }, 
    "media_slides": [], 
    "other_platform_requirements": "", 
    "language": "", 
    "rights": "This site (c) Massachusetts Institute of Technology 2015.  Content within individual courses is (c) by the individual authors unless otherwise noted. The Massachusetts Institute of Technology is providing this Work (as defined below) under the terms of this Creative Commons public license (\"CCPL\" or \"license\") unless otherwise noted. The Work is protected by copyright and/or other applicable law. Any use of the work other than as authorized under this license is prohibited. By exercising any of the rights to the Work provided here, You (as defined below) accept and agree to be bound by the terms of this license. The Licensor, the Massachusetts Institute of Technology, grants You the rights contained here in consideration of Your acceptance of such terms and conditions.", 
    "hide_Page_title": false, 
    "_defaultpage": "", 
    "related_resources_text": "", 
    "tcATmit_subject_tags": [], 
    "features_tracking": [], 
    "ad_champion_text": "", 
    "has_inline_embed": false, 
    "unique_identifier": "https://ocw.mit.edu/courses/mathematics/18-01sc-single-variable-calculus-fall-2010/unit-3-the-definite-integral-and-its-applications/part-b-second-fundamental-theorem-areas-volumes/session-51-the-second-fundamental-theorem-of-calculus/second-fundamental-theorem-and-quadratic-approximation", 
    "link_text": "Second Fundamental Theorem and Quadratic Approximation", 
    "is_image_gallery": false, 
    "id": "second-fundamental-theorem-and-quadratic-approximation", 
    "_content_type_subtitle_exemption": "text/plain", 
    "materialtype": "Other", 
    "optional_text": "", 
    "_type": "MediaResource", 
    "description": "", 
    "media_resource_type": "Video", 
    "course_identifier": "https://ocw.mit.edu/courses/mathematics/18-01sc-single-variable-calculus-fall-2010", 
    "_content_type_publisher": "text/plain", 
    "tcATmit_instructional_tags": [], 
    "transcript": "<p><span m='6880'>PROFESSOR: Welcome</span> <span m='7260'>back</span> <span m='7440'>to</span> <span m='7510'>recitation.</span> <span m='8790'>In</span> <span m='9000'>this</span> <span m='9160'>video</span> <span m='9340'>I'd</span> <span m='9550'>like</span> <span m='9710'>us</span> <span m='9860'>to</span> <span m='9980'>work</span> <span m='10390'>on</span> <span m='10530'>the</span> <span m='10620'>following</span> <span m='10970'>problem.</span> <span m='11740'>We're</span> <span m='12150'>going</span> <span m='12380'>to</span> <span m='12510'>let</span> <span m='13110'>capital</span> <span m='13560'>F</span> <span m='13700'>of</span> <span m='13760'>x</span> <span m='14460'>equal</span> <span m='14830'>the</span> <span m='14900'>integral</span> <span m='15140'>from</span> <span m='15350'>0</span> <span m='15630'>to</span> <span m='15760'>x</span> <span m='16210'>of</span> <span m='16660'>little</span> <span m='16910'>f</span> <span m='17080'>of</span> <span m='17200'>t</span> <span m='17780'>dt.</span> <span m='19520'>And</span> <span m='19710'>I</span> <span m='19800'>want</span> <span m='20030'>us</span> <span m='20210'>to</span> <span m='20330'>find</span> <span m='20770'>the</span> <span m='20830'>quadratic</span> <span m='21380'>approximation</span> <span m='22510'>for big</span> <span m='22660'>F</span> <span m='23950'>near</span> <span m='24380'>x</span> <span m='24720'>equals</span> <span m='24870'>0</span> <span m='25720'>in</span> <span m='25930'>terms</span> <span m='26260'>of the</span> <span m='26680'>little</span> <span m='26950'>f.</span> <span m='28380'>And</span> <span m='28660'>then</span> <span m='28890'>I</span> <span m='28950'>want us</span> <span m='29170'>to</span> <span m='29350'>answer</span> <span m='29600'>this</span> <span m='29770'>question.</span> <span m='30400'>What</span> <span m='30710'>assumptions</span> <span m='31230'>do</span> <span m='31330'>we</span> <span m='31420'>have</span> <span m='31610'>to</span> <span m='31730'>make</span> <span m='31970'>about</span> <span m='32280'>little</span> <span m='32500'>f?</span> <span m='32890'>You'll</span> <span m='33180'>see</span> <span m='33750'>we're</span> <span m='33920'>making</span> <span m='34240'>some</span> <span m='34410'>assumptions</span> <span m='34830'>about</span> <span m='35030'>little</span> <span m='35240'>f.</span> <span m='35330'>I</span> <span m='35540'>want</span> <span m='35730'>to</span> <span m='35850'>know</span> <span m='36300'>what</span> <span m='36660'>those</span> <span m='36850'>assumptions</span> <span m='37300'>are.</span> <span m='38290'>So</span> <span m='38460'>I'm</span> <span m='38520'>going to</span> <span m='38680'>give</span> <span m='38810'>you</span> <span m='38940'>a</span> <span m='39020'>little</span> <span m='39220'>bit</span> <span m='39330'>of</span> <span m='39410'>time</span> <span m='39620'>to</span> <span m='39700'>work</span> <span m='39910'>on</span> <span m='40050'>this</span> <span m='40190'>problem.</span> <span m='41130'>And</span> <span m='41350'>then</span> <span m='41480'>I'll</span> <span m='41610'>be</span> <span m='41730'>back</span> <span m='42190'>and</span> <span m='42390'>I</span> <span m='42530'>will</span> <span m='42680'>work</span> <span m='42920'>on</span> <span m='43080'>it</span> <span m='43180'>with</span> <span m='43320'>you.</span> </p><p><span m='52200'>Welcome</span> <span m='52600'>back.</span> <span m='53680'>Hopefully</span> <span m='54090'>you were</span> <span m='54270'>able</span> <span m='54430'>to</span> <span m='54510'>make</span> <span m='54710'>some</span> <span m='54890'>good</span> <span m='55050'>headway</span> <span m='55390'>with</span> <span m='55550'>this</span> <span m='55710'>problem.</span> <span m='56670'>So</span> <span m='56880'>again,</span> <span m='57370'>what</span> <span m='57520'>we're</span> <span m='57630'>trying</span> <span m='57920'>to</span> <span m='58030'>do,</span> <span m='58270'>is</span> <span m='58530'>we've</span> <span m='58660'>defined</span> <span m='59400'>capital</span> <span m='59890'>F.</span> <span m='60710'>And</span> <span m='60990'>we</span> <span m='61100'>want</span> <span m='61330'>to</span> <span m='61430'>find</span> <span m='61660'>the</span> <span m='61720'>quadratic</span> <span m='62180'>approximation</span> <span m='63080'>for</span> <span m='63460'>it</span> <span m='63630'>near</span> <span m='63860'>x equals</span> <span m='64300'>0</span> <span m='64970'>in</span> <span m='65220'>terms</span> <span m='65510'>of</span> <span m='65610'>little</span> <span m='65890'>f.</span> <span m='66800'>Knowing</span> <span m='67100'>that</span> <span m='67180'>capital</span> <span m='67440'>F</span> <span m='67670'>of</span> <span m='67730'>x</span> <span m='68100'>is</span> <span m='68290'>equal</span> <span m='68910'>to</span> <span m='69060'>the</span> <span m='69180'>integral</span> <span m='69470'>from</span> <span m='69720'>0</span> <span m='69930'>to</span> <span m='70020'>x</span> <span m='70300'>of</span> <span m='70420'>little</span> <span m='70740'>f</span> <span m='70960'>of</span> <span m='71070'>t</span> <span m='71260'>dt.</span> <span m='72450'>And</span> <span m='72800'>then</span> <span m='72950'>at</span> <span m='73050'>the</span> <span m='73160'>end,</span> <span m='73460'>we'll</span> <span m='73680'>talk</span> <span m='73930'>about</span> <span m='74190'>what</span> <span m='74350'>are</span> <span m='74420'>the</span> <span m='74540'>assumptions</span> <span m='75000'>we've</span> <span m='75150'>made.</span> </p><p><span m='76150'>So</span> <span m='76440'>to</span> <span m='76570'>start</span> <span m='76930'>off,</span> <span m='77360'>what</span> <span m='77590'>I</span> <span m='77620'>actually</span> <span m='78010'>want</span> <span m='78200'>to</span> <span m='78280'>do</span> <span m='78490'>is</span> <span m='78680'>remind</span> <span m='79020'>us,</span> <span m='79150'>what</span> <span m='79470'>is</span> <span m='79640'>the</span> <span m='79720'>quadratic</span> <span m='80180'>approximation</span> <span m='80920'>for</span> <span m='81050'>capital</span> <span m='81390'>F,</span> <span m='81920'>just</span> <span m='82180'>in</span> <span m='82280'>terms</span> <span m='82690'>of</span> <span m='84040'>itself?</span> <span m='84740'>Of</span> <span m='84910'>capital</span> <span m='85270'>F?</span> <span m='85360'>So</span> <span m='85640'>let me</span> <span m='87020'>come</span> <span m='87200'>over</span> <span m='87400'>to</span> <span m='87480'>the</span> <span m='87570'>right</span> <span m='87900'>and</span> <span m='88030'>we'll</span> <span m='88160'>write</span> <span m='88380'>down</span> <span m='88590'>what</span> <span m='88710'>the</span> <span m='88770'>quadratic</span> <span m='88980'>approximation</span> <span m='89930'>is,</span> <span m='90630'>near</span> <span m='91010'>x equals</span> <span m='91590'>0.</span> </p><p><span m='92590'>So,</span> <span m='93480'>this</span> <span m='93770'>gives</span> <span m='94040'>us that</span> <span m='94430'>F</span> <span m='94640'>of</span> <span m='94730'>x</span> <span m='95630'>is</span> <span m='95820'>approximately</span> <span m='99340'>F of</span> <span m='99450'>0</span> <span m='101050'>plus</span> <span m='103080'>F</span> <span m='103410'>prime</span> <span m='103860'>of</span> <span m='103950'>0</span> <span m='104940'>times x</span> <span m='106940'>plus</span> <span m='108070'>F</span> <span m='108340'>double</span> <span m='108670'>prime</span> <span m='109390'>at</span> <span m='109630'>0</span> <span m='110120'>over</span> <span m='110470'>2</span> <span m='111360'>times</span> <span m='111635'>x</span> <span m='111910'>squared.</span> <span m='112860'>This</span> <span m='113110'>is</span> <span m='113340'>just</span> <span m='113670'>the</span> <span m='113750'>quadratic</span> <span m='114270'>approximation</span> <span m='115200'>of</span> <span m='115320'>capital</span> <span m='115720'>F</span> <span m='116290'>at</span> <span m='116530'>x equals</span> <span m='116790'>0.</span> <span m='117610'>That's</span> <span m='118160'>what</span> <span m='118340'>it</span> <span m='118440'>is.</span> <span m='119100'>So</span> <span m='119350'>now</span> <span m='119610'>all</span> <span m='119750'>we</span> <span m='119860'>need</span> <span m='120040'>to</span> <span m='120140'>do,</span> <span m='120350'>I've</span> <span m='120510'>asked</span> <span m='120770'>you</span> <span m='120830'>to</span> <span m='120890'>write</span> <span m='121100'>it</span> <span m='121200'>in</span> <span m='121310'>terms</span> <span m='121640'>of</span> <span m='121930'>little</span> <span m='122220'>f.</span> </p><p><span m='122850'>So</span> <span m='123070'>what we</span> <span m='123180'>need</span> <span m='123310'>to</span> <span m='123400'>do</span> <span m='123530'>is</span> <span m='123680'>figure</span> <span m='123920'>out</span> <span m='124040'>what</span> <span m='124130'>each</span> <span m='124190'>of</span> <span m='124380'>these</span> <span m='124680'>things</span> <span m='125480'>actually</span> <span m='125960'>is.</span> <span m='126230'>What</span> <span m='126760'>capital</span> <span m='127130'>F of</span> <span m='127320'>0</span> <span m='127700'>is,</span> <span m='127900'>what</span> <span m='128030'>capital</span> <span m='128240'>F</span> <span m='128510'>prime of</span> <span m='128910'>0</span> <span m='129230'>is,</span> <span m='129470'>and</span> <span m='129600'>what</span> <span m='129710'>capital</span> <span m='129930'>F</span> <span m='130230'>double</span> <span m='130470'>prime of</span> <span m='130740'>0</span> <span m='131000'>is,</span> <span m='131620'>in</span> <span m='131790'>terms</span> <span m='132160'>of</span> <span m='132290'>the</span> <span m='133000'>function</span> <span m='133650'>little</span> <span m='133970'>f.</span> <span m='134910'>So</span> <span m='135100'>let's</span> <span m='135280'>see.</span> <span m='136580'>Well</span> <span m='136730'>first,</span> <span m='137690'>let's</span> <span m='137920'>figure</span> <span m='138170'>out</span> <span m='138300'>what</span> <span m='138400'>capital F</span> <span m='138900'>of 0</span> <span m='139190'>is.</span> <span m='139942'>Let's</span> <span m='140320'>write</span> <span m='140520'>down</span> <span m='140790'>what</span> <span m='140920'>it</span> <span m='141040'>is.</span> <span m='141325'>The integral from</span> <span m='141610'>0</span> <span m='141940'>to</span> <span m='142360'>0</span> <span m='143670'>of</span> <span m='143850'>f</span> <span m='144010'>of</span> <span m='144110'>t</span> <span m='144290'>dt.</span> <span m='146330'>Well</span> <span m='146570'>we</span> <span m='146710'>know,</span> <span m='147040'>when</span> <span m='147160'>you</span> <span m='147240'>take</span> <span m='147440'>the</span> <span m='147560'>integral</span> <span m='147800'>from</span> <span m='148050'>a</span> <span m='148160'>to</span> <span m='148320'>a</span> <span m='149200'>of</span> <span m='149850'>a</span> <span m='149920'>function,</span> <span m='150340'>you</span> <span m='150470'>should</span> <span m='150660'>get</span> <span m='150870'>0.</span> <span m='151390'>So</span> <span m='151530'>capital</span> <span m='151930'>F</span> <span m='152100'>at</span> <span m='152230'>0</span> <span m='152720'>is</span> <span m='152940'>just</span> <span m='153860'>0.</span> <span m='155840'>So</span> <span m='156040'>we</span> <span m='156130'>have</span> <span m='156300'>one</span> <span m='156490'>piece.</span> </p><p><span m='157770'>Now,</span> <span m='158080'>let's</span> <span m='158280'>figure</span> <span m='158550'>out</span> <span m='158720'>what</span> <span m='158830'>capital</span> <span m='158980'>F</span> <span m='159320'>prime</span> <span m='159570'>is.</span> <span m='159740'>Well,</span> <span m='160080'>capital</span> <span m='160300'>F</span> <span m='160580'>prime</span> <span m='160790'>of</span> <span m='160890'>x,</span> <span m='162650'>we</span> <span m='162920'>know</span> <span m='163360'>using</span> <span m='163720'>fundamental</span> <span m='164180'>theorem</span> <span m='164340'>of</span> <span m='164530'>calculus--</span> <span m='165130'>let's</span> <span m='165290'>just</span> <span m='165530'>write</span> <span m='165730'>it</span> <span m='165830'>down</span> <span m='166760'>so</span> <span m='166930'>we</span> <span m='167040'>can</span> <span m='167200'>see</span> <span m='167460'>it</span> <span m='167550'>easily--</span> <span m='172130'>we</span> <span m='172330'>know</span> <span m='172970'>this</span> <span m='173210'>is</span> <span m='173370'>just</span> <span m='174130'>little</span> <span m='174360'>f</span> <span m='174560'>of</span> <span m='174620'>x.</span> <span m='178260'>So</span> <span m='178660'>if</span> <span m='178810'>I</span> <span m='178900'>wanted</span> <span m='179230'>capital</span> <span m='179600'>F</span> <span m='179790'>prime</span> <span m='180060'>at</span> <span m='180180'>0,</span> <span m='182880'>I</span> <span m='183000'>just</span> <span m='183230'>come</span> <span m='183370'>over</span> <span m='183550'>here.</span> <span m='183970'>That's</span> <span m='184250'>just</span> <span m='184450'>going</span> <span m='184620'>to</span> <span m='184700'>be</span> <span m='185720'>little</span> <span m='185950'>f</span> <span m='187020'>at</span> <span m='187190'>0.</span> </p><p><span m='189300'>So</span> <span m='189480'>now,</span> <span m='189710'>if</span> <span m='189800'>we</span> <span m='189910'>look</span> <span m='190120'>back</span> <span m='190400'>up at</span> <span m='190520'>what</span> <span m='190710'>we</span> <span m='190790'>have</span> <span m='190910'>at</span> <span m='190970'>the</span> <span m='191040'>top,</span> <span m='191360'>we</span> <span m='191460'>filled</span> <span m='191730'>in</span> <span m='191820'>this</span> <span m='192020'>part-- or</span> <span m='192400'>we</span> <span m='192580'>know</span> <span m='192830'>that</span> <span m='193080'>part,</span> <span m='193350'>that's</span> <span m='193520'>0--</span> <span m='194150'>we</span> <span m='194420'>know</span> <span m='194600'>this</span> <span m='194810'>part.</span> <span m='195500'>So</span> <span m='195690'>now</span> <span m='195960'>all we</span> <span m='196080'>need</span> <span m='196370'>is</span> <span m='197450'>capital</span> <span m='197890'>F</span> <span m='198070'>double</span> <span m='198360'>prime</span> <span m='198860'>evaluated</span> <span m='199550'>at</span> <span m='199690'>x equals</span> <span m='199990'>0.</span> <span m='200970'>And</span> <span m='201170'>then</span> <span m='201310'>we'll</span> <span m='201490'>be</span> <span m='201600'>done.</span> <span m='201850'>Now,</span> <span m='202160'>how</span> <span m='202310'>are</span> <span m='202370'>we</span> <span m='202480'>going</span> <span m='202660'>to</span> <span m='202740'>do</span> <span m='202880'>this?</span> <span m='203160'>Well</span> <span m='203320'>we</span> <span m='203450'>know</span> <span m='204450'>what</span> <span m='204760'>capital</span> <span m='204970'>F</span> <span m='205270'>prime</span> <span m='205530'>is. So</span> <span m='205870'>let's</span> <span m='206070'>come</span> <span m='206320'>in,</span> <span m='206720'>sort</span> <span m='206980'>of</span> <span m='207200'>up</span> <span m='207380'>here,</span> <span m='207590'>and</span> <span m='207700'>look</span> <span m='207870'>again.</span> <span m='208170'>We</span> <span m='208280'>know</span> <span m='208430'>what</span> <span m='209570'>capital</span> <span m='209740'>F</span> <span m='210030'>prime</span> <span m='210350'>is.</span> <span m='210990'>We</span> <span m='211230'>know</span> <span m='211440'>it's</span> <span m='211620'>little</span> <span m='211900'>f.</span> <span m='213300'>So</span> <span m='213510'>if</span> <span m='213600'>I</span> <span m='213700'>want to</span> <span m='213970'>take</span> <span m='214250'>a</span> <span m='214360'>second</span> <span m='214780'>derivative,</span> <span m='216160'>of</span> <span m='217130'>capital</span> <span m='217550'>F--</span> <span m='218050'>let me</span> <span m='218160'>write</span> <span m='218440'>that</span> <span m='218660'>down</span> <span m='218880'>here--</span> <span m='221750'>that's</span> <span m='222000'>going</span> <span m='222250'>to</span> <span m='222340'>be</span> <span m='222510'>taking</span> <span m='222820'>a</span> <span m='222890'>derivative</span> <span m='223550'>of</span> <span m='223690'>little</span> <span m='223920'>f. Right?</span> <span m='225650'>That'll</span> <span m='225870'>be,</span> <span m='227370'>that's</span> <span m='227780'>d/dx</span> <span m='229260'>of</span> <span m='229380'>little</span> <span m='229680'>f of</span> <span m='229900'>x.</span> <span m='230500'>So</span> <span m='230730'>I</span> <span m='230810'>can</span> <span m='230960'>just</span> <span m='231150'>write</span> <span m='231320'>this</span> <span m='231500'>as</span> <span m='231630'>little</span> <span m='231780'>f</span> <span m='232190'>prime</span> <span m='233350'>of</span> <span m='233520'>x.</span> </p><p><span m='235350'>So</span> <span m='235590'>again,</span> <span m='235830'>let</span> <span m='235920'>me</span> <span m='236400'>show</span> <span m='236560'>you</span> <span m='236630'>where</span> <span m='236740'>that</span> <span m='236910'>came</span> <span m='237120'>from.</span> <span m='237700'>We</span> <span m='237970'>knew</span> <span m='239200'>big</span> <span m='239510'>F</span> <span m='239690'>prime</span> <span m='240750'>was</span> <span m='240980'>equal</span> <span m='241090'>to</span> <span m='241280'>little</span> <span m='241510'>f.</span> <span m='242770'>So</span> <span m='242970'>when</span> <span m='243090'>I</span> <span m='243170'>take</span> <span m='243440'>another</span> <span m='243840'>derivative</span> <span m='244320'>of</span> <span m='244460'>this,</span> <span m='245490'>I</span> <span m='245720'>have</span> <span m='245920'>to</span> <span m='246030'>take</span> <span m='246280'>a</span> <span m='246650'>derivative</span> <span m='247130'>of</span> <span m='247250'>this.</span> <span m='248150'>So</span> <span m='248340'>that's</span> <span m='248570'>why</span> <span m='248720'>capital</span> <span m='249090'>F</span> <span m='249340'>double</span> <span m='249570'>prime</span> <span m='250600'>is</span> <span m='250750'>equal</span> <span m='250990'>to</span> <span m='251050'>little</span> <span m='251290'>f</span> <span m='251510'>prime.</span> <span m='252630'>So</span> <span m='252820'>we're</span> <span m='252940'>almost</span> <span m='253330'>there.</span> <span m='253750'>I</span> <span m='253810'>think</span> <span m='254020'>I'm</span> <span m='254140'>about</span> <span m='254460'>to</span> <span m='254750'>run</span> <span m='254960'>out</span> <span m='255090'>of</span> <span m='255170'>room</span> <span m='255340'>down</span> <span m='255540'>here,</span> <span m='255790'>so</span> <span m='255960'>let</span> <span m='256060'>me</span> <span m='256160'>come</span> <span m='256330'>over</span> <span m='256580'>a</span> <span m='256650'>little</span> <span m='256840'>bit</span> <span m='256990'>further.</span> </p><p><span m='258840'>So</span> <span m='259020'>now,</span> <span m='259170'>we</span> <span m='259300'>just</span> <span m='259440'>need</span> <span m='259590'>to</span> <span m='259700'>evaluate</span> <span m='260260'>this</span> <span m='260940'>at</span> <span m='261150'>0.</span> <span m='262590'>Well,</span> <span m='262920'>that's</span> <span m='263530'>just</span> <span m='263850'>going</span> <span m='264020'>to</span> <span m='264080'>be</span> <span m='264220'>evaluating</span> <span m='265400'>little</span> <span m='265590'>f</span> <span m='265810'>prime</span> <span m='266490'>at</span> <span m='266710'>0.</span> <span m='268470'>So</span> <span m='268630'>now</span> <span m='268770'>I</span> <span m='268830'>have</span> <span m='268990'>all</span> <span m='269100'>the</span> <span m='269180'>pieces.</span> <span m='269600'>Let's</span> <span m='269770'>come</span> <span m='269950'>back</span> <span m='270160'>in</span> <span m='270320'>and</span> <span m='270790'>fill</span> <span m='271080'>it in</span> <span m='271260'>one</span> <span m='271400'>more</span> <span m='271530'>time.</span> <span m='272400'>So</span> <span m='272590'>what</span> <span m='272680'>do</span> <span m='272740'>I</span> <span m='272840'>get?</span> <span m='273270'>I</span> <span m='273450'>get-- let me,</span> <span m='275300'>now</span> <span m='275470'>I</span> <span m='275550'>have</span> <span m='275710'>all</span> <span m='275780'>the</span> <span m='275880'>pieces.</span> <span m='276990'>Now</span> <span m='277120'>to</span> <span m='277210'>answer</span> <span m='277480'>the</span> <span m='277570'>question. Little f-- or sorry--</span> <span m='280500'>big</span> <span m='280720'>F of</span> <span m='280900'>x,</span> <span m='281300'>its</span> <span m='281450'>quadratic</span> <span m='281880'>approximation</span> <span m='282990'>is</span> <span m='283270'>going</span> <span m='283550'>to</span> <span m='283660'>be</span> <span m='285260'>big</span> <span m='285510'>F of</span> <span m='285640'>0,</span> <span m='286320'>which</span> <span m='286520'>we</span> <span m='286660'>said</span> <span m='286870'>was</span> <span m='287040'>0.</span> <span m='287200'>So</span> <span m='287600'>let's</span> <span m='287760'>come</span> <span m='287930'>over</span> <span m='288190'>and</span> <span m='288350'>look.</span> <span m='289800'>Here's</span> <span m='289950'>big</span> <span m='290190'>F of</span> <span m='290330'>0.</span> <span m='291650'>I</span> <span m='291770'>know</span> <span m='291910'>that's</span> <span m='292110'>0.</span> <span m='293600'>And</span> <span m='293840'>then</span> <span m='293940'>I'm</span> <span m='294020'>going</span> <span m='294190'>to</span> <span m='294250'>add</span> <span m='294530'>to</span> <span m='294640'>that</span> <span m='295260'>big</span> <span m='295380'>F</span> <span m='295590'>prime</span> <span m='295900'>at</span> <span m='295990'>0</span> <span m='296680'>times</span> <span m='296950'>x.</span> <span m='298580'>That's</span> <span m='298900'>little</span> <span m='299140'>f of</span> <span m='299380'>0</span> <span m='300450'>times</span> <span m='300710'>x.</span> <span m='301090'>Let's</span> <span m='301210'>come</span> <span m='301370'>back</span> <span m='301580'>over</span> <span m='301800'>and</span> <span m='301890'>do</span> <span m='301980'>that.</span> <span m='302220'>So we</span> <span m='302420'>add</span> <span m='302680'>to</span> <span m='302850'>that</span> <span m='304050'>little</span> <span m='304590'>f at</span> <span m='304820'>0</span> <span m='306230'>times x.</span> </p><p><span m='308020'>And</span> <span m='308180'>let's</span> <span m='308350'>come</span> <span m='308570'>back.</span> <span m='308810'>One</span> <span m='309030'>more</span> <span m='309190'>thing</span> <span m='309420'>we're</span> <span m='309530'>going</span> <span m='309710'>to</span> <span m='309780'>need.</span> <span m='310040'>We</span> <span m='310140'>need</span> <span m='310290'>one</span> <span m='310440'>more</span> <span m='310600'>term.</span> <span m='312330'>That's</span> <span m='312600'>big</span> <span m='312880'>F</span> <span m='313500'>double</span> <span m='313800'>prime at</span> <span m='314180'>0</span> <span m='314710'>over</span> <span m='314930'>2</span> <span m='315170'>times</span> <span m='315420'>x squared.</span> <span m='317030'>That</span> <span m='317300'>I've</span> <span m='317410'>left</span> <span m='317590'>big</span> <span m='317850'>F</span> <span m='317980'>double</span> <span m='318250'>prime at</span> <span m='318630'>0</span> <span m='319420'>is</span> <span m='319870'>little</span> <span m='320120'>f</span> <span m='320330'>prime</span> <span m='320630'>at</span> <span m='320750'>0.</span> <span m='322200'>So</span> <span m='322420'>that's</span> <span m='323110'>f</span> <span m='323260'>prime</span> <span m='323650'>at</span> <span m='323730'>0</span> <span m='324940'>over</span> <span m='325180'>2</span> <span m='326270'>times</span> <span m='326410'>x</span> <span m='326560'>squared.</span> <span m='327530'>So</span> <span m='327690'>we</span> <span m='327780'>had</span> <span m='327960'>all</span> <span m='328100'>the</span> <span m='328190'>pieces.</span> <span m='328790'>We</span> <span m='328890'>just</span> <span m='329060'>had</span> <span m='329190'>to</span> <span m='329990'>put</span> <span m='330220'>them</span> <span m='330380'>in.</span> <span m='331670'>This</span> <span m='331950'>does</span> <span m='332070'>not</span> <span m='332300'>look</span> <span m='332410'>like</span> <span m='332580'>an</span> <span m='332650'>approximately</span> <span m='333320'>by</span> <span m='333460'>the</span> <span m='333590'>way.</span> <span m='334620'>Sorry.</span> <span m='334850'>There</span> <span m='335010'>we</span> <span m='335110'>go.</span> </p><p><span m='336170'>So</span> <span m='336430'>what</span> <span m='336590'>do</span> <span m='336650'>we</span> <span m='336750'>get?</span> <span m='337220'>This</span> <span m='338110'>expression</span> <span m='338510'>above</span> <span m='338810'>is</span> <span m='338920'>equal</span> <span m='339180'>to--</span> <span m='339930'>well why did</span> <span m='340300'>I write</span> <span m='340420'>the</span> <span m='340510'>0</span> <span m='340780'>again?</span> <span m='341050'>Sorry</span> <span m='341380'>I</span> <span m='341430'>was</span> <span m='341580'>trying</span> <span m='341830'>to</span> <span m='341930'>avoid</span> <span m='342270'>writing</span> <span m='342590'>the</span> <span m='342720'>0.</span> <span m='343810'>It's</span> <span m='343910'>equal</span> <span m='344100'>to</span> <span m='344910'>f of</span> <span m='345140'>0</span> <span m='345510'>times</span> <span m='345750'>x</span> <span m='347150'>plus</span> <span m='347680'>f</span> <span m='348240'>prime</span> <span m='348580'>of</span> <span m='348920'>0</span> <span m='349800'>over</span> <span m='350040'>2</span> <span m='350630'>times</span> <span m='350880'>x</span> <span m='351010'>squared.</span> </p><p><span m='352030'>So</span> <span m='352300'>the</span> <span m='352430'>quadratic</span> <span m='353020'>approximation</span> <span m='353740'>of</span> <span m='354100'>capital</span> <span m='354490'>F</span> <span m='354850'>in</span> <span m='355050'>terms</span> <span m='355390'>of</span> <span m='355470'>little</span> <span m='355760'>f</span> <span m='356050'>is</span> <span m='356210'>exactly</span> <span m='356660'>this.</span> <span m='358160'>Now</span> <span m='359320'>what</span> <span m='359840'>assumptions</span> <span m='360430'>are</span> <span m='360500'>we</span> <span m='360600'>making</span> <span m='360970'>about</span> <span m='361260'>little</span> <span m='361480'>f?</span> <span m='362570'>Well to</span> <span m='362880'>apply</span> <span m='363210'>the</span> <span m='363310'>fundamental</span> <span m='363740'>theorem</span> <span m='363890'>of</span> <span m='364030'>calculus,</span> <span m='364520'>you need</span> <span m='364800'>little</span> <span m='365030'>f is</span> <span m='365280'>continuous.</span> <span m='365920'>But</span> <span m='366060'>we</span> <span m='366160'>actually</span> <span m='366460'>need</span> <span m='366690'>more</span> <span m='366920'>than</span> <span m='367090'>that.</span> <span m='367930'>Because</span> <span m='368230'>what</span> <span m='368370'>have</span> <span m='368440'>we</span> <span m='368590'>done?</span> <span m='368850'>We've</span> <span m='369000'>actually</span> <span m='369350'>taken</span> <span m='369650'>a</span> <span m='369840'>derivative</span> <span m='370230'>of</span> <span m='370330'>little</span> <span m='370500'>f.</span> <span m='371340'>So</span> <span m='371540'>we</span> <span m='371660'>need</span> <span m='371900'>that</span> <span m='372380'>this</span> <span m='372780'>function,</span> <span m='373220'>little</span> <span m='373490'>f,</span> <span m='373640'>is</span> <span m='373740'>actually</span> <span m='374430'>differentiable.</span> </p><p><span m='376240'>So</span> <span m='376730'>that is, that</span> <span m='377760'>actually</span> <span m='378080'>includes,</span> <span m='378760'>of</span> <span m='378970'>course,</span> <span m='379280'>that</span> <span m='380220'>little</span> <span m='380440'>f</span> <span m='380570'>is</span> <span m='380750'>continuous.</span> <span m='381330'>So</span> <span m='381480'>we</span> <span m='381630'>don't</span> <span m='381860'>even</span> <span m='382010'>have</span> <span m='382150'>to</span> <span m='382260'>say</span> <span m='383210'>continuous</span> <span m='383750'>in the</span> <span m='383900'>assumptions.</span> <span m='384440'>We</span> <span m='384540'>just</span> <span m='384730'>have</span> <span m='384860'>to</span> <span m='384980'>say,</span> <span m='385790'>we're</span> <span m='386040'>assuming</span> <span m='386440'>little</span> <span m='386650'>f is</span> <span m='386870'>differentiable,</span> <span m='388000'>at</span> <span m='388210'>least</span> <span m='388480'>near</span> <span m='388660'>0.</span> </p><p><span m='390190'>So</span> <span m='390400'>let's</span> <span m='390600'>go</span> <span m='390730'>back</span> <span m='391120'>and</span> <span m='391230'>just</span> <span m='391370'>remind</span> <span m='391670'>ourselves</span> <span m='392000'>what</span> <span m='392110'>we</span> <span m='392240'>did.</span> <span m='392790'>I'm</span> <span m='392950'>going to</span> <span m='393110'>go</span> <span m='393230'>all</span> <span m='393370'>the</span> <span m='393440'>way</span> <span m='393570'>over,</span> <span m='393870'>remind</span> <span m='394150'>ourselves of</span> <span m='394650'>the</span> <span m='394750'>problem</span> <span m='395130'>and</span> <span m='395230'>kind</span> <span m='395400'>of</span> <span m='395520'>bring</span> <span m='395780'>us</span> <span m='395890'>back</span> <span m='396130'>through.</span> <span m='398130'>So</span> <span m='398310'>we</span> <span m='398440'>started</span> <span m='398850'>off</span> <span m='399130'>with</span> <span m='399280'>this</span> <span m='400600'>definition</span> <span m='401190'>of</span> <span m='401340'>big</span> <span m='401600'>F.</span> <span m='402720'>And</span> <span m='402900'>I</span> <span m='402950'>wanted</span> <span m='403280'>us to</span> <span m='403400'>find</span> <span m='403630'>a</span> <span m='403690'>quadratic</span> <span m='404100'>approximation</span> <span m='404800'>for</span> <span m='405030'>it</span> <span m='405140'>near</span> <span m='405300'>x equals</span> <span m='405700'>0.</span> <span m='406870'>And</span> <span m='407070'>then</span> <span m='407210'>we</span> <span m='407710'>just</span> <span m='407960'>mentioned,</span> <span m='408370'>what</span> <span m='408520'>are</span> <span m='408580'>the</span> <span m='408700'>assumptions?</span> <span m='409940'>So</span> <span m='410200'>I</span> <span m='410270'>reminded</span> <span m='410810'>you,</span> <span m='410970'>first,</span> <span m='412200'>of</span> <span m='412420'>what</span> <span m='412700'>is</span> <span m='412950'>the</span> <span m='413790'>quadratic</span> <span m='414290'>approximation</span> <span m='414850'>of</span> <span m='414910'>big</span> <span m='415160'>F</span> <span m='415290'>in</span> <span m='415390'>terms</span> <span m='415730'>of</span> <span m='416050'>itself,</span> <span m='416620'>in</span> <span m='416710'>terms</span> <span m='416960'>of</span> <span m='417060'>big</span> <span m='417260'>F.</span> <span m='418200'>And</span> <span m='418390'>we</span> <span m='418550'>just</span> <span m='419030'>write</span> <span m='419310'>it</span> <span m='419400'>out.</span> </p><p><span m='420090'>And</span> <span m='420310'>then</span> <span m='420440'>we</span> <span m='420530'>had</span> <span m='420700'>defined</span> <span m='421340'>what</span> <span m='421640'>is</span> <span m='421760'>this</span> <span m='422110'>in</span> <span m='422260'>terms</span> <span m='422550'>of</span> <span m='422680'>little</span> <span m='422890'>f,</span> <span m='423490'>what</span> <span m='423910'>is</span> <span m='424030'>this</span> <span m='424260'>in</span> <span m='424360'>terms</span> <span m='424600'>of</span> <span m='424750'>little</span> <span m='424940'>f,</span> <span m='425740'>and</span> <span m='425900'>what</span> <span m='426020'>is</span> <span m='426140'>this</span> <span m='426330'>in</span> <span m='426430'>terms</span> <span m='426680'>of</span> <span m='426770'>little f?</span> <span m='428080'>And</span> <span m='428250'>so</span> <span m='428370'>what</span> <span m='428540'>do</span> <span m='428600'>we</span> <span m='428720'>look</span> <span m='428910'>at?</span> <span m='429100'>Well,</span> <span m='429370'>we</span> <span m='429490'>evaluate</span> <span m='430550'>f of</span> <span m='430860'>0.</span> <span m='431690'>That's</span> <span m='431900'>easy</span> <span m='432130'>enough.</span> <span m='433610'>We</span> <span m='433900'>found</span> <span m='435990'>big</span> <span m='436280'>F</span> <span m='436470'>prime</span> <span m='437170'>in</span> <span m='437370'>terms</span> <span m='437740'>of</span> <span m='437830'>little</span> <span m='438060'>f.</span> <span m='438660'>That's</span> <span m='438930'>fundamental</span> <span m='439350'>theorem</span> <span m='439520'>of</span> <span m='439650'>calculus.</span> <span m='440850'>And</span> <span m='441030'>then</span> <span m='441150'>we</span> <span m='441260'>evaluate</span> <span m='441790'>that</span> <span m='442220'>at x</span> <span m='442560'>equals</span> <span m='442830'>0.</span> <span m='443840'>And</span> <span m='444160'>then</span> <span m='444350'>we</span> <span m='444760'>know</span> <span m='444960'>that</span> <span m='445150'>if</span> <span m='445270'>we</span> <span m='445330'>want</span> <span m='445520'>to</span> <span m='445590'>take</span> <span m='445810'>a</span> <span m='445890'>second</span> <span m='446250'>derivative</span> <span m='447300'>of</span> <span m='447490'>this</span> <span m='447680'>function,</span> <span m='448040'>we</span> <span m='448130'>need</span> <span m='448310'>to</span> <span m='448410'>take</span> <span m='448970'>a</span> <span m='449070'>derivative</span> <span m='449800'>of</span> <span m='449960'>the</span> <span m='450050'>little</span> <span m='450310'>f.</span> <span m='451120'>And</span> <span m='451280'>so</span> <span m='451380'>we</span> <span m='451510'>get</span> <span m='451720'>big</span> <span m='451820'>F</span> <span m='452010'>double</span> <span m='452310'>prime</span> <span m='453460'>is</span> <span m='453600'>actually</span> <span m='454000'>little</span> <span m='454190'>f</span> <span m='454420'>prime.</span> <span m='455290'>So</span> <span m='455520'>we</span> <span m='455610'>evaluate</span> <span m='456020'>that</span> <span m='456230'>at</span> <span m='456290'>0</span> <span m='456640'>to</span> <span m='456740'>get</span> <span m='457820'>big</span> <span m='458030'>F</span> <span m='458150'>double</span> <span m='458380'>prime</span> <span m='458710'>at</span> <span m='458990'>0.</span> </p><p><span m='460330'>And</span> <span m='460510'>then</span> <span m='460620'>we</span> <span m='460720'>come</span> <span m='460920'>in</span> <span m='461030'>and</span> <span m='461140'>we</span> <span m='461240'>just</span> <span m='461470'>fill</span> <span m='461650'>in</span> <span m='461800'>everything</span> <span m='462220'>we</span> <span m='462330'>needed.</span> <span m='463750'>And</span> <span m='463940'>so</span> <span m='464340'>ultimately,</span> <span m='465010'>this</span> <span m='465250'>is</span> <span m='465920'>the</span> <span m='466000'>final</span> <span m='466350'>answer</span> <span m='467200'>of the</span> <span m='467430'>quadratic</span> <span m='467750'>approximation</span> <span m='468410'>of</span> <span m='468550'>big</span> <span m='468600'>F</span> <span m='469550'>in</span> <span m='469750'>terms</span> <span m='470010'>of</span> <span m='470100'>little</span> <span m='470440'>f</span> <span m='471470'>near</span> <span m='471900'>x equals</span> <span m='472370'>0.</span> <span m='473420'>So</span> <span m='473650'>I</span> <span m='473750'>think</span> <span m='473990'>that's</span> <span m='474170'>where</span> <span m='474310'>we'll</span> <span m='474420'>stop.</span> </p>", 
    "_content_type_link_text": "text/plain", 
    "course_linking": [], 
    "_id": "second-fundamental-theorem-and-quadratic-approximation", 
    "modification_date": "2016/09/25 01:20:57.486 GMT-4", 
    "media_index": [], 
    "always_publish": false, 
    "_owner": null, 
    "_permissions": {
        "Change portal events": {
            "acquire": false, 
            "roles": [
                "Editor", 
                "Manager", 
                "MetadataEditor", 
                "Owner"
            ]
        }, 
        "Modify portal content": {
            "acquire": false, 
            "roles": [
                "Manager", 
                "MetadataEditor"
            ]
        }, 
        "Access contents information": {
            "acquire": false, 
            "roles": [
                "Authenticated"
            ]
        }, 
        "List folder contents": {
            "acquire": false, 
            "roles": [
                "Editor", 
                "Manager", 
                "MetadataEditor", 
                "Owner"
            ]
        }, 
        "View": {
            "acquire": false, 
            "roles": [
                "Authenticated"
            ]
        }
    }, 
    "_properties": [
        [
            "title", 
            "Second Fundamental Theorem and Quadratic Approximation", 
            "string"
        ]
    ], 
    "creators": [
        "sbabbar"
    ], 
    "courselist_features": [], 
    "_path": "/Plone/courses/mathematics/18-01sc-single-variable-calculus-fall-2010/unit-3-the-definite-integral-and-its-applications/part-b-second-fundamental-theorem-areas-volumes/session-51-the-second-fundamental-theorem-of-calculus/second-fundamental-theorem-and-quadratic-approximation"
}