{
    "rsi_top_html_area": "", 
    "text": "", 
    "_content_type_license": "text/plain", 
    "_uid": "344f1f13ba8c0930cecf02f248dabc33", 
    "title": "Volume of Revolution via Shells", 
    "_ac_local_roles": {
        "sbabbar": [
            "Owner"
        ]
    }, 
    "template_type": "Embed", 
    "location": "", 
    "_content_type_course_identifier": "text/plain", 
    "_atbrefs": {}, 
    "constrainTypesMode": 0, 
    "_content_type_section_identifier": "text/plain", 
    "technical_location": "https://ocw.mit.edu/courses/mathematics/18-01sc-single-variable-calculus-fall-2010/unit-3-the-definite-integral-and-its-applications/part-b-second-fundamental-theorem-areas-volumes/session-59-volume-of-a-parabaloid-revolving-about-y-axis/volume-of-revolution-via-shells", 
    "software_requirements": [
        {
            "software_type_col": "Browser", 
            "minimum_version_col": "40.0", 
            "software_name_col": "Chrome", 
            "maximum_version_col": ""
        }, 
        {
            "software_type_col": "Browser", 
            "minimum_version_col": "8.0", 
            "software_name_col": "Safari", 
            "maximum_version_col": ""
        }, 
        {
            "software_type_col": "Browser", 
            "minimum_version_col": "38.0", 
            "software_name_col": "Mozilla Firefox", 
            "maximum_version_col": ""
        }, 
        {
            "software_type_col": "Browser", 
            "minimum_version_col": "9.0", 
            "software_name_col": "Internet Explorer", 
            "maximum_version_col": ""
        }, 
        {
            "software_type_col": "Browser", 
            "minimum_version_col": "13.1", 
            "software_name_col": "Edge", 
            "maximum_version_col": ""
        }
    ], 
    "_content_type_technical_location": "text/plain", 
    "start_time": "", 
    "_content_type_rights": "text/html", 
    "_directly_provided": [
        "Products.CMFEditions.interfaces.IVersioned"
    ], 
    "media_rights": "(CC BY-NC-SA)", 
    "parent_uid": "2a892d50ed0126e15d3603ad2d218d9e", 
    "excludeFromNav": false, 
    "about_this_resource_text": "", 
    "_content_type_unique_identifier": "text/plain", 
    "end_time": "", 
    "allowDiscussion": false, 
    "_content_type_materialtype": "text/plain", 
    "locallyAllowedTypes": [
        "OCWImage", 
        "OCWFile", 
        "OCWMediaAsset"
    ], 
    "optional_tab_title": "", 
    "ad_type": "HOUSE", 
    "creation_date": "2015/12/23 03:27:11.924 US/Eastern", 
    "aggregationlevel": 2, 
    "bottom_html_area": "", 
    "duration": "", 
    "immediatelyAddableTypes": [
        "OCWImage", 
        "OCWFile", 
        "OCWMediaAsset"
    ], 
    "_content_type_template_type": "text/plain", 
    "subject": [], 
    "_content_type_short_page_title": "text/plain", 
    "effectiveDate": "2015/12/29 04:06:41.270 US/Eastern", 
    "parent_module": "bfe41979b9593362793fd930b36efa01", 
    "is_mathml_document": false, 
    "bottomtext": "", 
    "short_page_title": "Volume of Revolution via Shells", 
    "section_identifier": "https://ocw.mit.edu/courses/mathematics/18-01sc-single-variable-calculus-fall-2010/unit-3-the-definite-integral-and-its-applications", 
    "show_captions_outside_player": false, 
    "related_mit_links": "", 
    "_content_type_ad_type": "text/plain", 
    "_layout": "custom_view", 
    "_workflow_history": {
        "page_workflow": [
            {
                "action": null, 
                "review_state": "waiting_for_authoring", 
                "comments": "", 
                "actor": "sbabbar", 
                "time": "2015/12/23 03:27:11.939 US/Eastern"
            }, 
            {
                "action": "approve_to_staging", 
                "review_state": "ready_for_staging", 
                "actor": "sbabbar", 
                "comments": "", 
                "time": "2015/12/29 04:06:41.354 US/Eastern"
            }
        ]
    }, 
    "_content_type_transcript": "text/html", 
    "metadata_contributor_list": [], 
    "_userdefined_roles": [], 
    "_content_type_inline_embed_id": "text/plain", 
    "publisher": "MIT OpenCourseWare", 
    "nextPreviousEnabled": false, 
    "_gopip": 10, 
    "license": "http://creativecommons.org/licenses/by-nc-sa/3.0/us/", 
    "url_rewrite_patterns": [], 
    "widgets_features": [], 
    "category_features": [], 
    "resource_contributor_list": [
        {
            "res_contributor_entity": "Jerison, David", 
            "res_contributor_uid": "b28f05bbf3c3b44d28bc8f11fc7834cd", 
            "res_contributor_role": "Performer"
        }
    ], 
    "show_jump_back_5_seconds_button": false, 
    "firstTimeEdit": false, 
    "_content_type_media_rights": "text/plain", 
    "feature_requirements": [], 
    "list_in_left_nav": false, 
    "inline_embed_id": "76626187volumeofrevolutionviashells48089609", 
    "_classname": "MediaResource", 
    "short_name_tlp": "", 
    "expirationDate": "None", 
    "_content_type_id": "text/plain", 
    "contributor_list": [
        {}
    ], 
    "is_media_gallery": false, 
    "contributors": [], 
    "media_locations": [
        {}
    ], 
    "_content_type_media_resource_type": "text/plain", 
    "_content_type_title": "text/plain", 
    "subtitle_exemption": "None", 
    "_content_type": "text/html", 
    "resource_index_text": "", 
    "_atrefs": {
        "BelongsTo": [
            "bfe41979b9593362793fd930b36efa01"
        ]
    }, 
    "media_slides": [], 
    "other_platform_requirements": "", 
    "language": "", 
    "rights": "This site (c) Massachusetts Institute of Technology 2015.  Content within individual courses is (c) by the individual authors unless otherwise noted. The Massachusetts Institute of Technology is providing this Work (as defined below) under the terms of this Creative Commons public license (\"CCPL\" or \"license\") unless otherwise noted. The Work is protected by copyright and/or other applicable law. Any use of the work other than as authorized under this license is prohibited. By exercising any of the rights to the Work provided here, You (as defined below) accept and agree to be bound by the terms of this license. The Licensor, the Massachusetts Institute of Technology, grants You the rights contained here in consideration of Your acceptance of such terms and conditions.", 
    "hide_Page_title": false, 
    "_defaultpage": "", 
    "related_resources_text": "", 
    "tcATmit_subject_tags": [], 
    "features_tracking": [], 
    "ad_champion_text": "", 
    "has_inline_embed": false, 
    "unique_identifier": "https://ocw.mit.edu/courses/mathematics/18-01sc-single-variable-calculus-fall-2010/unit-3-the-definite-integral-and-its-applications/part-b-second-fundamental-theorem-areas-volumes/session-59-volume-of-a-parabaloid-revolving-about-y-axis/volume-of-revolution-via-shells", 
    "link_text": "Volume of Revolution via Shells", 
    "is_image_gallery": false, 
    "id": "volume-of-revolution-via-shells", 
    "_content_type_subtitle_exemption": "text/plain", 
    "materialtype": "Other", 
    "optional_text": "", 
    "_type": "MediaResource", 
    "description": "", 
    "media_resource_type": "Video", 
    "course_identifier": "https://ocw.mit.edu/courses/mathematics/18-01sc-single-variable-calculus-fall-2010", 
    "_content_type_publisher": "text/plain", 
    "tcATmit_instructional_tags": [], 
    "transcript": "<p><span m='6960'>PROFESSOR: Welcome back</span> <span m='7310'>to</span> <span m='7590'>recitation.</span> <span m='9060'>In</span> <span m='9220'>this</span> <span m='9360'>video</span> <span m='9640'>we're</span> <span m='9750'>going</span> <span m='9950'>to</span> <span m='10030'>do</span> <span m='10140'>another</span> <span m='10550'>solid</span> <span m='10840'>of</span> <span m='10940'>revolution</span> <span m='11520'>problem.</span> <span m='12250'>So</span> <span m='12480'>what</span> <span m='12630'>I'd</span> <span m='12750'>like</span> <span m='12910'>to</span> <span m='13000'>do</span> <span m='13110'>in</span> <span m='13220'>this</span> <span m='13360'>problem</span> <span m='13920'>is</span> <span m='14440'>to</span> <span m='14570'>find</span> <span m='14800'>the</span> <span m='14860'>volume</span> <span m='15160'>of</span> <span m='15270'>the</span> <span m='15370'>solid</span> <span m='15710'>generated</span> <span m='16200'>by</span> <span m='16330'>rotating</span> <span m='16890'>the</span> <span m='16980'>region</span> <span m='17430'>bounded</span> <span m='17790'>by</span> <span m='17930'>the</span> <span m='18040'>following</span> <span m='18410'>curves:</span> <span m='19190'>y</span> <span m='19430'>equals</span> <span m='19660'>0,</span> <span m='20530'>x equal</span> <span m='20860'>4,</span> <span m='21800'>and</span> <span m='21950'>y equals</span> <span m='22260'>square</span> <span m='22590'>root</span> <span m='22760'>of</span> <span m='22840'>x,</span> <span m='23650'>around</span> <span m='24010'>the</span> <span m='24070'>line</span> <span m='24560'>x equals</span> <span m='24810'>6.</span> <span m='26010'>And</span> <span m='26300'>you</span> <span m='26390'>can</span> <span m='26560'>choose</span> <span m='26830'>your</span> <span m='26980'>favorite</span> <span m='27320'>method</span> <span m='27670'>to</span> <span m='27790'>do</span> <span m='28010'>this.</span> </p><p><span m='29360'>What</span> <span m='29610'>I</span> <span m='30420'>would</span> <span m='30630'>like</span> <span m='31180'>first,</span> <span m='31750'>when</span> <span m='31940'>you're</span> <span m='32040'>doing</span> <span m='32250'>this</span> <span m='32400'>kind</span> <span m='32590'>of</span> <span m='32670'>problem,</span> <span m='33280'>is</span> <span m='33640'>get</span> <span m='33860'>a</span> <span m='33930'>rough</span> <span m='34210'>sketch</span> <span m='35090'>of</span> <span m='35300'>the</span> <span m='35390'>region.</span> <span m='35900'>So</span> <span m='36070'>you</span> <span m='36210'>have</span> <span m='36540'>some</span> <span m='36910'>picture</span> <span m='37550'>of</span> <span m='38120'>what's</span> <span m='38440'>actually</span> <span m='39150'>going</span> <span m='39420'>to</span> <span m='39530'>happen.</span> <span m='40280'>You</span> <span m='40510'>don't</span> <span m='40710'>necessarily</span> <span m='41260'>need</span> <span m='41420'>a</span> <span m='41520'>three-dimensional</span> <span m='42200'>picture.</span> <span m='42520'>But</span> <span m='42690'>at</span> <span m='42790'>least</span> <span m='43100'>have</span> <span m='43280'>the</span> <span m='43360'>two-dimensional</span> <span m='43980'>region</span> <span m='44530'>and</span> <span m='44660'>understand</span> <span m='45500'>the</span> <span m='46400'>where</span> <span m='46540'>the</span> <span m='46640'>rotation</span> <span m='47060'>line</span> <span m='47290'>is,</span> <span m='47510'>with</span> <span m='47680'>respect</span> <span m='47990'>to</span> <span m='48080'>that</span> <span m='48270'>region.</span> <span m='49340'>So</span> <span m='49790'>I</span> <span m='49900'>will</span> <span m='50080'>give</span> <span m='50260'>you</span> <span m='50370'>a</span> <span m='50430'>little</span> <span m='50620'>bit</span> <span m='50750'>of</span> <span m='50830'>time</span> <span m='51140'>to</span> <span m='51280'>work</span> <span m='51570'>on</span> <span m='51680'>that</span> <span m='51820'>problem.</span> <span m='52410'>And</span> <span m='52860'>when</span> <span m='53040'>I</span> <span m='53100'>come</span> <span m='53330'>back</span> <span m='53660'>I'll show you how</span> <span m='54140'>I</span> <span m='54320'>do</span> <span m='54460'>it.</span> </p><p><span m='62270'>OK,</span> <span m='62570'>welcome</span> <span m='62880'>back.</span> <span m='63800'>So</span> <span m='64080'>again,</span> <span m='64370'>what</span> <span m='64500'>we're</span> <span m='64620'>doing</span> <span m='64910'>in</span> <span m='65040'>this</span> <span m='65780'>video is</span> <span m='66270'>we're</span> <span m='66380'>going</span> <span m='66580'>to</span> <span m='66650'>be looking,</span> <span m='67320'>finding</span> <span m='67560'>the</span> <span m='67620'>volume</span> <span m='67990'>of</span> <span m='68100'>a</span> <span m='68230'>solid</span> <span m='68430'>of</span> <span m='68510'>revolution.</span> <span m='69540'>And</span> <span m='69820'>as</span> <span m='69930'>I</span> <span m='70010'>mentioned,</span> <span m='70410'>the</span> <span m='70470'>first</span> <span m='70720'>thing</span> <span m='70840'>you</span> <span m='70920'>want to</span> <span m='71150'>do</span> <span m='71420'>is</span> <span m='71620'>get</span> <span m='71780'>a</span> <span m='71840'>rough</span> <span m='72080'>picture</span> <span m='72540'>of</span> <span m='72970'>what</span> <span m='73690'>the</span> <span m='73930'>region</span> <span m='74390'>looks</span> <span m='74650'>like</span> <span m='74870'>that's</span> <span m='75100'>being</span> <span m='75340'>rotated.</span> <span m='76020'>So</span> <span m='76190'>I'm</span> <span m='76350'>going</span> <span m='76530'>to</span> <span m='76620'>draw a</span> <span m='76880'>rough</span> <span m='77090'>sketch</span> <span m='77370'>of</span> <span m='77450'>that.</span> <span m='78870'>Right</span> <span m='79460'>here.</span> <span m='81480'>So</span> <span m='81670'>my</span> <span m='81810'>axes,</span> <span m='82330'>here's</span> <span m='82460'>my</span> <span m='82580'>x-axis</span> <span m='83180'>and</span> <span m='83250'>my</span> <span m='83370'>y-axis,</span> <span m='84790'>and</span> <span m='85260'>I</span> <span m='85500'>will</span> <span m='86080'>draw,</span> <span m='86840'>first</span> <span m='87380'>the curve</span> <span m='87770'>y</span> <span m='87980'>equals</span> <span m='88230'>0.</span> <span m='91810'>That's</span> <span m='92040'>y equals</span> <span m='92250'>0.</span> <span m='93120'>And</span> <span m='93330'>I'm</span> <span m='93460'>next</span> <span m='93600'>going</span> <span m='93830'>to</span> <span m='93890'>draw</span> <span m='94100'>the</span> <span m='94190'>curve</span> <span m='94480'>y</span> <span m='94790'>equals</span> <span m='94900'>square</span> <span m='95200'>root</span> <span m='95330'>of</span> <span m='95420'>x</span> <span m='95830'>to</span> <span m='95940'>make</span> <span m='96140'>this</span> <span m='96520'>a</span> <span m='96900'>little</span> <span m='97090'>easier</span> <span m='97480'>for</span> <span m='97660'>myself,</span> <span m='98120'>to</span> <span m='98240'>do</span> <span m='98350'>that</span> <span m='98560'>one</span> <span m='98740'>first.</span> <span m='99520'>So</span> <span m='99680'>y</span> <span m='99890'>equals</span> <span m='100010'>square root</span> <span m='100460'>of</span> <span m='100560'>x</span> <span m='101330'>looks</span> <span m='101500'>something</span> <span m='101800'>like</span> <span m='101990'>this,</span> <span m='102490'>roughly.</span> <span m='104720'>And</span> <span m='104940'>then,</span> <span m='105790'>x equal</span> <span m='106080'>4,</span> <span m='106920'>because</span> <span m='107260'>it's</span> <span m='107360'>a</span> <span m='107420'>very</span> <span m='107650'>rough</span> <span m='107870'>sketch,</span> <span m='108400'>I</span> <span m='108530'>can</span> <span m='108770'>just</span> <span m='110030'>draw</span> <span m='110340'>this</span> <span m='111240'>line</span> <span m='111500'>right</span> <span m='111690'>here</span> <span m='111900'>and</span> <span m='112010'>say</span> <span m='112150'>that</span> <span m='112350'>line's</span> <span m='112620'>x equal</span> <span m='113020'>4.</span> <span m='114870'>And</span> <span m='115480'>I</span> <span m='115620'>want</span> <span m='115960'>the</span> <span m='116080'>region</span> <span m='116480'>bounded</span> <span m='116850'>by</span> <span m='117010'>those</span> <span m='117280'>three</span> <span m='117450'>curves.</span> </p><p><span m='117770'>So,</span> <span m='119850'>this</span> <span m='120040'>region</span> <span m='120400'>right</span> <span m='120610'>here.</span> <span m='121760'>And</span> <span m='122070'>my</span> <span m='122210'>rotating</span> <span m='122850'>line,</span> <span m='123260'>in</span> <span m='123400'>this</span> <span m='123610'>case,</span> <span m='124110'>is</span> <span m='124320'>x equals</span> <span m='124790'>6.</span> <span m='125660'>So</span> <span m='125850'>to give</span> <span m='125990'>myself</span> <span m='126330'>some</span> <span m='126470'>perspective,</span> <span m='127090'>I</span> <span m='127130'>remember</span> <span m='127410'>this</span> <span m='127610'>is</span> <span m='127720'>x equals</span> <span m='127990'>4,</span> <span m='129700'>here's</span> <span m='129970'>x equals</span> <span m='130440'>0.</span> <span m='131310'>So</span> <span m='131520'>x equals</span> <span m='131920'>6,</span> <span m='132380'>which</span> <span m='132840'>may be</span> <span m='133100'>right</span> <span m='133290'>about</span> <span m='133510'>here,</span> <span m='134150'>I'll</span> <span m='134500'>draw</span> <span m='135080'>a</span> <span m='135190'>dotted</span> <span m='135600'>line.</span> <span m='138610'>And</span> <span m='138780'>I'm</span> <span m='138880'>going</span> <span m='139060'>to</span> <span m='139130'>draw</span> <span m='139380'>a</span> <span m='139420'>little</span> <span m='141000'>arrow</span> <span m='141530'>around</span> <span m='141920'>there</span> <span m='142120'>so</span> <span m='142290'>I</span> <span m='142390'>know</span> <span m='142550'>that's</span> <span m='142840'>the</span> <span m='142950'>line</span> <span m='143140'>I'm</span> <span m='143260'>rotating</span> <span m='143670'>about.</span> </p><p><span m='145340'>Now</span> <span m='145700'>we</span> <span m='145870'>notice</span> <span m='146240'>there's a</span> <span m='146400'>little</span> <span m='146650'>bit</span> <span m='146750'>of</span> <span m='146820'>a</span> <span m='146890'>gap</span> <span m='147280'>here.</span> <span m='148300'>But</span> <span m='148560'>you</span> <span m='148680'>can</span> <span m='148800'>actually</span> <span m='149170'>work</span> <span m='149390'>on</span> <span m='149520'>this</span> <span m='149650'>problem</span> <span m='149920'>quite</span> <span m='150170'>simply.</span> <span m='150880'>If</span> <span m='151160'>we</span> <span m='151280'>use</span> <span m='151450'>the</span> <span m='151560'>shell</span> <span m='151810'>method,</span> <span m='152190'>we</span> <span m='152320'>won't</span> <span m='152540'>have</span> <span m='152640'>to</span> <span m='152750'>worry</span> <span m='153010'>about</span> <span m='153260'>the</span> <span m='153330'>gap</span> <span m='153650'>at</span> <span m='153720'>all.</span> <span m='154770'>We</span> <span m='154930'>will</span> <span m='155160'>have</span> <span m='155370'>to</span> <span m='155630'>be</span> <span m='155770'>careful</span> <span m='156160'>in</span> <span m='156290'>how</span> <span m='156420'>we</span> <span m='156550'>determine</span> <span m='156900'>our</span> <span m='157020'>radius.</span> <span m='157490'>That's</span> <span m='157700'>actually</span> <span m='158050'>where</span> <span m='158210'>you'll</span> <span m='158390'>see</span> <span m='159270'>this</span> <span m='159460'>sort</span> <span m='159680'>of</span> <span m='159820'>gap</span> <span m='160160'>coming</span> <span m='160500'>up.</span> <span m='161630'>So</span> <span m='161820'>when</span> <span m='161970'>I</span> <span m='162020'>rotate</span> <span m='162440'>this</span> <span m='162590'>around,</span> <span m='163282'>I'm</span> <span m='163630'>going</span> <span m='163820'>to</span> <span m='163890'>get</span> <span m='164060'>some</span> <span m='164260'>object</span> <span m='164580'>that's</span> <span m='164710'>going to</span> <span m='164870'>have</span> <span m='165000'>a</span> <span m='165040'>nice</span> <span m='165280'>curve</span> <span m='165540'>here.</span> <span m='165740'>And</span> <span m='165820'>there's</span> <span m='165970'>going</span> <span m='166150'>to</span> <span m='166220'>be</span> <span m='166310'>a</span> <span m='166400'>little</span> <span m='166740'>cut-out,</span> <span m='167180'>a</span> <span m='167770'>cylinder</span> <span m='168130'>missing</span> <span m='168540'>in</span> <span m='168640'>the</span> <span m='168710'>middle</span> <span m='169300'>when</span> <span m='169770'>I</span> <span m='169820'>rotate it.</span> </p><p><span m='171020'>So</span> <span m='171220'>I'm</span> <span m='171410'>going</span> <span m='171620'>to</span> <span m='171760'>use</span> <span m='172530'>the</span> <span m='172670'>shell</span> <span m='172940'>method.</span> <span m='173310'>I</span> <span m='173430'>like</span> <span m='173660'>the</span> <span m='173750'>shell</span> <span m='173970'>method</span> <span m='174300'>for</span> <span m='174420'>this</span> <span m='174580'>problem.</span> <span m='175560'>You</span> <span m='175740'>could</span> <span m='176020'>use</span> <span m='176370'>the</span> <span m='176460'>washer</span> <span m='176830'>method</span> <span m='177140'>for</span> <span m='177250'>this</span> <span m='177380'>problem,</span> <span m='177720'>but</span> <span m='177860'>I</span> <span m='177940'>like</span> <span m='178140'>the</span> <span m='178230'>shells</span> <span m='178620'>and</span> <span m='179400'>that's</span> <span m='179610'>what</span> <span m='179740'>I'm</span> <span m='179840'>going</span> <span m='180010'>to</span> <span m='180070'>use.</span> <span m='180740'>So</span> <span m='180910'>to do</span> <span m='181240'>the</span> <span m='181340'>shell</span> <span m='181620'>method,</span> <span m='184780'>remember</span> <span m='185370'>we</span> <span m='185550'>are</span> <span m='185680'>going</span> <span m='185980'>to</span> <span m='186050'>be</span> <span m='186210'>interested</span> <span m='186720'>in</span> <span m='188340'>2*pi*r*h.</span> <span m='189130'>That's</span> <span m='189330'>really</span> <span m='189610'>what</span> <span m='189760'>we</span> <span m='189890'>need.</span> <span m='192560'>And</span> <span m='192770'>now</span> <span m='192980'>what</span> <span m='193290'>we</span> <span m='193430'>want</span> <span m='193600'>to</span> <span m='193670'>figure</span> <span m='193950'>out</span> <span m='194140'>is,</span> <span m='194260'>do</span> <span m='194340'>I</span> <span m='194410'>want to</span> <span m='194650'>do</span> <span m='194780'>this</span> <span m='194970'>in</span> <span m='195070'>terms</span> <span m='195330'>of</span> <span m='195650'>x or</span> <span m='195750'>in</span> <span m='195840'>terms</span> <span m='196070'>of</span> <span m='196160'>y? All right?</span> <span m='197550'>When</span> <span m='197680'>I</span> <span m='197760'>talk</span> <span m='198160'>about</span> <span m='198360'>these</span> <span m='198490'>shells</span> <span m='199380'>is</span> <span m='199540'>it</span> <span m='199640'>better</span> <span m='199860'>to</span> <span m='199960'>think</span> <span m='200140'>about</span> <span m='200350'>them</span> <span m='200490'>as</span> <span m='200620'>functions</span> <span m='200940'>of</span> <span m='201200'>x or</span> <span m='201300'>y?</span> <span m='201650'>And it will,</span> <span m='202210'>you'll</span> <span m='202410'>see</span> <span m='203100'>we</span> <span m='203320'>sort</span> <span m='203530'>of</span> <span m='203600'>have</span> <span m='203790'>to</span> <span m='203900'>think</span> <span m='204090'>about</span> <span m='204360'>them</span> <span m='204900'>in</span> <span m='205070'>a</span> <span m='205130'>certain</span> <span m='205400'>way.</span> </p><p><span m='207570'>So if</span> <span m='207650'>I</span> <span m='207730'>draw, let's think about if I draw</span> <span m='208580'>a</span> <span m='208700'>straight</span> <span m='209040'>line</span> <span m='209360'>down</span> <span m='210200'>and</span> <span m='210450'>I</span> <span m='210490'>rotate it</span> <span m='210990'>around</span> <span m='211220'>the</span> <span m='211280'>line</span> <span m='212600'>x equals</span> <span m='212970'>6,</span> <span m='213520'>which</span> <span m='213690'>I</span> <span m='213770'>should</span> <span m='213980'>have</span> <span m='214100'>labeled</span> <span m='214460'>here,</span> <span m='215720'>then</span> <span m='215910'>I</span> <span m='215970'>get</span> <span m='216130'>my</span> <span m='216280'>shell.</span> <span m='217210'>So</span> <span m='217400'>I</span> <span m='217470'>need</span> <span m='217690'>these</span> <span m='217890'>lines</span> <span m='218570'>to</span> <span m='218700'>go</span> <span m='218900'>from</span> <span m='219230'>0</span> <span m='219640'>to</span> <span m='219800'>4.</span> <span m='220300'>I</span> <span m='220440'>need</span> <span m='220610'>to</span> <span m='220670'>have</span> <span m='220840'>those</span> <span m='221000'>lines</span> <span m='221250'>go</span> <span m='221370'>from</span> <span m='221570'>0</span> <span m='221750'>to</span> <span m='221850'>4.</span> <span m='222210'>And</span> <span m='222380'>so</span> <span m='222490'>I</span> <span m='222590'>see</span> <span m='222910'>that</span> <span m='223060'>it's</span> <span m='223220'>the</span> <span m='223680'>x-value</span> <span m='224060'>I'm</span> <span m='224210'>varying</span> <span m='224600'>over.</span> <span m='225200'>So</span> <span m='225440'>I</span> <span m='225530'>know</span> <span m='225770'>this</span> <span m='225940'>is</span> <span m='226050'>all</span> <span m='226230'>going</span> <span m='226480'>to</span> <span m='226570'>be</span> <span m='227870'>an</span> <span m='227950'>integral</span> <span m='228390'>in</span> <span m='228500'>terms</span> <span m='228950'>of</span> <span m='229090'>x.</span> <span m='230550'>So</span> <span m='230730'>let's</span> <span m='230910'>keep</span> <span m='231120'>that</span> <span m='231860'>in</span> <span m='232060'>mind.</span> <span m='232560'>So</span> <span m='233060'>r</span> <span m='233380'>I</span> <span m='233500'>should</span> <span m='233710'>write</span> <span m='233900'>as</span> <span m='233980'>a</span> <span m='234040'>function</span> <span m='234340'>of</span> <span m='234420'>x,</span> <span m='234730'>and</span> <span m='234940'>h</span> <span m='235190'>I</span> <span m='235230'>should</span> <span m='235400'>write</span> <span m='235570'>as</span> <span m='235670'>a</span> <span m='235740'>function</span> <span m='236060'>of</span> <span m='236150'>x.</span> </p><p><span m='237180'>So</span> <span m='237340'>if</span> <span m='237400'>I</span> <span m='237490'>examined</span> <span m='238080'>this</span> <span m='238270'>segment</span> <span m='238760'>again</span> <span m='239080'>here,</span> <span m='240770'>the</span> <span m='240890'>height</span> <span m='241250'>is</span> <span m='241380'>fairly</span> <span m='241750'>simple.</span> <span m='242120'>Because</span> <span m='242450'>what</span> <span m='242630'>is</span> <span m='242770'>this</span> <span m='242960'>curve?</span> <span m='243290'>This</span> <span m='243420'>is</span> <span m='243500'>the</span> <span m='243590'>curve</span> <span m='243860'>y</span> <span m='244140'>equals</span> <span m='244290'>square root</span> <span m='244730'>of</span> <span m='244800'>x.</span> <span m='245750'>So</span> <span m='245960'>the</span> <span m='246050'>height</span> <span m='246400'>is</span> <span m='246610'>just</span> <span m='247370'>square root</span> <span m='247810'>of</span> <span m='247890'>x.</span> <span m='249890'>So</span> <span m='250100'>h</span> <span m='250410'>is</span> <span m='250500'>equal</span> <span m='250670'>to</span> <span m='250760'>square root</span> <span m='251110'>of</span> <span m='251190'>x.</span> <span m='252750'>And</span> <span m='252890'>so</span> <span m='252990'>now</span> <span m='253130'>I</span> <span m='253200'>just</span> <span m='253410'>need</span> <span m='253590'>r</span> <span m='254510'>in</span> <span m='254630'>terms</span> <span m='254910'>of</span> <span m='255010'>x.</span> </p><p><span m='255850'>Well</span> <span m='256170'>let's</span> <span m='256370'>look</span> <span m='257380'>at</span> <span m='257570'>this</span> <span m='258300'>segment</span> <span m='258680'>again.</span> <span m='258970'>It's</span> <span m='259100'>just</span> <span m='259270'>a</span> <span m='259330'>generic</span> <span m='259970'>position.</span> <span m='261160'>How</span> <span m='261360'>would</span> <span m='261520'>I</span> <span m='261620'>find</span> <span m='262020'>that</span> <span m='262220'>radius?</span> <span m='262750'>What</span> <span m='262990'>is</span> <span m='263190'>the</span> <span m='263300'>radius?</span> <span m='263940'>Well</span> <span m='264190'>I'm</span> <span m='264350'>going</span> <span m='264540'>to</span> <span m='264660'>draw</span> <span m='265190'>the</span> <span m='265310'>three-dimensional</span> <span m='266780'>picture</span> <span m='267080'>over</span> <span m='267300'>here.</span> <span m='269550'>That</span> <span m='269700'>that's</span> <span m='270650'>this</span> <span m='270910'>curve,</span> <span m='272320'>this</span> <span m='272530'>segment,</span> <span m='272950'>rotated</span> <span m='274310'>about</span> <span m='274810'>the</span> <span m='274920'>line</span> <span m='276490'>x equals</span> <span m='276980'>6. Right?</span> <span m='278870'>And</span> <span m='279130'>the</span> <span m='279200'>radius</span> <span m='279930'>is</span> <span m='280120'>not</span> <span m='280830'>x.</span> <span m='281710'>It's</span> <span m='282030'>the</span> <span m='282190'>distance</span> <span m='282770'>from</span> <span m='282950'>x equals</span> <span m='283330'>6</span> <span m='284400'>to</span> <span m='284530'>my</span> <span m='284700'>segment.</span> <span m='286030'>That's</span> <span m='286210'>an</span> <span m='286290'>important</span> <span m='286660'>distinction</span> <span m='287090'>we</span> <span m='287180'>should</span> <span m='287320'>understand.</span> <span m='287820'>If</span> <span m='287890'>we</span> <span m='287990'>come</span> <span m='288140'>back</span> <span m='288290'>and</span> <span m='288380'>look</span> <span m='288490'>at</span> <span m='288550'>this</span> <span m='288700'>picture,</span> <span m='289700'>this</span> <span m='290150'>is</span> <span m='290270'>not</span> <span m='290500'>the</span> <span m='290580'>radius. Right?</span> <span m='291980'>The</span> <span m='292060'>radius</span> <span m='292510'>is</span> <span m='292660'>the</span> <span m='292810'>distance</span> <span m='293270'>from</span> <span m='293610'>this</span> <span m='294690'>value</span> <span m='296250'>to</span> <span m='296400'>this</span> <span m='296610'>value</span> <span m='297570'>in</span> <span m='297730'>x.</span> </p><p><span m='298730'>And</span> <span m='299030'>how</span> <span m='299150'>do</span> <span m='299240'>I</span> <span m='299320'>measure</span> <span m='299600'>that?</span> <span m='299850'>Well</span> <span m='299940'>that's</span> <span m='300160'>fairly</span> <span m='300450'>straightforward.</span> <span m='301570'>That's</span> <span m='301880'>the</span> <span m='302540'>difference</span> <span m='303190'>in</span> <span m='303390'>x values</span> <span m='304000'>between</span> <span m='304370'>these</span> <span m='304610'>two.</span> <span m='305020'>The</span> <span m='305160'>x</span> <span m='305390'>value</span> <span m='305580'>here</span> <span m='305760'>is</span> <span m='305870'>6.</span> <span m='306890'>And</span> <span m='307030'>the</span> <span m='307250'>x value</span> <span m='307480'>here,</span> <span m='307740'>this</span> <span m='307890'>is</span> <span m='308050'>a</span> <span m='308100'>generic</span> <span m='308520'>x.</span> <span m='310090'>So</span> <span m='310310'>the</span> <span m='310430'>difference,</span> <span m='310980'>the</span> <span m='311100'>distance,</span> <span m='311620'>is</span> <span m='311810'>just</span> <span m='312040'>6</span> <span m='312290'>minus</span> <span m='312650'>x. Right?</span> <span m='317990'>This</span> <span m='318160'>is</span> <span m='318300'>just</span> <span m='319250'>a</span> <span m='319360'>simple</span> <span m='319760'>case</span> <span m='320080'>of</span> <span m='320170'>the</span> <span m='320260'>distance</span> <span m='320630'>formula.</span> <span m='321040'>Because</span> <span m='321280'>I'm</span> <span m='321390'>not</span> <span m='321690'>interested</span> <span m='322100'>in</span> <span m='322170'>the</span> <span m='322260'>changes</span> <span m='322630'>in</span> <span m='322740'>y,</span> <span m='323080'>at</span> <span m='323160'>all.</span> <span m='323730'>I'm</span> <span m='323880'>just</span> <span m='324080'>interested</span> <span m='324480'>in</span> <span m='325260'>the</span> <span m='325370'>difference</span> <span m='325840'>between</span> <span m='326210'>these</span> <span m='326410'>two</span> <span m='326570'>x values.</span> <span m='327770'>So it's</span> <span m='328030'>simply</span> <span m='328390'>6</span> <span m='328630'>minus</span> <span m='328940'>x.</span> <span m='329500'>That's</span> <span m='329660'>our</span> <span m='329890'>radius.</span> </p><p><span m='329960'>So</span> <span m='330160'>now</span> <span m='330420'>I</span> <span m='330510'>have</span> <span m='331840'>the</span> <span m='331950'>radius</span> <span m='332550'>in</span> <span m='332670'>terms</span> <span m='332910'>of</span> <span m='333010'>x.</span> <span m='333800'>And</span> <span m='333950'>I</span> <span m='333990'>have</span> <span m='334140'>the</span> <span m='334230'>height</span> <span m='334580'>in</span> <span m='334700'>terms</span> <span m='334970'>of</span> <span m='335040'>x.</span> <span m='336080'>So</span> <span m='336260'>I</span> <span m='336320'>can</span> <span m='336480'>completely</span> <span m='336960'>set</span> <span m='337150'>up</span> <span m='337240'>my</span> <span m='337370'>integral.</span> <span m='337710'>So</span> <span m='337880'>let</span> <span m='338010'>me</span> <span m='338130'>come</span> <span m='338350'>a</span> <span m='338420'>little</span> <span m='338620'>bit</span> <span m='338740'>further</span> <span m='339020'>over</span> <span m='339300'>and set up</span> <span m='339610'>the</span> <span m='339710'>integral.</span> <span m='343440'>So</span> <span m='343620'>I</span> <span m='343710'>know</span> <span m='344280'>I'm</span> <span m='344470'>integrating--</span> <span m='345070'>we</span> <span m='345170'>even</span> <span m='345380'>said</span> <span m='345680'>what</span> <span m='345820'>we</span> <span m='345920'>were</span> <span m='346020'>integrating</span> <span m='346470'>from</span> <span m='346740'>and to</span> <span m='347000'>already.</span> <span m='347560'>I'm</span> <span m='347670'>starting</span> <span m='348040'>x at</span> <span m='348350'>0.</span> <span m='350280'>And</span> <span m='350450'>I'm</span> <span m='350550'>stopping</span> <span m='351050'>it</span> <span m='351350'>at x equal</span> <span m='351660'>4.</span> <span m='353280'>And</span> <span m='353450'>then</span> <span m='353570'>I</span> <span m='353640'>want</span> <span m='353810'>to</span> <span m='353880'>integrate</span> <span m='355590'>2*pi*r*h.</span> <span m='356820'>So</span> <span m='357100'>I'll put</span> <span m='357290'>the</span> <span m='357370'>2*pi</span> <span m='357830'>out</span> <span m='358000'>in</span> <span m='358090'>front.</span> <span m='359280'>The</span> <span m='359390'>radius</span> <span m='360440'>is</span> <span m='360640'>6</span> <span m='360930'>minus</span> <span m='361190'>x.</span> <span m='364480'>And</span> <span m='364620'>the</span> <span m='364680'>height</span> <span m='365030'>is</span> <span m='365190'>square</span> <span m='365450'>root</span> <span m='365620'>of</span> <span m='365720'>x.</span> <span m='367750'>And</span> <span m='367920'>then</span> <span m='368040'>I'm</span> <span m='368180'>integrating</span> <span m='368640'>it</span> <span m='368730'>all</span> <span m='369980'>in dx.</span> </p><p><span m='372010'>And</span> <span m='372330'>at</span> <span m='372570'>this</span> <span m='372790'>point,</span> <span m='373080'>solving</span> <span m='373350'>the</span> <span m='373430'>problem</span> <span m='373750'>is</span> <span m='373870'>fairly</span> <span m='374160'>straightforward.</span> <span m='375130'>I</span> <span m='375260'>can</span> <span m='375430'>write</span> <span m='375720'>square</span> <span m='376050'>root</span> <span m='376220'>of</span> <span m='376320'>x</span> <span m='376980'>as</span> <span m='377100'>x</span> <span m='377180'>to the</span> <span m='377380'>1/2</span> <span m='377880'>to</span> <span m='378000'>make</span> <span m='378180'>myself</span> <span m='378570'>feel a</span> <span m='379030'>little</span> <span m='379350'>better</span> <span m='379620'>about</span> <span m='379900'>it.</span> <span m='380420'>I</span> <span m='380610'>can</span> <span m='380770'>then</span> <span m='380960'>distribute.</span> <span m='382280'>And</span> <span m='382470'>then</span> <span m='382600'>I</span> <span m='382690'>just</span> <span m='382940'>use</span> <span m='383130'>the</span> <span m='383230'>power</span> <span m='383650'>rule</span> <span m='384120'>to</span> <span m='384270'>do</span> <span m='384450'>the</span> <span m='385330'>integration</span> <span m='385870'>and</span> <span m='385990'>evaluate</span> <span m='386850'>to</span> <span m='386980'>get</span> <span m='387130'>an</span> <span m='387210'>actual</span> <span m='387560'>number,</span> <span m='388660'>to</span> <span m='388790'>get</span> <span m='388930'>that</span> <span m='389110'>volume.</span> </p><p><span m='390300'>So</span> <span m='390480'>I'm</span> <span m='390540'>going to</span> <span m='390710'>go</span> <span m='390830'>back</span> <span m='391160'>and</span> <span m='391250'>just</span> <span m='391420'>make</span> <span m='391580'>sure</span> <span m='391870'>we</span> <span m='392560'>remember</span> <span m='392910'>what</span> <span m='393040'>all</span> <span m='393140'>the</span> <span m='393230'>pieces</span> <span m='393630'>are</span> <span m='394180'>and</span> <span m='394340'>that</span> <span m='394430'>we</span> <span m='394520'>feel</span> <span m='394700'>comfortable</span> <span m='395150'>with</span> <span m='395270'>doing</span> <span m='395440'>this</span> <span m='395580'>type</span> <span m='395740'>of</span> <span m='395820'>problem.</span> <span m='396560'>And</span> <span m='396760'>I'll</span> <span m='396870'>let</span> <span m='397050'>you</span> <span m='397480'>finish and</span> <span m='397980'>evaluate</span> <span m='398410'>that</span> <span m='399100'>if</span> <span m='399260'>you</span> <span m='399340'>would</span> <span m='399470'>like</span> <span m='399650'>to</span> <span m='399740'>know</span> <span m='399880'>an</span> <span m='399950'>actual</span> <span m='400320'>number.</span> </p><p><span m='401560'>So</span> <span m='401750'>let's</span> <span m='401910'>come</span> <span m='402060'>back</span> <span m='402250'>over.</span> <span m='403790'>We</span> <span m='403980'>were</span> <span m='404440'>finding</span> <span m='404780'>the volume of</span> <span m='405260'>a</span> <span m='405310'>solid</span> <span m='406360'>generated</span> <span m='406840'>by</span> <span m='406940'>rotating</span> <span m='407410'>a</span> <span m='407490'>certain</span> <span m='407780'>region</span> <span m='408530'>around</span> <span m='408890'>the</span> <span m='408950'>line x</span> <span m='409380'>equals</span> <span m='409590'>6.</span> <span m='410980'>The</span> <span m='411170'>way</span> <span m='411350'>this</span> <span m='411520'>might</span> <span m='411720'>be</span> <span m='411820'>different</span> <span m='412260'>from</span> <span m='412970'>some</span> <span m='413160'>of</span> <span m='413220'>the</span> <span m='413280'>problems</span> <span m='413610'>you've</span> <span m='413780'>seen</span> <span m='413990'>before,</span> <span m='414450'>is</span> <span m='414780'>it's</span> <span m='414960'>not</span> <span m='415190'>the</span> <span m='415320'>x</span> <span m='415510'>or</span> <span m='415590'>y</span> <span m='415760'>axis.</span> <span m='416840'>And</span> <span m='417210'>the</span> <span m='417300'>region</span> <span m='417870'>has</span> <span m='418110'>a</span> <span m='418180'>gap.</span> <span m='419330'>The</span> <span m='419450'>region</span> <span m='419770'>is</span> <span m='419910'>not</span> <span m='421310'>connected</span> <span m='421880'>to</span> <span m='422080'>the</span> <span m='422200'>line</span> <span m='422530'>of</span> <span m='422610'>rotation.</span> </p><p><span m='423790'>So</span> <span m='424000'>if we</span> <span m='424140'>come</span> <span m='424390'>to</span> <span m='424510'>see</span> <span m='424640'>our</span> <span m='424780'>picture,</span> <span m='425170'>we</span> <span m='425300'>can</span> <span m='425470'>see</span> <span m='425620'>that</span> <span m='425790'>clearly.</span> <span m='426810'>The</span> <span m='426910'>rotating</span> <span m='427390'>region</span> <span m='427710'>is</span> <span m='427830'>the</span> <span m='427900'>blue</span> <span m='428100'>region.</span> <span m='429240'>The</span> <span m='429340'>line</span> <span m='429540'>of</span> <span m='429610'>rotation</span> <span m='430080'>is</span> <span m='430250'>the</span> <span m='430310'>dotted</span> <span m='430650'>line.</span> <span m='430960'>So</span> <span m='431090'>there's</span> <span m='431240'>a</span> <span m='431300'>little</span> <span m='431500'>bit</span> <span m='431610'>of</span> <span m='431690'>a</span> <span m='431750'>gap</span> <span m='432080'>there.</span> <span m='432770'>I</span> <span m='433000'>let</span> <span m='433190'>you</span> <span m='433260'>pick</span> <span m='433450'>your</span> <span m='433570'>favorite</span> <span m='433930'>method.</span> <span m='434680'>I</span> <span m='434890'>chose</span> <span m='435220'>shells,</span> <span m='435840'>because</span> <span m='436120'>I</span> <span m='436200'>didn't</span> <span m='436420'>have</span> <span m='436530'>to</span> <span m='436630'>worry</span> <span m='436850'>about</span> <span m='437450'>subtracting</span> <span m='438090'>off</span> <span m='438430'>pieces,</span> <span m='439140'>this</span> <span m='439360'>little</span> <span m='439590'>piece</span> <span m='439850'>here.</span> <span m='440640'>It</span> <span m='440830'>was</span> <span m='440990'>inherent</span> <span m='441480'>in</span> <span m='442190'>the</span> <span m='442310'>radius,</span> <span m='442900'>the</span> <span m='443010'>way</span> <span m='443150'>I</span> <span m='443240'>determined</span> <span m='443660'>the</span> <span m='443740'>radius</span> <span m='444630'>and</span> <span m='445280'>the</span> <span m='445500'>x values</span> <span m='446090'>that</span> <span m='446240'>I</span> <span m='446330'>chose.</span> <span m='447280'>So</span> <span m='447500'>I</span> <span m='447580'>used</span> <span m='447890'>shell</span> <span m='448150'>method.</span> <span m='449090'>And so how did I,</span> <span m='450190'>I</span> <span m='450750'>had</span> <span m='450860'>to</span> <span m='450930'>figure</span> <span m='451180'>out</span> <span m='451280'>a</span> <span m='451320'>couple</span> <span m='451580'>things.</span> <span m='451880'>I</span> <span m='451920'>had</span> <span m='452010'>to</span> <span m='452080'>figure</span> <span m='452320'>out</span> <span m='452490'>first,</span> <span m='453130'>what</span> <span m='453460'>variable</span> <span m='454030'>I</span> <span m='454130'>was</span> <span m='454290'>doing</span> <span m='454530'>this</span> <span m='454700'>in,</span> <span m='454930'>x</span> <span m='455160'>or</span> <span m='455270'>y.</span> <span m='455950'>And</span> <span m='456220'>then</span> <span m='456370'>I</span> <span m='456410'>had</span> <span m='456540'>to</span> <span m='456620'>figure</span> <span m='456910'>out</span> <span m='457030'>the</span> <span m='457120'>radius and</span> <span m='457560'>height</span> <span m='457820'>in</span> <span m='457910'>terms</span> <span m='458180'>of</span> <span m='458260'>that</span> <span m='458450'>variable.</span> <span m='459500'>You</span> <span m='459690'>figure</span> <span m='460100'>out</span> <span m='460350'>what</span> <span m='461430'>variable</span> <span m='461900'>you</span> <span m='462060'>need</span> <span m='462310'>by</span> <span m='462480'>saying,</span> <span m='462800'>OK</span> <span m='463040'>if</span> <span m='463150'>I'm</span> <span m='463260'>doing</span> <span m='463440'>shells,</span> <span m='463960'>I'm</span> <span m='464050'>looking</span> <span m='464310'>at</span> <span m='464460'>these</span> <span m='464690'>kinds</span> <span m='464890'>of</span> <span m='464980'>segments.</span> <span m='466010'>And</span> <span m='466280'>I'm</span> <span m='466400'>varying</span> <span m='466835'>the</span> <span m='467270'>x-values,</span> <span m='467720'>then,</span> <span m='467980'>as</span> <span m='468170'>I</span> <span m='468260'>move</span> <span m='469100'>and</span> <span m='469410'>look</span> <span m='469540'>at</span> <span m='469610'>those</span> <span m='469810'>different</span> <span m='470100'>segments.</span> <span m='470610'>So</span> <span m='470820'>I</span> <span m='470920'>know</span> <span m='471090'>that</span> <span m='471270'>this</span> <span m='471440'>is</span> <span m='471580'>a</span> <span m='471760'>dx</span> <span m='473000'>type</span> <span m='473220'>of</span> <span m='473320'>problem.</span> <span m='473660'>I</span> <span m='473750'>know</span> <span m='473910'>I'm</span> <span m='474040'>integrating</span> <span m='474560'>something</span> <span m='474900'>in</span> <span m='475020'>x.</span> </p><p><span m='475810'>So</span> <span m='476030'>then</span> <span m='476170'>I</span> <span m='476220'>have</span> <span m='476340'>to</span> <span m='476430'>find</span> <span m='476660'>radius and</span> <span m='477110'>height</span> <span m='477350'>in</span> <span m='477450'>terms</span> <span m='477700'>of</span> <span m='477800'>x.</span> <span m='478840'>The</span> <span m='478950'>height's</span> <span m='479240'>the</span> <span m='479330'>freebie.</span> <span m='479840'>It's</span> <span m='480040'>just</span> <span m='480970'>from</span> <span m='481300'>0</span> <span m='481760'>up</span> <span m='481920'>to</span> <span m='482030'>the</span> <span m='482120'>function.</span> <span m='483210'>The</span> <span m='483370'>radius</span> <span m='483870'>is</span> <span m='483990'>maybe</span> <span m='484280'>a</span> <span m='484370'>little</span> <span m='484590'>harder.</span> <span m='485460'>But</span> <span m='485670'>that's</span> <span m='485860'>still</span> <span m='486110'>just</span> <span m='486360'>the</span> <span m='486420'>distance</span> <span m='487010'>between</span> <span m='487530'>the</span> <span m='487940'>line</span> <span m='488250'>of</span> <span m='488330'>rotation</span> <span m='489250'>and</span> <span m='489940'>the</span> <span m='490020'>point</span> <span m='490250'>where</span> <span m='490350'>you</span> <span m='490480'>are.</span> <span m='491470'>And</span> <span m='491680'>so</span> <span m='491820'>that's</span> <span m='492050'>6</span> <span m='492260'>minus</span> <span m='492590'>x.</span> <span m='493880'>And</span> <span m='494070'>then</span> <span m='494230'>I</span> <span m='494340'>just</span> <span m='494900'>set</span> <span m='495170'>up</span> <span m='495280'>the</span> <span m='495390'>integral</span> <span m='495690'>from</span> <span m='495920'>there.</span> </p><p><span m='496790'>So</span> <span m='496950'>that's</span> <span m='497130'>really</span> <span m='497570'>what</span> <span m='497750'>the</span> <span m='497850'>idea</span> <span m='499290'>is in</span> <span m='499740'>doing</span> <span m='499950'>these</span> <span m='500120'>types</span> <span m='500400'>of</span> <span m='500470'>problems.</span> <span m='501160'>And</span> <span m='501440'>because</span> <span m='501890'>we</span> <span m='502060'>get</span> <span m='502220'>to</span> <span m='502320'>pick</span> <span m='502670'>our</span> <span m='502820'>simplest</span> <span m='503290'>way,</span> <span m='504810'>for</span> <span m='504940'>me</span> <span m='505120'>it</span> <span m='505230'>was</span> <span m='505360'>shells.</span> <span m='505720'>Maybe</span> <span m='506020'>you</span> <span m='506120'>picked</span> <span m='506420'>washers.</span> <span m='506850'>But</span> <span m='506990'>for</span> <span m='507120'>me,</span> <span m='507380'>this</span> <span m='507570'>problem,</span> <span m='507990'>the</span> <span m='508080'>simplest</span> <span m='508550'>way</span> <span m='508780'>is shells.</span> <span m='510270'>So</span> <span m='510450'>I</span> <span m='510520'>guess</span> <span m='510770'>that's</span> <span m='510960'>where</span> <span m='511060'>I'll</span> <span m='511160'>stop.</span> </p>", 
    "_content_type_link_text": "text/plain", 
    "course_linking": [], 
    "_id": "volume-of-revolution-via-shells", 
    "modification_date": "2016/09/25 01:20:29.745 GMT-4", 
    "media_index": [], 
    "always_publish": false, 
    "_owner": null, 
    "_permissions": {
        "Change portal events": {
            "acquire": false, 
            "roles": [
                "Editor", 
                "Manager", 
                "MetadataEditor", 
                "Owner"
            ]
        }, 
        "Modify portal content": {
            "acquire": false, 
            "roles": [
                "Manager", 
                "MetadataEditor"
            ]
        }, 
        "Access contents information": {
            "acquire": false, 
            "roles": [
                "Authenticated"
            ]
        }, 
        "List folder contents": {
            "acquire": false, 
            "roles": [
                "Editor", 
                "Manager", 
                "MetadataEditor", 
                "Owner"
            ]
        }, 
        "View": {
            "acquire": false, 
            "roles": [
                "Authenticated"
            ]
        }
    }, 
    "_properties": [
        [
            "title", 
            "Volume of Revolution via Shells", 
            "string"
        ]
    ], 
    "creators": [
        "sbabbar"
    ], 
    "courselist_features": [], 
    "_path": "/Plone/courses/mathematics/18-01sc-single-variable-calculus-fall-2010/unit-3-the-definite-integral-and-its-applications/part-b-second-fundamental-theorem-areas-volumes/session-59-volume-of-a-parabaloid-revolving-about-y-axis/volume-of-revolution-via-shells"
}