{
    "text": "<p class=\"sc_nav\">&laquo; <a class=\"sc_prev\" href=\"./resolveuid/fdbe350ca59afe09833c9efd91b52a3f\">Previous</a> | <a class=\"sc_next\" href=\"./resolveuid/7e226a8ff6296ef690524c46584132b9\">Next</a> &raquo;</p> <p>&nbsp;</p> <p>Calculating averages and probabilities is an important application of integration.  Although we can differentiate almost any function we can describe, there are functions whose integral we cannot directly describe; this part of the course describes numerical methods used to calculate the values of such integrals.</p> <blockquote> <p>&raquo; <a href=\"./resolveuid/7e226a8ff6296ef690524c46584132b9\">Session 60: Integrals and Averages</a><br /> &raquo; <a href=\"./resolveuid/d2dac4c5783973f0083cdd3859d4cda5\">Session 61: Integrals and Weighted Averages</a><br /> &raquo; <a href=\"./resolveuid/1fa09ca81711139c23be618aa2768257\">Session 62: Integrals and Probability</a><br /> &raquo; <a href=\"./resolveuid/be07f2bde3305a676f66884dbf8397d1\">Session 63: Numerical Integration</a><br /> &raquo; <a href=\"./resolveuid/602ce034a62f6b4a95884c519f8f4412\">Session 64: Numerical Integration, Continued</a><br /> &raquo; <a href=\"./resolveuid/e183dee9558e331a812d6190993e58fc\">Session 65: Bell Curve, Conclusion</a><br /> &raquo; <a href=\"./resolveuid/94fe2b072ec2811f3644a59845dad7a0\">Problem Set 8</a></p> </blockquote> <p>&nbsp;</p> <p class=\"sc_nav_bottom\">&laquo; <a class=\"sc_prev\" href=\"./resolveuid/fdbe350ca59afe09833c9efd91b52a3f\">Previous</a> | <a class=\"sc_next\" href=\"./resolveuid/7e226a8ff6296ef690524c46584132b9\">Next</a> &raquo;</p>", 
    "_content_type_license": "text/plain", 
    "_uid": "e1f8a1b789b83e57da0e01f4ada7283a", 
    "title": "Part C: Average Value, Probability and Numerical Integration", 
    "_ac_local_roles": {
        "cc_akuma1": [
            "Owner"
        ]
    }, 
    "location": "", 
    "_content_type_course_identifier": "text/plain", 
    "_atbrefs": {
        "isReferencing": [
            "4c201b00a0470284ebd6c546e0cc59ab", 
            "fdbe350ca59afe09833c9efd91b52a3f", 
            "7e226a8ff6296ef690524c46584132b9"
        ]
    }, 
    "constrainTypesMode": 0, 
    "_content_type_section_identifier": "text/plain", 
    "technical_location": "https://ocw.mit.edu/courses/mathematics/18-01sc-single-variable-calculus-fall-2010/unit-3-the-definite-integral-and-its-applications/part-c-average-value-probability-and-numerical-integration", 
    "software_requirements": [
        {
            "software_type_col": "Browser", 
            "minimum_version_col": "40.0", 
            "software_name_col": "Chrome", 
            "maximum_version_col": ""
        }, 
        {
            "software_type_col": "Browser", 
            "minimum_version_col": "8.0", 
            "software_name_col": "Safari", 
            "maximum_version_col": ""
        }, 
        {
            "software_type_col": "Browser", 
            "minimum_version_col": "38.0", 
            "software_name_col": "Mozilla Firefox", 
            "maximum_version_col": ""
        }, 
        {
            "software_type_col": "Browser", 
            "minimum_version_col": "9.0", 
            "software_name_col": "Internet Explorer", 
            "maximum_version_col": ""
        }, 
        {
            "software_type_col": "Browser", 
            "minimum_version_col": "13.1", 
            "software_name_col": "Edge", 
            "maximum_version_col": ""
        }
    ], 
    "_content_type_technical_location": "text/plain", 
    "_content_type_rights": "text/html", 
    "_directly_provided": [
        "Products.CMFEditions.interfaces.IVersioned"
    ], 
    "parent_uid": "4c201b00a0470284ebd6c546e0cc59ab", 
    "excludeFromNav": false, 
    "_content_type_unique_identifier": "text/plain", 
    "allowDiscussion": false, 
    "metadata_contributor_list": [], 
    "locallyAllowedTypes": [
        "OCWImage", 
        "CourseSection", 
        "OCWExtFile", 
        "OCWFile", 
        "MediaResource"
    ], 
    "_content_type_text": "text/html", 
    "ad_type": "HOUSE", 
    "creation_date": "2010/11/03 14:16:34.017 GMT-4", 
    "aggregationlevel": 3, 
    "duration": "", 
    "immediatelyAddableTypes": [
        "OCWImage", 
        "CourseSection", 
        "OCWExtFile", 
        "OCWFile", 
        "MediaResource"
    ], 
    "subject": [], 
    "_content_type_short_page_title": "text/plain", 
    "effectiveDate": "2010/11/03 14:31:20.975 GMT-4", 
    "parent_module": "bfe41979b9593362793fd930b36efa01", 
    "is_mathml_document": false, 
    "bottomtext": "", 
    "short_page_title": "Part C: Average Value, Probability and Numerical Integration", 
    "section_identifier": "https://ocw.mit.edu/courses/mathematics/18-01sc-single-variable-calculus-fall-2010/unit-3-the-definite-integral-and-its-applications", 
    "related_mit_links": "", 
    "_content_type_ad_type": "text/plain", 
    "_layout": "custom_view", 
    "_workflow_history": {
        "page_workflow": [
            {
                "action": null, 
                "review_state": "waiting_for_authoring", 
                "actor": "Kcanavan", 
                "comments": "", 
                "time": "2010/11/03 14:16:34.023 GMT-4"
            }, 
            {
                "action": "approve_to_staging", 
                "review_state": "ready_for_staging", 
                "comments": "", 
                "actor": "Kcanavan", 
                "time": "2010/11/03 14:31:21.001 GMT-4"
            }, 
            {
                "action": "decline_to_qa", 
                "review_state": "waiting_for_qa", 
                "actor": "Kcanavan", 
                "comments": "", 
                "time": "2010/11/17 15:19:35.140 US/Eastern"
            }, 
            {
                "action": "approve_to_staging", 
                "review_state": "ready_for_staging", 
                "comments": "", 
                "actor": "Kcanavan", 
                "time": "2010/11/18 11:46:32.362 US/Eastern"
            }, 
            {
                "action": "decline", 
                "review_state": "waiting_for_authoring", 
                "actor": "cc_gegrov", 
                "comments": "", 
                "time": "2010/12/23 02:12:09.721 US/Eastern"
            }, 
            {
                "action": "approve_to_staging", 
                "review_state": "ready_for_staging", 
                "comments": "", 
                "actor": "cc_gegrov", 
                "time": "2010/12/23 06:49:43.240 US/Eastern"
            }, 
            {
                "action": "decline_to_qa", 
                "review_state": "waiting_for_qa", 
                "actor": "Kcanavan", 
                "comments": "", 
                "time": "2011/01/06 11:13:19.096 US/Eastern"
            }, 
            {
                "action": "approve_to_staging", 
                "review_state": "ready_for_staging", 
                "actor": "Kcanavan", 
                "comments": "", 
                "time": "2011/01/07 14:06:12.076 US/Eastern"
            }, 
            {
                "action": "decline_to_qa", 
                "review_state": "waiting_for_qa", 
                "actor": "Kcanavan", 
                "comments": "", 
                "time": "2011/01/08 23:14:43.477 US/Eastern"
            }, 
            {
                "action": "approve_to_staging", 
                "review_state": "ready_for_staging", 
                "comments": "", 
                "actor": "Kcanavan", 
                "time": "2011/01/09 00:48:43.759 US/Eastern"
            }, 
            {
                "action": null, 
                "review_state": "waiting_for_authoring", 
                "comments": "", 
                "actor": "cc_akuma1", 
                "time": "2012/11/08 01:02:39.724 US/Eastern"
            }, 
            {
                "action": "approve_to_staging", 
                "review_state": "ready_for_staging", 
                "actor": "ndhamija", 
                "comments": "", 
                "time": "2012/11/09 03:17:00.455 US/Eastern"
            }, 
            {
                "action": "decline", 
                "review_state": "waiting_for_authoring", 
                "comments": "", 
                "actor": "ndhamija", 
                "time": "2012/11/13 22:41:50.671 US/Eastern"
            }, 
            {
                "action": "approve_to_staging", 
                "review_state": "ready_for_staging", 
                "comments": "", 
                "actor": "ndhamija", 
                "time": "2012/11/13 22:43:09.685 US/Eastern"
            }, 
            {
                "action": "decline", 
                "review_state": "waiting_for_authoring", 
                "actor": "asingh124", 
                "comments": "", 
                "time": "2012/11/23 00:42:14.730 US/Eastern"
            }, 
            {
                "action": "approve_to_staging", 
                "review_state": "ready_for_staging", 
                "actor": "abohra", 
                "comments": "", 
                "time": "2012/11/23 06:53:48.967 US/Eastern"
            }, 
            {
                "action": "decline_to_qa", 
                "review_state": "waiting_for_qa", 
                "actor": "Kcanavan", 
                "comments": "", 
                "time": "2012/11/28 18:03:44.264 US/Eastern"
            }, 
            {
                "action": "approve_to_staging", 
                "review_state": "ready_for_staging", 
                "actor": "Kcanavan", 
                "comments": "", 
                "time": "2012/11/28 18:12:32.758 US/Eastern"
            }
        ]
    }, 
    "_classname": "CourseSection", 
    "_content_type_materialtype": "text/plain", 
    "_userdefined_roles": [], 
    "publisher": "MIT OpenCourseWare", 
    "nextPreviousEnabled": false, 
    "language": "", 
    "url_rewrite_patterns": [], 
    "widgets_features": [], 
    "category_features": [], 
    "firstTimeEdit": true, 
    "feature_requirements": [], 
    "list_in_left_nav": true, 
    "short_name_tlp": "Part C: Average Value, Probability and Numerical Integration", 
    "expirationDate": "None", 
    "_content_type_id": "text/plain", 
    "contributor_list": [
        {}
    ], 
    "is_media_gallery": false, 
    "contributors": [], 
    "_gopip": 2, 
    "_content_type_title": "text/plain", 
    "course_linking": [], 
    "_atrefs": {
        "BelongsTo": [
            "bfe41979b9593362793fd930b36efa01"
        ], 
        "isReferencing": [
            "e183dee9558e331a812d6190993e58fc", 
            "d2dac4c5783973f0083cdd3859d4cda5", 
            "1fa09ca81711139c23be618aa2768257", 
            "7e226a8ff6296ef690524c46584132b9", 
            "be07f2bde3305a676f66884dbf8397d1", 
            "94fe2b072ec2811f3644a59845dad7a0", 
            "602ce034a62f6b4a95884c519f8f4412", 
            "fdbe350ca59afe09833c9efd91b52a3f"
        ]
    }, 
    "other_platform_requirements": "", 
    "license": "http://creativecommons.org/licenses/by-nc-sa/3.0/us/", 
    "rights": "This site (c) Massachusetts Institute of Technology 2010.  Content within individual courses is (c) by the individual authors unless otherwise noted. The Massachusetts Institute of Technology is providing this Work (as defined below) under the terms of this Creative Commons public license (\"CCPL\" or \"license\") unless otherwise noted. The Work is protected by copyright and/or other applicable law. Any use of the work other than as authorized under this license is prohibited. By exercising any of the rights to the Work provided here, You (as defined below) accept and agree to be bound by the terms of this license. The Licensor, the Massachusetts Institute of Technology, grants You the rights contained here in consideration of Your acceptance of such terms and conditions.", 
    "hide_Page_title": null, 
    "_defaultpage": "", 
    "tcATmit_subject_tags": [], 
    "features_tracking": [], 
    "ad_champion_text": "", 
    "has_inline_embed": false, 
    "unique_identifier": "https://ocw.mit.edu/courses/mathematics/18-01sc-single-variable-calculus-fall-2010/unit-3-the-definite-integral-and-its-applications/part-c-average-value-probability-and-numerical-integration", 
    "is_image_gallery": false, 
    "id": "part-c-average-value-probability-and-numerical-integration", 
    "materialtype": "Other", 
    "_type": "CourseSection", 
    "description": "This section includes lectures on integrals, average value, probability, and numerical Integration.", 
    "course_identifier": "https://ocw.mit.edu/courses/mathematics/18-01sc-single-variable-calculus-fall-2010", 
    "_content_type_publisher": "text/plain", 
    "tcATmit_instructional_tags": [], 
    "_content_type": "text/html", 
    "creators": [
        "Kcanavan"
    ], 
    "modification_date": "2016/09/24 07:49:01.588 GMT-4", 
    "always_publish": false, 
    "_content_type_description": "text/plain", 
    "_owner": null, 
    "_permissions": {
        "Change portal events": {
            "acquire": false, 
            "roles": [
                "Editor", 
                "Manager", 
                "MetadataEditor", 
                "Owner"
            ]
        }, 
        "Modify portal content": {
            "acquire": false, 
            "roles": [
                "Manager", 
                "MetadataEditor"
            ]
        }, 
        "Access contents information": {
            "acquire": false, 
            "roles": [
                "Authenticated"
            ]
        }, 
        "List folder contents": {
            "acquire": false, 
            "roles": [
                "Editor", 
                "Manager", 
                "MetadataEditor", 
                "Owner"
            ]
        }, 
        "View": {
            "acquire": false, 
            "roles": [
                "Authenticated"
            ]
        }
    }, 
    "_properties": [
        [
            "title", 
            "Part C: Average Value, Probability and Numerical Integration", 
            "string"
        ]
    ], 
    "_id": "part-c-average-value-probability-and-numerical-integration", 
    "courselist_features": [], 
    "_content_type_short_name_tlp": "text/plain", 
    "_path": "/Plone/courses/mathematics/18-01sc-single-variable-calculus-fall-2010/unit-3-the-definite-integral-and-its-applications/part-c-average-value-probability-and-numerical-integration"
}