{
    "rsi_top_html_area": "", 
    "text": "", 
    "_content_type_license": "text/plain", 
    "_uid": "e9972d48350ba200ed454b0d7f9e5102", 
    "title": "Average Velocity", 
    "_ac_local_roles": {
        "sbabbar": [
            "Owner"
        ]
    }, 
    "template_type": "Embed", 
    "location": "", 
    "_content_type_course_identifier": "text/plain", 
    "_atbrefs": {}, 
    "constrainTypesMode": 0, 
    "_content_type_section_identifier": "text/plain", 
    "technical_location": "https://ocw.mit.edu/courses/mathematics/18-01sc-single-variable-calculus-fall-2010/unit-3-the-definite-integral-and-its-applications/part-c-average-value-probability-and-numerical-integration/session-60-integrals-and-averages/average-velocity", 
    "software_requirements": [
        {
            "software_type_col": "Browser", 
            "minimum_version_col": "40.0", 
            "software_name_col": "Chrome", 
            "maximum_version_col": ""
        }, 
        {
            "software_type_col": "Browser", 
            "minimum_version_col": "8.0", 
            "software_name_col": "Safari", 
            "maximum_version_col": ""
        }, 
        {
            "software_type_col": "Browser", 
            "minimum_version_col": "38.0", 
            "software_name_col": "Mozilla Firefox", 
            "maximum_version_col": ""
        }, 
        {
            "software_type_col": "Browser", 
            "minimum_version_col": "9.0", 
            "software_name_col": "Internet Explorer", 
            "maximum_version_col": ""
        }, 
        {
            "software_type_col": "Browser", 
            "minimum_version_col": "13.1", 
            "software_name_col": "Edge", 
            "maximum_version_col": ""
        }
    ], 
    "_content_type_technical_location": "text/plain", 
    "start_time": "", 
    "_content_type_rights": "text/html", 
    "_directly_provided": [
        "Products.CMFEditions.interfaces.IVersioned"
    ], 
    "media_rights": "(CC BY-NC-SA)", 
    "parent_uid": "7e226a8ff6296ef690524c46584132b9", 
    "excludeFromNav": false, 
    "about_this_resource_text": "", 
    "_content_type_unique_identifier": "text/plain", 
    "end_time": "", 
    "allowDiscussion": false, 
    "_content_type_materialtype": "text/plain", 
    "locallyAllowedTypes": [
        "OCWImage", 
        "OCWFile", 
        "OCWMediaAsset"
    ], 
    "optional_tab_title": "", 
    "ad_type": "HOUSE", 
    "creation_date": "2015/12/23 04:14:22.753 US/Eastern", 
    "aggregationlevel": 2, 
    "bottom_html_area": "", 
    "duration": "", 
    "immediatelyAddableTypes": [
        "OCWImage", 
        "OCWFile", 
        "OCWMediaAsset"
    ], 
    "_content_type_template_type": "text/plain", 
    "subject": [], 
    "_content_type_short_page_title": "text/plain", 
    "effectiveDate": "2015/12/29 04:08:30.663 US/Eastern", 
    "parent_module": "bfe41979b9593362793fd930b36efa01", 
    "is_mathml_document": false, 
    "bottomtext": "", 
    "short_page_title": "Average Velocity", 
    "section_identifier": "https://ocw.mit.edu/courses/mathematics/18-01sc-single-variable-calculus-fall-2010/unit-3-the-definite-integral-and-its-applications", 
    "show_captions_outside_player": false, 
    "related_mit_links": "", 
    "_content_type_ad_type": "text/plain", 
    "_layout": "custom_view", 
    "_workflow_history": {
        "page_workflow": [
            {
                "action": null, 
                "review_state": "waiting_for_authoring", 
                "comments": "", 
                "actor": "sbabbar", 
                "time": "2015/12/23 04:14:22.768 US/Eastern"
            }, 
            {
                "action": "approve_to_staging", 
                "review_state": "ready_for_staging", 
                "actor": "sbabbar", 
                "comments": "", 
                "time": "2015/12/29 04:08:31.113 US/Eastern"
            }
        ]
    }, 
    "_content_type_transcript": "text/html", 
    "metadata_contributor_list": [], 
    "_userdefined_roles": [], 
    "_content_type_inline_embed_id": "text/plain", 
    "publisher": "MIT OpenCourseWare", 
    "nextPreviousEnabled": false, 
    "_gopip": 10, 
    "license": "http://creativecommons.org/licenses/by-nc-sa/3.0/us/", 
    "url_rewrite_patterns": [], 
    "widgets_features": [], 
    "category_features": [], 
    "resource_contributor_list": [
        {
            "res_contributor_entity": "Jerison, David", 
            "res_contributor_uid": "b28f05bbf3c3b44d28bc8f11fc7834cd", 
            "res_contributor_role": "Performer"
        }
    ], 
    "show_jump_back_5_seconds_button": false, 
    "firstTimeEdit": false, 
    "_content_type_media_rights": "text/plain", 
    "feature_requirements": [], 
    "list_in_left_nav": false, 
    "inline_embed_id": "62459406averagevelocity25953008", 
    "_classname": "MediaResource", 
    "short_name_tlp": "", 
    "expirationDate": "None", 
    "_content_type_id": "text/plain", 
    "contributor_list": [
        {}
    ], 
    "is_media_gallery": false, 
    "contributors": [], 
    "media_locations": [
        {}
    ], 
    "_content_type_media_resource_type": "text/plain", 
    "_content_type_title": "text/plain", 
    "subtitle_exemption": "None", 
    "_content_type": "text/html", 
    "resource_index_text": "", 
    "_atrefs": {
        "BelongsTo": [
            "bfe41979b9593362793fd930b36efa01"
        ]
    }, 
    "media_slides": [], 
    "other_platform_requirements": "", 
    "language": "", 
    "rights": "This site (c) Massachusetts Institute of Technology 2015.  Content within individual courses is (c) by the individual authors unless otherwise noted. The Massachusetts Institute of Technology is providing this Work (as defined below) under the terms of this Creative Commons public license (\"CCPL\" or \"license\") unless otherwise noted. The Work is protected by copyright and/or other applicable law. Any use of the work other than as authorized under this license is prohibited. By exercising any of the rights to the Work provided here, You (as defined below) accept and agree to be bound by the terms of this license. The Licensor, the Massachusetts Institute of Technology, grants You the rights contained here in consideration of Your acceptance of such terms and conditions.", 
    "hide_Page_title": false, 
    "_defaultpage": "", 
    "related_resources_text": "", 
    "tcATmit_subject_tags": [], 
    "features_tracking": [], 
    "ad_champion_text": "", 
    "has_inline_embed": false, 
    "unique_identifier": "https://ocw.mit.edu/courses/mathematics/18-01sc-single-variable-calculus-fall-2010/unit-3-the-definite-integral-and-its-applications/part-c-average-value-probability-and-numerical-integration/session-60-integrals-and-averages/average-velocity", 
    "link_text": "Average Velocity", 
    "is_image_gallery": false, 
    "id": "average-velocity", 
    "_content_type_subtitle_exemption": "text/plain", 
    "materialtype": "Other", 
    "optional_text": "", 
    "_type": "MediaResource", 
    "description": "", 
    "media_resource_type": "Video", 
    "course_identifier": "https://ocw.mit.edu/courses/mathematics/18-01sc-single-variable-calculus-fall-2010", 
    "_content_type_publisher": "text/plain", 
    "tcATmit_instructional_tags": [], 
    "transcript": "<p><span m='0'>PROFESSOR:</span> <span m='5240'>Hi.</span> <span m='5820'>Welcome</span> <span m='6130'>back</span> <span m='6330'>to</span> <span m='6450'>recitation.</span> <span m='7400'>In</span> <span m='7580'>lecture</span> <span m='7930'>you've</span> <span m='8120'>been</span> <span m='8240'>learning</span> <span m='8530'>about</span> <span m='8800'>applications</span> <span m='9470'>of</span> <span m='9560'>integration.</span> <span m='10170'>And</span> <span m='10310'>one</span> <span m='10450'>of</span> <span m='10580'>them</span> <span m='10750'>is</span> <span m='11310'>how</span> <span m='11470'>to</span> <span m='11540'>compute</span> <span m='11860'>average</span> <span m='12250'>values</span> <span m='12670'>of</span> <span m='12750'>a</span> <span m='12810'>function.</span> <span m='13420'>So</span> <span m='13610'>I</span> <span m='13640'>have</span> <span m='13740'>a</span> <span m='13790'>nice</span> <span m='13980'>average</span> <span m='14340'>value</span> <span m='14650'>problem</span> <span m='15040'>for</span> <span m='15220'>you</span> <span m='15310'>here.</span> </p><p><span m='15800'>So</span> <span m='16320'>Christine</span> <span m='17210'>was out</span> <span m='17600'>jogging</span> <span m='18230'>one</span> <span m='18500'>day</span> <span m='19000'>and</span> <span m='19150'>she</span> <span m='19260'>saw</span> <span m='19660'>a</span> <span m='20035'>bear,</span> <span m='20410'>and</span> <span m='20560'>so</span> <span m='20630'>she</span> <span m='20790'>broke</span> <span m='21140'>into</span> <span m='21350'>a</span> <span m='21420'>sprint.</span> <span m='22360'>She</span> <span m='22550'>starts</span> <span m='22960'>speeding</span> <span m='23190'>up,</span> <span m='23320'>and</span> <span m='23380'>her</span> <span m='23480'>velocity</span> <span m='24030'>t</span> <span m='24240'>seconds</span> <span m='24930'>after</span> <span m='25260'>she</span> <span m='25400'>started</span> <span m='25810'>sprinting</span> <span m='26500'>is</span> <span m='26750'>given</span> <span m='26950'>by</span> <span m='27090'>v</span> <span m='27410'>of</span> <span m='27520'>t</span> <span m='27840'>equals</span> <span m='28700'>1500</span> <span m='30140'>divided</span> <span m='30600'>by</span> <span m='30730'>the</span> <span m='30840'>quantity</span> <span m='31300'>100</span> <span m='31720'>plus</span> <span m='31960'>t</span> <span m='32100'>minus</span> <span m='32410'>5</span> <span m='32700'>squared,</span> <span m='33570'>the</span> <span m='33670'>whole</span> <span m='33790'>thing</span> <span m='33990'>minus</span> <span m='34290'>7.</span> <span m='34960'>And</span> <span m='35100'>it's</span> <span m='35390'>in</span> <span m='35520'>meters</span> <span m='35810'>per</span> <span m='35930'>second.</span> </p><p><span m='38280'>So OK, so she</span> <span m='38420'>starts</span> <span m='38800'>at</span> <span m='39450'>t</span> <span m='39610'>equals</span> <span m='39970'>0,</span> <span m='40330'>she's</span> <span m='40580'>going</span> <span m='41430'>1500</span> <span m='42150'>divided</span> <span m='42520'>by</span> <span m='42740'>125,</span> <span m='44540'>so</span> <span m='44790'>that's</span> <span m='45050'>12</span> <span m='45310'>minus</span> <span m='45430'>7,</span> <span m='45630'>so</span> <span m='45740'>5</span> <span m='46210'>meters</span> <span m='46510'>per</span> <span m='46610'>second.</span> <span m='47250'>And</span> <span m='47340'>she</span> <span m='47440'>starts</span> <span m='47800'>to</span> <span m='47890'>speed</span> <span m='48220'>up</span> <span m='48590'>and</span> <span m='48760'>after</span> <span m='48960'>5</span> <span m='49580'>seconds</span> <span m='50370'>she's</span> <span m='50600'>going</span> <span m='51280'>1500 divided--</span> <span m='52490'>well</span> <span m='52600'>this</span> <span m='52760'>is</span> <span m='52850'>0--</span> <span m='54160'>so</span> <span m='54280'>she's</span> <span m='54430'>going</span> <span m='54690'>8</span> <span m='54980'>meters</span> <span m='55300'>per</span> <span m='55430'>second</span> <span m='56400'>at</span> <span m='56740'>5</span> <span m='57070'>seconds.</span> <span m='57460'>And</span> <span m='57710'>then</span> <span m='57810'>she</span> <span m='57950'>looks</span> <span m='58170'>over her</span> <span m='58420'>shoulder</span> <span m='58930'>and she sees,</span> <span m='59210'>oh</span> <span m='59320'>no,</span> <span m='59460'>it</span> <span m='59530'>wasn't</span> <span m='59820'>up</span> <span m='59920'>a bear,</span> <span m='60180'>it</span> <span m='60260'>was</span> <span m='60370'>just</span> <span m='60540'>an</span> <span m='60650'>unkempt</span> <span m='61150'>math</span> <span m='61410'>graduate</span> <span m='61810'>student,</span> <span m='62250'>so</span> <span m='62440'>then</span> <span m='62570'>she</span> <span m='62680'>starts</span> <span m='62970'>to</span> <span m='63070'>slow</span> <span m='63300'>down</span> <span m='63600'>again.</span> <span m='64590'>She</span> <span m='65090'>slows</span> <span m='65470'>back</span> <span m='65700'>down</span> <span m='66130'>and</span> <span m='66320'>10</span> <span m='66540'>seconds</span> <span m='66910'>later</span> <span m='67470'>she's</span> <span m='67720'>back</span> <span m='68020'>to</span> <span m='68280'>her</span> <span m='68440'>original</span> <span m='69650'>velocity.</span> </p><p><span m='70140'>So</span> <span m='70950'>the</span> <span m='71040'>question</span> <span m='71400'>is,</span> <span m='71910'>over</span> <span m='72230'>the</span> <span m='72360'>10</span> <span m='72620'>seconds</span> <span m='72970'>of</span> <span m='73060'>this</span> <span m='73260'>sprint,</span> <span m='73520'>she</span> <span m='73630'>sped</span> <span m='73920'>up,</span> <span m='74070'>she</span> <span m='74180'>slowed</span> <span m='74360'>down,</span> <span m='75380'>from</span> <span m='75650'>5</span> <span m='75990'>meters</span> <span m='76240'>per</span> <span m='76340'>second to</span> <span m='76800'>8</span> <span m='77040'>meters</span> <span m='77280'>per</span> <span m='77380'>second</span> <span m='77800'>and then</span> <span m='77910'>back</span> <span m='78090'>to</span> <span m='78200'>5.</span> <span m='78680'>What</span> <span m='78940'>was</span> <span m='79080'>her</span> <span m='79200'>average</span> <span m='79660'>velocity</span> <span m='80210'>over</span> <span m='80430'>this</span> <span m='80630'>time?</span> <span m='81380'>So why don't you</span> <span m='81770'>pause the</span> <span m='82190'>video,</span> <span m='82870'>take</span> <span m='83100'>some</span> <span m='83250'>time</span> <span m='83550'>to</span> <span m='83660'>work</span> <span m='83880'>that</span> <span m='84060'>out,</span> <span m='84500'>come</span> <span m='84700'>back</span> <span m='84950'>and</span> <span m='85040'>we</span> <span m='85130'>can</span> <span m='85250'>work</span> <span m='85440'>on</span> <span m='85530'>it</span> <span m='85620'>together.</span> </p><p><span m='94090'>So</span> <span m='94280'>hopefully</span> <span m='94580'>you</span> <span m='94670'>had</span> <span m='94830'>some</span> <span m='95000'>luck</span> <span m='95250'>working</span> <span m='95540'>on</span> <span m='95670'>this</span> <span m='95830'>problem.</span> <span m='96460'>I</span> <span m='96590'>have</span> <span m='96880'>over</span> <span m='97120'>on</span> <span m='97290'>my</span> <span m='97420'>left</span> <span m='97800'>here</span> <span m='97980'>a</span> <span m='98060'>little</span> <span m='98560'>picture</span> <span m='99110'>of</span> <span m='99290'>the</span> <span m='99400'>graph</span> <span m='100220'>of</span> <span m='100400'>this</span> <span m='100630'>function</span> <span m='101150'>v</span> <span m='101350'>of</span> <span m='101530'>t.</span> <span m='102000'>I</span> <span m='102170'>described</span> <span m='102770'>it</span> <span m='102910'>to</span> <span m='103050'>you</span> <span m='103180'>earlier,</span> <span m='103610'>but</span> <span m='104150'>just</span> <span m='104400'>you</span> <span m='104510'>see,</span> <span m='104710'>OK,</span> <span m='104960'>so</span> <span m='105110'>it</span> <span m='105270'>starts</span> <span m='105690'>at</span> <span m='106400'>5,</span> <span m='107060'>after</span> <span m='107420'>5</span> <span m='107840'>seconds</span> <span m='108260'>it's</span> <span m='108440'>at</span> <span m='108530'>8,</span> <span m='108780'>and</span> <span m='108960'>then</span> <span m='109050'>it</span> <span m='109120'>goes</span> <span m='109330'>back</span> <span m='109590'>down</span> <span m='109850'>to</span> <span m='110900'>5</span> <span m='111380'>at</span> <span m='111680'>10</span> <span m='111930'>seconds.</span> <span m='112390'>So this</span> <span m='112580'>is</span> <span m='113060'>roughly</span> <span m='113450'>the</span> <span m='113960'>picture,</span> <span m='114430'>so</span> <span m='114650'>we</span> <span m='114760'>have</span> <span m='115140'>a feel</span> <span m='115460'>for</span> <span m='115560'>what</span> <span m='115700'>we're</span> <span m='115810'>working</span> <span m='116110'>with.</span> <span m='116570'>Now</span> <span m='117780'>what we</span> <span m='117900'>want to</span> <span m='118150'>compute is</span> <span m='118610'>the</span> <span m='118690'>average</span> <span m='119210'>velocity</span> <span m='119780'>over</span> <span m='119950'>this</span> <span m='120140'>time.</span> </p><p><span m='120890'>So anytime</span> <span m='121380'>you</span> <span m='121450'>have</span> <span m='121560'>to</span> <span m='121650'>compute an</span> <span m='122100'>average</span> <span m='122540'>value</span> <span m='122900'>of</span> <span m='122980'>any</span> <span m='123240'>function</span> <span m='123890'>what</span> <span m='124120'>you</span> <span m='124210'>want to</span> <span m='124500'>do,</span> <span m='125040'>you</span> <span m='125180'>always</span> <span m='125460'>do</span> <span m='125560'>the</span> <span m='125660'>same</span> <span m='125970'>thing.</span> <span m='126400'>So you</span> <span m='126510'>want</span> <span m='126680'>to</span> <span m='126750'>compute</span> <span m='127830'>the</span> <span m='128130'>total</span> <span m='128990'>contribution</span> <span m='129700'>of</span> <span m='129790'>that</span> <span m='129990'>function</span> <span m='130380'>over</span> <span m='130590'>the</span> <span m='130720'>interval</span> <span m='131060'>in</span> <span m='131150'>question.</span> <span m='131670'>So you</span> <span m='131790'>want to</span> <span m='131970'>add</span> <span m='132200'>it up,</span> <span m='132390'>you want to</span> <span m='132660'>integrate it</span> <span m='133470'>over</span> <span m='133750'>the</span> <span m='133900'>interval</span> <span m='134250'>in</span> <span m='134330'>question.</span> <span m='134930'>But</span> <span m='135130'>then</span> <span m='135240'>you</span> <span m='135330'>want to</span> <span m='135490'>divide</span> <span m='136060'>by</span> <span m='136170'>the</span> <span m='136280'>length</span> <span m='136640'>of the integral.</span> <span m='136940'>So</span> <span m='137180'>in</span> <span m='137310'>particular,</span> <span m='138070'>when</span> <span m='138280'>you</span> <span m='138350'>have</span> <span m='138420'>a</span> <span m='138590'>velocity</span> <span m='139230'>function</span> <span m='139870'>what</span> <span m='140160'>that</span> <span m='140340'>means</span> <span m='140610'>is,</span> <span m='140780'>you</span> <span m='140990'>integrate</span> <span m='141410'>the</span> <span m='141490'>velocity.</span> <span m='141950'>So</span> <span m='142070'>that</span> <span m='142210'>gives</span> <span m='142360'>you</span> <span m='142450'>the</span> <span m='142550'>total</span> <span m='143000'>distance</span> <span m='143460'>traveled,</span> <span m='144100'>and</span> <span m='144300'>then</span> <span m='144400'>you</span> <span m='144480'>divide</span> <span m='145100'>by</span> <span m='145240'>the</span> <span m='145340'>time</span> <span m='145690'>interval.</span> <span m='146350'>S you're</span> <span m='146480'>just</span> <span m='146670'>taking</span> <span m='147200'>total</span> <span m='147540'>distance</span> <span m='148200'>divided</span> <span m='148640'>by</span> <span m='148800'>total</span> <span m='149160'>time.</span> </p><p><span m='149950'>So</span> <span m='150140'>in</span> <span m='150210'>this</span> <span m='150400'>case</span> <span m='151590'>we</span> <span m='151730'>can</span> <span m='151850'>write</span> <span m='152100'>down</span> <span m='152320'>this</span> <span m='152450'>average</span> <span m='152780'>value.</span> <span m='153130'>So I'm</span> <span m='153190'>going to</span> <span m='153350'>use</span> <span m='153470'>just</span> <span m='154140'>a</span> <span m='154280'>made</span> <span m='154580'>up</span> <span m='154760'>notation.</span> <span m='155380'>I'm</span> <span m='155490'>going to</span> <span m='155670'>write</span> <span m='156580'>avg,</span> <span m='157000'>for</span> <span m='157470'>average,</span> <span m='158555'>of</span> <span m='159000'>v,</span> <span m='160040'>so</span> <span m='160230'>what</span> <span m='160430'>is</span> <span m='160560'>it?</span> <span m='160810'>Well</span> <span m='161800'>the</span> <span m='161880'>first</span> <span m='162170'>thing</span> <span m='162320'>I</span> <span m='162440'>have to</span> <span m='162620'>do</span> <span m='162770'>is</span> <span m='162990'>I</span> <span m='163160'>want to</span> <span m='163740'>not</span> <span m='164110'>forget</span> <span m='164480'>to</span> <span m='164590'>divide</span> <span m='165140'>by</span> <span m='166070'>the</span> <span m='166240'>length</span> <span m='166580'>of</span> <span m='166700'>the</span> <span m='166820'>interval</span> <span m='167180'>here.</span> <span m='167420'>So</span> <span m='167900'>in</span> <span m='168030'>this</span> <span m='168180'>case,</span> <span m='168450'>the interval</span> <span m='168710'>is</span> <span m='168970'>from</span> <span m='169170'>0</span> <span m='169580'>to</span> <span m='169790'>10,</span> <span m='170460'>so</span> <span m='170640'>it</span> <span m='170710'>has</span> <span m='170870'>length</span> <span m='171210'>10</span> <span m='171510'>minus</span> <span m='171840'>0,</span> <span m='172790'>which</span> <span m='172990'>is</span> <span m='173120'>10.</span> <span m='173510'>So</span> <span m='173650'>I</span> <span m='173720'>want</span> <span m='173940'>1/10</span> <span m='175560'>in front</span> <span m='176330'>and what</span> <span m='176510'>I</span> <span m='176550'>want</span> <span m='176870'>to</span> <span m='176940'>multiply</span> <span m='177440'>this</span> <span m='177810'>by, is I want to multiply by</span> <span m='179900'>the</span> <span m='180070'>integral</span> <span m='180770'>over</span> <span m='181040'>this</span> <span m='181190'>entire</span> <span m='181650'>interval</span> <span m='182260'>of</span> <span m='182400'>my</span> <span m='182540'>function</span> <span m='182930'>v.</span> </p><p><span m='183610'>So I</span> <span m='183680'>just</span> <span m='183830'>take</span> <span m='184040'>the</span> <span m='184130'>formula</span> <span m='184600'>that</span> <span m='184740'>I</span> <span m='184790'>had</span> <span m='185040'>over</span> <span m='185230'>there</span> <span m='185410'>for</span> <span m='185580'>v</span> <span m='185980'>and</span> <span m='186140'>I plop</span> <span m='186640'>it down</span> <span m='187190'>into</span> <span m='187480'>my</span> <span m='187630'>integral.</span> <span m='187950'>So</span> <span m='188110'>it's</span> <span m='188310'>the</span> <span m='188470'>integral</span> <span m='189150'>from</span> <span m='189350'>0</span> <span m='189770'>to</span> <span m='190000'>10</span> <span m='191100'>of</span> <span m='192450'>1500</span> <span m='194330'>divided</span> <span m='194910'>by</span> <span m='195830'>100</span> <span m='197370'>plus</span> <span m='198490'>t</span> <span m='198760'>minus</span> <span m='199260'>5</span> <span m='200600'>quantity</span> <span m='200970'>squared</span> <span m='201780'>minus</span> <span m='202160'>7</span> <span m='203760'>dt.</span> <span m='205210'>So</span> <span m='205350'>this</span> <span m='205520'>integral</span> <span m='205930'>is</span> <span m='206070'>the</span> <span m='206170'>average</span> <span m='206580'>value</span> <span m='206920'>that</span> <span m='207070'>we're</span> <span m='207200'>looking</span> <span m='207490'>for.</span> </p><p><span m='209050'>OK. So now</span> <span m='209290'>we</span> <span m='209400'>have</span> <span m='209530'>to</span> <span m='209610'>go</span> <span m='209740'>about</span> <span m='209950'>evaluating</span> <span m='210540'>it.</span> <span m='211030'>Now, this</span> <span m='211220'>looks</span> <span m='211520'>kind</span> <span m='211810'>of</span> <span m='211950'>ugly,</span> <span m='212520'>but</span> <span m='212670'>actually</span> <span m='213080'>it's</span> <span m='213220'>not</span> <span m='213490'>that</span> <span m='213720'>bad.</span> <span m='214210'>I mean, one</span> <span m='214420'>thing</span> <span m='214570'>you</span> <span m='214650'>can</span> <span m='214820'>notice,</span> <span m='215650'>so the</span> <span m='215800'>minus</span> <span m='216240'>7</span> <span m='216590'>part,</span> <span m='216880'>that's</span> <span m='217090'>going</span> <span m='217220'>to</span> <span m='217280'>be</span> <span m='217420'>easy</span> <span m='217700'>to</span> <span m='217820'>take</span> <span m='218060'>care</span> <span m='218280'>of.</span> <span m='218600'>And</span> <span m='218830'>then</span> <span m='218990'>in</span> <span m='219110'>this</span> <span m='219290'>more</span> <span m='219520'>complicated</span> <span m='220110'>part,</span> <span m='220520'>well</span> <span m='221130'>there's</span> <span m='221310'>a</span> <span m='221370'>kind</span> <span m='221590'>of</span> <span m='221680'>obvious</span> <span m='222130'>substitution</span> <span m='222850'>here.</span> <span m='223100'>You</span> <span m='223200'>can</span> <span m='223330'>set</span> <span m='223620'>u</span> <span m='224000'>equal</span> <span m='224380'>t</span> <span m='224620'>minus</span> <span m='225070'>5,</span> <span m='226640'>that'll</span> <span m='226920'>simplify</span> <span m='227440'>it a</span> <span m='227570'>little</span> <span m='227810'>bit.</span> <span m='228450'>and then</span> <span m='228560'>what</span> <span m='228720'>you'll</span> <span m='228860'>see</span> <span m='229380'>is</span> <span m='229600'>that</span> <span m='229700'>you</span> <span m='229790'>have</span> <span m='230220'>an</span> <span m='230470'>integrand</span> <span m='230960'>of</span> <span m='231100'>the</span> <span m='231210'>form</span> <span m='231700'>something</span> <span m='232370'>divided</span> <span m='232730'>by</span> <span m='233210'>100</span> <span m='233840'>plus</span> <span m='234150'>u</span> <span m='234410'>squared.</span> <span m='236160'>And so that's</span> <span m='236870'>10</span> <span m='237230'>squared</span> <span m='237730'>plus</span> <span m='238020'>u</span> <span m='238250'>squared.</span> <span m='239160'>So that</span> <span m='239330'>should</span> <span m='239510'>keep--</span> <span m='239750'>and</span> <span m='239880'>the</span> <span m='239960'>something</span> <span m='240410'>as</span> <span m='240510'>a</span> <span m='240580'>constant.</span> <span m='241450'>So that</span> <span m='241590'>should</span> <span m='241750'>put</span> <span m='241950'>you</span> <span m='242070'>in</span> <span m='242180'>the</span> <span m='242260'>mind</span> <span m='242760'>of</span> <span m='243050'>a</span> <span m='243345'>tangent</span> <span m='243640'>substitute,</span> <span m='244380'>or</span> <span m='244520'>just</span> <span m='244990'>even</span> <span m='245470'>not</span> <span m='245740'>by</span> <span m='245860'>substitution,</span> <span m='246440'>you</span> <span m='246510'>can</span> <span m='246610'>just</span> <span m='246790'>remember</span> <span m='247270'>that</span> <span m='247410'>that's</span> <span m='247610'>an</span> <span m='247990'>arctangent</span> <span m='249050'>type</span> <span m='249320'>of</span> <span m='249420'>thing</span> <span m='249660'>that</span> <span m='249780'>you're</span> <span m='249900'>going</span> <span m='250030'>to</span> <span m='250100'>get</span> <span m='250240'>out.</span> </p><p><span m='250730'>so I'm</span> <span m='250880'>not</span> <span m='251030'>going to</span> <span m='251390'>go</span> <span m='251660'>through</span> <span m='251870'>all</span> <span m='252010'>the</span> <span m='252580'>steps</span> <span m='252970'>of</span> <span m='253090'>doing</span> <span m='253370'>that,</span> <span m='254450'>but</span> <span m='254600'>we</span> <span m='254740'>should</span> <span m='254950'>get</span> <span m='255120'>at</span> <span m='255210'>the</span> <span m='255320'>end-- well OK,</span> <span m='257090'>so</span> <span m='257240'>I've</span> <span m='257380'>got</span> <span m='258180'>this</span> <span m='258330'>1/10</span> <span m='259060'>out</span> <span m='259390'>in front,</span> <span m='259710'>so</span> <span m='259870'>I</span> <span m='259930'>have</span> <span m='260030'>to</span> <span m='260120'>not</span> <span m='260390'>forget</span> <span m='260640'>about</span> <span m='260920'>that.</span> <span m='261780'>I</span> <span m='261870'>get</span> <span m='262070'>1/10</span> <span m='264140'>times,</span> <span m='264800'>I've</span> <span m='264930'>gone</span> <span m='265130'>ahead</span> <span m='265350'>and I've</span> <span m='265480'>computed</span> <span m='265910'>the</span> <span m='266060'>anti-derivative</span> <span m='266660'>and</span> <span m='266930'>it's</span> <span m='267580'>150</span> <span m='269630'>times</span> <span m='271440'>arctan</span> <span m='272235'>of the</span> <span m='272700'>quantity</span> <span m='273950'>t</span> <span m='274270'>minus</span> <span m='274810'>5</span> <span m='276390'>over</span> <span m='276690'>10.</span> <span m='277880'>So here's</span> <span m='278030'>that</span> <span m='278540'>t</span> <span m='278730'>minus</span> <span m='279060'>5,</span> <span m='279920'>that's</span> <span m='280150'>the</span> <span m='280240'>same</span> <span m='280590'>t</span> <span m='280780'>minus</span> <span m='281160'>5</span> <span m='281890'>over</span> <span m='282160'>there</span> <span m='282390'>that's</span> <span m='282600'>coming</span> <span m='282910'>out.</span> <span m='284010'>Minus</span> <span m='285030'>7t.</span> <span m='286670'>And</span> <span m='286840'>you</span> <span m='286910'>want to</span> <span m='287080'>take</span> <span m='287430'>that</span> <span m='288420'>between</span> <span m='288900'>t</span> <span m='289280'>equals</span> <span m='289760'>0</span> <span m='291210'>and t</span> <span m='291770'>equals</span> <span m='292310'>10.</span> </p><p><span m='294440'>So this is, I've just, I've</span> <span m='294690'>gone</span> <span m='294900'>ahead,</span> <span m='295110'>I've</span> <span m='295220'>computed</span> <span m='295580'>the</span> <span m='295710'>anti-derivative</span> <span m='296410'>for</span> <span m='296660'>us.</span> <span m='297780'>There's</span> <span m='297950'>my</span> <span m='298070'>1/10</span> <span m='298790'>because</span> <span m='298960'>I'm</span> <span m='299090'>doing</span> <span m='299310'>an</span> <span m='299400'>average</span> <span m='299790'>value</span> <span m='300510'>and</span> <span m='300770'>then I'm,</span> <span m='301330'>it's</span> <span m='301540'>a</span> <span m='301800'>definite</span> <span m='302230'>integral</span> <span m='302650'>and</span> <span m='302790'>so</span> <span m='303320'>I'm using</span> <span m='303650'>fundamental</span> <span m='304080'>theorem of</span> <span m='304410'>calculus;</span> <span m='304860'>there</span> <span m='305070'>are my</span> <span m='305220'>bounds.</span> <span m='306210'>OK, so</span> <span m='306360'>now</span> <span m='306520'>we</span> <span m='306660'>just</span> <span m='306840'>have</span> <span m='306970'>to</span> <span m='307060'>plug</span> <span m='307340'>in</span> <span m='307420'>and</span> <span m='307530'>evaluate. So this is equal to, so let's see. So we've got</span> <span m='311720'>when</span> <span m='311900'>we</span> <span m='312000'>put</span> <span m='312190'>in</span> <span m='312320'>t</span> <span m='312550'>equals</span> <span m='312950'>10--</span> <span m='313700'>well</span> <span m='313900'>the</span> <span m='313980'>1/10</span> <span m='314580'>and</span> <span m='314650'>the</span> <span m='314750'>150</span> <span m='315380'>gives</span> <span m='315560'>me</span> <span m='315700'>a</span> <span m='315740'>15--</span> <span m='318770'>arctan</span> <span m='321200'>of</span> <span m='321380'>1/2</span> <span m='322920'>minus--</span> <span m='323680'>well</span> <span m='323880'>it's</span> <span m='324200'>1/10</span> <span m='325120'>of</span> <span m='325250'>7</span> <span m='325670'>times</span> <span m='326140'>10,</span> <span m='326990'>it's</span> <span m='327170'>just</span> <span m='327750'>7.</span> <span m='330140'>That's</span> <span m='330410'>from</span> <span m='330500'>the</span> <span m='330580'>first</span> <span m='330890'>one.</span> </p><p><span m='331120'>And from</span> <span m='331240'>the</span> <span m='331310'>second</span> <span m='331680'>one</span> <span m='331800'>I</span> <span m='331880'>guess</span> <span m='332070'>minus--</span> <span m='333380'>so</span> <span m='333580'>it's</span> <span m='333720'>going to</span> <span m='333960'>be</span> <span m='334290'>15</span> <span m='336600'>arctan</span> <span m='338960'>of</span> <span m='339260'>minus</span> <span m='340540'>1/2.</span> <span m='341180'>When</span> <span m='341340'>I</span> <span m='341410'>put</span> <span m='341580'>in</span> <span m='341680'>t</span> <span m='341850'>equals</span> <span m='342130'>0,</span> <span m='342310'>and</span> <span m='342450'>when</span> <span m='342560'>I</span> <span m='342610'>put</span> <span m='342770'>in</span> <span m='342970'>t equals</span> <span m='343260'>0,</span> <span m='343570'>the</span> <span m='343940'>7t</span> <span m='344090'>is</span> <span m='344260'>just</span> <span m='344490'>0.</span> <span m='345380'>OK.</span> <span m='346240'>This is</span> <span m='346440'>a</span> <span m='346540'>little</span> <span m='346750'>messy.</span> <span m='347110'>We</span> <span m='347240'>can</span> <span m='347370'>simplify</span> <span m='347700'>it</span> <span m='347970'>a</span> <span m='348030'>little</span> <span m='348330'>bit,</span> <span m='348770'>because,</span> <span m='348970'>remember</span> <span m='349760'>arctangent</span> <span m='350460'>is an</span> <span m='350770'>odd</span> <span m='351130'>function.</span> <span m='351940'>So</span> <span m='352250'>arctan</span> <span m='352940'>of</span> <span m='353080'>minus</span> <span m='353600'>x</span> <span m='353890'>is</span> <span m='354180'>minus</span> <span m='354680'>arctangent</span> <span m='354960'>of</span> <span m='355390'>x.</span> <span m='356230'>So</span> <span m='356750'>minus</span> <span m='357340'>15</span> <span m='357840'>arctan</span> <span m='358420'>minus</span> <span m='358770'>1/2</span> <span m='359350'>is</span> <span m='359520'>the</span> <span m='359610'>same</span> <span m='359910'>as</span> <span m='360050'>just</span> <span m='360530'>15</span> <span m='360960'>arctan</span> <span m='361420'>1/2.</span> <span m='361940'>And so</span> <span m='362030'>we</span> <span m='362120'>can</span> <span m='362270'>combine</span> <span m='362810'>those.</span> </p><p><span m='363610'>So we</span> <span m='363690'>can</span> <span m='363810'>rewrite</span> <span m='364210'>that.</span> <span m='364430'>Let's</span> <span m='364630'>go</span> <span m='364800'>all</span> <span m='364930'>the</span> <span m='365020'>way</span> <span m='365130'>over</span> <span m='365270'>here.</span> <span m='365860'>We</span> <span m='366010'>can</span> <span m='366140'>rewrite</span> <span m='366530'>this</span> <span m='366700'>as</span> <span m='367570'>30</span> <span m='369520'>arctan</span> <span m='371490'>1/2</span> <span m='373460'>minus</span> <span m='373810'>7.</span> <span m='374760'>So that's</span> <span m='374950'>about</span> <span m='375270'>it</span> <span m='375380'>as</span> <span m='375530'>nice a</span> <span m='375610'>form</span> <span m='376510'>as</span> <span m='376720'>you</span> <span m='376830'>can</span> <span m='376980'>make</span> <span m='377220'>this</span> <span m='377470'>take.</span> <span m='377740'>If</span> <span m='377860'>you</span> <span m='377960'>wanted</span> <span m='378240'>to</span> <span m='378350'>plug</span> <span m='378640'>it</span> <span m='378710'>into</span> <span m='378940'>a</span> <span m='379010'>calculator,</span> <span m='379910'>I</span> <span m='380030'>think</span> <span m='380270'>you'd</span> <span m='380380'>see</span> <span m='381070'>that</span> <span m='381220'>this</span> <span m='381400'>is</span> <span m='381530'>approximately</span> <span m='382330'>equal</span> <span m='382640'>to</span> <span m='383240'>6.9</span> <span m='384940'>and</span> <span m='385130'>I</span> <span m='385190'>guess</span> <span m='385380'>the</span> <span m='385480'>units</span> <span m='385790'>there</span> <span m='386870'>are</span> <span m='387000'>going to</span> <span m='387180'>be</span> <span m='387310'>meters</span> <span m='387730'>per</span> <span m='387860'>second.</span> <span m='388720'>So her</span> <span m='388970'>average</span> <span m='389350'>velocity</span> <span m='390180'>over</span> <span m='390440'>this</span> <span m='390580'>time</span> <span m='390870'>is</span> <span m='390960'>about</span> <span m='391260'>6.9</span> <span m='392040'>meters</span> <span m='392340'>per</span> <span m='392460'>second.</span> </p><p><span m='393310'>Let's</span> <span m='393510'>just</span> <span m='393690'>quickly</span> <span m='393990'>recap</span> <span m='394500'>what</span> <span m='394640'>we</span> <span m='394770'>did.</span> <span m='396360'>So we</span> <span m='396460'>started</span> <span m='397390'>all</span> <span m='397650'>the</span> <span m='397750'>way</span> <span m='397860'>back</span> <span m='398120'>here</span> <span m='398360'>with</span> <span m='398530'>this</span> <span m='398690'>velocity</span> <span m='399240'>function</span> <span m='399740'>v,</span> <span m='400360'>and</span> <span m='400550'>we</span> <span m='400650'>wanted</span> <span m='400920'>to</span> <span m='401020'>compute</span> <span m='401470'>it's</span> <span m='401640'>average</span> <span m='402070'>value</span> <span m='402720'>over</span> <span m='402960'>the</span> <span m='403050'>interval</span> <span m='403590'>0</span> <span m='403760'>less</span> <span m='403870'>than</span> <span m='404150'>or equal</span> <span m='404390'>to</span> <span m='404480'>t,</span> <span m='404760'>less</span> <span m='405080'>than or equal</span> <span m='405360'>to</span> <span m='405460'>10.</span> <span m='406890'>So we</span> <span m='407070'>did</span> <span m='407290'>what</span> <span m='407460'>we</span> <span m='407590'>always</span> <span m='408020'>do</span> <span m='408200'>in</span> <span m='408360'>problems</span> <span m='408630'>of</span> <span m='408900'>that</span> <span m='409110'>sort.</span> <span m='409840'>So we</span> <span m='409940'>came</span> <span m='410680'>over</span> <span m='410920'>here,</span> <span m='411430'>and</span> <span m='411590'>whenever</span> <span m='411900'>you</span> <span m='412010'>want to</span> <span m='412200'>compute an</span> <span m='412570'>average</span> <span m='412880'>value,</span> <span m='413510'>you</span> <span m='413610'>take</span> <span m='413830'>1</span> <span m='414210'>divided</span> <span m='414630'>by</span> <span m='414890'>the</span> <span m='415070'>length</span> <span m='415400'>of</span> <span m='415560'>the</span> <span m='416080'>interval</span> <span m='416470'>in</span> <span m='416550'>question,</span> <span m='417380'>times--</span> <span m='418060'>then</span> <span m='418240'>just</span> <span m='418440'>you</span> <span m='418620'>integrate</span> <span m='419100'>the</span> <span m='419180'>function</span> <span m='419610'>who's</span> <span m='419780'>average</span> <span m='420140'>value</span> <span m='420460'>you</span> <span m='420600'>want</span> <span m='421280'>over</span> <span m='421600'>the</span> <span m='421740'>interval.</span> <span m='423000'>OK?</span> </p><p><span m='423750'>And so</span> <span m='423870'>then</span> <span m='424660'>we</span> <span m='424840'>computed,</span> <span m='426190'>well</span> <span m='426840'>we</span> <span m='426990'>didn't</span> <span m='427230'>show</span> <span m='427430'>any</span> <span m='427570'>of</span> <span m='427650'>the</span> <span m='427740'>steps,</span> <span m='428130'>but</span> <span m='428250'>we</span> <span m='428350'>computed</span> <span m='429190'>the</span> <span m='429770'>definite</span> <span m='430290'>integral</span> <span m='430460'>by</span> <span m='430960'>taking</span> <span m='431290'>the</span> <span m='431480'>anti-derivative</span> <span m='431980'>and</span> <span m='432360'>plugging</span> <span m='432660'>in</span> <span m='433390'>and it</span> <span m='433590'>happened</span> <span m='433910'>that</span> <span m='434070'>the</span> <span m='434160'>answer</span> <span m='434450'>worked</span> <span m='434710'>out</span> <span m='434850'>to</span> <span m='434960'>be</span> <span m='435030'>about</span> <span m='435250'>6.9.</span> <span m='436900'>So</span> <span m='437030'>there</span> <span m='437210'>you</span> <span m='437280'>go.</span> <span m='437600'>I'll</span> <span m='437970'>stop</span> <span m='438360'>there.</span> </p>", 
    "_content_type_link_text": "text/plain", 
    "course_linking": [], 
    "_id": "average-velocity", 
    "modification_date": "2016/09/25 01:18:53.712 GMT-4", 
    "media_index": [], 
    "always_publish": false, 
    "_owner": null, 
    "_permissions": {
        "Change portal events": {
            "acquire": false, 
            "roles": [
                "Editor", 
                "Manager", 
                "MetadataEditor", 
                "Owner"
            ]
        }, 
        "Modify portal content": {
            "acquire": false, 
            "roles": [
                "Manager", 
                "MetadataEditor"
            ]
        }, 
        "Access contents information": {
            "acquire": false, 
            "roles": [
                "Authenticated"
            ]
        }, 
        "List folder contents": {
            "acquire": false, 
            "roles": [
                "Editor", 
                "Manager", 
                "MetadataEditor", 
                "Owner"
            ]
        }, 
        "View": {
            "acquire": false, 
            "roles": [
                "Authenticated"
            ]
        }
    }, 
    "_properties": [
        [
            "title", 
            "Average Velocity", 
            "string"
        ]
    ], 
    "creators": [
        "sbabbar"
    ], 
    "courselist_features": [], 
    "_path": "/Plone/courses/mathematics/18-01sc-single-variable-calculus-fall-2010/unit-3-the-definite-integral-and-its-applications/part-c-average-value-probability-and-numerical-integration/session-60-integrals-and-averages/average-velocity"
}