{
    "text": "<p class=\"sc_nav\">&laquo; <a class=\"sc_prev\" href=\"./resolveuid/d2dac4c5783973f0083cdd3859d4cda5\">Previous</a> | <a class=\"sc_next\" href=\"./resolveuid/be07f2bde3305a676f66884dbf8397d1\">Next</a> &raquo;</p> <p>&nbsp;</p> <h2 class=\"subhead\">Overview</h2> <p>Calculating probabilities is an important application of integration.  In these examples we use integrals to find the probability of an event occurring in a specified region, as opposed to outside that region.</p> <h2 class=\"subhead\">Lecture Video and Notes</h2> <h3 class=\"subsubhead\">Video Excerpts</h3> <div class=\"embedbg\"><div class=\"medialisting\"><p>74601218clip1:probabilityexample32049310</p></div></div> <h2 class=\"subhead\">Recitation Video</h2> <p>&nbsp;</p> <h3 class=\"subsubhead\">Average x-Coordinate in a Region</h3> <p>20663279averagex-coordinateinaregion18803326</p>  <h2 class=\"subhead\">Lecture Video and Notes</h2> <h3 class=\"subsubhead\">Video Excerpts</h3> <div class=\"embedbg\"><div class=\"medialisting\"><p>5395521clip1:probabilitysummary89664874</p></div> <div class=\"medialisting\"><p>90776361clip2:errata:heatisenergy13179125</p></div> <div class=\"medialisting\"><p>16536236clip3:example:boynearadartboard12364015</p></div></div> <p>&nbsp;</p> <p class=\"sc_nav_bottom\">&laquo; <a class=\"sc_prev\" href=\"./resolveuid/d2dac4c5783973f0083cdd3859d4cda5\">Previous</a> | <a class=\"sc_next\" href=\"./resolveuid/be07f2bde3305a676f66884dbf8397d1\">Next</a> &raquo;</p>", 
    "_content_type_license": "text/plain", 
    "_uid": "1fa09ca81711139c23be618aa2768257", 
    "title": "Session 62: Integrals and Probability", 
    "_ac_local_roles": {
        "cc_akuma1": [
            "Owner"
        ]
    }, 
    "location": "", 
    "_content_type_course_identifier": "text/plain", 
    "_atbrefs": {
        "isReferencing": [
            "4c201b00a0470284ebd6c546e0cc59ab", 
            "e1f8a1b789b83e57da0e01f4ada7283a", 
            "d2dac4c5783973f0083cdd3859d4cda5", 
            "be07f2bde3305a676f66884dbf8397d1"
        ]
    }, 
    "constrainTypesMode": -1, 
    "_content_type_section_identifier": "text/plain", 
    "technical_location": "https://ocw.mit.edu/courses/mathematics/18-01sc-single-variable-calculus-fall-2010/unit-3-the-definite-integral-and-its-applications/part-c-average-value-probability-and-numerical-integration/session-62-integrals-and-probability", 
    "software_requirements": [
        {
            "software_type_col": "Browser", 
            "minimum_version_col": "40.0", 
            "software_name_col": "Chrome", 
            "maximum_version_col": ""
        }, 
        {
            "software_type_col": "Browser", 
            "minimum_version_col": "8.0", 
            "software_name_col": "Safari", 
            "maximum_version_col": ""
        }, 
        {
            "software_type_col": "Browser", 
            "minimum_version_col": "38.0", 
            "software_name_col": "Mozilla Firefox", 
            "maximum_version_col": ""
        }, 
        {
            "software_type_col": "Browser", 
            "minimum_version_col": "9.0", 
            "software_name_col": "Internet Explorer", 
            "maximum_version_col": ""
        }, 
        {
            "software_type_col": "Browser", 
            "minimum_version_col": "13.1", 
            "software_name_col": "Edge", 
            "maximum_version_col": ""
        }
    ], 
    "_content_type_technical_location": "text/plain", 
    "_content_type_rights": "text/html", 
    "_directly_provided": [
        "Products.CMFEditions.interfaces.IVersioned"
    ], 
    "parent_uid": "e1f8a1b789b83e57da0e01f4ada7283a", 
    "excludeFromNav": false, 
    "_content_type_unique_identifier": "text/plain", 
    "allowDiscussion": false, 
    "metadata_contributor_list": [], 
    "locallyAllowedTypes": [
        "OCWImage", 
        "CourseSection", 
        "OCWExtFile", 
        "OCWFile", 
        "MediaResource"
    ], 
    "_content_type_text": "text/html", 
    "ad_type": "HOUSE", 
    "creation_date": "2010/11/17 15:27:22.778 US/Eastern", 
    "aggregationlevel": 3, 
    "duration": "", 
    "immediatelyAddableTypes": [
        "OCWImage", 
        "CourseSection", 
        "OCWExtFile", 
        "OCWFile", 
        "MediaResource"
    ], 
    "subject": [], 
    "_content_type_short_page_title": "text/plain", 
    "effectiveDate": "2010/11/17 15:27:29.326 US/Eastern", 
    "parent_module": "bfe41979b9593362793fd930b36efa01", 
    "is_mathml_document": false, 
    "bottomtext": "", 
    "short_page_title": "Session 62: Integrals and Probability", 
    "section_identifier": "https://ocw.mit.edu/courses/mathematics/18-01sc-single-variable-calculus-fall-2010/unit-3-the-definite-integral-and-its-applications", 
    "related_mit_links": "", 
    "_content_type_ad_type": "text/plain", 
    "_layout": "custom_view", 
    "_workflow_history": {
        "page_workflow": [
            {
                "action": null, 
                "review_state": "waiting_for_authoring", 
                "actor": "Kcanavan", 
                "comments": "", 
                "time": "2010/11/17 15:27:22.784 US/Eastern"
            }, 
            {
                "action": "approve_to_staging", 
                "review_state": "ready_for_staging", 
                "actor": "Kcanavan", 
                "comments": "", 
                "time": "2010/11/17 15:27:29.351 US/Eastern"
            }, 
            {
                "action": "decline", 
                "review_state": "waiting_for_authoring", 
                "comments": "", 
                "actor": "cc_gegrov", 
                "time": "2010/12/23 02:12:52.665 US/Eastern"
            }, 
            {
                "action": "approve_to_staging", 
                "review_state": "ready_for_staging", 
                "comments": "", 
                "actor": "cc_gegrov", 
                "time": "2010/12/23 06:50:21.837 US/Eastern"
            }, 
            {
                "action": "decline", 
                "review_state": "waiting_for_authoring", 
                "comments": "", 
                "actor": "Carchidi", 
                "time": "2010/12/23 14:11:04.867 US/Eastern"
            }, 
            {
                "action": "approve_to_staging", 
                "review_state": "ready_for_staging", 
                "actor": "Carchidi", 
                "comments": "", 
                "time": "2010/12/23 14:11:36.682 US/Eastern"
            }, 
            {
                "action": "decline_to_qa", 
                "review_state": "waiting_for_qa", 
                "comments": "", 
                "actor": "Kcanavan", 
                "time": "2011/01/07 10:57:31.756 US/Eastern"
            }, 
            {
                "action": "approve_to_staging", 
                "review_state": "ready_for_staging", 
                "actor": "Kcanavan", 
                "comments": "", 
                "time": "2011/01/07 13:47:53.983 US/Eastern"
            }, 
            {
                "action": "decline_to_qa", 
                "review_state": "waiting_for_qa", 
                "actor": "Kcanavan", 
                "comments": "", 
                "time": "2011/01/09 00:41:36.659 US/Eastern"
            }, 
            {
                "action": "approve_to_staging", 
                "review_state": "ready_for_staging", 
                "actor": "Kcanavan", 
                "comments": "", 
                "time": "2011/01/09 00:43:16.332 US/Eastern"
            }, 
            {
                "action": "decline_to_qa", 
                "review_state": "waiting_for_qa", 
                "comments": "", 
                "actor": "Kcanavan", 
                "time": "2011/01/10 11:14:16.266 US/Eastern"
            }, 
            {
                "action": "approve_to_staging", 
                "review_state": "ready_for_staging", 
                "actor": "Kcanavan", 
                "comments": "", 
                "time": "2011/01/10 12:21:36.368 US/Eastern"
            }, 
            {
                "action": "decline_to_qa", 
                "review_state": "waiting_for_qa", 
                "comments": "", 
                "actor": "Kcanavan", 
                "time": "2011/01/12 09:30:46.471 US/Eastern"
            }, 
            {
                "action": "approve_to_staging", 
                "review_state": "ready_for_staging", 
                "actor": "Kcanavan", 
                "comments": "", 
                "time": "2011/01/12 09:33:22.330 US/Eastern"
            }, 
            {
                "action": "decline_to_qa", 
                "review_state": "waiting_for_qa", 
                "comments": "", 
                "actor": "Jcplayer", 
                "time": "2011/07/26 14:49:59.424 GMT-4"
            }, 
            {
                "action": "approve_to_staging", 
                "review_state": "ready_for_staging", 
                "comments": "", 
                "actor": "Jcplayer", 
                "time": "2011/07/26 16:39:43.523 GMT-4"
            }, 
            {
                "action": "decline_to_qa", 
                "review_state": "waiting_for_qa", 
                "comments": "", 
                "actor": "Jcplayer", 
                "time": "2011/07/26 16:39:55.448 GMT-4"
            }, 
            {
                "action": "approve_to_staging", 
                "review_state": "ready_for_staging", 
                "comments": "", 
                "actor": "Jcplayer", 
                "time": "2011/07/26 16:41:54.361 GMT-4"
            }, 
            {
                "action": null, 
                "review_state": "waiting_for_authoring", 
                "comments": "", 
                "actor": "cc_akuma1", 
                "time": "2012/11/08 01:02:39.207 US/Eastern"
            }, 
            {
                "action": "approve_to_staging", 
                "review_state": "ready_for_staging", 
                "actor": "ndhamija", 
                "comments": "", 
                "time": "2012/11/09 03:36:41.727 US/Eastern"
            }, 
            {
                "action": "decline", 
                "review_state": "waiting_for_authoring", 
                "comments": "", 
                "actor": "ndhamija", 
                "time": "2012/11/12 07:13:11.149 US/Eastern"
            }, 
            {
                "action": "approve_to_staging", 
                "review_state": "ready_for_staging", 
                "actor": "ndhamija", 
                "comments": "", 
                "time": "2012/11/12 07:14:07.518 US/Eastern"
            }, 
            {
                "action": "decline", 
                "review_state": "waiting_for_authoring", 
                "actor": "asingh124", 
                "comments": "", 
                "time": "2012/11/23 00:53:34.403 US/Eastern"
            }, 
            {
                "action": "approve_to_staging", 
                "review_state": "ready_for_staging", 
                "actor": "abohra", 
                "comments": "", 
                "time": "2012/11/23 06:54:18.307 US/Eastern"
            }, 
            {
                "action": "decline_to_qa", 
                "review_state": "waiting_for_qa", 
                "comments": "", 
                "actor": "Kcanavan", 
                "time": "2012/11/28 18:06:11.588 US/Eastern"
            }, 
            {
                "action": "approve_to_staging", 
                "review_state": "ready_for_staging", 
                "actor": "Kcanavan", 
                "comments": "", 
                "time": "2012/11/28 18:07:13.652 US/Eastern"
            }, 
            {
                "action": "decline_to_qa", 
                "review_state": "waiting_for_qa", 
                "comments": "", 
                "actor": "kqli", 
                "time": "2013/01/02 12:43:17.891 US/Eastern"
            }, 
            {
                "action": "approve_to_staging", 
                "review_state": "ready_for_staging", 
                "actor": "kqli", 
                "comments": "", 
                "time": "2013/01/02 12:43:48.243 US/Eastern"
            }, 
            {
                "action": "decline_to_qa", 
                "review_state": "waiting_for_qa", 
                "comments": "", 
                "actor": "Jcplayer", 
                "time": "2013/08/22 10:40:45.044 GMT-4"
            }, 
            {
                "action": "approve_to_staging", 
                "review_state": "ready_for_staging", 
                "actor": "Jcplayer", 
                "comments": "", 
                "time": "2013/08/22 10:42:02.552 GMT-4"
            }, 
            {
                "action": "decline", 
                "review_state": "waiting_for_authoring", 
                "comments": "", 
                "actor": "pgandhi3", 
                "time": "2014/09/05 05:50:19.136 GMT-4"
            }, 
            {
                "action": "approve_to_staging", 
                "review_state": "ready_for_staging", 
                "actor": "pgandhi3", 
                "comments": "", 
                "time": "2014/09/05 05:51:50.548 GMT-4"
            }, 
            {
                "action": "decline", 
                "review_state": "waiting_for_authoring", 
                "comments": "", 
                "actor": "sbabbar", 
                "time": "2015/12/23 05:03:18.040 US/Eastern"
            }, 
            {
                "action": "approve_to_staging", 
                "review_state": "ready_for_staging", 
                "actor": "sbabbar", 
                "comments": "", 
                "time": "2015/12/29 04:12:18.393 US/Eastern"
            }, 
            {
                "action": "decline", 
                "review_state": "waiting_for_authoring", 
                "comments": "", 
                "actor": "rsharma20", 
                "time": "2016/01/05 18:07:02.875 US/Eastern"
            }, 
            {
                "action": "approve_to_staging", 
                "review_state": "ready_for_staging", 
                "actor": "rsharma20", 
                "comments": "", 
                "time": "2016/01/05 18:11:05.046 US/Eastern"
            }
        ]
    }, 
    "_classname": "CourseSection", 
    "_content_type_materialtype": "text/plain", 
    "_userdefined_roles": [], 
    "publisher": "MIT OpenCourseWare", 
    "nextPreviousEnabled": false, 
    "language": "", 
    "url_rewrite_patterns": [], 
    "widgets_features": [], 
    "category_features": [], 
    "firstTimeEdit": true, 
    "feature_requirements": [], 
    "list_in_left_nav": false, 
    "short_name_tlp": "Session 62: Integrals and Probability", 
    "expirationDate": "None", 
    "_content_type_id": "text/plain", 
    "contributor_list": [
        {}
    ], 
    "is_media_gallery": false, 
    "contributors": [], 
    "_gopip": 2, 
    "_content_type_title": "text/plain", 
    "course_linking": [], 
    "_atrefs": {
        "BelongsTo": [
            "bfe41979b9593362793fd930b36efa01"
        ], 
        "isReferencing": [
            "d2dac4c5783973f0083cdd3859d4cda5", 
            "be07f2bde3305a676f66884dbf8397d1"
        ]
    }, 
    "other_platform_requirements": "", 
    "license": "http://creativecommons.org/licenses/by-nc-sa/3.0/us/", 
    "rights": "This site (c) Massachusetts Institute of Technology 2010.  Content within individual courses is (c) by the individual authors unless otherwise noted. The Massachusetts Institute of Technology is providing this Work (as defined below) under the terms of this Creative Commons public license (\"CCPL\" or \"license\") unless otherwise noted. The Work is protected by copyright and/or other applicable law. Any use of the work other than as authorized under this license is prohibited. By exercising any of the rights to the Work provided here, You (as defined below) accept and agree to be bound by the terms of this license. The Licensor, the Massachusetts Institute of Technology, grants You the rights contained here in consideration of Your acceptance of such terms and conditions.", 
    "hide_Page_title": null, 
    "_defaultpage": "", 
    "tcATmit_subject_tags": [], 
    "features_tracking": [], 
    "ad_champion_text": "", 
    "has_inline_embed": true, 
    "unique_identifier": "https://ocw.mit.edu/courses/mathematics/18-01sc-single-variable-calculus-fall-2010/unit-3-the-definite-integral-and-its-applications/part-c-average-value-probability-and-numerical-integration/session-62-integrals-and-probability", 
    "is_image_gallery": false, 
    "id": "session-62-integrals-and-probability", 
    "materialtype": "Other", 
    "_type": "CourseSection", 
    "description": "This section contains lecture video excerpts, lecture notes, and a problem solving video on integrals and calculating probabilities.", 
    "course_identifier": "https://ocw.mit.edu/courses/mathematics/18-01sc-single-variable-calculus-fall-2010", 
    "_content_type_publisher": "text/plain", 
    "tcATmit_instructional_tags": [], 
    "_content_type": "text/html", 
    "creators": [
        "Kcanavan"
    ], 
    "modification_date": "2016/09/24 07:49:00.218 GMT-4", 
    "always_publish": true, 
    "_content_type_description": "text/plain", 
    "_owner": null, 
    "_permissions": {
        "Change portal events": {
            "acquire": false, 
            "roles": [
                "Editor", 
                "Manager", 
                "MetadataEditor", 
                "Owner"
            ]
        }, 
        "Modify portal content": {
            "acquire": false, 
            "roles": [
                "Manager", 
                "MetadataEditor"
            ]
        }, 
        "Access contents information": {
            "acquire": false, 
            "roles": [
                "Authenticated"
            ]
        }, 
        "List folder contents": {
            "acquire": false, 
            "roles": [
                "Editor", 
                "Manager", 
                "MetadataEditor", 
                "Owner"
            ]
        }, 
        "View": {
            "acquire": false, 
            "roles": [
                "Authenticated"
            ]
        }
    }, 
    "_properties": [
        [
            "title", 
            "Session 62: Integrals and Probability", 
            "string"
        ]
    ], 
    "_id": "session-62-integrals-and-probability", 
    "courselist_features": [], 
    "_content_type_short_name_tlp": "text/plain", 
    "_path": "/Plone/courses/mathematics/18-01sc-single-variable-calculus-fall-2010/unit-3-the-definite-integral-and-its-applications/part-c-average-value-probability-and-numerical-integration/session-62-integrals-and-probability"
}