{
    "text": "<p class=\"sc_nav\">&laquo; <a href=\"./resolveuid/be018db8352877b71152e364bf12af4b\" class=\"sc_prev\">Previous</a> | <a href=\"./resolveuid/6b4ef50053da70f0e8654886100e09bb\" class=\"sc_next\">Next</a> &raquo;</p> <p>&nbsp;</p> <h2 class=\"subhead\">Introduction</h2> <p>This unit covers advanced integration techniques, methods for calculating the length of a curved line or the area of a curved surface, and &quot;polar coordinates&quot; which are an alternative to the Cartesian coordinates most often used to describe positions in the plane.</p> <p><a href=\"./resolveuid/6b4ef50053da70f0e8654886100e09bb\"><strong>Part A: Trigonometric Powers, Trigonometric Substitution and Completing the Square</strong></a></p> <ul class=\"arrow\">     <li><a href=\"./resolveuid/f914f1dccfe8c98b34b42bcf2aa6e075\">Session 68: Integral of sinn(x) cosm(x), Odd Exponents</a></li>     <li><a href=\"./resolveuid/60fd16b3d72fefca72098904f15c0f02\">Session 69: Integral of sinn(x) cosm(x), Even Exponents</a></li>     <li><a href=\"./resolveuid/a38f4a8dd90b153bd08f5ba8ba270970\">Session 70: Preview of Trig Substitution and Polar Coordinates</a></li>     <li><a href=\"./resolveuid/369ea1a042d34dea55d07a2b967f59af\">Session 71: Integrals Involving secant, cosecant and cotangent</a></li>     <li><a href=\"./resolveuid/9894378ce8db90173778fc7a13cad022\">Session 72: Trig Substitution</a></li>     <li><a href=\"./resolveuid/3d81cd65aedbbd557617501fb6a0b493\">Session 73: Completing the Square</a></li>     <li><a href=\"./resolveuid/14f8514cd8143524d6237c820201bc0c\">Problem Set 9</a></li> </ul> <p><a href=\"./resolveuid/be9d889d28b57df1a77bbd83f2f4f214\"><strong>Part B: Partial Fractions, Integration by Parts, Arc Length, and Surface Area</strong></a></p> <ul class=\"arrow\">     <li><a href=\"./resolveuid/bffb54f0e2e1cf685033820b5512e4e6\">Session 74: Integration by Partial Fractions</a></li>     <li><a href=\"./resolveuid/b2d9964453e89357525c798ec9a77daf\">Session 75: Advanced Partial Fractions</a></li>     <li><a href=\"./resolveuid/b196b3d2413fa8015d43695883cc671a\">Session 76: Integration by Parts</a></li>     <li><a href=\"./resolveuid/fd4292467eebd7160d4a260559201a7c\">Session 77: Volume of a Wine Glass</a></li>     <li><a href=\"./resolveuid/5c900cbf5c7bc84e4bc0086224a0a1bd\">Session 78: Computing the Length of a Curve</a></li>     <li><a href=\"./resolveuid/17929c9ec324e987cc81f0233bae0eee\">Session 79: Surface Area</a></li>     <li><a href=\"./resolveuid/1fe1bcbe130292137c7b4820b5a8b3a0\">Problem Set 10</a></li> </ul> <p><a href=\"./resolveuid/f19e1f54f348a68a730889ee63f5b9d6\"><strong>Part C: Parametric Equations and Polar Coordinates</strong></a></p> <ul class=\"arrow\">     <li><a href=\"./resolveuid/b58d1c03b5e72b4fc2ef553cda5d94b7\">Session 80: Parametric Curves</a></li>     <li><a href=\"./resolveuid/7aa6522b6e8e0d13937e54ed6e52710d\">Session 81: Examples Using Parametrized Curves</a></li>     <li><a href=\"./resolveuid/6b43151f2ea4f32cac0a7709358919db\">Session 82: Polar Coordinates</a></li>     <li><a href=\"./resolveuid/48426d55f5c623f4eacc4fd415a7a577\">Session 83: Polar Coordinates, Continued</a></li>     <li><a href=\"./resolveuid/cfd25e33da1a2e54749f33591f59a4ba\">Session 84: Polar Coordinates and Graphing</a></li>     <li><a href=\"./resolveuid/b4238780f29b563a34b05363b1ac982c\">Problem Set 11</a></li> </ul> <p><a href=\"./resolveuid/6484ae5940462fadf99f0d827e877e70\"><strong>Exam 4</strong></a></p> <ul class=\"arrow\">     <li><a href=\"./resolveuid/4699d63d2fc16b8bd7fc498a382dc972\">Session 85: Review for Exam 4</a></li>     <li><a href=\"./resolveuid/c0baf8c0ea3346ee54ad50f5dc690161\">Session 86: Materials for Exam 4</a></li> </ul> <p>&nbsp;</p> <p class=\"sc_nav_bottom\">&laquo; <a href=\"./resolveuid/be018db8352877b71152e364bf12af4b\" class=\"sc_prev\">Previous</a> | <a href=\"./resolveuid/6b4ef50053da70f0e8654886100e09bb\" class=\"sc_next\">Next</a> &raquo;</p>", 
    "_content_type_license": "text/plain", 
    "_uid": "4da2f4d47b887d3f0da6a5405ecfef83", 
    "title": "4. Techniques of Integration", 
    "_ac_local_roles": {
        "cc_akuma1": [
            "Owner"
        ]
    }, 
    "location": "", 
    "_content_type_course_identifier": "text/plain", 
    "_atbrefs": {
        "isReferencing": [
            "be018db8352877b71152e364bf12af4b", 
            "6b4ef50053da70f0e8654886100e09bb"
        ]
    }, 
    "constrainTypesMode": 0, 
    "technical_location": "https://ocw.mit.edu/courses/mathematics/18-01sc-single-variable-calculus-fall-2010/unit-4-techniques-of-integration", 
    "software_requirements": [
        {
            "software_type_col": "Browser", 
            "minimum_version_col": "40.0", 
            "software_name_col": "Chrome", 
            "maximum_version_col": ""
        }, 
        {
            "software_type_col": "Browser", 
            "minimum_version_col": "8.0", 
            "software_name_col": "Safari", 
            "maximum_version_col": ""
        }, 
        {
            "software_type_col": "Browser", 
            "minimum_version_col": "38.0", 
            "software_name_col": "Mozilla Firefox", 
            "maximum_version_col": ""
        }, 
        {
            "software_type_col": "Browser", 
            "minimum_version_col": "9.0", 
            "software_name_col": "Internet Explorer", 
            "maximum_version_col": ""
        }, 
        {
            "software_type_col": "Browser", 
            "minimum_version_col": "13.1", 
            "software_name_col": "Edge", 
            "maximum_version_col": ""
        }
    ], 
    "_content_type_technical_location": "text/plain", 
    "_content_type_rights": "text/html", 
    "_directly_provided": [
        "Products.CMFEditions.interfaces.IVersioned"
    ], 
    "parent_uid": "bfe41979b9593362793fd930b36efa01", 
    "excludeFromNav": false, 
    "_content_type_unique_identifier": "text/plain", 
    "allowDiscussion": false, 
    "metadata_contributor_list": [], 
    "locallyAllowedTypes": [
        "OCWImage", 
        "CourseSection", 
        "OCWExtFile", 
        "OCWFile", 
        "MediaResource"
    ], 
    "_content_type_text": "text/html", 
    "ad_type": "HOUSE", 
    "creation_date": "2012/11/08 01:37:29.902 US/Eastern", 
    "aggregationlevel": 3, 
    "duration": "", 
    "immediatelyAddableTypes": [
        "OCWImage", 
        "CourseSection", 
        "OCWExtFile", 
        "OCWFile", 
        "MediaResource"
    ], 
    "subject": [], 
    "_content_type_short_page_title": "text/plain", 
    "effectiveDate": "2012/11/09 03:18:16.548 US/Eastern", 
    "parent_module": "bfe41979b9593362793fd930b36efa01", 
    "is_mathml_document": false, 
    "bottomtext": "", 
    "short_page_title": "4. Techniques of Integration", 
    "section_identifier": null, 
    "related_mit_links": "", 
    "_content_type_ad_type": "text/plain", 
    "_layout": "custom_view", 
    "_workflow_history": {
        "page_workflow": [
            {
                "action": null, 
                "review_state": "waiting_for_authoring", 
                "comments": "", 
                "actor": "cc_akuma1", 
                "time": "2012/11/08 01:37:29.912 US/Eastern"
            }, 
            {
                "action": "approve_to_staging", 
                "review_state": "ready_for_staging", 
                "actor": "ndhamija", 
                "comments": "", 
                "time": "2012/11/09 03:18:16.573 US/Eastern"
            }, 
            {
                "action": "decline", 
                "review_state": "waiting_for_authoring", 
                "comments": "", 
                "actor": "abohra", 
                "time": "2012/11/23 01:28:45.757 US/Eastern"
            }, 
            {
                "action": "approve_to_staging", 
                "review_state": "ready_for_staging", 
                "comments": "", 
                "actor": "rnagar3", 
                "time": "2012/11/23 06:56:42.246 US/Eastern"
            }, 
            {
                "action": "decline", 
                "review_state": "waiting_for_authoring", 
                "comments": "", 
                "actor": "asingh33", 
                "time": "2015/12/21 02:13:09.762 US/Eastern"
            }, 
            {
                "action": "approve_to_staging", 
                "review_state": "ready_for_staging", 
                "comments": "", 
                "actor": "asingh33", 
                "time": "2015/12/21 02:13:33.452 US/Eastern"
            }, 
            {
                "action": "decline", 
                "review_state": "waiting_for_authoring", 
                "actor": "asingh33", 
                "comments": "", 
                "time": "2015/12/23 03:16:59.817 US/Eastern"
            }, 
            {
                "action": "approve_to_staging", 
                "review_state": "ready_for_staging", 
                "comments": "", 
                "actor": "srani11", 
                "time": "2015/12/30 07:59:17.273 US/Eastern"
            }, 
            {
                "action": "decline", 
                "review_state": "waiting_for_authoring", 
                "actor": "rsharma20", 
                "comments": "", 
                "time": "2016/01/05 20:10:16.992 US/Eastern"
            }, 
            {
                "action": "approve_to_staging", 
                "review_state": "ready_for_staging", 
                "actor": "rsharma20", 
                "comments": "", 
                "time": "2016/01/05 20:10:23.836 US/Eastern"
            }
        ]
    }, 
    "_classname": "CourseSection", 
    "_content_type_materialtype": "text/plain", 
    "_userdefined_roles": [], 
    "publisher": "MIT OpenCourseWare", 
    "nextPreviousEnabled": false, 
    "language": "", 
    "url_rewrite_patterns": [], 
    "widgets_features": [], 
    "category_features": [], 
    "firstTimeEdit": true, 
    "feature_requirements": [], 
    "list_in_left_nav": false, 
    "short_name_tlp": "", 
    "expirationDate": "None", 
    "_content_type_id": "text/plain", 
    "contributor_list": [
        {}
    ], 
    "is_media_gallery": false, 
    "contributors": [], 
    "_gopip": 5, 
    "_content_type_title": "text/plain", 
    "course_linking": [], 
    "_atrefs": {
        "BelongsTo": [
            "bfe41979b9593362793fd930b36efa01"
        ], 
        "isReferencing": [
            "9894378ce8db90173778fc7a13cad022", 
            "17929c9ec324e987cc81f0233bae0eee", 
            "6484ae5940462fadf99f0d827e877e70", 
            "6b4ef50053da70f0e8654886100e09bb", 
            "fd4292467eebd7160d4a260559201a7c", 
            "6b43151f2ea4f32cac0a7709358919db", 
            "bffb54f0e2e1cf685033820b5512e4e6", 
            "3d81cd65aedbbd557617501fb6a0b493", 
            "7aa6522b6e8e0d13937e54ed6e52710d", 
            "60fd16b3d72fefca72098904f15c0f02", 
            "f914f1dccfe8c98b34b42bcf2aa6e075", 
            "b196b3d2413fa8015d43695883cc671a", 
            "48426d55f5c623f4eacc4fd415a7a577", 
            "4699d63d2fc16b8bd7fc498a382dc972", 
            "b4238780f29b563a34b05363b1ac982c", 
            "f19e1f54f348a68a730889ee63f5b9d6", 
            "5c900cbf5c7bc84e4bc0086224a0a1bd", 
            "cfd25e33da1a2e54749f33591f59a4ba", 
            "369ea1a042d34dea55d07a2b967f59af", 
            "b58d1c03b5e72b4fc2ef553cda5d94b7", 
            "14f8514cd8143524d6237c820201bc0c", 
            "c0baf8c0ea3346ee54ad50f5dc690161", 
            "b2d9964453e89357525c798ec9a77daf", 
            "be9d889d28b57df1a77bbd83f2f4f214", 
            "a38f4a8dd90b153bd08f5ba8ba270970", 
            "1fe1bcbe130292137c7b4820b5a8b3a0", 
            "be018db8352877b71152e364bf12af4b"
        ]
    }, 
    "other_platform_requirements": "", 
    "license": "http://creativecommons.org/licenses/by-nc-sa/3.0/us/", 
    "rights": "This site (c) Massachusetts Institute of Technology 2012.  Content within individual courses is (c) by the individual authors unless otherwise noted. The Massachusetts Institute of Technology is providing this Work (as defined below) under the terms of this Creative Commons public license (\"CCPL\" or \"license\") unless otherwise noted. The Work is protected by copyright and/or other applicable law. Any use of the work other than as authorized under this license is prohibited. By exercising any of the rights to the Work provided here, You (as defined below) accept and agree to be bound by the terms of this license. The Licensor, the Massachusetts Institute of Technology, grants You the rights contained here in consideration of Your acceptance of such terms and conditions.", 
    "hide_Page_title": false, 
    "_defaultpage": "", 
    "tcATmit_subject_tags": [], 
    "features_tracking": [], 
    "ad_champion_text": "", 
    "has_inline_embed": false, 
    "unique_identifier": "https://ocw.mit.edu/courses/mathematics/18-01sc-single-variable-calculus-fall-2010/unit-4-techniques-of-integration", 
    "is_image_gallery": false, 
    "id": "unit-4-techniques-of-integration", 
    "materialtype": "Other", 
    "_type": "CourseSection", 
    "description": "This section includes the unit on techniques of integration, one of the five major units of the course. The unit covers advanced integration techniques, methods for calculating the length of a curved line or the area of a curved surface, and \"polar coordinates\" which are an alternative to the Cartesian coordinates most often used to describe positions in the plane.", 
    "course_identifier": "https://ocw.mit.edu/courses/mathematics/18-01sc-single-variable-calculus-fall-2010", 
    "_content_type_publisher": "text/plain", 
    "tcATmit_instructional_tags": [], 
    "_content_type": "text/html", 
    "creators": [
        "cc_akuma1"
    ], 
    "modification_date": "2016/09/24 07:49:09.256 GMT-4", 
    "always_publish": false, 
    "_content_type_description": "text/plain", 
    "_owner": null, 
    "_permissions": {
        "Change portal events": {
            "acquire": false, 
            "roles": [
                "Editor", 
                "Manager", 
                "MetadataEditor", 
                "Owner"
            ]
        }, 
        "Modify portal content": {
            "acquire": false, 
            "roles": [
                "Manager", 
                "MetadataEditor"
            ]
        }, 
        "Access contents information": {
            "acquire": false, 
            "roles": [
                "Authenticated"
            ]
        }, 
        "List folder contents": {
            "acquire": false, 
            "roles": [
                "Editor", 
                "Manager", 
                "MetadataEditor", 
                "Owner"
            ]
        }, 
        "View": {
            "acquire": false, 
            "roles": [
                "Authenticated"
            ]
        }
    }, 
    "_properties": [
        [
            "title", 
            "4. Techniques of Integration", 
            "string"
        ]
    ], 
    "_id": "unit-4-techniques-of-integration", 
    "courselist_features": [], 
    "_path": "/Plone/courses/mathematics/18-01sc-single-variable-calculus-fall-2010/unit-4-techniques-of-integration"
}