{
    "text": "<p>This is a hidden section, designed to hide the all too common action of hiding episodes so we can publish fixes.</p>", 
    "_content_type_license": "text/plain", 
    "_uid": "14dbb6271572a7ff7d268574d45ef01d", 
    "pg_section": "", 
    "title": "These Are Not The Droids You Are Looking For", 
    "_ac_local_roles": {
        "Jcplayer": [
            "Owner"
        ]
    }, 
    "location": "", 
    "ad_department": "", 
    "_atbrefs": {}, 
    "constrainTypesMode": -1, 
    "technical_location": "https://ocw.mit.edu/high-school/chemistry/chemistry-lab-boot-camp/these-are-not-the-droids-you-are-looking-for", 
    "software_requirements": [
        {
            "software_type_col": "Browser", 
            "minimum_version_col": "40.0", 
            "software_name_col": "Chrome", 
            "maximum_version_col": ""
        }, 
        {
            "software_type_col": "Browser", 
            "minimum_version_col": "8.0", 
            "software_name_col": "Safari", 
            "maximum_version_col": ""
        }, 
        {
            "software_type_col": "Browser", 
            "minimum_version_col": "38.0", 
            "software_name_col": "Mozilla Firefox", 
            "maximum_version_col": ""
        }, 
        {
            "software_type_col": "Browser", 
            "minimum_version_col": "9.0", 
            "software_name_col": "Internet Explorer", 
            "maximum_version_col": ""
        }, 
        {
            "software_type_col": "Browser", 
            "minimum_version_col": "13.1", 
            "software_name_col": "Edge", 
            "maximum_version_col": ""
        }
    ], 
    "_content_type_technical_location": "text/plain", 
    "_content_type_rights": "text/html", 
    "_directly_provided": [
        "Products.CMFEditions.interfaces.IVersioned"
    ], 
    "pg_tlp": "", 
    "parent_uid": "e456abe011e76668aae29bb5d9488281", 
    "_content_type_unique_identifier": "text/plain", 
    "allowDiscussion": false, 
    "_content_type_materialtype": "text/plain", 
    "locallyAllowedTypes": [
        "HFHSection", 
        "OCWImage", 
        "OCWExtFile", 
        "OCWFile", 
        "HFHMediaResource"
    ], 
    "ad_slot_c": "", 
    "_content_type_text": "text/html", 
    "ad_type": "HOUSE", 
    "creation_date": "2012/10/11 16:39:38.357 GMT-4", 
    "aggregationlevel": 3, 
    "immediatelyAddableTypes": [
        "HFHSection", 
        "OCWImage", 
        "OCWExtFile", 
        "OCWFile", 
        "HFHMediaResource"
    ], 
    "subject": [], 
    "effectiveDate": "2012/10/11 16:40:13.573 GMT-4", 
    "parent_module": "da5043f5acaf2d713d1216ce1cf5cc89", 
    "is_mathml_document": false, 
    "bottomtext": "", 
    "short_page_title": "", 
    "excludeFromNav": true, 
    "related_mit_links": "", 
    "_content_type_ad_type": "text/plain", 
    "_layout": "custom_view", 
    "_workflow_history": {
        "page_workflow": [
            {
                "action": null, 
                "review_state": "waiting_for_authoring", 
                "comments": "", 
                "actor": "Jcplayer", 
                "time": "2012/10/11 16:39:38.367 GMT-4"
            }, 
            {
                "action": "approve_to_staging", 
                "review_state": "ready_for_staging", 
                "actor": "Jcplayer", 
                "comments": "", 
                "time": "2012/10/11 16:40:13.596 GMT-4"
            }
        ]
    }, 
    "pg_area": "", 
    "_classname": "HFHSection", 
    "metadata_contributor_list": [], 
    "_userdefined_roles": [], 
    "publisher": "MIT OpenCourseWare", 
    "nextPreviousEnabled": false, 
    "language": "", 
    "url_rewrite_patterns": [], 
    "widgets_features": [], 
    "category_features": [], 
    "firstTimeEdit": true, 
    "feature_requirements": [], 
    "list_in_left_nav": false, 
    "short_name_tlp": "", 
    "expirationDate": "None", 
    "_content_type_id": "text/plain", 
    "ad_slot_b": "", 
    "is_media_gallery": false, 
    "contributors": [], 
    "_gopip": 9, 
    "ad_slot_a": "", 
    "_content_type_title": "text/plain", 
    "course_linking": [], 
    "_atrefs": {
        "BelongsTo": [
            "da5043f5acaf2d713d1216ce1cf5cc89"
        ]
    }, 
    "license": "http://creativecommons.org/licenses/by-nc-sa/3.0/us/", 
    "rights": "This site (c) Massachusetts Institute of Technology 2012.  Content within individual courses is (c) by the individual authors unless otherwise noted. The Massachusetts Institute of Technology is providing this Work (as defined below) under the terms of this Creative Commons public license (\"CCPL\" or \"license\") unless otherwise noted. The Work is protected by copyright and/or other applicable law. Any use of the work other than as authorized under this license is prohibited. By exercising any of the rights to the Work provided here, You (as defined below) accept and agree to be bound by the terms of this license. The Licensor, the Massachusetts Institute of Technology, grants You the rights contained here in consideration of Your acceptance of such terms and conditions.", 
    "hide_Page_title": false, 
    "_defaultpage": "", 
    "tcATmit_subject_tags": [], 
    "features_tracking": [], 
    "ad_champion_text": "", 
    "has_inline_embed": false, 
    "unique_identifier": "https://ocw.mit.edu/high-school/chemistry/chemistry-lab-boot-camp/these-are-not-the-droids-you-are-looking-for", 
    "is_image_gallery": false, 
    "id": "these-are-not-the-droids-you-are-looking-for", 
    "materialtype": "Other", 
    "_type": "HFHSection", 
    "description": "", 
    "_content_type_publisher": "text/plain", 
    "tcATmit_instructional_tags": [], 
    "_content_type": "text/html", 
    "creators": [
        "Jcplayer"
    ], 
    "modification_date": "2016/09/24 01:22:51.894 GMT-4", 
    "always_publish": false, 
    "_owner": null, 
    "_permissions": {
        "Change portal events": {
            "acquire": false, 
            "roles": [
                "Editor", 
                "Manager", 
                "MetadataEditor", 
                "Owner"
            ]
        }, 
        "Modify portal content": {
            "acquire": false, 
            "roles": [
                "Manager", 
                "MetadataEditor"
            ]
        }, 
        "Access contents information": {
            "acquire": false, 
            "roles": [
                "Authenticated"
            ]
        }, 
        "List folder contents": {
            "acquire": false, 
            "roles": [
                "Editor", 
                "Manager", 
                "MetadataEditor", 
                "Owner"
            ]
        }, 
        "View": {
            "acquire": false, 
            "roles": [
                "Authenticated"
            ]
        }
    }, 
    "_properties": [
        [
            "title", 
            "These Are Not The Droids You Are Looking For", 
            "string"
        ]
    ], 
    "_id": "these-are-not-the-droids-you-are-looking-for", 
    "courselist_features": [], 
    "_path": "/Plone/high-school/chemistry/chemistry-lab-boot-camp/these-are-not-the-droids-you-are-looking-for"
}