{
    "rsi_top_html_area": "", 
    "text": "<div class=\"labwarning\"><p class=\"title\"><strong>WARNING NOTICE</strong></p> <p>The experiments described in these materials are potentially hazardous.  Among other things, the experiments should include the following safety measures: a high level of safety training, special facilities and equipment, the use of proper personal protective equipment, and supervision by appropriate individuals. You bear the sole responsibility, liability, and risk for the implementation of such safety procedures and measures. MIT and Dow shall have no responsibility, liability, or risk for the content or implementation of any of the material presented. <a href=\"./resolveuid/93820a56046423e59ec92fa37666f5e9\">Legal Notice</a></p></div> <p>&nbsp;</p>", 
    "_content_type_license": "text/plain", 
    "_uid": "c815f682ddd3b0573b4e7d6d73093018", 
    "pg_section": "", 
    "title": "Bonus Video 1: War Stories", 
    "_ac_local_roles": {
        "shellyu": [
            "Owner"
        ]
    }, 
    "_content_type_about_this_resource_text": "text/html", 
    "template_type": "Tabbed", 
    "location": "", 
    "ad_department": "", 
    "_content_type_course_identifier": "text/plain", 
    "_atbrefs": {}, 
    "constrainTypesMode": 0, 
    "_content_type_section_identifier": "text/plain", 
    "technical_location": "https://ocw.mit.edu/high-school/chemistry/chemistry-lab-boot-camp/bonus-video-1-war-stories", 
    "software_requirements": [
        {
            "software_type_col": "Browser", 
            "minimum_version_col": "6.0", 
            "software_name_col": "Internet Explorer", 
            "maximum_version_col": ""
        }, 
        {
            "software_type_col": "Browser", 
            "minimum_version_col": "3.0", 
            "software_name_col": "Mozilla Firefox", 
            "maximum_version_col": ""
        }, 
        {
            "software_type_col": "Browser", 
            "minimum_version_col": "4.0", 
            "software_name_col": "Safari", 
            "maximum_version_col": ""
        }
    ], 
    "_content_type_technical_location": "text/plain", 
    "start_time": "", 
    "_content_type_rights": "text/html", 
    "_directly_provided": [
        "Products.CMFEditions.interfaces.IVersioned"
    ], 
    "pg_tlp": "", 
    "media_rights": "(CC BY-NC-SA)", 
    "parent_uid": "e456abe011e76668aae29bb5d9488281", 
    "excludeFromNav": false, 
    "about_this_resource_text": "<p>&nbsp;</p> <p>MIT professors, grad students, and undergrads share their laboratory horror stories, and Lina learns from their mistakes.</p><p>You can also view this video on <a href=\"http://techtv.mit.edu/collections/mitocw:2894/videos/21237-bonus-video-1-war-stories-mit-chemlab-boot-camp\">TechTV</a>.</p>", 
    "_content_type_unique_identifier": "text/plain", 
    "end_time": "", 
    "allowDiscussion": false, 
    "_content_type_materialtype": "text/plain", 
    "locallyAllowedTypes": [
        "OCWImage", 
        "OCWFile", 
        "OCWMediaAsset"
    ], 
    "ad_slot_c": "", 
    "_content_type_text": "text/html", 
    "optional_tab_title": "", 
    "ad_type": "HOUSE", 
    "creation_date": "2012/10/16 15:41:01.052 GMT-4", 
    "aggregationlevel": 2, 
    "bottom_html_area": "", 
    "duration": "", 
    "immediatelyAddableTypes": [
        "OCWImage", 
        "OCWFile", 
        "OCWMediaAsset"
    ], 
    "_content_type_template_type": "text/plain", 
    "subject": [], 
    "_content_type_short_page_title": "text/plain", 
    "effectiveDate": "2012/10/16 15:52:21.570 GMT-4", 
    "parent_module": "da5043f5acaf2d713d1216ce1cf5cc89", 
    "is_mathml_document": false, 
    "bottomtext": "", 
    "short_page_title": "Bonus Video 1: War Stories", 
    "section_identifier": "https://ocw.mit.edu/high-school/chemistry/chemistry-lab-boot-camp", 
    "show_captions_outside_player": false, 
    "related_mit_links": "", 
    "_content_type_ad_type": "text/plain", 
    "_layout": "custom_view", 
    "_workflow_history": {
        "page_workflow": [
            {
                "action": null, 
                "review_state": "waiting_for_authoring", 
                "actor": "shellyu", 
                "comments": "", 
                "time": "2012/10/16 15:41:01.066 GMT-4"
            }, 
            {
                "action": "approve_to_staging", 
                "review_state": "ready_for_staging", 
                "comments": "", 
                "actor": "shellyu", 
                "time": "2012/10/16 15:52:21.594 GMT-4"
            }, 
            {
                "action": "decline_to_qa", 
                "review_state": "waiting_for_qa", 
                "actor": "shellyu", 
                "comments": "", 
                "time": "2012/10/18 08:34:51.978 GMT-4"
            }, 
            {
                "action": "approve_to_staging", 
                "review_state": "ready_for_staging", 
                "comments": "", 
                "actor": "shellyu", 
                "time": "2012/10/18 08:46:39.236 GMT-4"
            }, 
            {
                "action": "decline_to_qa", 
                "review_state": "waiting_for_qa", 
                "actor": "shellyu", 
                "comments": "", 
                "time": "2012/10/19 14:14:01.591 GMT-4"
            }, 
            {
                "action": "approve_to_staging", 
                "review_state": "ready_for_staging", 
                "comments": "", 
                "actor": "shellyu", 
                "time": "2012/10/19 14:14:48.490 GMT-4"
            }, 
            {
                "action": "decline_to_qa", 
                "review_state": "waiting_for_qa", 
                "actor": "Jcplayer", 
                "comments": "", 
                "time": "2012/12/21 13:03:50.906 US/Eastern"
            }, 
            {
                "action": "approve_to_staging", 
                "review_state": "ready_for_staging", 
                "comments": "", 
                "actor": "Jcplayer", 
                "time": "2012/12/21 13:04:49.593 US/Eastern"
            }, 
            {
                "action": "decline_to_qa", 
                "review_state": "waiting_for_qa", 
                "actor": "shellyu", 
                "comments": "", 
                "time": "2013/02/05 12:37:23.670 US/Eastern"
            }, 
            {
                "action": "approve_to_staging", 
                "review_state": "ready_for_staging", 
                "comments": "", 
                "actor": "shellyu", 
                "time": "2013/02/05 12:40:47.303 US/Eastern"
            }, 
            {
                "action": "decline", 
                "review_state": "waiting_for_authoring", 
                "actor": "asingh124", 
                "comments": "", 
                "time": "2014/06/16 05:01:43.842 GMT-4"
            }, 
            {
                "action": "approve_to_staging", 
                "review_state": "ready_for_staging", 
                "actor": "asingh124", 
                "comments": "", 
                "time": "2014/06/16 06:00:29.321 GMT-4"
            }
        ]
    }, 
    "pg_area": "", 
    "_content_type_transcript": "text/html", 
    "metadata_contributor_list": [], 
    "_userdefined_roles": [], 
    "_content_type_inline_embed_id": "text/plain", 
    "publisher": "MIT OpenCourseWare", 
    "nextPreviousEnabled": false, 
    "_gopip": 10, 
    "license": "http://creativecommons.org/licenses/by-nc-sa/3.0/us/", 
    "url_rewrite_patterns": [], 
    "widgets_features": [], 
    "category_features": [], 
    "resource_contributor_list": [], 
    "show_jump_back_5_seconds_button": false, 
    "firstTimeEdit": false, 
    "_content_type_media_rights": "text/plain", 
    "feature_requirements": [], 
    "list_in_left_nav": false, 
    "inline_embed_id": "31512711bonusvideo1:warstories16297053", 
    "_classname": "HFHMediaResource", 
    "short_name_tlp": "", 
    "expirationDate": "None", 
    "_content_type_id": "text/plain", 
    "ad_slot_b": "", 
    "contributor_list": [], 
    "is_media_gallery": false, 
    "contributors": [], 
    "media_locations": [], 
    "_content_type_media_resource_type": "text/plain", 
    "ad_slot_a": "", 
    "_content_type_title": "text/plain", 
    "subtitle_exemption": "None", 
    "_content_type": "text/html", 
    "resource_index_text": "", 
    "_atrefs": {
        "BelongsTo": [
            "da5043f5acaf2d713d1216ce1cf5cc89"
        ], 
        "isReferencing": [
            "93820a56046423e59ec92fa37666f5e9"
        ]
    }, 
    "media_slides": [], 
    "other_platform_requirements": "", 
    "language": "", 
    "rights": "This site (c) Massachusetts Institute of Technology 2012.  Content within individual courses is (c) by the individual authors unless otherwise noted. The Massachusetts Institute of Technology is providing this Work (as defined below) under the terms of this Creative Commons public license (\"CCPL\" or \"license\") unless otherwise noted. The Work is protected by copyright and/or other applicable law. Any use of the work other than as authorized under this license is prohibited. By exercising any of the rights to the Work provided here, You (as defined below) accept and agree to be bound by the terms of this license. The Licensor, the Massachusetts Institute of Technology, grants You the rights contained here in consideration of Your acceptance of such terms and conditions.", 
    "hide_Page_title": false, 
    "_defaultpage": "", 
    "related_resources_text": "", 
    "tcATmit_subject_tags": [], 
    "features_tracking": [], 
    "ad_champion_text": "", 
    "has_inline_embed": false, 
    "unique_identifier": "https://ocw.mit.edu/high-school/chemistry/chemistry-lab-boot-camp/bonus-video-1-war-stories", 
    "link_text": "Bonus Video 1: War Stories", 
    "is_image_gallery": false, 
    "id": "bonus-video-1-war-stories", 
    "_content_type_subtitle_exemption": "text/plain", 
    "materialtype": "Other", 
    "optional_text": "", 
    "_type": "HFHMediaResource", 
    "description": "", 
    "media_resource_type": "Video", 
    "course_identifier": "https://ocw.mit.edu/high-school/chemistry", 
    "_content_type_publisher": "text/plain", 
    "tcATmit_instructional_tags": [], 
    "transcript": "<p>HANSOL: She's our TA. TAs know everything.</p> <p>[MUSIC PLAYING]</p> <p>LINA: Something bad happened. My flask tipped over. Something bad always happens whenever I do an experiment. It's either my flask tips over or something explodes. Do you make mistakes too?</p> <p>PHIL: I still make mistakes.</p> <p>LINA: Wait really? What did you do?</p> <p>PHIL: What did I do?</p> <p>LINA: Yeah.</p> <p>PHIL: I've had some pretty bad days.</p> <p>KATHARINA RIBBECK: My worst day in lab...</p> <p>JUSTIN BULLOCK:It's more like a worse like two weeks.</p> <p>GRACE YAO: My worst day in lab had to be the day where I had to smash fish.</p> <p>PHIL: One day in undergrad, I was re-crystallizing something on a hotplate.</p> <p>NICOLE KAVANAUGH: I was doing an RNA purification.</p> <p>GRACE YAO: First of all, I'm a little scared of fish. I had this mortar and pestle.</p> <p>PHIL: I set up this big huge two liter flask on a ring stand and everything connected to a hose</p> <p>GRACE YAO: And I had to put the little fish in and smash it to powder. The fish head just flew off onto the floor</p> <p>PHIL: And before I could fasten it, the hose whipped the flask across the room and it shattered all over.</p> <p>NICOLE KAVANAUGH: And I made some poison gas.</p> <p>JUSTIN BULLOCK: By the end, I pretty much had nothing left and it was just a failure.</p> <p>PHIL: You're going to cry at that point. Your day cannot get any worse than that.</p> <p>ALONA BIRJINIUK: The very first time it's always nerve-wracking. This is your experiment. And if things don't go right-</p> <p>BEN OFORI-OKAI: There are going to be times where you may not feel like your going to be capable. But the truth is that you actually are. You just have to like step back, take a deep breath, remember like who you are like where you came.</p> <p>KATHARINA RIBBECK: You have failures of course. And you're very disappointed and then redo it. But this is local and then you have to move on.</p> <p>LINA: Something bad always happens and I always have to start over. But Tengfei told me that when she was an undergrad she was even worse than I was and look at her now. She's teaching us how to do all these things. It's so encouraging because if she can learn, then I can learn too. And someday I'll be just as good as she is.</p> <p>PHIL: Oh wow, I really should've been wearing safety glasses here.</p>", 
    "_content_type_link_text": "text/plain", 
    "course_linking": [], 
    "_id": "bonus-video-1-war-stories", 
    "modification_date": "2016/09/24 02:47:40.762 GMT-4", 
    "media_index": [], 
    "always_publish": false, 
    "_owner": null, 
    "_permissions": {
        "Change portal events": {
            "acquire": false, 
            "roles": [
                "Editor", 
                "Manager", 
                "MetadataEditor", 
                "Owner"
            ]
        }, 
        "Modify portal content": {
            "acquire": false, 
            "roles": [
                "Manager", 
                "MetadataEditor"
            ]
        }, 
        "Access contents information": {
            "acquire": false, 
            "roles": [
                "Authenticated"
            ]
        }, 
        "List folder contents": {
            "acquire": false, 
            "roles": [
                "Editor", 
                "Manager", 
                "MetadataEditor", 
                "Owner"
            ]
        }, 
        "View": {
            "acquire": false, 
            "roles": [
                "Authenticated"
            ]
        }
    }, 
    "_properties": [
        [
            "title", 
            "Bonus Video 1: War Stories", 
            "string"
        ]
    ], 
    "creators": [
        "shellyu"
    ], 
    "courselist_features": [], 
    "_path": "/Plone/high-school/chemistry/chemistry-lab-boot-camp/bonus-video-1-war-stories"
}