{
    "contributors": [], 
    "text": "", 
    "_content_type_media_location": "text/plain", 
    "_content_type_license": "text/plain", 
    "asset_language": "en-us", 
    "media_location": "kCPVBl953eY", 
    "_uid": "5a85665c9d15c18a779f3c75f39af7b0", 
    "_workflow_history": {
        "one_state_workflow": [
            {
                "action": null, 
                "review_state": "published", 
                "actor": "rsharma20", 
                "comments": "", 
                "time": "2015/12/04 17:37:09.534 US/Eastern"
            }
        ]
    }, 
    "expirationDate": "None", 
    "_content_type_id": "text/plain", 
    "id": "Video-YouTube-Stream", 
    "tableContents": false, 
    "_path": "/Plone/courses/mathematics/18-01sc-single-variable-calculus-fall-2010/1.-differentiation/part-a-definition-and-basic-rules/session-6-calculating-derivatives/clip-1-introduction-to-differentiation/Video-YouTube-Stream", 
    "media_asset_source": "YouTube", 
    "effectiveDate": "None", 
    "title": "Video-YouTube-Stream", 
    "media_asset_type": "Video", 
    "_ac_local_roles": {
        "rsharma20": [
            "Owner"
        ]
    }, 
    "_userdefined_roles": [], 
    "_gopip": 0, 
    "location": "", 
    "_content_type_title": "text/plain", 
    "excludeFromNav": false, 
    "presentation": false, 
    "_type": "OCWMediaAsset", 
    "description": "", 
    "_atrefs": {}, 
    "_layout": "custom_view", 
    "subject": [], 
    "_content_type_rights": "text/html", 
    "_directly_provided": [], 
    "language": "", 
    "_content_type_asset_language": "text/plain", 
    "_classname": "OCWMediaAsset", 
    "_content_type_media_format": "text/plain", 
    "creation_date": "2015/12/04 17:37:09.512 US/Eastern", 
    "parent_uid": "dd1fb36f88e3b735eb27c2034f9ec269", 
    "_content_type_media_asset_type": "text/plain", 
    "modification_date": "2015/12/04 17:37:09.561 US/Eastern", 
    "_content_type": "text/html", 
    "_id": "Video-YouTube-Stream", 
    "file_uid": "", 
    "license": "http://ocw.mit.edu/terms", 
    "rights": "This site (c) Massachusetts Institute of Technology 2015.  Content within individual courses is (c) by the individual authors unless otherwise noted. The Massachusetts Institute of Technology is providing this Work (as defined below) under the terms of this Creative Commons public license (\"CCPL\" or \"license\") unless otherwise noted. The Work is protected by copyright and/or other applicable law. Any use of the work other than as authorized under this license is prohibited. By exercising any of the rights to the Work provided here, You (as defined below) accept and agree to be bound by the terms of this license. The Licensor, the Massachusetts Institute of Technology, grants You the rights contained here in consideration of Your acceptance of such terms and conditions.", 
    "_atbrefs": {}, 
    "media_size": "", 
    "_owner": null, 
    "_defaultpage": "", 
    "_permissions": {
        "Modify portal content": {
            "acquire": false, 
            "roles": [
                "Editor", 
                "Manager", 
                "Owner"
            ]
        }, 
        "Access contents information": {
            "acquire": false, 
            "roles": [
                "Anonymous"
            ]
        }, 
        "View": {
            "acquire": false, 
            "roles": [
                "Anonymous"
            ]
        }
    }, 
    "media_format": "Stream", 
    "_properties": [
        [
            "title", 
            "Video-YouTube-Stream", 
            "string"
        ]
    ], 
    "allowDiscussion": false, 
    "creators": [
        "rsharma20"
    ], 
    "_content_type_media_asset_source": "text/plain"
}