{
    "rsi_top_html_area": "", 
    "text": "", 
    "_content_type_license": "text/plain", 
    "_content_type_duration": "text/plain", 
    "_uid": "986c985f9ac9b235c1baf858cc73e925", 
    "title": "Graphing a Derivative Function", 
    "_ac_local_roles": {
        "rsharma20": [
            "Owner"
        ]
    }, 
    "template_type": "Embed", 
    "location": "", 
    "_content_type_course_identifier": "text/plain", 
    "_atbrefs": {}, 
    "constrainTypesMode": 0, 
    "_content_type_section_identifier": "text/plain", 
    "technical_location": "https://ocw.mit.edu/courses/mathematics/18-01sc-single-variable-calculus-fall-2010/1.-differentiation/part-a-definition-and-basic-rules/session-1-introduction-to-derivatives/graphing-a-derivative-function", 
    "software_requirements": [
        {
            "software_type_col": "Browser", 
            "minimum_version_col": "40.0", 
            "software_name_col": "Chrome", 
            "maximum_version_col": ""
        }, 
        {
            "software_type_col": "Browser", 
            "minimum_version_col": "8.0", 
            "software_name_col": "Safari", 
            "maximum_version_col": ""
        }, 
        {
            "software_type_col": "Browser", 
            "minimum_version_col": "38.0", 
            "software_name_col": "Mozilla Firefox", 
            "maximum_version_col": ""
        }, 
        {
            "software_type_col": "Browser", 
            "minimum_version_col": "9.0", 
            "software_name_col": "Internet Explorer", 
            "maximum_version_col": ""
        }, 
        {
            "software_type_col": "Browser", 
            "minimum_version_col": "13.1", 
            "software_name_col": "Edge", 
            "maximum_version_col": ""
        }
    ], 
    "_content_type_technical_location": "text/plain", 
    "start_time": "", 
    "_content_type_rights": "text/html", 
    "_directly_provided": [
        "Products.CMFEditions.interfaces.IVersioned"
    ], 
    "media_rights": "(CC BY-NC-SA)", 
    "parent_uid": "c25a5592cbb582539daea82e3aeeda33", 
    "excludeFromNav": false, 
    "about_this_resource_text": "", 
    "_content_type_unique_identifier": "text/plain", 
    "end_time": "", 
    "allowDiscussion": false, 
    "_content_type_materialtype": "text/plain", 
    "locallyAllowedTypes": [
        "OCWImage", 
        "OCWFile", 
        "OCWMediaAsset"
    ], 
    "optional_tab_title": "", 
    "ad_type": "HOUSE", 
    "creation_date": "2015/12/04 23:24:22.447 US/Eastern", 
    "aggregationlevel": 2, 
    "bottom_html_area": "", 
    "duration": "00:11:59", 
    "immediatelyAddableTypes": [
        "OCWImage", 
        "OCWFile", 
        "OCWMediaAsset"
    ], 
    "_content_type_template_type": "text/plain", 
    "subject": [], 
    "_content_type_short_page_title": "text/plain", 
    "effectiveDate": "2015/12/05 00:01:39.671 US/Eastern", 
    "parent_module": "bfe41979b9593362793fd930b36efa01", 
    "is_mathml_document": false, 
    "bottomtext": "", 
    "short_page_title": "Graphing a Derivative Function", 
    "section_identifier": "https://ocw.mit.edu/courses/mathematics/18-01sc-single-variable-calculus-fall-2010/1.-differentiation", 
    "show_captions_outside_player": false, 
    "related_mit_links": "", 
    "_content_type_ad_type": "text/plain", 
    "_layout": "custom_view", 
    "_workflow_history": {
        "page_workflow": [
            {
                "action": null, 
                "review_state": "waiting_for_authoring", 
                "comments": "", 
                "actor": "rsharma20", 
                "time": "2015/12/04 23:24:22.461 US/Eastern"
            }, 
            {
                "action": "approve_to_staging", 
                "review_state": "ready_for_staging", 
                "actor": "rsharma20", 
                "comments": "", 
                "time": "2015/12/05 00:01:40.220 US/Eastern"
            }
        ]
    }, 
    "_content_type_transcript": "text/html", 
    "metadata_contributor_list": [], 
    "_userdefined_roles": [], 
    "_content_type_inline_embed_id": "text/plain", 
    "publisher": "MIT OpenCourseWare", 
    "nextPreviousEnabled": false, 
    "_gopip": 16, 
    "license": "http://creativecommons.org/licenses/by-nc-sa/3.0/us/", 
    "url_rewrite_patterns": [], 
    "widgets_features": [], 
    "category_features": [], 
    "resource_contributor_list": [
        {
            "res_contributor_entity": "Jerison, David", 
            "res_contributor_uid": "b28f05bbf3c3b44d28bc8f11fc7834cd", 
            "res_contributor_role": "Performer"
        }
    ], 
    "show_jump_back_5_seconds_button": false, 
    "firstTimeEdit": false, 
    "_content_type_media_rights": "text/plain", 
    "feature_requirements": [], 
    "list_in_left_nav": false, 
    "inline_embed_id": "74572184graphingaderivativefunction51498715", 
    "_classname": "MediaResource", 
    "short_name_tlp": "", 
    "expirationDate": "None", 
    "_content_type_id": "text/plain", 
    "contributor_list": [
        {}
    ], 
    "is_media_gallery": false, 
    "contributors": [], 
    "media_locations": [
        {}
    ], 
    "_content_type_media_resource_type": "text/plain", 
    "_content_type_title": "text/plain", 
    "subtitle_exemption": "None", 
    "_content_type": "text/html", 
    "resource_index_text": "", 
    "_atrefs": {
        "BelongsTo": [
            "bfe41979b9593362793fd930b36efa01"
        ]
    }, 
    "media_slides": [], 
    "other_platform_requirements": "", 
    "language": "", 
    "rights": "This site (c) Massachusetts Institute of Technology 2015.  Content within individual courses is (c) by the individual authors unless otherwise noted. The Massachusetts Institute of Technology is providing this Work (as defined below) under the terms of this Creative Commons public license (\"CCPL\" or \"license\") unless otherwise noted. The Work is protected by copyright and/or other applicable law. Any use of the work other than as authorized under this license is prohibited. By exercising any of the rights to the Work provided here, You (as defined below) accept and agree to be bound by the terms of this license. The Licensor, the Massachusetts Institute of Technology, grants You the rights contained here in consideration of Your acceptance of such terms and conditions.", 
    "hide_Page_title": false, 
    "_defaultpage": "", 
    "related_resources_text": "", 
    "tcATmit_subject_tags": [], 
    "features_tracking": [], 
    "ad_champion_text": "", 
    "has_inline_embed": false, 
    "unique_identifier": "https://ocw.mit.edu/courses/mathematics/18-01sc-single-variable-calculus-fall-2010/1.-differentiation/part-a-definition-and-basic-rules/session-1-introduction-to-derivatives/graphing-a-derivative-function", 
    "link_text": "Graphing a Derivative Function", 
    "is_image_gallery": false, 
    "id": "graphing-a-derivative-function", 
    "_content_type_subtitle_exemption": "text/plain", 
    "materialtype": "Other", 
    "optional_text": "", 
    "_type": "MediaResource", 
    "description": "", 
    "media_resource_type": "Video", 
    "course_identifier": "https://ocw.mit.edu/courses/mathematics/18-01sc-single-variable-calculus-fall-2010", 
    "_content_type_publisher": "text/plain", 
    "tcATmit_instructional_tags": [], 
    "transcript": "<p><span m='0'>PROFESSOR:</span> <span m='6980'>Welcome</span> <span m='7420'>to</span> <span m='7490'>recitation.</span> <span m='8850'>Today</span> <span m='9260'>in</span> <span m='9410'>this</span> <span m='9540'>video</span> <span m='9880'>what</span> <span m='10020'>we're</span> <span m='10130'>going</span> <span m='10320'>to</span> <span m='10420'>do</span> <span m='10660'>is</span> <span m='10900'>look</span> <span m='11110'>at</span> <span m='11320'>how</span> <span m='11880'>we</span> <span m='12060'>can</span> <span m='12240'>determine</span> <span m='12640'>the</span> <span m='12710'>graph</span> <span m='13250'>of</span> <span m='13410'>a</span> <span m='13470'>derivative</span> <span m='14710'>of</span> <span m='14870'>a</span> <span m='14950'>function</span> <span m='15380'>from</span> <span m='15590'>the</span> <span m='15670'>graph</span> <span m='15930'>of</span> <span m='16030'>the</span> <span m='16130'>function</span> <span m='16480'>itself.</span> </p><p><span m='17310'>So</span> <span m='17640'>I've</span> <span m='17830'>given</span> <span m='18350'>a</span> <span m='18460'>function</span> <span m='18930'>here.</span> <span m='19950'>We're</span> <span m='20200'>calling</span> <span m='20560'>it</span> <span m='20880'>just</span> <span m='21120'>y</span> <span m='21430'>equals</span> <span m='21520'>f</span> <span m='21593'>of</span> <span m='21666'>x--</span> <span m='21740'>or</span> <span m='22620'>this</span> <span m='22820'>is</span> <span m='22940'>the</span> <span m='23020'>curve,</span> <span m='23330'>y</span> <span m='23640'>equals</span> <span m='23730'>f</span> <span m='23930'>of</span> <span m='24095'>x.</span> <span m='24260'>So</span> <span m='24470'>we're</span> <span m='24690'>thinking</span> <span m='25210'>about</span> <span m='25500'>a</span> <span m='25540'>function</span> <span m='25920'>f</span> <span m='26100'>of</span> <span m='26210'>x.</span> <span m='26860'>I'm</span> <span m='27030'>not</span> <span m='27310'>giving</span> <span m='27580'>you</span> <span m='27980'>the</span> <span m='28090'>equation</span> <span m='28530'>for</span> <span m='28640'>the</span> <span m='28730'>function.</span> <span m='29280'>I'm</span> <span m='29470'>just</span> <span m='29710'>giving</span> <span m='29930'>you</span> <span m='30050'>the</span> <span m='30150'>graph.</span> <span m='31090'>And</span> <span m='31350'>what</span> <span m='31480'>I'd</span> <span m='31630'>like</span> <span m='31830'>you</span> <span m='31960'>to</span> <span m='32070'>do,</span> <span m='32600'>what</span> <span m='32780'>I'd</span> <span m='32900'>like</span> <span m='33080'>us</span> <span m='33210'>to</span> <span m='33330'>do</span> <span m='33510'>in</span> <span m='33630'>this</span> <span m='33800'>time,</span> <span m='34310'>is</span> <span m='34490'>to</span> <span m='34590'>figure</span> <span m='34910'>out</span> <span m='35110'>what</span> <span m='35570'>the</span> <span m='35950'>curve</span> <span m='36270'>y</span> <span m='36500'>equals</span> <span m='36820'>f</span> <span m='37030'>prime</span> <span m='37290'>of</span> <span m='37390'>x</span> <span m='37760'>will</span> <span m='37840'>look</span> <span m='37920'>like.</span> <span m='38570'>So</span> <span m='38760'>that's</span> <span m='38990'>our</span> <span m='39130'>objective.</span> </p><p><span m='41500'>So</span> <span m='41780'>what</span> <span m='42000'>we'll</span> <span m='42100'>do</span> <span m='42240'>first</span> <span m='42690'>is</span> <span m='42970'>try</span> <span m='43190'>and</span> <span m='43300'>figure out</span> <span m='44160'>the</span> <span m='44560'>things</span> <span m='44940'>that</span> <span m='45050'>we</span> <span m='45190'>know</span> <span m='45500'>about</span> <span m='45780'>f</span> <span m='45950'>prime</span> <span m='46240'>of</span> <span m='46410'>x.</span> <span m='47030'>So</span> <span m='47260'>what</span> <span m='47390'>I</span> <span m='47450'>want</span> <span m='47630'>to</span> <span m='47720'>remind</span> <span m='48230'>you</span> <span m='48530'>is</span> <span m='48810'>that</span> <span m='49400'>when</span> <span m='49600'>you</span> <span m='49710'>think</span> <span m='49960'>about</span> <span m='50850'>a</span> <span m='51010'>function's</span> <span m='51520'>derivative,</span> <span m='52250'>remember</span> <span m='52485'>its</span> <span m='52720'>derivative's</span> <span m='53610'>output</span> <span m='54210'>is</span> <span m='54350'>measuring</span> <span m='54990'>the</span> <span m='55140'>slope</span> <span m='55470'>of</span> <span m='55560'>the</span> <span m='55670'>tangent</span> <span m='56020'>line</span> <span m='56280'>at</span> <span m='56380'>each</span> <span m='56590'>point.</span> <span m='56870'>So</span> <span m='57070'>that's</span> <span m='57300'>what</span> <span m='57440'>we're</span> <span m='57550'>interested</span> <span m='57970'>in</span> <span m='58090'>finding,</span> <span m='58810'>is</span> <span m='59030'>understanding</span> <span m='59620'>the</span> <span m='59710'>slope</span> <span m='60050'>of</span> <span m='60105'>the</span> <span m='60160'>tangent</span> <span m='60520'>line</span> <span m='61310'>of</span> <span m='61520'>this</span> <span m='61760'>curve</span> <span m='62830'>at</span> <span m='63060'>each</span> <span m='63640'>x-value.</span> </p><p><span m='64970'>So</span> <span m='65580'>it's</span> <span m='65760'>always</span> <span m='66160'>easiest</span> <span m='66690'>when</span> <span m='66790'>you're</span> <span m='66890'>thinking</span> <span m='67180'>about</span> <span m='67390'>a</span> <span m='67440'>derivative</span> <span m='68010'>to</span> <span m='68130'>find</span> <span m='68430'>the</span> <span m='68490'>places</span> <span m='68900'>where</span> <span m='69160'>the</span> <span m='69310'>slope</span> <span m='69480'>of</span> <span m='69570'>the</span> <span m='69660'>tangent</span> <span m='70000'>line</span> <span m='70240'>is</span> <span m='70350'>0.</span> <span m='71210'>Because</span> <span m='71460'>those</span> <span m='71730'>are</span> <span m='71820'>the</span> <span m='71940'>only</span> <span m='72180'>places</span> <span m='72570'>where</span> <span m='72720'>you</span> <span m='72830'>can</span> <span m='73190'>hope</span> <span m='73540'>to</span> <span m='73660'>change</span> <span m='74320'>the</span> <span m='74440'>sign</span> <span m='74730'>on</span> <span m='74830'>the</span> <span m='74920'>derivative.</span> <span m='75990'>So</span> <span m='76180'>what</span> <span m='76330'>we'd</span> <span m='76480'>like</span> <span m='76670'>to</span> <span m='76790'>do</span> <span m='77040'>is</span> <span m='77240'>first</span> <span m='77520'>identify,</span> <span m='78060'>on</span> <span m='78250'>this</span> <span m='78440'>curve,</span> <span m='79130'>where</span> <span m='79350'>the</span> <span m='79490'>tangent</span> <span m='79860'>line</span> <span m='80510'>has</span> <span m='80720'>slope</span> <span m='80910'>equal</span> <span m='81080'>to</span> <span m='81250'>0.</span> <span m='82260'>And</span> <span m='82430'>I</span> <span m='82510'>think</span> <span m='82760'>there</span> <span m='82860'>are</span> <span m='82950'>two</span> <span m='83170'>places</span> <span m='83570'>we</span> <span m='83680'>can</span> <span m='83820'>find</span> <span m='84110'>it</span> <span m='84210'>fairly</span> <span m='84560'>easily.</span> <span m='85390'>That</span> <span m='85570'>would</span> <span m='85690'>be</span> <span m='86000'>at</span> <span m='86190'>whatever</span> <span m='86520'>this</span> <span m='86780'>x</span> <span m='87040'>value</span> <span m='87600'>is,</span> <span m='88290'>that</span> <span m='88490'>slope</span> <span m='88870'>there</span> <span m='89160'>is</span> <span m='89280'>0.</span> <span m='89580'>It's</span> <span m='89880'>going</span> <span m='90080'>to</span> <span m='90140'>be</span> <span m='90640'>a</span> <span m='90840'>horizontal</span> <span m='91450'>tangent</span> <span m='91900'>line.</span> <span m='92640'>And</span> <span m='92870'>then</span> <span m='93050'>whatever</span> <span m='93510'>this</span> <span m='93660'>x</span> <span m='93930'>value</span> <span m='94270'>is.</span> <span m='94700'>The</span> <span m='94890'>slope</span> <span m='95130'>there</span> <span m='95370'>is</span> <span m='95470'>also</span> <span m='95860'>0.</span> <span m='96410'>Horizontal</span> <span m='96880'>tangent</span> <span m='97365'>line.</span> </p><p><span m='97850'>But</span> <span m='98070'>there's</span> <span m='98230'>a</span> <span m='98480'>third</span> <span m='98800'>place</span> <span m='99120'>where</span> <span m='99240'>the</span> <span m='99350'>slope</span> <span m='99550'>of</span> <span m='99630'>the</span> <span m='99730'>tangent</span> <span m='100070'>line</span> <span m='100320'>is</span> <span m='100440'>0,</span> <span m='100595'>and</span> <span m='100750'>that's</span> <span m='100960'>kind</span> <span m='101180'>of</span> <span m='101500'>hidden</span> <span m='101920'>right</span> <span m='102170'>in</span> <span m='102270'>here.</span> <span m='103510'>And</span> <span m='103640'>actually,</span> <span m='104360'>I've</span> <span m='104600'>drawn</span> <span m='104860'>in--</span> <span m='104960'>maybe</span> <span m='105460'>you</span> <span m='105650'>think</span> <span m='105890'>there</span> <span m='106030'>are</span> <span m='106150'>a</span> <span m='106200'>few</span> <span m='106370'>more--</span> <span m='106650'>but</span> <span m='107310'>we're</span> <span m='107900'>going</span> <span m='108190'>to</span> <span m='108290'>assume</span> <span m='108600'>that</span> <span m='108740'>this</span> <span m='109150'>function</span> <span m='109530'>is</span> <span m='109650'>always</span> <span m='109900'>continuing</span> <span m='110430'>down</span> <span m='110930'>through</span> <span m='111170'>this</span> <span m='111370'>region.</span> <span m='112050'>So</span> <span m='112270'>there</span> <span m='112430'>are</span> <span m='112510'>three</span> <span m='112850'>places</span> <span m='113930'>where</span> <span m='114680'>the</span> <span m='114800'>tangent</span> <span m='115120'>line</span> <span m='115310'>is</span> <span m='115410'>horizontal.</span> <span m='116590'>So</span> <span m='116740'>I</span> <span m='116780'>can</span> <span m='117010'>even</span> <span m='117300'>sort</span> <span m='117490'>of</span> <span m='117590'>draw</span> <span m='117860'>them</span> <span m='118950'>lightly</span> <span m='119360'>through</span> <span m='119630'>here.</span> <span m='121640'>You</span> <span m='121755'>have</span> <span m='121870'>three</span> <span m='122160'>horizontal</span> <span m='122640'>tangent</span> <span m='122845'>lines.</span> </p><p><span m='123050'>So</span> <span m='123200'>at</span> <span m='123420'>those</span> <span m='123650'>points,</span> <span m='123970'>we</span> <span m='124070'>know</span> <span m='124200'>that</span> <span m='124470'>the</span> <span m='124570'>derivative's</span> <span m='125130'>value</span> <span m='126060'>is</span> <span m='126230'>equal</span> <span m='126460'>to</span> <span m='126550'>0,</span> <span m='126890'>the</span> <span m='127040'>output</span> <span m='127450'>is</span> <span m='127560'>equal</span> <span m='127800'>to</span> <span m='127900'>0.</span> <span m='128860'>And</span> <span m='129070'>now</span> <span m='129510'>what</span> <span m='129780'>we</span> <span m='129880'>can</span> <span m='130060'>determine</span> <span m='130610'>is,</span> <span m='131490'>between</span> <span m='131920'>those</span> <span m='132150'>regions,</span> <span m='132630'>where</span> <span m='133070'>are</span> <span m='133125'>the</span> <span m='133180'>values</span> <span m='133570'>of</span> <span m='133660'>the</span> <span m='133750'>derivative</span> <span m='134120'>positive</span> <span m='135320'>and</span> <span m='135590'>negative?</span> </p><p><span m='136560'>So</span> <span m='136760'>what</span> <span m='136910'>I'm</span> <span m='137000'>going</span> <span m='137180'>to</span> <span m='137270'>do</span> <span m='137860'>is</span> <span m='138050'>below</span> <span m='138450'>here,</span> <span m='138730'>I'm</span> <span m='138840'>just</span> <span m='139010'>going</span> <span m='139160'>to</span> <span m='139230'>make</span> <span m='139430'>a</span> <span m='139520'>line</span> <span m='139850'>and</span> <span m='139950'>we're</span> <span m='140050'>going</span> <span m='140260'>to</span> <span m='140720'>sort</span> <span m='140980'>of</span> <span m='141060'>keep</span> <span m='141340'>track</span> <span m='141930'>of</span> <span m='142050'>what</span> <span m='142210'>the</span> <span m='142300'>signs</span> <span m='142730'>of</span> <span m='142830'>the</span> <span m='142920'>derivative</span> <span m='143360'>are.</span> <span m='144000'>So</span> <span m='144850'>let</span> <span m='145000'>me</span> <span m='145120'>just</span> <span m='145360'>draw.</span> <span m='146770'>This</span> <span m='146960'>would</span> <span m='147090'>be</span> <span m='147230'>sort</span> <span m='147480'>of</span> <span m='148960'>our</span> <span m='149210'>sign</span> <span m='151570'>on</span> <span m='152940'>f</span> <span m='153220'>prime.</span> <span m='154910'>OK.</span> <span m='155190'>So</span> <span m='155360'>that's</span> <span m='155570'>going</span> <span m='155760'>to</span> <span m='155850'>tell</span> <span m='156030'>us</span> <span m='156140'>what</span> <span m='156280'>our</span> <span m='156380'>signs</span> <span m='156770'>are.</span> <span m='157210'>So</span> <span m='157460'>right</span> <span m='157730'>below,</span> <span m='158120'>we'll</span> <span m='158270'>keep</span> <span m='158500'>track.</span> </p><p><span m='161100'>So here, this, I'll</span> <span m='161310'>just</span> <span m='161550'>come</span> <span m='161730'>straight</span> <span m='162050'>down.</span> <span m='162980'>Here</span> <span m='163210'>we</span> <span m='163320'>know</span> <span m='163450'>the</span> <span m='163570'>sign</span> <span m='163790'>of</span> <span m='163915'>f</span> <span m='164040'>prime</span> <span m='164250'>is</span> <span m='164340'>equal</span> <span m='164485'>to</span> <span m='164630'>0. OK?</span> <span m='166100'>We</span> <span m='166270'>know</span> <span m='166410'>it's</span> <span m='166530'>equal</span> <span m='166760'>to</span> <span m='166840'>0</span> <span m='167180'>there.</span> <span m='168480'>We</span> <span m='168620'>know</span> <span m='168750'>it's</span> <span m='168860'>also</span> <span m='169120'>equal</span> <span m='169210'>to</span> <span m='169440'>0</span> <span m='169760'>here,</span> <span m='171120'>and</span> <span m='171250'>we</span> <span m='171340'>know</span> <span m='171460'>it's</span> <span m='171550'>also</span> <span m='171820'>equal</span> <span m='172030'>to</span> <span m='172215'>0</span> <span m='172400'>here. OK?</span> </p><p><span m='174510'>And now</span> <span m='174655'>the</span> <span m='174800'>question</span> <span m='175250'>is,</span> <span m='176030'>what</span> <span m='176410'>is</span> <span m='176540'>the</span> <span m='176650'>sign</span> <span m='177060'>of</span> <span m='177190'>f</span> <span m='177380'>prime</span> <span m='177680'>in</span> <span m='177840'>this</span> <span m='178030'>region?</span> <span m='178890'>So</span> <span m='179110'>to</span> <span m='179270'>the</span> <span m='179350'>left</span> <span m='179680'>of</span> <span m='179770'>whatever</span> <span m='180050'>that</span> <span m='180470'>x</span> <span m='180620'>value</span> <span m='180740'>is.</span> <span m='180950'>What</span> <span m='181130'>is</span> <span m='181250'>the</span> <span m='181340'>sign</span> <span m='181550'>of</span> <span m='181650'>f</span> <span m='181780'>prime</span> <span m='182060'>in</span> <span m='182220'>this</span> <span m='182400'>region,</span> <span m='183170'>in</span> <span m='183420'>this</span> <span m='183590'>region,</span> <span m='183990'>and</span> <span m='184150'>then</span> <span m='184300'>to</span> <span m='184410'>the</span> <span m='184510'>right?</span> <span m='185190'>So there are</span> <span m='185580'>really--</span> <span m='185850'>we</span> <span m='185990'>can</span> <span m='186140'>divide</span> <span m='186600'>up</span> <span m='186770'>the</span> <span m='186935'>x-values</span> <span m='187650'>as</span> <span m='187870'>left</span> <span m='188210'>of</span> <span m='188420'>whatever</span> <span m='188760'>that</span> <span m='189170'>x-value</span> <span m='189470'>is,</span> <span m='190180'>in</span> <span m='190460'>between</span> <span m='190820'>these</span> <span m='191060'>two</span> <span m='191460'>values,</span> <span m='192330'>in</span> <span m='192480'>between</span> <span m='192780'>these</span> <span m='192970'>two</span> <span m='193270'>values,</span> <span m='193750'>and</span> <span m='193865'>to</span> <span m='193980'>the</span> <span m='194070'>right</span> <span m='194310'>of</span> <span m='194400'>this</span> <span m='194800'>x-value.</span> <span m='195210'>That's</span> <span m='195900'>really, really</span> <span m='196200'>what</span> <span m='196330'>we</span> <span m='196430'>need</span> <span m='196600'>to</span> <span m='196680'>do</span> <span m='196850'>to</span> <span m='196950'>determine</span> <span m='197300'>what</span> <span m='197440'>the</span> <span m='197540'>signs</span> <span m='198510'>of</span> <span m='198870'>f</span> <span m='199190'>prime</span> <span m='199470'>are.</span> </p><p><span m='200080'>So</span> <span m='200500'>again,</span> <span m='201010'>what</span> <span m='201210'>we</span> <span m='201310'>want</span> <span m='201510'>to</span> <span m='201620'>do</span> <span m='201750'>to</span> <span m='201820'>understand</span> <span m='202350'>f</span> <span m='202470'>prime</span> <span m='202760'>is</span> <span m='202870'>we</span> <span m='202980'>look</span> <span m='203130'>at</span> <span m='203210'>the</span> <span m='203290'>slope</span> <span m='203600'>of</span> <span m='203710'>the</span> <span m='203810'>tangent</span> <span m='204200'>line</span> <span m='204490'>of</span> <span m='204590'>the</span> <span m='204670'>curve</span> <span m='204920'>y</span> <span m='205160'>equals</span> <span m='205430'>f</span> <span m='205545'>of</span> <span m='205660'>x.</span> <span m='206670'>So</span> <span m='206840'>let's</span> <span m='207080'>pick</span> <span m='207300'>a</span> <span m='207360'>place</span> <span m='208420'>in</span> <span m='208650'>this</span> <span m='208860'>region</span> <span m='209440'>left</span> <span m='209870'>of</span> <span m='210000'>where</span> <span m='210230'>it's</span> <span m='210370'>0,</span> <span m='212030'>say</span> <span m='212260'>right</span> <span m='212470'>here,</span> <span m='213060'>and</span> <span m='213160'>let's</span> <span m='213320'>look</span> <span m='213385'>at</span> <span m='213450'>the</span> <span m='213610'>tangent</span> <span m='213910'>line.</span> <span m='214500'>The</span> <span m='214590'>tangent</span> <span m='214950'>line</span> <span m='218200'>has</span> <span m='218410'>what</span> <span m='218590'>kind</span> <span m='218760'>of</span> <span m='218830'>slope?</span> <span m='219060'>Well,</span> <span m='219340'>it</span> <span m='219420'>has</span> <span m='219570'>a</span> <span m='219630'>positive</span> <span m='220120'>slope.</span> <span m='220870'>And</span> <span m='221000'>in</span> <span m='221090'>fact,</span> <span m='221410'>if</span> <span m='221510'>you</span> <span m='221650'>look</span> <span m='221910'>along</span> <span m='222170'>here,</span> <span m='222360'>you</span> <span m='222490'>see</span> <span m='222680'>all</span> <span m='223010'>of</span> <span m='223120'>the</span> <span m='223230'>slopes</span> <span m='223560'>are</span> <span m='223660'>positive.</span> <span m='225100'>So</span> <span m='225340'>f</span> <span m='225590'>prime</span> <span m='226010'>is</span> <span m='226150'>bigger</span> <span m='226440'>than</span> <span m='226650'>0</span> <span m='227010'>here.</span> <span m='229630'>And</span> <span m='229840'>now</span> <span m='230000'>I'm</span> <span m='230120'>just</span> <span m='230300'>going</span> <span m='230460'>to</span> <span m='230540'>record</span> <span m='230850'>that.</span> <span m='231090'>I'm</span> <span m='231116'>going</span> <span m='231143'>to</span> <span m='231170'>keep</span> <span m='231380'>that</span> <span m='231470'>in</span> <span m='231560'>mind</span> <span m='232070'>as</span> <span m='232250'>a</span> <span m='232330'>plus.</span> <span m='232750'>The</span> <span m='232870'>sign</span> <span m='233085'>is</span> <span m='233300'>positive</span> <span m='233830'>there.</span> </p><p><span m='235010'>Now,</span> <span m='235660'>if</span> <span m='235860'>I</span> <span m='235980'>look</span> <span m='236740'>right</span> <span m='237230'>of</span> <span m='237320'>where</span> <span m='237640'>f</span> <span m='237920'>prime</span> <span m='238130'>equals</span> <span m='238310'>0,</span> <span m='239550'>if</span> <span m='239710'>I</span> <span m='239820'>look</span> <span m='240050'>for</span> <span m='240570'>x-values</span> <span m='240720'>to</span> <span m='240810'>the</span> <span m='240900'>right,</span> <span m='241190'>I</span> <span m='241280'>see</span> <span m='241500'>that</span> <span m='241670'>as</span> <span m='241800'>I</span> <span m='241890'>move</span> <span m='242210'>to</span> <span m='242290'>the</span> <span m='242390'>right,</span> <span m='242660'>the</span> <span m='242740'>tangent</span> <span m='243110'>line</span> <span m='243445'>is</span> <span m='243910'>curving</span> <span m='244260'>down.</span> <span m='244570'>So</span> <span m='244700'>let</span> <span m='244800'>me</span> <span m='244900'>do</span> <span m='245020'>it</span> <span m='245090'>with</span> <span m='245250'>the</span> <span m='245320'>chalk.</span> <span m='245660'>You</span> <span m='245780'>see</span> <span m='245900'>the</span> <span m='246000'>tangent</span> <span m='246280'>line looks,</span> <span m='247150'>has</span> <span m='247340'>a slope</span> <span m='247850'>negative</span> <span m='248300'>slope.</span> <span m='249100'>If</span> <span m='249260'>I</span> <span m='249340'>draw</span> <span m='249570'>one</span> <span m='251150'>point</span> <span m='251470'>in,</span> <span m='251600'>it</span> <span m='251720'>looks</span> <span m='252480'>something</span> <span m='252830'>like</span> <span m='253010'>that.</span> <span m='254020'>So</span> <span m='254170'>the</span> <span m='254270'>slope</span> <span m='254560'>is</span> <span m='254630'>negative</span> <span m='255110'>there.</span> <span m='255650'>So</span> <span m='255880'>here</span> <span m='256130'>I</span> <span m='256200'>can</span> <span m='256380'>record</span> <span m='256710'>that.</span> <span m='256940'>The</span> <span m='257050'>sign</span> <span m='257490'>of</span> <span m='257600'>f</span> <span m='257790'>prime</span> <span m='258720'>is</span> <span m='258860'>a</span> <span m='258930'>minus</span> <span m='259330'>sign</span> <span m='259580'>there.</span> </p><p><span m='261400'>Now,</span> <span m='261610'>if</span> <span m='261700'>I</span> <span m='261780'>look</span> <span m='261950'>between</span> <span m='262300'>these</span> <span m='262530'>two</span> <span m='262880'>x-values,</span> <span m='263320'>which</span> <span m='263540'>I'm</span> <span m='263780'>saying</span> <span m='264020'>here</span> <span m='264240'>it's</span> <span m='264320'>0</span> <span m='264630'>and</span> <span m='264720'>here</span> <span m='264815'>it's</span> <span m='264910'>0</span> <span m='265220'>for</span> <span m='265340'>the</span> <span m='265450'>x</span> <span m='265617'>values,</span> <span m='266810'>and</span> <span m='266960'>I</span> <span m='267030'>take</span> <span m='267360'>a</span> <span m='267800'>take</span> <span m='268020'>a</span> <span m='268080'>point,</span> <span m='269600'>we</span> <span m='269780'>notice</span> <span m='270100'>the</span> <span m='270200'>sign</span> <span m='270530'>is</span> <span m='270650'>negative</span> <span m='271080'>there,</span> <span m='271340'>also.</span> <span m='271900'>So</span> <span m='272120'>in</span> <span m='272210'>fact,</span> <span m='273350'>the</span> <span m='273570'>sign</span> <span m='273830'>of</span> <span m='273920'>f</span> <span m='273970'>prime</span> <span m='274290'>changed</span> <span m='275290'>at</span> <span m='275510'>this</span> <span m='275700'>zero</span> <span m='276100'>of</span> <span m='276210'>f</span> <span m='276320'>prime,</span> <span m='276800'>but</span> <span m='277030'>it</span> <span m='277150'>stays</span> <span m='277510'>the</span> <span m='277640'>same</span> <span m='279380'>around</span> <span m='279890'>this</span> <span m='280100'>zero</span> <span m='280460'>of</span> <span m='280580'>f</span> <span m='280700'>prime.</span> <span m='280970'>So</span> <span m='281100'>it's</span> <span m='281210'>negative</span> <span m='281680'>and</span> <span m='281770'>then</span> <span m='281985'>it</span> <span m='282200'>goes</span> <span m='282415'>to</span> <span m='282630'>negative</span> <span m='283110'>again.</span> <span m='283400'>It's</span> <span m='283590'>negative,</span> <span m='283970'>then</span> <span m='284140'>0,</span> <span m='284460'>then</span> <span m='284630'>negative.</span> </p><p><span m='285620'>And</span> <span m='285890'>then</span> <span m='286000'>if</span> <span m='286110'>I</span> <span m='286180'>look</span> <span m='286450'>to</span> <span m='286550'>the</span> <span m='286640'>right</span> <span m='286930'>of</span> <span m='287030'>this</span> <span m='287180'>x-value</span> <span m='287890'>and</span> <span m='288340'>I</span> <span m='288470'>take</span> <span m='288680'>a</span> <span m='288740'>point,</span> <span m='290390'>I</span> <span m='290590'>see</span> <span m='291060'>that</span> <span m='291460'>the</span> <span m='291680'>slope</span> <span m='292080'>of</span> <span m='292220'>the</span> <span m='292300'>tangent</span> <span m='292550'>line</span> <span m='292790'>is</span> <span m='292900'>positive.</span> <span m='293860'>And</span> <span m='294010'>so</span> <span m='294110'>the</span> <span m='294220'>sign</span> <span m='294510'>there</span> <span m='294670'>is</span> <span m='294830'>positive.</span> </p><p><span m='297870'>So</span> <span m='298050'>we</span> <span m='298150'>have</span> <span m='299230'>the</span> <span m='299340'>derivative</span> <span m='299860'>is</span> <span m='299990'>positive,</span> <span m='301040'>and</span> <span m='301330'>then</span> <span m='301550'>0,</span> <span m='302090'>and</span> <span m='302220'>then</span> <span m='302370'>negative,</span> <span m='303250'>and</span> <span m='303370'>then</span> <span m='303520'>0,</span> <span m='303890'>and</span> <span m='304010'>then</span> <span m='304140'>negative,</span> <span m='304570'>and</span> <span m='304670'>then</span> <span m='304810'>0,</span> <span m='305070'>and</span> <span m='305150'>then</span> <span m='305230'>positive.</span> <span m='306070'>So</span> <span m='306240'>there's</span> <span m='306360'>a</span> <span m='306420'>lot</span> <span m='306620'>going</span> <span m='306900'>on.</span> <span m='307640'>But I, </span> <span m='308190'>if</span> <span m='308430'>I</span> <span m='308510'>want</span> <span m='308720'>to</span> <span m='308810'>plot,</span> <span m='309240'>now,</span> <span m='309580'>y</span> <span m='309990'>equals</span> <span m='310090'>f</span> <span m='310270'>prime</span> <span m='310500'>of</span> <span m='310610'>x,</span> <span m='310900'>I</span> <span m='311000'>have</span> <span m='311320'>some</span> <span m='312000'>sort</span> <span m='312220'>of</span> <span m='312300'>launching</span> <span m='312750'>point</span> <span m='313060'>by</span> <span m='313230'>which</span> <span m='313490'>to</span> <span m='313610'>do</span> <span m='313740'>that.</span> </p><p><span m='314600'>So</span> <span m='314760'>what</span> <span m='314890'>I</span> <span m='314950'>can</span> <span m='315130'>do</span> <span m='315370'>is,</span> <span m='315550'>I</span> <span m='315640'>know</span> <span m='315900'>that</span> <span m='316110'>the</span> <span m='316200'>derivative</span> <span m='316710'>0--</span> <span m='317060'>I'm</span> <span m='317160'>going</span> <span m='317255'>to</span> <span m='317350'>draw</span> <span m='317660'>the</span> <span m='317740'>derivative</span> <span m='318760'>in</span> <span m='318930'>blue,</span> <span m='319360'>here--</span> <span m='319730'>the</span> <span m='319830'>derivative</span> <span m='320140'>is</span> <span m='320250'>0,</span> <span m='320615'>its</span> <span m='320980'>output</span> <span m='321380'>is</span> <span m='321490'>0</span> <span m='321840'>at</span> <span m='322010'>these</span> <span m='322230'>places.</span> <span m='323380'>So</span> <span m='323520'>I'm</span> <span m='323600'>going</span> <span m='323830'>to</span> <span m='324060'>put</span> <span m='324220'>those</span> <span m='324450'>points</span> <span m='324730'>on.</span> <span m='326810'>And</span> <span m='327000'>then</span> <span m='327110'>if</span> <span m='327230'>I</span> <span m='327310'>were</span> <span m='327450'>just</span> <span m='327690'>trying</span> <span m='327890'>to</span> <span m='327960'>get</span> <span m='328130'>a</span> <span m='328180'>rough</span> <span m='328540'>idea</span> <span m='328930'>of</span> <span m='329035'>what</span> <span m='329140'>happens,</span> <span m='329670'>the</span> <span m='329770'>derivative</span> <span m='330190'>is</span> <span m='330320'>positive</span> <span m='331260'>left</span> <span m='331660'>of</span> <span m='331760'>this</span> <span m='331890'>x</span> <span m='332140'>value.</span> <span m='332910'>So</span> <span m='333130'>it's</span> <span m='333240'>certainly</span> <span m='333560'>coming</span> <span m='333920'>down.</span> <span m='335376'>It's</span> <span m='335830'>coming</span> <span m='336230'>down. Oops,</span> <span m='337330'>let</span> <span m='337510'>me</span> <span m='337690'>make</span> <span m='337870'>these</span> <span m='337955'>a</span> <span m='338040'>little</span> <span m='338340'>darker.</span> <span m='341130'>It's</span> <span m='341210'>coming</span> <span m='341520'>down</span> <span m='342290'>because</span> <span m='342560'>it's</span> <span m='342670'>positive.</span> <span m='343190'>It's</span> <span m='343290'>coming</span> <span m='343520'>down</span> <span m='343760'>to</span> <span m='343870'>0--</span> <span m='344220'>it</span> <span m='344340'>has</span> <span m='344460'>to</span> <span m='344560'>stay</span> <span m='344740'>above</span> <span m='345145'>the</span> <span m='345550'>x-axis,</span> <span m='346610'>but</span> <span m='346840'>it</span> <span m='346900'>has</span> <span m='347120'>to</span> <span m='347400'>head</span> <span m='347710'>towards</span> <span m='347950'>0. Right?</span> </p><p><span m='349700'>What</span> <span m='349960'>does</span> <span m='350100'>that</span> <span m='350260'>actually</span> <span m='350540'>correspond</span> <span m='351120'>to?</span> <span m='351260'>Well,</span> <span m='351450'>look</span> <span m='351640'>at</span> <span m='351710'>what</span> <span m='351840'>the</span> <span m='351940'>slopes</span> <span m='352270'>are</span> <span m='352340'>doing.</span> <span m='353000'>The</span> <span m='353150'>slopes</span> <span m='354130'>of</span> <span m='354330'>these</span> <span m='354530'>tangent</span> <span m='354665'>lines,</span> <span m='355070'>as</span> <span m='355170'>I</span> <span m='355340'>move</span> <span m='355580'>in</span> <span m='355820'>the</span> <span m='355930'>x-direction,</span> <span m='356670'>the</span> <span m='356760'>slope--</span> <span m='357760'>let</span> <span m='357855'>me</span> <span m='357950'>just</span> <span m='358250'>keep</span> <span m='358470'>my</span> <span m='358650'>hand,</span> <span m='359090'>watch</span> <span m='359310'>what</span> <span m='359450'>my</span> <span m='359560'>hand</span> <span m='359700'>is</span> <span m='359840'>doing--</span> <span m='360040'>the</span> <span m='360120'>slope</span> <span m='361080'>is</span> <span m='361310'>always</span> <span m='361630'>positive,</span> <span m='362130'>but</span> <span m='362250'>it's</span> <span m='362380'>becoming</span> <span m='363340'>less</span> <span m='363770'>and</span> <span m='363990'>less</span> <span m='364280'>vertical,</span> <span m='364760'>right?</span> <span m='364960'>It's</span> <span m='365100'>headed</span> <span m='365450'>towards</span> <span m='365660'>horizontal.</span> </p><p><span m='366710'>So</span> <span m='366890'>the</span> <span m='367030'>slope</span> <span m='367470'>that</span> <span m='367610'>was</span> <span m='368000'>steeper</span> <span m='368750'>over</span> <span m='369060'>here</span> <span m='369470'>is</span> <span m='369630'>becoming</span> <span m='370020'>less</span> <span m='370330'>steep.</span> <span m='371610'>The</span> <span m='371860'>steepness</span> <span m='372420'>is</span> <span m='372540'>really</span> <span m='372800'>the</span> <span m='373030'>magnitude</span> <span m='374340'>of</span> <span m='374510'>the</span> <span m='374630'>derivative.</span> <span m='375120'>That's</span> <span m='375370'>really</span> <span m='375600'>measuring</span> <span m='376010'>how</span> <span m='376150'>far it is,</span> <span m='376800'>the</span> <span m='376940'>output</span> <span m='377320'>is,</span> <span m='377490'>from</span> <span m='377660'>0.</span> <span m='378370'>So</span> <span m='378600'>as</span> <span m='378720'>the</span> <span m='378840'>derivative</span> <span m='379250'>becomes</span> <span m='379550'>less</span> <span m='379830'>steep,</span> <span m='380610'>the</span> <span m='380720'>derivative's</span> <span m='381100'>values</span> <span m='381500'>have</span> <span m='381640'>to</span> <span m='381740'>be</span> <span m='381870'>headed</span> <span m='382150'>closer</span> <span m='382520'>to</span> <span m='382660'>0.</span> </p><p><span m='383780'>Now,</span> <span m='383940'>what</span> <span m='384180'>happens</span> <span m='384930'>when</span> <span m='385100'>the</span> <span m='385170'>derivative</span> <span m='385780'>is</span> <span m='385900'>equal</span> <span m='385990'>to</span> <span m='386200'>0</span> <span m='386450'>here?</span> <span m='386660'>Well,</span> <span m='386790'>all</span> <span m='386880'>of</span> <span m='386950'>a</span> <span m='387020'>sudden</span> <span m='387230'>the</span> <span m='387390'>slopes</span> <span m='387600'>are</span> <span m='387690'>becoming</span> <span m='388070'>negative.</span> <span m='388940'>So</span> <span m='389160'>the</span> <span m='389320'>outputs</span> <span m='389760'>of</span> <span m='389850'>the</span> <span m='389940'>derivative</span> <span m='390260'>are</span> <span m='390460'>negative.</span> <span m='391735'>It's</span> <span m='392160'>going</span> <span m='392420'>down.</span> </p><p><span m='394150'>But</span> <span m='394380'>then</span> <span m='394560'>once</span> <span m='394800'>it</span> <span m='394890'>hits</span> <span m='395200'>here,</span> <span m='395400'>again,</span> <span m='396160'>notice</span> <span m='396560'>what</span> <span m='396700'>happens.</span> <span m='397140'>The</span> <span m='397240'>derivative</span> <span m='397640'>is</span> <span m='397740'>0</span> <span m='398060'>again,</span> <span m='398330'>and</span> <span m='398480'>notice</span> <span m='398740'>how</span> <span m='398880'>I</span> <span m='398950'>get</span> <span m='399210'>there.</span> <span m='399780'>The</span> <span m='399900'>derivative's</span> <span m='400440'>negative,</span> <span m='401260'>and</span> <span m='401440'>then it starts to--</span> <span m='402270'>the</span> <span m='402390'>slopes</span> <span m='403440'>of</span> <span m='403620'>these</span> <span m='403930'>tangent</span> <span m='404320'>lines</span> <span m='404590'>start</span> <span m='404880'>to</span> <span m='404990'>get</span> <span m='405220'>shallower. Right?</span> <span m='407350'>They</span> <span m='407470'>were</span> <span m='407610'>steep</span> <span m='408380'>and</span> <span m='408590'>then</span> <span m='408730'>somewhere</span> <span m='409060'>they</span> <span m='409180'>start</span> <span m='409410'>to</span> <span m='409480'>get</span> <span m='409600'>shallower.</span> </p><p><span m='410020'>So</span> <span m='410160'>there's</span> <span m='410360'>someplace</span> <span m='411550'>sort</span> <span m='411810'>of</span> <span m='411930'>in</span> <span m='412040'>the</span> <span m='412130'>x-values</span> <span m='412690'>between</span> <span m='413070'>here</span> <span m='413270'>and</span> <span m='413370'>here</span> <span m='414220'>where</span> <span m='414410'>the</span> <span m='414500'>derivative</span> <span m='414910'>is</span> <span m='414980'>as</span> <span m='415100'>steep</span> <span m='415500'>as</span> <span m='415585'>it</span> <span m='415670'>gets</span> <span m='416210'>in</span> <span m='416370'>this</span> <span m='416520'>region,</span> <span m='417040'>and</span> <span m='417170'>then</span> <span m='417370'>gets</span> <span m='417460'>less</span> <span m='417710'>steep.</span> <span m='418750'>The</span> <span m='418870'>steepest</span> <span m='419510'>point</span> <span m='419950'>is</span> <span m='420110'>that</span> <span m='420330'>point</span> <span m='420660'>where</span> <span m='420800'>you</span> <span m='420930'>have</span> <span m='421120'>the</span> <span m='421220'>biggest</span> <span m='421590'>magnitude</span> <span m='422800'>in</span> <span m='422960'>that</span> <span m='423140'>region</span> <span m='423460'>for</span> <span m='423630'>f</span> <span m='423810'>prime.</span> <span m='424020'>So</span> <span m='424140'>that's</span> <span m='424340'>where</span> <span m='424440'>it's</span> <span m='424540'>going</span> <span m='424740'>to</span> <span m='424820'>be</span> <span m='424920'>furthest</span> <span m='425390'>from</span> <span m='425620'>0.</span> <span m='426650'>So</span> <span m='427440'>if</span> <span m='427650'>I'm</span> <span m='427810'>guessing,</span> <span m='428280'>it</span> <span m='428370'>looks</span> <span m='428570'>like</span> <span m='428780'>right</span> <span m='429020'>around</span> <span m='429390'>here</span> <span m='431020'>the</span> <span m='431140'>tangent</span> <span m='431490'>line</span> <span m='431720'>is</span> <span m='431850'>as</span> <span m='431960'>steep</span> <span m='432340'>as</span> <span m='432430'>it</span> <span m='432520'>ever</span> <span m='432720'>gets</span> <span m='433040'>in</span> <span m='433150'>that</span> <span m='433400'>region,</span> <span m='433840'>between</span> <span m='434250'>these</span> <span m='434450'>two</span> <span m='434640'>zeros,</span> <span m='435480'>and</span> <span m='435620'>then</span> <span m='435710'>it</span> <span m='435780'>gets</span> <span m='435950'>less</span> <span m='436180'>steep.</span> <span m='436980'>So</span> <span m='437430'>I'd</span> <span m='437670'>say,</span> <span m='437920'>right</span> <span m='438320'>around</span> <span m='438710'>there</span> <span m='438990'>we</span> <span m='439110'>should</span> <span m='439290'>say,</span> <span m='440030'>OK,</span> <span m='440290'>that's</span> <span m='440500'>as</span> <span m='440610'>low</span> <span m='440820'>as</span> <span m='440910'>it</span> <span m='441000'>goes</span> <span m='441330'>and</span> <span m='441440'>now</span> <span m='441600'>it's</span> <span m='441690'>going</span> <span m='441790'>to</span> <span m='441890'>come</span> <span m='442080'>back</span> <span m='442360'>up. OK?</span> </p><p><span m='444390'>So</span> <span m='444910'>hopefully</span> <span m='445330'>that</span> <span m='445470'>makes</span> <span m='445650'>sense.</span> <span m='445850'>We'll</span> <span m='445950'>get</span> <span m='446090'>to</span> <span m='446200'>see</span> <span m='446340'>it</span> <span m='446430'>again,</span> <span m='446680'>here.</span> </p><p><span m='447640'>Between</span> <span m='448060'>these</span> <span m='448330'>two</span> <span m='448520'>zeros</span> <span m='449010'>the</span> <span m='449120'>same</span> <span m='449390'>kind</span> <span m='449690'>of</span> <span m='449780'>thing</span> <span m='449990'>happens.</span> <span m='450430'>But</span> <span m='450610'>notice--</span> <span m='451350'>this is, we</span> <span m='451460'>have</span> <span m='451570'>to</span> <span m='451660'>be</span> <span m='451760'>careful--</span> <span m='452800'>we</span> <span m='453000'>shouldn't</span> <span m='453350'>go</span> <span m='453480'>through</span> <span m='453870'>0</span> <span m='454300'>here</span> <span m='455130'>because</span> <span m='455410'>the</span> <span m='455490'>derivative's</span> <span m='455970'>output,</span> <span m='456500'>the</span> <span m='456610'>sign</span> <span m='456920'>is</span> <span m='457040'>negative. Right?</span> <span m='459180'>Notice, so</span> <span m='459290'>the</span> <span m='459380'>tangent</span> <span m='459760'>line,</span> <span m='460230'>it</span> <span m='460400'>was</span> <span m='460550'>negative,</span> <span m='460970'>negative,</span> <span m='461320'>negative,</span> <span m='461640'>0,</span> <span m='462140'>oh,</span> <span m='462390'>it's</span> <span m='462510'>still</span> <span m='462630'>negative.</span> <span m='463380'>So</span> <span m='463630'>the</span> <span m='463820'>outputs</span> <span m='464330'>are</span> <span m='464430'>still</span> <span m='464730'>negative,</span> <span m='466260'>and</span> <span m='466470'>they're</span> <span m='466560'>going</span> <span m='466750'>to</span> <span m='466810'>be</span> <span m='466890'>negative</span> <span m='467330'>all</span> <span m='467490'>the</span> <span m='467590'>way</span> <span m='467830'>to</span> <span m='468030'>this</span> <span m='468200'>zero.</span> </p><p><span m='469870'>And</span> <span m='470090'>what</span> <span m='470230'>we</span> <span m='470360'>need</span> <span m='470540'>to</span> <span m='470670'>see</span> <span m='470810'>again</span> <span m='471180'>is</span> <span m='471320'>the</span> <span m='471400'>same</span> <span m='471620'>kind</span> <span m='471860'>of</span> <span m='471920'>thing</span> <span m='473530'>happens as happened</span> <span m='473980'>in</span> <span m='474280'>this</span> <span m='474460'>region</span> <span m='475040'>will</span> <span m='475230'>happen</span> <span m='475610'>in</span> <span m='475850'>this</span> <span m='476040'>region.</span> <span m='477240'>The</span> <span m='477350'>point</span> <span m='477640'>being</span> <span m='477930'>that,</span> <span m='478090'>again,</span> <span m='478370'>we're</span> <span m='478510'>0</span> <span m='478810'>here.</span> <span m='479450'>We're</span> <span m='479850'>0</span> <span m='480230'>here.</span> <span m='480920'>So</span> <span m='481120'>somewhere</span> <span m='481470'>in</span> <span m='481550'>the</span> <span m='481630'>middle,</span> <span m='482720'>we</span> <span m='482860'>start</span> <span m='483070'>at</span> <span m='483280'>0,</span> <span m='483650'>the</span> <span m='483840'>tangent</span> <span m='484130'>lines</span> <span m='484320'>start</span> <span m='484560'>to</span> <span m='484650'>get</span> <span m='484790'>steeper,</span> <span m='485560'>then</span> <span m='485730'>at</span> <span m='485840'>some</span> <span m='486030'>point</span> <span m='486260'>they</span> <span m='486360'>stop</span> <span m='486750'>getting</span> <span m='486970'>steeper,</span> <span m='487510'>they</span> <span m='487630'>start</span> <span m='487900'>getting</span> <span m='488080'>shallower.</span> <span m='489090'>That</span> <span m='489330'>place</span> <span m='490160'>looks</span> <span m='490530'>maybe</span> <span m='490860'>right</span> <span m='491080'>around</span> <span m='491350'>here.</span> <span m='492370'>That's</span> <span m='492630'>the</span> <span m='492730'>sort</span> <span m='492940'>of</span> <span m='493030'>steepest</span> <span m='493510'>tangent</span> <span m='493890'>line,</span> <span m='494770'>then</span> <span m='494930'>it</span> <span m='494990'>gets</span> <span m='495150'>less</span> <span m='495480'>steep.</span> </p><p><span m='496180'>So</span> <span m='496410'>that's</span> <span m='496710'>the</span> <span m='496820'>place</span> <span m='497200'>where</span> <span m='497350'>the</span> <span m='497440'>derivative's</span> <span m='498230'>magnitude</span> <span m='499480'>is</span> <span m='499630'>going</span> <span m='499830'>to</span> <span m='499910'>be</span> <span m='500000'>the</span> <span m='500110'>biggest</span> <span m='501000'>in</span> <span m='501200'>this</span> <span m='501380'>region.</span> <span m='502810'>And</span> <span m='502980'>actually,</span> <span m='503350'>I've</span> <span m='503440'>sort</span> <span m='503660'>of</span> <span m='503760'>drawn</span> <span m='504030'>it,</span> <span m='504120'>they</span> <span m='504210'>look</span> <span m='504400'>like</span> <span m='504560'>they're</span> <span m='504710'>about</span> <span m='505000'>the</span> <span m='505100'>same</span> <span m='505370'>steepness</span> <span m='505910'>at</span> <span m='506010'>those</span> <span m='506260'>two</span> <span m='506370'>places,</span> <span m='506880'>so</span> <span m='507040'>I</span> <span m='507130'>should</span> <span m='507350'>probably</span> <span m='507870'>put</span> <span m='508710'>the</span> <span m='508865'>outputs</span> <span m='509250'>about</span> <span m='509580'>the</span> <span m='509660'>same</span> <span m='510450'>down</span> <span m='510680'>here.</span> <span m='510870'>Their</span> <span m='511000'>magnitudes</span> <span m='511520'>are</span> <span m='511620'>about</span> <span m='511860'>the</span> <span m='511970'>same.</span> <span m='513150'>So</span> <span m='513330'>this</span> <span m='513490'>has</span> <span m='513670'>to</span> <span m='513770'>bounce</span> <span m='514130'>off,</span> <span m='516040'>come</span> <span m='516410'>up</span> <span m='516530'>here.</span> <span m='516760'>I</span> <span m='516830'>made</span> <span m='517030'>that</span> <span m='517160'>a</span> <span m='517230'>little</span> <span m='517440'>sharper</span> <span m='517840'>than</span> <span m='518000'>I</span> <span m='518090'>meant</span> <span m='518330'>to. OK?</span> </p><p><span m='520720'>So</span> <span m='520920'>that's</span> <span m='521170'>the</span> <span m='521250'>place.</span> <span m='521710'>That's</span> <span m='522510'>the</span> <span m='522610'>output</span> <span m='522940'>here--</span> <span m='524160'>or</span> <span m='524390'>the</span> <span m='524480'>tangent</span> <span m='524820'>line,</span> <span m='525030'>sorry.</span> <span m='525100'>The</span> <span m='525220'>tangent</span> <span m='525268'>line</span> <span m='525316'>at</span> <span m='525364'>this</span> <span m='525412'>x</span> <span m='525460'>value</span> <span m='526310'>is</span> <span m='527010'>the</span> <span m='527300'>steepest</span> <span m='527690'>that</span> <span m='527800'>we</span> <span m='527890'>get</span> <span m='528120'>in</span> <span m='528230'>this</span> <span m='528390'>region,</span> <span m='528790'>so</span> <span m='529650'>the</span> <span m='529850'>output</span> <span m='531340'>at</span> <span m='531490'>that</span> <span m='531840'>x-value</span> <span m='532210'>is</span> <span m='532390'>the</span> <span m='532490'>lowest</span> <span m='532920'>we</span> <span m='533020'>get.</span> <span m='533830'>And</span> <span m='534040'>then,</span> <span m='534430'>when</span> <span m='534620'>we're</span> <span m='534740'>to</span> <span m='534870'>the</span> <span m='534970'>right</span> <span m='535370'>of</span> <span m='535510'>this</span> <span m='535740'>zero</span> <span m='536160'>for</span> <span m='536340'>the</span> <span m='536470'>derivative,</span> <span m='537380'>we</span> <span m='537680'>start</span> <span m='538060'>seeing</span> <span m='538340'>the</span> <span m='538440'>tangent</span> <span m='538800'>lines</span> <span m='539030'>positive--</span> <span m='539610'>we</span> <span m='539870'>pointed</span> <span m='540330'>that</span> <span m='540430'>out</span> <span m='540530'>already--</span> <span m='540970'>and</span> <span m='541140'>it</span> <span m='541210'>gets</span> <span m='541430'>more</span> <span m='541680'>positive.</span> <span m='542750'>So</span> <span m='543020'>it</span> <span m='543140'>starts</span> <span m='543310'>at</span> <span m='543480'>0,</span> <span m='543675'>it</span> <span m='543870'>starts</span> <span m='544020'>to</span> <span m='544170'>get</span> <span m='544320'>positive,</span> <span m='544580'>and</span> <span m='544633'>then</span> <span m='544686'>it</span> <span m='544740'>gets</span> <span m='544870'>more</span> <span m='545050'>positive.</span> <span m='546220'>It's</span> <span m='546500'>going</span> <span m='546630'>to</span> <span m='546760'>do</span> <span m='546900'>something</span> <span m='549220'>like</span> <span m='549430'>that,</span> <span m='549710'>roughly.</span> </p><p><span m='550730'>So</span> <span m='550930'>let</span> <span m='551090'>me</span> <span m='551220'>fill</span> <span m='551470'>in</span> <span m='551610'>the</span> <span m='551690'>dotted</span> <span m='552030'>lines</span> <span m='552350'>so</span> <span m='552470'>we</span> <span m='552550'>can</span> <span m='552700'>see</span> <span m='552940'>it</span> <span m='553080'>clearly.</span> <span m='563020'>Well,</span> <span m='563260'>this</span> <span m='563430'>is</span> <span m='563540'>not</span> <span m='564350'>exact,</span> <span m='565110'>but</span> <span m='565250'>this</span> <span m='565430'>is</span> <span m='565570'>a</span> <span m='565630'>fairly</span> <span m='566070'>good</span> <span m='567210'>drawing,</span> <span m='567860'>I</span> <span m='568030'>think</span> <span m='568320'>we</span> <span m='568430'>can</span> <span m='568605'>say,</span> <span m='569130'>of</span> <span m='569340'>f</span> <span m='569443'>prime</span> <span m='569546'>of</span> <span m='569650'>x.</span> <span m='570260'>y</span> <span m='570480'>equals</span> <span m='570640'>f</span> <span m='570780'>prime</span> <span m='570915'>of</span> <span m='571050'>x.</span> </p><p><span m='572740'>And</span> <span m='572920'>now</span> <span m='573050'>I'm</span> <span m='573130'>going</span> <span m='573330'>to</span> <span m='573390'>ask</span> <span m='573600'>you</span> <span m='573670'>a</span> <span m='573720'>question.</span> <span m='574670'>I'm</span> <span m='574890'>going</span> <span m='575100'>to</span> <span m='575210'>write</span> <span m='575530'>it</span> <span m='575620'>on</span> <span m='575770'>the</span> <span m='575850'>board,</span> <span m='576900'>and</span> <span m='577100'>then</span> <span m='577240'>I'm</span> <span m='577340'>going</span> <span m='577450'>to</span> <span m='577560'>give</span> <span m='577720'>you</span> <span m='577830'>a</span> <span m='577870'>moment</span> <span m='578180'>to</span> <span m='578270'>think</span> <span m='578480'>about</span> <span m='578750'>it.</span> <span m='578860'>So</span> <span m='579030'>let</span> <span m='579160'>me</span> <span m='579270'>write</span> <span m='579520'>the</span> <span m='579600'>question.</span> </p><p><span m='583590'>It's,</span> <span m='593510'>find</span> <span m='593660'>a</span> <span m='593810'>function y equals-- or sorry-- find a function</span> <span m='594250'>g</span> <span m='594360'>of</span> <span m='594470'>x</span> <span m='597880'>so</span> <span m='598220'>that</span> <span m='600460'>y</span> <span m='600990'>equals</span> <span m='601380'>g</span> <span m='601600'>prime</span> <span m='601970'>of</span> <span m='602080'>x</span> <span m='605760'>looks</span> <span m='606200'>like</span> <span m='608290'>y</span> <span m='608600'>equals</span> <span m='608900'>f</span> <span m='609090'>prime</span> <span m='609240'>of</span> <span m='609390'>x.</span> <span m='611610'>OK, let</span> <span m='611810'>me</span> <span m='611930'>be</span> <span m='612100'>clear</span> <span m='612460'>about</span> <span m='612750'>that,</span> <span m='613050'>and</span> <span m='613200'>then</span> <span m='613350'>I'll</span> <span m='613440'>give</span> <span m='613610'>you</span> <span m='613700'>a</span> <span m='613730'>moment</span> <span m='614040'>to</span> <span m='614130'>think</span> <span m='614330'>about</span> <span m='614600'>it.</span> <span m='615010'>So</span> <span m='615240'>I</span> <span m='615270'>want</span> <span m='615430'>you</span> <span m='615510'>to</span> <span m='615600'>find</span> <span m='615910'>a</span> <span m='615950'>function</span> <span m='616380'>g</span> <span m='616525'>of</span> <span m='616670'>x</span> <span m='617740'>so</span> <span m='617950'>that</span> <span m='618120'>its</span> <span m='618360'>derivative's</span> <span m='619090'>graph,</span> <span m='619760'>y</span> <span m='620130'>equals</span> <span m='620240'>g</span> <span m='620420'>prime</span> <span m='620583'>of</span> <span m='620746'>x,</span> <span m='620910'>looks</span> <span m='621110'>exactly</span> <span m='621620'>like</span> <span m='621830'>the</span> <span m='621920'>graph</span> <span m='622350'>we've</span> <span m='622540'>drawn</span> <span m='622830'>in</span> <span m='622940'>blue</span> <span m='623150'>here,</span> <span m='623500'>y</span> <span m='623850'>equals</span> <span m='623940'>f</span> <span m='624110'>prime</span> <span m='624380'>of</span> <span m='624450'>x.</span> <span m='625230'>Now,</span> <span m='625790'>I</span> <span m='625970'>don't</span> <span m='626140'>want</span> <span m='626300'>you</span> <span m='626400'>to</span> <span m='626490'>find</span> <span m='626790'>something</span> <span m='627060'>in</span> <span m='627150'>terms</span> <span m='627470'>of</span> <span m='627750'>x</span> <span m='628040'>squareds</span> <span m='628710'>and</span> <span m='628800'>x</span> <span m='629100'>cubes.</span> <span m='629460'>I</span> <span m='629555'>don't</span> <span m='629650'>want</span> <span m='629780'>you</span> <span m='629870'>to</span> <span m='629940'>find</span> <span m='630200'>an</span> <span m='630280'>actual</span> <span m='632470'>g</span> <span m='632600'>of</span> <span m='632670'>x</span> <span m='633030'>equals</span> <span m='634130'>something</span> <span m='634620'>in</span> <span m='634720'>terms</span> <span m='635020'>of</span> <span m='635100'>x.</span> <span m='635390'>I</span> <span m='635450'>want</span> <span m='635630'>you</span> <span m='635740'>to</span> <span m='635840'>just</span> <span m='636120'>try</span> <span m='636340'>and</span> <span m='636480'>find</span> <span m='637390'>a</span> <span m='637510'>relationship</span> <span m='638260'>that</span> <span m='638370'>it</span> <span m='638450'>must</span> <span m='638810'>have</span> <span m='639490'>with</span> <span m='639810'>f.</span> <span m='640770'>So</span> <span m='640940'>I'm</span> <span m='641050'>going</span> <span m='641150'>to</span> <span m='641250'>give</span> <span m='641370'>me</span> <span m='641460'>a</span> <span m='641490'>moment</span> <span m='641770'>to</span> <span m='641840'>think</span> <span m='642020'>about</span> <span m='642270'>it</span> <span m='643090'>and</span> <span m='643310'>work</span> <span m='643520'>out</span> <span m='643660'>your</span> <span m='643790'>answer,</span> <span m='644110'>and</span> <span m='644280'>I'll</span> <span m='644390'>be</span> <span m='644500'>back</span> <span m='644730'>to</span> <span m='644820'>tell</span> <span m='645010'>you.</span> </p><p><span m='653980'>OK.</span> <span m='654280'>Welcome</span> <span m='654580'>back.</span> </p><p><span m='655170'>So</span> <span m='655380'>what</span> <span m='655510'>we're</span> <span m='655630'>looking</span> <span m='655940'>for</span> <span m='656420'>is</span> <span m='656620'>a</span> <span m='656720'>function</span> <span m='657160'>g</span> <span m='657235'>of</span> <span m='657310'>x</span> <span m='657560'>so</span> <span m='657700'>that</span> <span m='657850'>its</span> <span m='658070'>derivative,</span> <span m='659040'>when</span> <span m='659250'>I</span> <span m='659310'>graph</span> <span m='659442'>it,</span> <span m='659840'>y</span> <span m='660100'>equals</span> <span m='660240'>g</span> <span m='660360'>prime</span> <span m='660660'>of</span> <span m='660840'>x,</span> <span m='661020'>I</span> <span m='661130'>get</span> <span m='661270'>exactly</span> <span m='661680'>the</span> <span m='661790'>same</span> <span m='662020'>curve</span> <span m='662330'>as</span> <span m='662440'>the</span> <span m='662520'>blue</span> <span m='662710'>one.</span> <span m='663500'>The</span> <span m='663590'>blue</span> <span m='663770'>one.</span> <span m='664970'>And</span> <span m='665490'>the</span> <span m='665570'>point</span> <span m='665900'>is</span> <span m='666070'>that</span> <span m='666280'>if</span> <span m='666420'>you</span> <span m='666550'>thought</span> <span m='666780'>about</span> <span m='666990'>it</span> <span m='667090'>for</span> <span m='667190'>a</span> <span m='667260'>little</span> <span m='667480'>bit,</span> <span m='668130'>what</span> <span m='668410'>you</span> <span m='668540'>really</span> <span m='668840'>need</span> <span m='669220'>is</span> <span m='670030'>a</span> <span m='670200'>function</span> <span m='670690'>that</span> <span m='670940'>looks</span> <span m='671510'>exactly</span> <span m='672270'>like</span> <span m='672990'>this</span> <span m='673210'>function,</span> <span m='673670'>y</span> <span m='673980'>equals</span> <span m='674110'>f</span> <span m='674200'>of</span> <span m='674290'>x,</span> <span m='675200'>at</span> <span m='675490'>all</span> <span m='675690'>the</span> <span m='675860'>x-values</span> <span m='676980'>in</span> <span m='677190'>terms</span> <span m='677510'>of</span> <span m='677600'>its</span> <span m='677730'>slopes,</span> <span m='678930'>but</span> <span m='679200'>those</span> <span m='679440'>slopes</span> <span m='679820'>can</span> <span m='679980'>happen</span> <span m='681230'>shifted</span> <span m='681740'>up</span> <span m='681910'>or</span> <span m='681990'>down</span> <span m='682430'>anywhere.</span> <span m='683190'>So</span> <span m='683370'>the</span> <span m='683480'>point</span> <span m='683880'>is</span> <span m='684150'>that</span> <span m='684280'>if</span> <span m='684390'>I</span> <span m='684490'>take</span> <span m='684760'>the</span> <span m='684840'>function</span> <span m='685240'>y</span> <span m='685520'>equals</span> <span m='685650'>f</span> <span m='685830'>of</span> <span m='685920'>x</span> <span m='686780'>and</span> <span m='686990'>I</span> <span m='687180'>add</span> <span m='687300'>a</span> <span m='687340'>constant</span> <span m='687860'>to</span> <span m='688010'>it,</span> <span m='688240'>which</span> <span m='688540'>shifts</span> <span m='688920'>the</span> <span m='689000'>whole</span> <span m='689250'>graph</span> <span m='689670'>up</span> <span m='690170'>or</span> <span m='690530'>down,</span> <span m='691650'>the</span> <span m='691790'>tangent</span> <span m='692240'>lines</span> <span m='692500'>are</span> <span m='692600'>unaffected</span> <span m='693200'>by</span> <span m='693360'>that</span> <span m='693570'>shift.</span> <span m='694570'>And</span> <span m='694730'>so</span> <span m='694850'>I</span> <span m='694920'>get</span> <span m='695100'>exactly</span> <span m='695650'>the</span> <span m='695760'>same</span> <span m='696020'>picture</span> <span m='696400'>when</span> <span m='696550'>I</span> <span m='696610'>take</span> <span m='696830'>the</span> <span m='697030'>derivative</span> <span m='697560'>of</span> <span m='697700'>that</span> <span m='698630'>graph.</span> <span m='699070'>When</span> <span m='699230'>I</span> <span m='699270'>look</span> <span m='699470'>at</span> <span m='699590'>that</span> <span m='699950'>the</span> <span m='700100'>tangent</span> <span m='700430'>line</span> <span m='700650'>slopes</span> <span m='700960'>of</span> <span m='701060'>that</span> <span m='701270'>graph.</span> </p><p><span m='703070'>So</span> <span m='703740'>you</span> <span m='703960'>could</span> <span m='704130'>draw</span> <span m='704420'>another</span> <span m='704680'>picture</span> <span m='705010'>and</span> <span m='705140'>check</span> <span m='705350'>it</span> <span m='705450'>for</span> <span m='705570'>yourself</span> <span m='706120'>if</span> <span m='706240'>you</span> <span m='706350'>didn't</span> <span m='706620'>feel</span> <span m='706780'>convinced,</span> <span m='708790'>shift</span> <span m='709180'>this, shift this</span> <span m='709400'>curve</span> <span m='709790'>up,</span> <span m='710850'>and</span> <span m='711030'>then</span> <span m='711180'>look</span> <span m='711390'>at</span> <span m='711480'>what</span> <span m='711660'>the</span> <span m='711760'>tangent</span> <span m='712130'>lines</span> <span m='712470'>do</span> <span m='712570'>on</span> <span m='712730'>that</span> <span m='712920'>curve.</span> <span m='713400'>But</span> <span m='713530'>then</span> <span m='713670'>you'll</span> <span m='713800'>see</span> <span m='714020'>its</span> <span m='714210'>derivative's</span> <span m='714850'>outputs</span> <span m='715590'>are</span> <span m='715720'>exactly</span> <span m='716190'>the</span> <span m='716290'>same.</span> </p><p><span m='717350'>So</span> <span m='717520'>we'll</span> <span m='717670'>stop</span> <span m='717960'>there.</span> </p>", 
    "_content_type_link_text": "text/plain", 
    "course_linking": [], 
    "_id": "graphing-a-derivative-function", 
    "modification_date": "2016/09/25 01:20:11.513 GMT-4", 
    "media_index": [], 
    "always_publish": false, 
    "_owner": null, 
    "_permissions": {
        "Change portal events": {
            "acquire": false, 
            "roles": [
                "Editor", 
                "Manager", 
                "MetadataEditor", 
                "Owner"
            ]
        }, 
        "Modify portal content": {
            "acquire": false, 
            "roles": [
                "Manager", 
                "MetadataEditor"
            ]
        }, 
        "Access contents information": {
            "acquire": false, 
            "roles": [
                "Authenticated"
            ]
        }, 
        "List folder contents": {
            "acquire": false, 
            "roles": [
                "Editor", 
                "Manager", 
                "MetadataEditor", 
                "Owner"
            ]
        }, 
        "View": {
            "acquire": false, 
            "roles": [
                "Authenticated"
            ]
        }
    }, 
    "_properties": [
        [
            "title", 
            "Graphing a Derivative Function", 
            "string"
        ]
    ], 
    "creators": [
        "rsharma20"
    ], 
    "courselist_features": [], 
    "_path": "/Plone/courses/mathematics/18-01sc-single-variable-calculus-fall-2010/1.-differentiation/part-a-definition-and-basic-rules/session-1-introduction-to-derivatives/graphing-a-derivative-function"
}