{
    "rsi_top_html_area": "", 
    "text": "", 
    "_content_type_license": "text/plain", 
    "_uid": "9bc374107d33316c87af5ab5380719de", 
    "title": "Hyperbolic Trig Functions", 
    "_ac_local_roles": {
        "pgandhi3": [
            "Owner"
        ]
    }, 
    "template_type": "Embed", 
    "location": "", 
    "_content_type_course_identifier": "text/plain", 
    "_atbrefs": {}, 
    "constrainTypesMode": 0, 
    "_content_type_section_identifier": "text/plain", 
    "technical_location": "https://ocw.mit.edu/courses/mathematics/18-01sc-single-variable-calculus-fall-2010/1.-differentiation/part-b-implicit-differentiation-and-inverse-functions/session-20-hyperbolic-trig-functions/hyperbolic-trig-functions", 
    "software_requirements": [
        {
            "software_type_col": "Browser", 
            "minimum_version_col": "40.0", 
            "software_name_col": "Chrome", 
            "maximum_version_col": ""
        }, 
        {
            "software_type_col": "Browser", 
            "minimum_version_col": "8.0", 
            "software_name_col": "Safari", 
            "maximum_version_col": ""
        }, 
        {
            "software_type_col": "Browser", 
            "minimum_version_col": "38.0", 
            "software_name_col": "Mozilla Firefox", 
            "maximum_version_col": ""
        }, 
        {
            "software_type_col": "Browser", 
            "minimum_version_col": "9.0", 
            "software_name_col": "Internet Explorer", 
            "maximum_version_col": ""
        }, 
        {
            "software_type_col": "Browser", 
            "minimum_version_col": "13.1", 
            "software_name_col": "Edge", 
            "maximum_version_col": ""
        }
    ], 
    "_content_type_technical_location": "text/plain", 
    "start_time": "", 
    "_content_type_rights": "text/html", 
    "_directly_provided": [
        "Products.CMFEditions.interfaces.IVersioned"
    ], 
    "media_rights": "(CC BY-NC-SA)", 
    "parent_uid": "da268fb0fd08ed16c1b1988ed700633a", 
    "excludeFromNav": false, 
    "about_this_resource_text": "", 
    "_content_type_unique_identifier": "text/plain", 
    "end_time": "", 
    "allowDiscussion": false, 
    "_content_type_materialtype": "text/plain", 
    "locallyAllowedTypes": [
        "OCWImage", 
        "OCWFile", 
        "OCWMediaAsset"
    ], 
    "optional_tab_title": "", 
    "ad_type": "HOUSE", 
    "creation_date": "2015/12/07 05:57:45.626 US/Eastern", 
    "aggregationlevel": 2, 
    "bottom_html_area": "", 
    "duration": "", 
    "immediatelyAddableTypes": [
        "OCWImage", 
        "OCWFile", 
        "OCWMediaAsset"
    ], 
    "_content_type_template_type": "text/plain", 
    "subject": [], 
    "_content_type_short_page_title": "text/plain", 
    "effectiveDate": "2015/12/22 05:25:40.414 US/Eastern", 
    "parent_module": "bfe41979b9593362793fd930b36efa01", 
    "is_mathml_document": false, 
    "bottomtext": "", 
    "short_page_title": "Hyperbolic Trig Functions", 
    "section_identifier": "https://ocw.mit.edu/courses/mathematics/18-01sc-single-variable-calculus-fall-2010/1.-differentiation", 
    "show_captions_outside_player": false, 
    "related_mit_links": "", 
    "_content_type_ad_type": "text/plain", 
    "_layout": "custom_view", 
    "_workflow_history": {
        "page_workflow": [
            {
                "action": null, 
                "review_state": "waiting_for_authoring", 
                "comments": "", 
                "actor": "pgandhi3", 
                "time": "2015/12/07 05:57:45.639 US/Eastern"
            }, 
            {
                "action": "approve_to_staging", 
                "review_state": "ready_for_staging", 
                "actor": "pgandhi3", 
                "comments": "", 
                "time": "2015/12/22 05:25:41.894 US/Eastern"
            }
        ]
    }, 
    "_content_type_transcript": "text/html", 
    "metadata_contributor_list": [], 
    "_userdefined_roles": [], 
    "_content_type_inline_embed_id": "text/plain", 
    "publisher": "MIT OpenCourseWare", 
    "nextPreviousEnabled": false, 
    "_gopip": 4, 
    "license": "http://creativecommons.org/licenses/by-nc-sa/3.0/us/", 
    "url_rewrite_patterns": [], 
    "widgets_features": [], 
    "category_features": [], 
    "resource_contributor_list": [
        {
            "res_contributor_entity": "Jerison, David", 
            "res_contributor_uid": "b28f05bbf3c3b44d28bc8f11fc7834cd", 
            "res_contributor_role": "Performer"
        }
    ], 
    "show_jump_back_5_seconds_button": false, 
    "firstTimeEdit": false, 
    "_content_type_media_rights": "text/plain", 
    "feature_requirements": [], 
    "list_in_left_nav": false, 
    "inline_embed_id": "43311545hyperbolictrigfunctions54594605", 
    "_classname": "MediaResource", 
    "short_name_tlp": "", 
    "expirationDate": "None", 
    "_content_type_id": "text/plain", 
    "contributor_list": [
        {}
    ], 
    "is_media_gallery": false, 
    "contributors": [], 
    "media_locations": [
        {}
    ], 
    "_content_type_media_resource_type": "text/plain", 
    "_content_type_title": "text/plain", 
    "subtitle_exemption": "None", 
    "_content_type": "text/html", 
    "resource_index_text": "", 
    "_atrefs": {
        "BelongsTo": [
            "bfe41979b9593362793fd930b36efa01"
        ]
    }, 
    "media_slides": [], 
    "other_platform_requirements": "", 
    "language": "", 
    "rights": "This site (c) Massachusetts Institute of Technology 2015.  Content within individual courses is (c) by the individual authors unless otherwise noted. The Massachusetts Institute of Technology is providing this Work (as defined below) under the terms of this Creative Commons public license (\"CCPL\" or \"license\") unless otherwise noted. The Work is protected by copyright and/or other applicable law. Any use of the work other than as authorized under this license is prohibited. By exercising any of the rights to the Work provided here, You (as defined below) accept and agree to be bound by the terms of this license. The Licensor, the Massachusetts Institute of Technology, grants You the rights contained here in consideration of Your acceptance of such terms and conditions.", 
    "hide_Page_title": false, 
    "_defaultpage": "", 
    "related_resources_text": "", 
    "tcATmit_subject_tags": [], 
    "features_tracking": [], 
    "ad_champion_text": "", 
    "has_inline_embed": false, 
    "unique_identifier": "https://ocw.mit.edu/courses/mathematics/18-01sc-single-variable-calculus-fall-2010/1.-differentiation/part-b-implicit-differentiation-and-inverse-functions/session-20-hyperbolic-trig-functions/hyperbolic-trig-functions", 
    "link_text": "Hyperbolic Trig Functions", 
    "is_image_gallery": false, 
    "id": "hyperbolic-trig-functions", 
    "_content_type_subtitle_exemption": "text/plain", 
    "materialtype": "Other", 
    "optional_text": "", 
    "_type": "MediaResource", 
    "description": "", 
    "media_resource_type": "Video", 
    "course_identifier": "https://ocw.mit.edu/courses/mathematics/18-01sc-single-variable-calculus-fall-2010", 
    "_content_type_publisher": "text/plain", 
    "tcATmit_instructional_tags": [], 
    "transcript": "<p><span m='0'>JOEL LEWIS:</span> <span m='6970'>Hi.</span> <span m='7350'>Welcome</span> <span m='7700'>back</span> <span m='7900'>to</span> <span m='7990'>recitation.</span> </p><p><span m='8970'>Today</span> <span m='9410'>I</span> <span m='9540'>wanted</span> <span m='9790'>to</span> <span m='9880'>talk</span> <span m='10140'>about</span> <span m='10410'>something</span> <span m='10770'>that's</span> <span m='10980'>mentioned</span> <span m='11440'>in</span> <span m='11540'>the</span> <span m='11620'>notes</span> <span m='12070'>but</span> <span m='12280'>wasn't</span> <span m='12590'>covered</span> <span m='12860'>in</span> <span m='12960'>lecture</span> <span m='13300'>because</span> <span m='13650'>of</span> <span m='13800'>the</span> <span m='14060'>exam</span> <span m='14430'>review.</span> <span m='15250'>So this is,</span> <span m='17100'>the</span> <span m='17410'>subject</span> <span m='17880'>is</span> <span m='18010'>hyperbolic</span> <span m='18640'>trig</span> <span m='18930'>functions.</span> <span m='19780'>So</span> <span m='19980'>first</span> <span m='20790'>I</span> <span m='20910'>just</span> <span m='21090'>wanted</span> <span m='21440'>to</span> <span m='21520'>define</span> <span m='21860'>them</span> <span m='21950'>for</span> <span m='22180'>you</span> <span m='22470'>and</span> <span m='22950'>graph</span> <span m='23320'>them</span> <span m='23530'>so</span> <span m='23630'>we</span> <span m='23720'>can</span> <span m='23810'>get</span> <span m='23920'>a</span> <span m='23970'>little</span> <span m='24180'>bit</span> <span m='24290'>of</span> <span m='24360'>a</span> <span m='24410'>feeling</span> <span m='24800'>for</span> <span m='24930'>what</span> <span m='25110'>these</span> <span m='25300'>functions</span> <span m='25690'>are</span> <span m='25780'>like,</span> <span m='26180'>and</span> <span m='26470'>then</span> <span m='26930'>I'm</span> <span m='27040'>going</span> <span m='27105'>to</span> <span m='27170'>explain</span> <span m='27590'>to</span> <span m='27690'>you</span> <span m='27780'>why</span> <span m='28290'>they</span> <span m='28400'>have</span> <span m='28600'>the</span> <span m='28690'>words</span> <span m='29070'>hyperbolic</span> <span m='30240'>and</span> <span m='30480'>trig</span> <span m='30910'>in</span> <span m='31040'>their</span> <span m='31170'>names.</span> <span m='32440'>So</span> <span m='33630'>these</span> <span m='33810'>are</span> <span m='33880'>some</span> <span m='34030'>interesting</span> <span m='34420'>functions.</span> <span m='34950'>They're</span> <span m='35215'>not,</span> <span m='35590'>they</span> <span m='35780'>don't--</span> <span m='38040'>aren't</span> <span m='38260'>quite</span> <span m='38510'>as</span> <span m='38620'>important</span> <span m='39360'>as</span> <span m='39500'>your</span> <span m='39650'>usual,</span> <span m='40180'>sort</span> <span m='40350'>of</span> <span m='40420'>circular</span> <span m='40870'>trig</span> <span m='41110'>functions.</span> <span m='43470'>But yeah, so</span> <span m='45520'>let</span> <span m='45650'>me</span> <span m='45990'>introduce</span> <span m='46440'>them</span> <span m='46530'>and</span> <span m='46620'>let</span> <span m='46720'>me</span> <span m='46790'>jump</span> <span m='47050'>in</span> <span m='47195'>just</span> <span m='47340'>with</span> <span m='47450'>their</span> <span m='47570'>definition.</span> </p><p><span m='48520'>So</span> <span m='49070'>there</span> <span m='49260'>are</span> <span m='49350'>two</span> <span m='50270'>most</span> <span m='50610'>important</span> <span m='51090'>ones.</span> <span m='51340'>Just</span> <span m='51520'>like</span> <span m='51710'>a</span> <span m='51780'>regular</span> <span m='52170'>trigonometric</span> <span m='52760'>functions</span> <span m='53150'>there's</span> <span m='53330'>the</span> <span m='53430'>sine</span> <span m='54250'>and</span> <span m='54370'>the</span> <span m='54440'>cosine</span> <span m='54970'>and</span> <span m='55100'>then</span> <span m='55200'>you</span> <span m='55280'>can</span> <span m='55460'>write</span> <span m='55750'>the</span> <span m='55870'>other</span> <span m='56090'>four</span> <span m='56410'>trigonometric</span> <span m='57050'>functions</span> <span m='57440'>in</span> <span m='57530'>terms</span> <span m='57830'>of</span> <span m='57910'>them.</span> <span m='58370'>So</span> <span m='58550'>for</span> <span m='59020'>hyperbolic</span> <span m='59720'>trig</span> <span m='59950'>functions</span> <span m='60290'>we</span> <span m='60370'>have</span> <span m='60480'>the</span> <span m='60560'>hyperbolic</span> <span m='61470'>cosine</span> <span m='61930'>and</span> <span m='62090'>the</span> <span m='62150'>hyperbolic</span> <span m='62390'>sine.</span> <span m='63260'>So</span> <span m='63460'>the</span> <span m='63550'>notation</span> <span m='64080'>here,</span> <span m='64630'>we</span> <span m='64780'>write</span> <span m='65680'>c o s h.</span> <span m='66760'>So</span> <span m='67680'>the</span> <span m='67780'>h</span> <span m='68090'>for</span> <span m='68300'>hyperbolic.</span> <span m='68970'>So</span> <span m='69270'>hyperbolic</span> <span m='69890'>cosine.</span> <span m='70560'>And</span> <span m='70790'>usually</span> <span m='71230'>we</span> <span m='71370'>pronounce</span> <span m='71820'>this</span> <span m='72140'>&quot;cosh.&quot;</span> <span m='73530'>And</span> <span m='73680'>similarly,</span> <span m='74650'>for</span> <span m='74820'>the</span> <span m='74960'>hyperbolic</span> <span m='75480'>sine</span> <span m='75880'>we</span> <span m='75990'>write</span> <span m='76500'>s i n h,</span> <span m='77360'>for</span> <span m='77570'>hyperbolic</span> <span m='78210'>sine,</span> <span m='78500'>except</span> <span m='79020'>in</span> <span m='79205'>the</span> <span m='79390'>reverse</span> <span m='79700'>order.</span> <span m='80180'>And</span> <span m='80430'>we</span> <span m='80510'>usually</span> <span m='80790'>pronounce</span> <span m='81110'>this</span> <span m='81230'>&quot;sinch,&quot;</span> <span m='82550'>so</span> <span m='82940'>in</span> <span m='83190'>American</span> <span m='83610'>English</span> <span m='83920'>as</span> <span m='84020'>if</span> <span m='84180'>there</span> <span m='84260'>were</span> <span m='84360'>an</span> <span m='84430'>extra</span> <span m='84770'>c</span> <span m='85170'>in</span> <span m='85330'>there.</span> <span m='85630'>Sinch.</span> </p><p><span m='87360'>OK.</span> <span m='87580'>So</span> <span m='88380'>these</span> <span m='88580'>functions</span> <span m='89010'>have</span> <span m='89300'>fairly</span> <span m='89760'>simple</span> <span m='90050'>definitions</span> <span m='90650'>in</span> <span m='90740'>terms</span> <span m='90990'>of</span> <span m='91410'>the</span> <span m='91590'>exponential</span> <span m='92410'>function,</span> <span m='92960'>e</span> <span m='93015'>to</span> <span m='93070'>the</span> <span m='93320'>x.</span> <span m='93570'>So</span> <span m='94400'>cosh</span> <span m='94840'>of</span> <span m='94930'>x</span> <span m='95530'>is</span> <span m='95720'>defined</span> <span m='96160'>to</span> <span m='96280'>be</span> <span m='96840'>e</span> <span m='96980'>to</span> <span m='97120'>the</span> <span m='97220'>x</span> <span m='97890'>plus</span> <span m='98160'>e</span> <span m='98275'>to</span> <span m='98390'>the</span> <span m='98480'>minus</span> <span m='98765'>x</span> <span m='99050'>divided</span> <span m='99400'>by</span> <span m='99540'>2.</span> <span m='100470'>And</span> <span m='101210'>sinh</span> <span m='101590'>of</span> <span m='101680'>x</span> <span m='102060'>is</span> <span m='102160'>defined</span> <span m='102470'>to</span> <span m='102580'>be</span> <span m='103060'>e</span> <span m='103160'>to</span> <span m='103260'>x</span> <span m='103810'>minus</span> <span m='104420'>e</span> <span m='104525'>to</span> <span m='104630'>the</span> <span m='104730'>minus</span> <span m='105230'>x</span> <span m='105730'>divided</span> <span m='106110'>by</span> <span m='106310'>2.</span> <span m='107030'>So</span> <span m='107240'>if</span> <span m='107330'>you</span> <span m='107410'>remember</span> <span m='107810'>what</span> <span m='107950'>your</span> <span m='108060'>graph</span> <span m='108900'>of</span> <span m='109310'>e</span> <span m='109425'>to</span> <span m='109540'>the</span> <span m='109640'>x</span> <span m='110070'>looks</span> <span m='110340'>like,</span> <span m='110620'>and</span> <span m='110700'>your</span> <span m='110810'>graph</span> <span m='111110'>of</span> <span m='111230'>e</span> <span m='111340'>to</span> <span m='111450'>the</span> <span m='111540'>minus</span> <span m='111850'>x,</span> <span m='112390'>it's</span> <span m='112590'>not</span> <span m='112830'>hard</span> <span m='113030'>to</span> <span m='113100'>see</span> <span m='113850'>that</span> <span m='114070'>the</span> <span m='114160'>graphs</span> <span m='114840'>of</span> <span m='115620'>cosh</span> <span m='115950'>x</span> <span m='116280'>and</span> <span m='116430'>sinh</span> <span m='116670'>x</span> <span m='117320'>should</span> <span m='117530'>look</span> <span m='117730'>sort</span> <span m='117930'>of</span> <span m='118000'>like</span> <span m='118190'>this.</span> </p><p><span m='118360'>So</span> <span m='118510'>for</span> <span m='118670'>cosh</span> <span m='119070'>x, so</span> <span m='119810'>we</span> <span m='119910'>see</span> <span m='120090'>as</span> <span m='120560'>x</span> <span m='120685'>gets</span> <span m='120810'>big,</span> <span m='121490'>so</span> <span m='121610'>e</span> <span m='121700'>to</span> <span m='121790'>the</span> <span m='121980'>minus</span> <span m='122200'>x</span> <span m='123280'>is</span> <span m='123490'>going</span> <span m='123740'>to</span> <span m='123820'>0.</span> <span m='124150'>It's</span> <span m='124290'>not</span> <span m='124490'>very</span> <span m='124730'>important.</span> <span m='125220'>So</span> <span m='125340'>it</span> <span m='125410'>mostly</span> <span m='126120'>is</span> <span m='126350'>driven</span> <span m='126720'>by</span> <span m='126890'>this</span> <span m='127050'>e</span> <span m='127175'>to</span> <span m='127300'>the</span> <span m='127400'>x</span> <span m='127690'>part.</span> <span m='128210'>And</span> <span m='129105'>as</span> <span m='129280'>x</span> <span m='129630'>gets</span> <span m='130310'>negative</span> <span m='130870'>and</span> <span m='131100'>big,</span> <span m='132240'>then</span> <span m='132580'>this</span> <span m='132790'>is</span> <span m='132920'>going</span> <span m='133130'>to</span> <span m='133190'>0</span> <span m='133570'>and</span> <span m='133710'>this</span> <span m='134220'>is</span> <span m='134880'>getting</span> <span m='135150'>larger</span> <span m='135500'>and</span> <span m='135630'>larger.</span> <span m='136140'>So</span> <span m='136310'>we</span> <span m='136410'>got</span> <span m='136610'>something</span> <span m='137290'>that</span> <span m='137490'>looks</span> <span m='137730'>like</span> <span m='137960'>this.</span> <span m='138420'>So it looks a little bit,</span> <span m='140080'>in</span> <span m='140180'>this</span> <span m='140320'>picture</span> <span m='140700'>it</span> <span m='140800'>looks</span> <span m='140900'>a</span> <span m='140970'>little</span> <span m='141200'>bit</span> <span m='141320'>like</span> <span m='141490'>a</span> <span m='141540'>parabola,</span> <span m='142230'>but</span> <span m='142460'>the</span> <span m='142560'>growth</span> <span m='142980'>here</span> <span m='143190'>is</span> <span m='143400'>exponential</span> <span m='144010'>at</span> <span m='144090'>both</span> <span m='144290'>sides.</span> <span m='144650'>So</span> <span m='144715'>in</span> <span m='144780'>fact,</span> <span m='145090'>this</span> <span m='145210'>is</span> <span m='145310'>growing</span> <span m='145590'>much,</span> <span m='145830'>much,</span> <span m='146080'>much</span> <span m='146340'>faster</span> <span m='146710'>than,</span> <span m='146900'>say,</span> <span m='147400'>1</span> <span m='147710'>plus</span> <span m='147970'>x</span> <span m='148190'>squared.</span> <span m='149270'>So</span> <span m='149370'>it's</span> <span m='149800'>a</span> <span m='149920'>much</span> <span m='150250'>steeper</span> <span m='150530'>curve. OK.</span> <span m='153010'>And</span> <span m='153130'>it</span> <span m='153210'>reaches</span> <span m='153510'>its</span> <span m='153650'>minimum</span> <span m='154060'>here</span> <span m='154560'>at</span> <span m='154810'>x</span> <span m='155060'>equals</span> <span m='155330'>0--</span> <span m='155780'>it</span> <span m='155900'>has</span> <span m='156070'>the</span> <span m='156160'>value</span> <span m='156750'>1</span> <span m='157490'>plus</span> <span m='157870'>1</span> <span m='158190'>over</span> <span m='158450'>2.</span> <span m='158780'>So</span> <span m='159730'>its</span> <span m='160130'>minimum</span> <span m='160540'>there</span> <span m='160760'>is at</span> <span m='161440'>x</span> <span m='161930'>equals</span> <span m='162160'>0,</span> <span m='162460'>it has</span> <span m='162720'>its</span> <span m='162850'>minimum</span> <span m='163150'>value</span> <span m='163450'>1.</span> </p><p><span m='165140'>For sinh, OK, so</span> <span m='165240'>we're</span> <span m='165340'>taking</span> <span m='165640'>the</span> <span m='165740'>difference of them.</span> <span m='167080'>So</span> <span m='167360'>it's</span> <span m='167610'>similar</span> <span m='168270'>when</span> <span m='168500'>x</span> <span m='168860'>is</span> <span m='170310'>positive</span> <span m='171460'>and</span> <span m='171650'>large,</span> <span m='172370'>e</span> <span m='172480'>to</span> <span m='172590'>the</span> <span m='172710'>x</span> <span m='172950'>is</span> <span m='173190'>big,</span> <span m='173850'>and</span> <span m='174550'>e</span> <span m='174665'>to</span> <span m='174780'>the</span> <span m='174880'>minus</span> <span m='175230'>x</span> <span m='175910'>is</span> <span m='176840'>pretty</span> <span m='177090'>small,</span> <span m='177420'>almost</span> <span m='177720'>negligible.</span> <span m='178480'>So</span> <span m='178660'>we</span> <span m='178780'>got</span> <span m='179230'>exponential</span> <span m='179780'>growth</span> <span m='180330'>off</span> <span m='180570'>that</span> <span m='180800'>side.</span> <span m='181260'>When</span> <span m='181635'>x</span> <span m='182010'>becomes</span> <span m='183240'>negative</span> <span m='183960'>and</span> <span m='184180'>large,</span> <span m='185230'>e</span> <span m='185340'>to</span> <span m='185450'>the</span> <span m='185790'>x</span> <span m='185910'>is</span> <span m='186010'>going</span> <span m='186110'>to</span> <span m='186180'>0,</span> <span m='186690'>e</span> <span m='186900'>to</span> <span m='187110'>the</span> <span m='187200'>minus</span> <span m='187610'>x</span> <span m='187850'>is</span> <span m='188090'>becoming</span> <span m='188510'>large,</span> <span m='189060'>but it's--</span> <span m='190020'>we've</span> <span m='190160'>got</span> <span m='190290'>a</span> <span m='190380'>minus</span> <span m='190710'>sign</span> <span m='190960'>here.</span> <span m='191380'>So</span> <span m='191940'>as</span> <span m='192200'>x</span> <span m='192460'>goes</span> <span m='192750'>to</span> <span m='192860'>minus</span> <span m='193190'>infinity,</span> <span m='193990'>this</span> <span m='194210'>curve</span> <span m='194880'>goes</span> <span m='195330'>also</span> <span m='195650'>to</span> <span m='195790'>minus</span> <span m='196090'>infinity.</span> <span m='196700'>And</span> <span m='196940'>again,</span> <span m='197210'>the</span> <span m='197290'>growth</span> <span m='197540'>here</span> <span m='198200'>is</span> <span m='198430'>exponential</span> <span m='199570'>in</span> <span m='199770'>both</span> <span m='200010'>cases.</span> <span m='201300'>And</span> <span m='202400'>if</span> <span m='202500'>you</span> <span m='202580'>were</span> <span m='202700'>curious,</span> <span m='203150'>say</span> <span m='203330'>about</span> <span m='203540'>what</span> <span m='203680'>the</span> <span m='203770'>slope</span> <span m='204200'>there</span> <span m='204400'>at</span> <span m='204490'>the</span> <span m='204570'>origin</span> <span m='205000'>is,</span> <span m='205160'>you</span> <span m='205260'>could</span> <span m='205790'>quickly</span> <span m='206180'>take</span> <span m='206400'>a</span> <span m='206450'>derivative</span> <span m='206970'>and</span> <span m='207110'>check</span> <span m='207660'>that</span> <span m='207810'>that's</span> <span m='208020'>passing</span> <span m='208390'>through</span> <span m='208510'>the</span> <span m='208590'>origin</span> <span m='208970'>with</span> <span m='209120'>slope</span> <span m='209420'>1</span> <span m='209760'>there.</span> </p><p><span m='211400'>OK.</span> <span m='211640'>So</span> <span m='211790'>this</span> <span m='211990'>is</span> <span m='212140'>a</span> <span m='212210'>sort</span> <span m='212440'>of</span> <span m='212590'>basic</span> <span m='212980'>picture</span> <span m='213730'>of</span> <span m='213920'>what</span> <span m='214150'>these</span> <span m='214390'>curves</span> <span m='214790'>look</span> <span m='215000'>like.</span> </p><p><span m='216810'>They</span> <span m='216970'>have</span> <span m='217150'>some</span> <span m='217290'>nice</span> <span m='217590'>properties,</span> <span m='219700'>and</span> <span m='221010'>let</span> <span m='221190'>me</span> <span m='221410'>talk</span> <span m='221660'>about</span> <span m='221900'>them.</span> <span m='222260'>So</span> <span m='222930'>for</span> <span m='223380'>example,</span> <span m='224930'>one</span> <span m='225400'>nice</span> <span m='226490'>thing</span> <span m='226700'>you</span> <span m='226800'>might</span> <span m='226990'>notice</span> <span m='227270'>about</span> <span m='227500'>these</span> <span m='227670'>functions</span> <span m='228030'>is</span> <span m='228150'>that</span> <span m='228260'>it's</span> <span m='228360'>easy</span> <span m='228660'>to</span> <span m='228760'>compute</span> <span m='229070'>their</span> <span m='229220'>derivatives. Right?</span> <span m='230830'>So</span> <span m='231070'>if</span> <span m='231160'>we</span> <span m='231740'>look</span> <span m='231990'>at</span> <span m='234740'>d/dx</span> <span m='238590'>of</span> <span m='238780'>cosh</span> <span m='239660'>x,</span> <span m='240310'>in</span> <span m='240580'>order</span> <span m='240790'>to</span> <span m='240880'>compute</span> <span m='241320'>that,</span> <span m='241640'>well,</span> <span m='241910'>just</span> <span m='242110'>look</span> <span m='242300'>at</span> <span m='242380'>the</span> <span m='242460'>definition</span> <span m='243460'>of</span> <span m='243680'>cosh.</span> <span m='244440'>So it's</span> <span m='244600'>really</span> <span m='244830'>just</span> <span m='245000'>a</span> <span m='245060'>sum</span> <span m='245740'>of</span> <span m='245930'>two</span> <span m='246040'>exponential</span> <span m='246640'>functions.</span> <span m='247450'>Exponential</span> <span m='247870'>functions</span> <span m='248310'>are</span> <span m='248390'>easy</span> <span m='248680'>to</span> <span m='248780'>take</span> <span m='248990'>the</span> <span m='249090'>derivatives.</span> <span m='250130'>Take</span> <span m='250175'>the</span> <span m='250220'>derivative</span> <span m='250550'>of</span> <span m='250790'>e</span> <span m='250915'>to</span> <span m='251040'>the</span> <span m='251410'>x,</span> <span m='251580'>you</span> <span m='251650'>get</span> <span m='251720'>e</span> <span m='251790'>to</span> <span m='251825'>the</span> <span m='251860'>x.</span> <span m='252490'>Take</span> <span m='252720'>the</span> <span m='252830'>derivative</span> <span m='252930'>of</span> <span m='253220'>e</span> <span m='253510'>to</span> <span m='253720'>the</span> <span m='253800'>minus</span> <span m='254140'>x,</span> <span m='254620'>well, OK,</span> <span m='255230'>so</span> <span m='255390'>it's</span> <span m='255500'>a</span> <span m='255550'>little</span> <span m='255750'>chain</span> <span m='256020'>rule,</span> <span m='256250'>so</span> <span m='256340'>you</span> <span m='256420'>get</span> <span m='256560'>a</span> <span m='256610'>minus</span> <span m='256960'>1</span> <span m='257120'>in</span> <span m='257240'>front.</span> <span m='257790'>So</span> <span m='257935'>the</span> <span m='258080'>derivative</span> <span m='258560'>of</span> <span m='258680'>cosh</span> <span m='259100'>x</span> <span m='260080'>is</span> <span m='260330'>e</span> <span m='260445'>to</span> <span m='260560'>the</span> <span m='260930'>x</span> <span m='261300'>minus</span> <span m='262690'>e</span> <span m='262805'>to</span> <span m='262920'>the</span> <span m='263030'>minus</span> <span m='263407'>x</span> <span m='264540'>over</span> <span m='264830'>2.</span> </p><p><span m='265310'>But</span> <span m='265950'>we</span> <span m='266030'>have</span> <span m='266140'>a</span> <span m='266170'>name</span> <span m='266480'>for</span> <span m='266600'>this.</span> <span m='266810'>This</span> <span m='266940'>is</span> <span m='267030'>actually</span> <span m='267380'>just</span> <span m='270600'>sinh</span> <span m='270950'>x.</span> <span m='271250'>So</span> <span m='271350'>the</span> <span m='271420'>derivative</span> <span m='271960'>of</span> <span m='272060'>cosh</span> <span m='272365'>is</span> <span m='272670'>sinh,</span> <span m='273550'>and</span> <span m='273730'>the</span> <span m='273790'>derivative</span> <span m='280830'>of</span> <span m='280950'>sinh,</span> <span m='281560'>well,</span> <span m='282120'>OK.</span> <span m='282370'>You</span> <span m='282460'>look</span> <span m='282550'>at</span> <span m='282620'>the</span> <span m='282690'>same</span> <span m='282930'>thing,</span> <span m='283530'>take</span> <span m='284490'>this</span> <span m='284720'>formula,</span> <span m='285140'>take</span> <span m='285340'>its</span> <span m='285480'>derivative.</span> <span m='285950'>Well,</span> <span m='286180'>e</span> <span m='286285'>to</span> <span m='286390'>the</span> <span m='286760'>x,</span> <span m='287040'>take</span> <span m='287183'>its</span> <span m='287326'>derivative,</span> <span m='287470'>you</span> <span m='287670'>get</span> <span m='287726'>e</span> <span m='287783'>to</span> <span m='287840'>the</span> <span m='288160'>x.</span> <span m='288780'>e</span> <span m='288813'>to</span> <span m='288846'>the</span> <span m='288880'>minus</span> <span m='289220'>x,</span> <span m='289600'>take</span> <span m='289780'>its</span> <span m='289860'>derivative,</span> <span m='290320'>you</span> <span m='290410'>get</span> <span m='290570'>minus</span> <span m='290980'>e</span> <span m='291090'>to</span> <span m='291200'>the</span> <span m='291280'>minus</span> <span m='291580'>x,</span> <span m='292130'>so</span> <span m='292240'>those</span> <span m='292420'>two</span> <span m='292560'>minus</span> <span m='292890'>signs</span> <span m='293220'>cancel</span> <span m='293600'>out</span> <span m='293790'>and</span> <span m='293880'>become</span> <span m='294110'>a</span> <span m='294160'>plus.</span> <span m='294860'>So</span> <span m='295080'>this</span> <span m='295250'>is</span> <span m='295930'>e</span> <span m='296060'>to</span> <span m='296190'>the</span> <span m='296320'>x</span> <span m='296860'>plus</span> <span m='297450'>e</span> <span m='297595'>to</span> <span m='297740'>the</span> <span m='297820'>minus</span> <span m='298070'>x</span> <span m='299080'>over</span> <span m='299470'>2,</span> <span m='301660'>which</span> <span m='301880'>is</span> <span m='302040'>cosh</span> <span m='302360'>x.</span> </p><p><span m='303860'>So</span> <span m='304040'>here</span> <span m='304310'>you</span> <span m='304440'>have</span> <span m='304830'>some</span> <span m='305010'>behavior</span> <span m='305850'>that's</span> <span m='306020'>a</span> <span m='306090'>little</span> <span m='306410'>bit</span> <span m='306550'>reminiscent</span> <span m='307200'>of</span> <span m='307310'>the</span> <span m='307400'>behavior</span> <span m='307870'>of</span> <span m='308020'>trig</span> <span m='308170'>functions. Right?</span> <span m='308980'>For</span> <span m='309110'>trig</span> <span m='309390'>functions,</span> <span m='310040'>if</span> <span m='310220'>you</span> <span m='310300'>take</span> <span m='310440'>the</span> <span m='310580'>derivative</span> <span m='311010'>of</span> <span m='311180'>sine</span> <span m='311510'>you</span> <span m='311600'>get</span> <span m='311780'>cosine.</span> <span m='312520'>And</span> <span m='312680'>if</span> <span m='312740'>you</span> <span m='312800'>take</span> <span m='313010'>the</span> <span m='313090'>derivative</span> <span m='313510'>of</span> <span m='313677'>cosine</span> <span m='314180'>you</span> <span m='314370'>almost</span> <span m='314670'>get</span> <span m='314790'>back</span> <span m='314980'>sine,</span> <span m='315190'>but</span> <span m='315250'>you</span> <span m='315310'>get</span> <span m='315430'>minus</span> <span m='315730'>sine.</span> <span m='316390'>So</span> <span m='316550'>here</span> <span m='317110'>you</span> <span m='317280'>don't</span> <span m='317440'>have</span> <span m='317590'>that</span> <span m='317760'>extra</span> <span m='318560'>negative</span> <span m='318970'>sign</span> <span m='319390'>floating</span> <span m='319740'>around. Right?</span> <span m='320690'>So you,</span> <span m='321140'>when</span> <span m='321330'>you</span> <span m='321410'>take</span> <span m='321670'>the</span> <span m='321760'>derivative</span> <span m='322250'>of</span> <span m='322405'>cosh</span> <span m='322560'>you</span> <span m='322640'>get</span> <span m='323050'>sinh</span> <span m='323490'>on</span> <span m='323680'>the</span> <span m='323760'>nose.</span> <span m='324550'>No</span> <span m='324700'>minus</span> <span m='325070'>sign</span> <span m='325350'>needed.</span> </p><p><span m='327080'>So</span> <span m='327500'>that's</span> <span m='327690'>interesting.</span> <span m='329630'>But</span> <span m='329830'>the</span> <span m='329910'>real</span> <span m='331120'>reason</span> <span m='332540'>that</span> <span m='332710'>these</span> <span m='332890'>have</span> <span m='333150'>the</span> <span m='333260'>words</span> <span m='334120'>trig</span> <span m='334830'>in</span> <span m='335000'>their</span> <span m='335140'>name</span> <span m='337350'>is</span> <span m='337490'>actually</span> <span m='338220'>a</span> <span m='338360'>little</span> <span m='338580'>bit</span> <span m='338760'>deeper.</span> <span m='339200'>So</span> <span m='339910'>let</span> <span m='340100'>me</span> <span m='340340'>come</span> <span m='340540'>over</span> <span m='340730'>here</span> <span m='340930'>and</span> <span m='341050'>draw</span> <span m='341980'>a</span> <span m='342150'>couple</span> <span m='342420'>pictures.</span> <span m='342810'>So</span> <span m='343770'>the</span> <span m='343920'>normal</span> <span m='344380'>trig</span> <span m='344660'>functions--</span> <span m='345880'>what</span> <span m='346370'>sometimes</span> <span m='346860'>we</span> <span m='346960'>call</span> <span m='347190'>the</span> <span m='347300'>circular</span> <span m='347810'>trig</span> <span m='348110'>functions</span> <span m='349200'>if</span> <span m='349340'>we</span> <span m='349450'>want</span> <span m='349550'>to</span> <span m='349650'>distinguish</span> <span m='350140'>them</span> <span m='350270'>from</span> <span m='350440'>the</span> <span m='350520'>hyperbolic</span> <span m='351055'>trig</span> <span m='351350'>functions--</span> <span m='353110'>they're</span> <span m='353270'>closely--</span> <span m='353730'>so</span> <span m='353930'>circular</span> <span m='354470'>trig</span> <span m='354730'>functions,</span> <span m='355290'>they're</span> <span m='355420'>closely</span> <span m='355860'>related</span> <span m='356270'>to</span> <span m='356370'>the</span> <span m='356490'>unit</span> <span m='356890'>circle.</span> <span m='357560'>So</span> <span m='357730'>the</span> <span m='357850'>unit</span> <span m='358150'>circle</span> <span m='359520'>has</span> <span m='360070'>equation</span> <span m='360800'>x</span> <span m='361140'>squared</span> <span m='362110'>plus</span> <span m='362360'>y</span> <span m='362630'>squared</span> <span m='362970'>equals</span> <span m='363370'>1.</span> <span m='365790'>It's</span> <span m='365960'>a</span> <span m='366040'>circle.</span> <span m='366820'>Well,</span> <span m='368070'>close</span> <span m='368330'>enough,</span> <span m='368650'>right?</span> <span m='369600'>And</span> <span m='370230'>what</span> <span m='370400'>is</span> <span m='370840'>the</span> <span m='371270'>nice</span> <span m='372180'>relationship</span> <span m='372870'>between</span> <span m='373170'>this</span> <span m='373280'>circle</span> <span m='373990'>and</span> <span m='374150'>the</span> <span m='374230'>trig</span> <span m='374470'>functions?</span> <span m='374860'>Well,</span> <span m='375220'>if</span> <span m='375460'>you</span> <span m='375550'>choose</span> <span m='376000'>any</span> <span m='376350'>point</span> <span m='376850'>on</span> <span m='377070'>this</span> <span m='377190'>circle,</span> <span m='378500'>then</span> <span m='379220'>there</span> <span m='379370'>exists</span> <span m='379900'>some</span> <span m='380970'>value</span> <span m='381480'>of</span> <span m='381640'>t</span> <span m='381990'>such</span> <span m='382260'>that</span> <span m='382350'>this</span> <span m='382550'>point</span> <span m='382900'>has</span> <span m='383130'>coordinates</span> <span m='383980'>cosine</span> <span m='384600'>t</span> <span m='385380'>comma</span> <span m='387010'>sine</span> <span m='387530'>t.</span> </p><p><span m='388890'>Now</span> <span m='389060'>it</span> <span m='389120'>happens</span> <span m='389580'>that</span> <span m='390280'>the</span> <span m='390380'>value</span> <span m='390750'>of</span> <span m='390840'>t</span> <span m='391080'>is</span> <span m='391170'>actually</span> <span m='391950'>the</span> <span m='392030'>angle</span> <span m='392550'>that</span> <span m='392690'>that</span> <span m='392910'>radius</span> <span m='393340'>makes</span> <span m='393640'>with</span> <span m='393760'>the</span> <span m='393840'>positive</span> <span m='394240'>axis.</span> <span m='395430'>But</span> <span m='395930'>not</span> <span m='396160'>going</span> <span m='396245'>to</span> <span m='396330'>worry</span> <span m='396520'>about</span> <span m='396690'>that</span> <span m='396860'>right</span> <span m='397030'>now.</span> <span m='397240'>It's</span> <span m='397400'>not</span> <span m='397980'>the</span> <span m='398180'>key</span> <span m='399970'>idea</span> <span m='400220'>of</span> <span m='400470'>import.</span> <span m='400830'>So</span> <span m='401400'>as</span> <span m='401930'>t</span> <span m='402360'>varies</span> <span m='402880'>through</span> <span m='404100'>the</span> <span m='404250'>real</span> <span m='404480'>numbers,</span> <span m='405330'>the</span> <span m='405440'>point</span> <span m='405850'>cosine</span> <span m='406380'>t,</span> <span m='406570'>sine</span> <span m='406960'>t,</span> <span m='407510'>that</span> <span m='407720'>varies</span> <span m='408500'>and</span> <span m='408650'>it</span> <span m='408720'>just</span> <span m='409170'>goes</span> <span m='409430'>around</span> <span m='409810'>this curve.</span> <span m='410130'>So</span> <span m='410185'>it</span> <span m='410240'>traces</span> <span m='410690'>out</span> <span m='410860'>this</span> <span m='410940'>circle</span> <span m='411370'>exactly.</span> </p><p><span m='412530'>So</span> <span m='412690'>the</span> <span m='412780'>hyperbolic</span> <span m='413370'>trig</span> <span m='413670'>functions</span> <span m='414940'>show</span> <span m='415180'>up</span> <span m='415550'>in</span> <span m='415720'>a</span> <span m='416340'>very</span> <span m='417370'>similar</span> <span m='417840'>situation.</span> <span m='418670'>But</span> <span m='418850'>instead</span> <span m='419190'>of</span> <span m='419260'>looking</span> <span m='419560'>at</span> <span m='419690'>the</span> <span m='419820'>unit</span> <span m='420170'>circle,</span> <span m='421050'>what</span> <span m='421260'>we</span> <span m='421380'>want to</span> <span m='421600'>look</span> <span m='421760'>at</span> <span m='421930'>is</span> <span m='422060'>the</span> <span m='422190'>unit</span> <span m='422610'>rectangular</span> <span m='423270'>hyperbola.</span> <span m='424580'>So</span> <span m='424740'>what</span> <span m='424840'>do</span> <span m='424910'>I</span> <span m='425010'>mean</span> <span m='425210'>by</span> <span m='425330'>that?</span> <span m='425650'>Well,</span> <span m='426030'>so</span> <span m='426190'>instead</span> <span m='426540'>of</span> <span m='426630'>taking</span> <span m='426930'>the</span> <span m='427010'>equation</span> <span m='427790'>x</span> <span m='428020'>squared</span> <span m='428280'>plus</span> <span m='428540'>y</span> <span m='428720'>squared</span> <span m='429140'>equals</span> <span m='429470'>1,</span> <span m='429940'>which</span> <span m='430480'>gives</span> <span m='430640'>a</span> <span m='430710'>circle,</span> <span m='431240'>I'm</span> <span m='431440'>going</span> <span m='431515'>to</span> <span m='431590'>look</span> <span m='431720'>at</span> <span m='431790'>a</span> <span m='431830'>very</span> <span m='432130'>similar</span> <span m='432510'>equation</span> <span m='433190'>that</span> <span m='433340'>gives</span> <span m='433500'>a</span> <span m='433560'>hyperbola.</span> <span m='434310'>So</span> <span m='434480'>this</span> <span m='434620'>is</span> <span m='434750'>the</span> <span m='434850'>equation</span> <span m='436530'>x</span> <span m='436780'>squared</span> <span m='438050'>minus</span> <span m='438540'>y</span> <span m='438780'>squared</span> <span m='439950'>equals</span> <span m='440350'>1.</span> </p><p><span m='441690'>So</span> <span m='441900'>if</span> <span m='441990'>you</span> <span m='442430'>if</span> <span m='442620'>you</span> <span m='442710'>graph</span> <span m='446270'>this</span> <span m='446430'>equation,</span> <span m='447290'>what</span> <span m='447500'>you'll</span> <span m='447630'>see</span> <span m='448970'>is</span> <span m='449250'>that, well, it</span> <span m='449440'>passes</span> <span m='449840'>through</span> <span m='449990'>the</span> <span m='450090'>point</span> <span m='450580'>(1,</span> <span m='450990'>0).</span> <span m='452250'>And</span> <span m='452610'>then</span> <span m='456320'>we've</span> <span m='456530'>got</span> <span m='456760'>one</span> <span m='457090'>branch</span> <span m='457520'>here,</span> <span m='458690'>we've</span> <span m='459060'>got</span> <span m='459200'>a</span> <span m='459280'>little</span> <span m='459720'>asymptote</span> <span m='460220'>there.</span> <span m='465120'>So</span> <span m='465350'>it's</span> <span m='465440'>got</span> <span m='465590'>a</span> <span m='465650'>right</span> <span m='465970'>branch</span> <span m='467010'>like</span> <span m='467250'>that,</span> <span m='467550'>and</span> <span m='467780'>also</span> <span m='468950'>it's</span> <span m='469250'>symmetric</span> <span m='469910'>across</span> <span m='470360'>the</span> <span m='470450'>y-axis.</span> <span m='471760'>So</span> <span m='471930'>there's</span> <span m='472160'>a</span> <span m='474460'>symmetric</span> <span m='479440'>left</span> <span m='479830'>branch</span> <span m='480350'>here.</span> <span m='480570'>So</span> <span m='480720'>this</span> <span m='480890'>is</span> <span m='481040'>the</span> <span m='481140'>graph</span> <span m='482070'>of</span> <span m='482280'>the</span> <span m='482410'>equation</span> <span m='483750'>x</span> <span m='483950'>squared</span> <span m='484210'>minus</span> <span m='484520'>y</span> <span m='484700'>squared</span> <span m='485020'>equals</span> <span m='485330'>1.</span> <span m='485890'>So</span> <span m='486080'>it's</span> <span m='486950'>this</span> <span m='487120'>hyperbola.</span> </p><p><span m='489200'>Now</span> <span m='490440'>what</span> <span m='490580'>I</span> <span m='490670'>claim</span> <span m='491230'>is</span> <span m='491910'>that</span> <span m='492860'>cosh</span> <span m='493175'>and</span> <span m='493490'>sinh</span> <span m='493980'>have</span> <span m='494110'>the</span> <span m='494210'>same</span> <span m='494520'>relationship</span> <span m='495220'>to</span> <span m='495310'>this</span> <span m='495480'>hyperbola</span> <span m='496630'>as</span> <span m='497090'>cosine</span> <span m='497390'>and</span> <span m='497690'>sine</span> <span m='498050'>have</span> <span m='498260'>to</span> <span m='498370'>the</span> <span m='498470'>circle.</span> <span m='499020'>Well,</span> <span m='499820'>so</span> <span m='500250'>I'm</span> <span m='500480'>fudging</span> <span m='500596'>a</span> <span m='500713'>little</span> <span m='500830'>bit.</span> <span m='501180'>So</span> <span m='501440'>it</span> <span m='501530'>turns</span> <span m='501780'>out</span> <span m='501880'>it's</span> <span m='501990'>only</span> <span m='502210'>the</span> <span m='502320'>right</span> <span m='502610'>half</span> <span m='502750'>of</span> <span m='502890'>the</span> <span m='503030'>hyperbola.</span> <span m='504440'>So</span> <span m='504630'>what</span> <span m='504730'>do</span> <span m='504790'>I</span> <span m='504900'>mean</span> <span m='505140'>by</span> <span m='505300'>that?</span> </p><p><span m='505610'>Well,</span> <span m='506310'>here's</span> <span m='506590'>what</span> <span m='506740'>I'd</span> <span m='506890'>like</span> <span m='507600'>to</span> <span m='507710'>do.</span> <span m='508210'>Set</span> <span m='509850'>x</span> <span m='510630'>equals--</span> <span m='511180'>so</span> <span m='511330'>we're</span> <span m='511420'>going</span> <span m='511500'>to</span> <span m='511580'>introduce</span> <span m='512180'>a</span> <span m='512280'>new</span> <span m='512540'>variable,</span> <span m='513040'>u--</span> <span m='513910'>I'm</span> <span m='514140'>going</span> <span m='514220'>to</span> <span m='514300'>set</span> <span m='514570'>x</span> <span m='515040'>equal</span> <span m='515900'>cosh</span> <span m='516340'>u</span> <span m='517560'>and</span> <span m='517790'>y</span> <span m='518140'>equals</span> <span m='519980'>sinh</span> <span m='520340'>u.</span> <span m='521090'>And</span> <span m='521250'>I'm</span> <span m='521390'>going</span> <span m='521475'>to</span> <span m='521560'>look</span> <span m='521810'>at</span> <span m='522440'>the</span> <span m='522600'>quantity</span> <span m='523540'>x</span> <span m='523760'>squared</span> <span m='524020'>minus</span> <span m='524290'>y</span> <span m='524500'>squared.</span> <span m='524850'>So</span> <span m='525996'>x</span> <span m='526380'>squared</span> <span m='527940'>minus</span> <span m='528260'>y</span> <span m='528480'>squared.</span> <span m='531610'>So this is, so</span> <span m='531770'>we</span> <span m='531870'>use</span> <span m='532230'>most</span> <span m='532530'>of</span> <span m='532610'>the</span> <span m='532690'>same</span> <span m='532930'>notations</span> <span m='533480'>for</span> <span m='533630'>hyperbolic</span> <span m='534170'>trig</span> <span m='534400'>functions</span> <span m='534820'>that</span> <span m='534930'>we</span> <span m='535020'>do</span> <span m='535110'>for</span> <span m='535270'>regular</span> <span m='535610'>trig</span> <span m='535830'>functions.</span> <span m='536170'>So</span> <span m='536740'>this</span> <span m='536890'>is</span> <span m='537030'>cosh</span> <span m='537530'>squared</span> <span m='537990'>u</span> <span m='539660'>minus</span> <span m='541060'>sinh</span> <span m='541670'>squared</span> <span m='542260'>u.</span> </p><p><span m='544820'>And</span> <span m='545000'>now</span> <span m='545070'>we</span> <span m='545190'>can</span> <span m='545320'>plug</span> <span m='545620'>in</span> <span m='545710'>the</span> <span m='545790'>formulas</span> <span m='546280'>for</span> <span m='546390'>cosh</span> <span m='547160'>and</span> <span m='547203'>sinh</span> <span m='547246'>that</span> <span m='547290'>we</span> <span m='547410'>have.</span> <span m='548110'>So</span> <span m='548300'>this</span> <span m='548470'>is</span> <span m='548690'>equal</span> <span m='549110'>to</span> <span m='551800'>e</span> <span m='551926'>to</span> <span m='552053'>the</span> <span m='552180'>u</span> <span m='552880'>plus</span> <span m='553930'>e</span> <span m='554050'>to</span> <span m='554170'>the</span> <span m='554290'>minus</span> <span m='554730'>u</span> <span m='555850'>over</span> <span m='556160'>2,</span> <span m='556690'>quantity</span> <span m='557060'>squared,</span> <span m='558170'>minus</span> <span m='559940'>e</span> <span m='560110'>to</span> <span m='560280'>the</span> <span m='560350'>u</span> <span m='560860'>minus</span> <span m='561430'>e</span> <span m='561533'>to</span> <span m='561636'>the</span> <span m='561740'>minus</span> <span m='562150'>u</span> <span m='563070'>over</span> <span m='563450'>2,</span> <span m='564690'>quantity</span> <span m='565210'>squared.</span> <span m='565990'>And</span> <span m='566190'>now</span> <span m='566260'>we</span> <span m='566390'>can</span> <span m='566530'>expand</span> <span m='567080'>out</span> <span m='567310'>both</span> <span m='567530'>of</span> <span m='567620'>these</span> <span m='567900'>factors</span> <span m='568650'>and--</span> <span m='569380'>both</span> <span m='569620'>of</span> <span m='569700'>these</span> <span m='569940'>squares,</span> <span m='570450'>rather,</span> <span m='571330'>and</span> <span m='571540'>put</span> <span m='571700'>them</span> <span m='571820'>together.</span> <span m='573070'>So</span> <span m='573500'>over</span> <span m='573850'>2</span> <span m='574260'>squared</span> <span m='575100'>is</span> <span m='575520'>over</span> <span m='575820'>4</span> <span m='576300'>and</span> <span m='576420'>we</span> <span m='576510'>square</span> <span m='576850'>this</span> <span m='577540'>and</span> <span m='577660'>we</span> <span m='577795'>get</span> <span m='577930'>e</span> <span m='578085'>to</span> <span m='578240'>the</span> <span m='578460'>2u.</span> <span m='579860'>OK, so</span> <span m='580010'>then</span> <span m='580150'>we</span> <span m='580260'>get</span> <span m='580480'>2</span> <span m='580700'>times</span> <span m='581070'>e</span> <span m='581225'>to</span> <span m='581380'>the</span> <span m='581550'>u</span> <span m='582150'>times</span> <span m='582540'>e</span> <span m='582650'>to</span> <span m='582760'>the</span> <span m='582860'>minus</span> <span m='583260'>u.</span> <span m='583480'>But</span> <span m='583710'>e</span> <span m='583810'>to</span> <span m='583900'>the</span> <span m='583990'>u</span> <span m='584130'>times</span> <span m='584370'>e</span> <span m='584465'>to</span> <span m='584560'>the</span> <span m='584616'>minus</span> <span m='584673'>u</span> <span m='584730'>is</span> <span m='584915'>just</span> <span m='585100'>1,</span> <span m='585710'>so</span> <span m='585970'>plus</span> <span m='586460'>2.</span> <span m='588170'>Plus</span> <span m='589100'>e</span> <span m='589235'>to</span> <span m='589370'>the</span> <span m='589930'>minus</span> <span m='590390'>2u</span> <span m='591590'>minus</span> <span m='593530'>e</span> <span m='593715'>to</span> <span m='593900'>the</span> <span m='594080'>2u</span> <span m='596000'>minus</span> <span m='596670'>2</span> <span m='597910'>plus</span> <span m='598750'>e</span> <span m='599170'>to</span> <span m='599370'>the</span> <span m='599500'>minus</span> <span m='599630'>2u--</span> <span m='599690'>so</span> <span m='599750'>same</span> <span m='600020'>thing</span> <span m='600240'>over</span> <span m='600440'>here--</span> <span m='601360'>over</span> <span m='601710'>4.</span> <span m='603840'>OK, so</span> <span m='604150'>the</span> <span m='604420'>e</span> <span m='604750'>to</span> <span m='604800'>the</span> <span m='604850'>2u's</span> <span m='605560'>cancel</span> <span m='606130'>and</span> <span m='606260'>the</span> <span m='606330'>e</span> <span m='606425'>to</span> <span m='606520'>the</span> <span m='606610'>minus</span> <span m='606940'>2u's</span> <span m='607320'>cancel</span> <span m='607740'>and</span> <span m='607830'>we're</span> <span m='607920'>left</span> <span m='608130'>with</span> <span m='608290'>2</span> <span m='608460'>minus</span> <span m='608940'>minus</span> <span m='609310'>2.</span> <span m='609580'>That's</span> <span m='609780'>4.</span> <span m='610420'>So</span> <span m='610600'>this</span> <span m='610720'>is</span> <span m='610850'>4</span> <span m='611180'>over</span> <span m='611410'>4,</span> <span m='612070'>so</span> <span m='612210'>this</span> <span m='612390'>is</span> <span m='612510'>equal</span> <span m='612705'>to</span> <span m='612900'>1.</span> </p><p><span m='614000'>OK.</span> <span m='614360'>So</span> <span m='614580'>if</span> <span m='614800'>x</span> <span m='615110'>is</span> <span m='615240'>equal</span> <span m='615520'>to</span> <span m='615910'>cosh</span> <span m='616360'>u</span> <span m='617010'>and</span> <span m='617300'>y</span> <span m='617630'>is</span> <span m='617760'>equal</span> <span m='618010'>to</span> <span m='618080'>sinh</span> <span m='618420'>u,</span> <span m='619060'>then</span> <span m='619330'>x</span> <span m='619590'>squared</span> <span m='619930'>minus</span> <span m='620230'>y</span> <span m='620550'>squared</span> <span m='620710'>is</span> <span m='620820'>equal</span> <span m='620900'>to</span> <span m='621100'>1.</span> <span m='621970'>So</span> <span m='622240'>if</span> <span m='622340'>we</span> <span m='622440'>choose</span> <span m='623450'>a</span> <span m='623610'>point</span> <span m='624130'>(cosh</span> <span m='624490'>u,</span> <span m='624650'>sinh</span> <span m='624970'>u)</span> <span m='625190'>for</span> <span m='625360'>some</span> <span m='625630'>u,</span> <span m='626270'>that</span> <span m='626550'>point</span> <span m='627120'>lies</span> <span m='627490'>on</span> <span m='627630'>this</span> <span m='627750'>hyperbola.</span> <span m='628850'>That's</span> <span m='629090'>what</span> <span m='629230'>this</span> <span m='629410'>says.</span> <span m='629844'>That</span> <span m='630278'>this</span> <span m='630712'>point--</span> <span m='631580'>OK,</span> <span m='631920'>so</span> <span m='632950'>the</span> <span m='633330'>point</span> <span m='633770'>(cosh</span> <span m='634100'>u,</span> <span m='634510'>sinh</span> <span m='634800'>u)</span> <span m='635540'>is</span> <span m='635720'>somewhere</span> <span m='636100'>on</span> <span m='636240'>this</span> <span m='636320'>hyperbola.</span> </p><p><span m='638150'>And</span> <span m='638330'>what's</span> <span m='638480'>also</span> <span m='638780'>true</span> <span m='639640'>is</span> <span m='639840'>the</span> <span m='639980'>sort</span> <span m='640170'>of</span> <span m='640260'>reverse</span> <span m='640550'>statement.</span> <span m='641040'>If</span> <span m='641320'>you</span> <span m='641460'>look</span> <span m='641690'>at</span> <span m='641940'>all</span> <span m='642250'>such</span> <span m='642590'>points,</span> <span m='642910'>if</span> <span m='643000'>you</span> <span m='643130'>let</span> <span m='643340'>u</span> <span m='643690'>vary</span> <span m='645170'>and</span> <span m='645380'>look--</span> <span m='645980'>through</span> <span m='646170'>the</span> <span m='646230'>real</span> <span m='646410'>numbers</span> <span m='646760'>and</span> <span m='646860'>you</span> <span m='647110'>ask</span> <span m='647640'>what</span> <span m='647880'>happens</span> <span m='648210'>to</span> <span m='648290'>this</span> <span m='648440'>point</span> <span m='648730'>(cosh</span> <span m='649020'>u,</span> <span m='649510'>sinh</span> <span m='649800'>u),</span> <span m='650210'>the</span> <span m='650330'>answers is</span> <span m='650960'>that</span> <span m='651080'>it</span> <span m='651160'>traces</span> <span m='651570'>out</span> <span m='652000'>the</span> <span m='652120'>right</span> <span m='652380'>half</span> <span m='652620'>of</span> <span m='652720'>this</span> <span m='652870'>hyperbola.</span> <span m='653700'>If</span> <span m='653770'>you</span> <span m='653850'>go</span> <span m='653990'>back</span> <span m='654200'>to</span> <span m='654300'>the</span> <span m='654390'>graph</span> <span m='655370'>of</span> <span m='655780'>y</span> <span m='656130'>equals</span> <span m='656320'>cosh</span> <span m='656750'>x,</span> <span m='656805'>you'll</span> <span m='656860'>see</span> <span m='657350'>that</span> <span m='657610'>the</span> <span m='658110'>hyperbolic</span> <span m='658590'>cosine</span> <span m='659060'>function</span> <span m='659370'>is</span> <span m='659470'>always</span> <span m='659750'>positive.</span> <span m='660580'>So</span> <span m='660810'>we</span> <span m='660950'>can't--</span> <span m='662160'>over</span> <span m='662430'>here,</span> <span m='662620'>we</span> <span m='662730'>can't</span> <span m='663050'>trace</span> <span m='663350'>out</span> <span m='663530'>this</span> <span m='663720'>left</span> <span m='664070'>branch</span> <span m='664420'>where</span> <span m='664640'>x</span> <span m='664835'>is</span> <span m='665030'>negative.</span> <span m='665610'>Although</span> <span m='666260'>it's</span> <span m='666470'>easy</span> <span m='666730'>enough</span> <span m='666900'>to</span> <span m='667000'>say</span> <span m='667180'>what</span> <span m='667460'>does</span> <span m='667700'>trace</span> <span m='667980'>out</span> <span m='668120'>this</span> <span m='668260'>left</span> <span m='668560'>branch.</span> <span m='669950'>Since</span> <span m='670160'>it's</span> <span m='670340'>just</span> <span m='670820'>the</span> <span m='670980'>mirror</span> <span m='671300'>image,</span> <span m='672280'>this</span> <span m='672540'>is</span> <span m='672660'>traced</span> <span m='672950'>out</span> <span m='673070'>by</span> <span m='673760'>minus</span> <span m='674640'>cosh</span> <span m='675150'>u</span> <span m='676470'>comma</span> <span m='678140'>sinh</span> <span m='678550'>u.</span> </p><p><span m='682220'>So there's a-- so</span> <span m='682390'>the</span> <span m='682800'>hyperbolic</span> <span m='683450'>trig</span> <span m='683720'>functions</span> <span m='684320'>have</span> <span m='684520'>the</span> <span m='684600'>same</span> <span m='684940'>relationship</span> <span m='685670'>to</span> <span m='685760'>this</span> <span m='686270'>branch</span> <span m='686620'>of</span> <span m='686700'>this</span> <span m='686790'>hyperbola</span> <span m='687870'>that</span> <span m='688430'>the</span> <span m='688870'>regular</span> <span m='689290'>trig</span> <span m='689570'>functions</span> <span m='690030'>have</span> <span m='690230'>to</span> <span m='690340'>the</span> <span m='690440'>circle.</span> <span m='691120'>So</span> <span m='692240'>there's</span> <span m='692500'>where</span> <span m='692640'>the</span> <span m='692730'>words</span> <span m='693050'>hyperbolic</span> <span m='694130'>and</span> <span m='694350'>trig</span> <span m='694590'>functions</span> <span m='695070'>come</span> <span m='695280'>from.</span> </p><p><span m='696120'>So</span> <span m='696810'>let</span> <span m='696980'>me</span> <span m='697070'>say</span> <span m='697600'>one</span> <span m='697920'>more</span> <span m='698250'>thing</span> <span m='698530'>about</span> <span m='698800'>them,</span> <span m='699230'>which</span> <span m='699410'>is that</span> <span m='699550'>we</span> <span m='699680'>saw</span> <span m='700270'>that</span> <span m='700430'>they</span> <span m='700560'>have</span> <span m='701830'>this</span> <span m='702470'>analogy</span> <span m='703650'>with</span> <span m='704100'>regular</span> <span m='704630'>trig</span> <span m='704910'>functions. Right?</span> <span m='705560'>So</span> <span m='705660'>instead</span> <span m='705970'>of</span> <span m='706080'>satisfying</span> <span m='707000'>cosine</span> <span m='707510'>squared</span> <span m='707820'>plus</span> <span m='708050'>sine</span> <span m='708310'>squared</span> <span m='708530'>equals</span> <span m='708770'>1,</span> <span m='709440'>they</span> <span m='709600'>satisfy</span> <span m='710190'>cosh</span> <span m='710710'>squared</span> <span m='711450'>minus</span> <span m='711990'>sinh</span> <span m='712350'>squared</span> <span m='712740'>equals</span> <span m='713040'>1.</span> <span m='713590'>And</span> <span m='713820'>instead</span> <span m='714170'>of</span> <span m='714250'>satisfying</span> <span m='715370'>the</span> <span m='715560'>derivative</span> <span m='716150'>of</span> <span m='716330'>sine</span> <span m='716770'>equals</span> <span m='717130'>cosine</span> <span m='717630'>and</span> <span m='717710'>the</span> <span m='717790'>derivative</span> <span m='718210'>of</span> <span m='718340'>cosine</span> <span m='718780'>equals</span> <span m='719010'>minus</span> <span m='719450'>sine,</span> <span m='720250'>they</span> <span m='720420'>satisfy</span> <span m='721730'>derivative</span> <span m='722220'>of</span> <span m='722410'>cosh</span> <span m='722900'>equals</span> <span m='723150'>sinh</span> <span m='723790'>and</span> <span m='723950'>derivative</span> <span m='724350'>of</span> <span m='724450'>sinh</span> <span m='724840'>equals</span> <span m='725150'>cosh.</span> <span m='725990'>So</span> <span m='726370'>similar</span> <span m='726990'>relationships.</span> <span m='727690'>Not</span> <span m='727920'>exactly</span> <span m='728400'>the</span> <span m='728500'>same,</span> <span m='728645'>but</span> <span m='728790'>similar.</span> <span m='729680'>So</span> <span m='729900'>this</span> <span m='730050'>is</span> <span m='730160'>true</span> <span m='730400'>of</span> <span m='730460'>a</span> <span m='730550'>lot</span> <span m='730850'>of</span> <span m='730970'>trig</span> <span m='731740'>relationships,</span> <span m='733010'>that</span> <span m='733170'>there's</span> <span m='733370'>a</span> <span m='733530'>corresponding</span> <span m='735150'>formula</span> <span m='735940'>for</span> <span m='736070'>the</span> <span m='736170'>hyperbolic</span> <span m='736680'>trig</span> <span m='736960'>functions.</span> </p><p><span m='737560'>So</span> <span m='738240'>one</span> <span m='739120'>example</span> <span m='739910'>of</span> <span m='740020'>such</span> <span m='740260'>a</span> <span m='740320'>formula</span> <span m='741660'>is your--</span> <span m='742170'>for</span> <span m='742360'>example,</span> <span m='742670'>your</span> <span m='742810'>angle</span> <span m='743170'>addition</span> <span m='743610'>formulas.</span> <span m='744790'>So</span> <span m='745990'>I'm</span> <span m='746220'>going</span> <span m='746305'>to</span> <span m='746390'>just</span> <span m='746580'>leave</span> <span m='746830'>this</span> <span m='747010'>is</span> <span m='747120'>an</span> <span m='747220'>exercise</span> <span m='747860'>for</span> <span m='748090'>you. So let me,</span> <span m='749780'>I</span> <span m='749950'>guess</span> <span m='750220'>I'll</span> <span m='750450'>just</span> <span m='750660'>stick</span> <span m='750870'>it</span> <span m='751650'>in</span> <span m='751800'>this</span> <span m='751910'>funny</span> <span m='752180'>little</span> <span m='752390'>piece</span> <span m='752600'>of</span> <span m='752720'>board</span> <span m='752950'>right</span> <span m='753140'>here.</span> </p><p><span m='756480'>So, exercise.</span> <span m='761530'>Find</span> <span m='763610'>sinh</span> <span m='764906'>of</span> <span m='765340'>x</span> <span m='765840'>plus</span> <span m='766080'>y</span> <span m='770030'>and</span> <span m='770230'>cosh</span> <span m='772090'>of</span> <span m='772295'>x</span> <span m='772500'>plus</span> <span m='772790'>y</span> <span m='776920'>in</span> <span m='777090'>terms</span> <span m='778760'>of</span> <span m='783220'>sinh</span> <span m='783580'>x,</span> <span m='785590'>cosh</span> <span m='786040'>x,</span> <span m='788310'>sinh</span> <span m='788690'>y,</span> <span m='792464'>and</span> <span m='792930'>cosh</span> <span m='793350'>y.</span> <span m='794380'>So</span> <span m='795150'>in</span> <span m='795310'>other</span> <span m='795490'>words,</span> <span m='795720'>find</span> <span m='796200'>the</span> <span m='796290'>corresponding</span> <span m='797410'>formula</span> <span m='797890'>to</span> <span m='798030'>the</span> <span m='798150'>angle</span> <span m='798490'>addition</span> <span m='798880'>formula</span> <span m='799460'>in</span> <span m='799650'>that</span> <span m='799750'>case</span> <span m='800070'>of</span> <span m='800115'>the</span> <span m='800160'>hyperbolic</span> <span m='800710'>trig</span> <span m='800970'>functions.</span> </p><p><span m='801980'>So</span> <span m='802140'>I'll</span> <span m='802260'>leave</span> <span m='802430'>you</span> <span m='802560'>with</span> <span m='802710'>that.</span> </p>", 
    "_content_type_link_text": "text/plain", 
    "course_linking": [], 
    "_id": "hyperbolic-trig-functions", 
    "modification_date": "2016/09/25 01:20:19.105 GMT-4", 
    "media_index": [], 
    "always_publish": false, 
    "_owner": null, 
    "_permissions": {
        "Change portal events": {
            "acquire": false, 
            "roles": [
                "Editor", 
                "Manager", 
                "MetadataEditor", 
                "Owner"
            ]
        }, 
        "Modify portal content": {
            "acquire": false, 
            "roles": [
                "Manager", 
                "MetadataEditor"
            ]
        }, 
        "Access contents information": {
            "acquire": false, 
            "roles": [
                "Authenticated"
            ]
        }, 
        "List folder contents": {
            "acquire": false, 
            "roles": [
                "Editor", 
                "Manager", 
                "MetadataEditor", 
                "Owner"
            ]
        }, 
        "View": {
            "acquire": false, 
            "roles": [
                "Authenticated"
            ]
        }
    }, 
    "_properties": [
        [
            "title", 
            "Hyperbolic Trig Functions", 
            "string"
        ]
    ], 
    "creators": [
        "pgandhi3"
    ], 
    "courselist_features": [], 
    "_path": "/Plone/courses/mathematics/18-01sc-single-variable-calculus-fall-2010/1.-differentiation/part-b-implicit-differentiation-and-inverse-functions/session-20-hyperbolic-trig-functions/hyperbolic-trig-functions"
}