{
    "tcATmit_subject_tags": [], 
    "features_tracking": [], 
    "widgets_features": [], 
    "chp_image": "700473f1ebe2f1d427aa729724efd9b6", 
    "_classname": "CourseHomeSection", 
    "has_inline_embed": false, 
    "_content_type_image_alternate_text": "text/plain", 
    "text": "", 
    "_content_type_publisher": "text/plain", 
    "_content_type_license": "text/plain", 
    "ad_type": "HOUSE", 
    "other_information_text": "", 
    "aggregationlevel": 4, 
    "_uid": "f4ac5b96169adea8a89d71b9dbc51710", 
    "_workflow_history": {
        "page_workflow": [
            {
                "action": null, 
                "review_state": "waiting_for_authoring", 
                "comments": "", 
                "actor": "shiba", 
                "time": "2017/06/29 15:28:24.230 GMT-4"
            }, 
            {
                "action": "approve_to_staging", 
                "review_state": "ready_for_staging", 
                "actor": "shiba", 
                "comments": "", 
                "time": "2017/06/29 16:02:02.130 GMT-4"
            }, 
            {
                "action": "decline_to_qa", 
                "review_state": "waiting_for_qa", 
                "comments": "", 
                "actor": "shiba", 
                "time": "2017/07/07 11:01:57.094 GMT-4"
            }, 
            {
                "action": "approve_to_staging", 
                "review_state": "ready_for_staging", 
                "actor": "shiba", 
                "comments": "", 
                "time": "2017/07/07 16:14:53.338 GMT-4"
            }, 
            {
                "action": "decline_to_qa", 
                "review_state": "waiting_for_qa", 
                "actor": "shiba", 
                "comments": "", 
                "time": "2017/07/10 13:26:29.355 GMT-4"
            }, 
            {
                "action": "approve_to_staging", 
                "review_state": "ready_for_staging", 
                "actor": "shiba", 
                "comments": "", 
                "time": "2017/07/10 16:19:11.462 GMT-4"
            }, 
            {
                "action": "decline_to_qa", 
                "review_state": "waiting_for_qa", 
                "comments": "", 
                "actor": "shiba", 
                "time": "2017/08/11 14:12:24.228 GMT-4"
            }, 
            {
                "action": "approve_to_staging", 
                "review_state": "ready_for_staging", 
                "actor": "shiba", 
                "comments": "", 
                "time": "2017/08/11 14:44:28.678 GMT-4"
            }
        ]
    }, 
    "expirationDate": "None", 
    "_content_type_id": "text/plain", 
    "category_features": [], 
    "related_content": "", 
    "id": "index.htm", 
    "is_media_gallery": false, 
    "related_mit_links": "", 
    "rights": "This site (c) Massachusetts Institute of Technology 2017.  Content within individual courses is (c) by the individual authors unless otherwise noted. The Massachusetts Institute of Technology is providing this Work (as defined below) under the terms of this Creative Commons public license (\"CCPL\" or \"license\") unless otherwise noted. The Work is protected by copyright and/or other applicable law. Any use of the work other than as authorized under this license is prohibited. By exercising any of the rights to the Work provided here, You (as defined below) accept and agree to be bound by the terms of this license. The Licensor, the Massachusetts Institute of Technology, grants You the rights contained here in consideration of Your acceptance of such terms and conditions.", 
    "contributors": [], 
    "effectiveDate": "2017/06/29 16:02:02.102 GMT-4", 
    "title": "Course Home", 
    "parent_module": "2be15d66c0601364e35f5c5f35a9fccf", 
    "_content_type_ad_type": "text/plain", 
    "_userdefined_roles": [], 
    "curriculum_information": "", 
    "unique_identifier": "https://ocw.mit.edu/courses/music-and-theater-arts/21m-385-interactive-music-systems-fall-2016/index.htm", 
    "_gopip": 0, 
    "location": "", 
    "_atrefs": {
        "chp_image": [
            "700473f1ebe2f1d427aa729724efd9b6"
        ], 
        "BelongsTo": [
            "2be15d66c0601364e35f5c5f35a9fccf"
        ], 
        "chp_image_thumb": [
            "35dc30d3fc491fa06c60784037191318"
        ]
    }, 
    "_content_type_title": "text/plain", 
    "feature_requirements": [], 
    "_atbrefs": {}, 
    "_content_type": "text/html", 
    "_type": "CourseHomeSection", 
    "technical_location": "https://ocw.mit.edu/courses/music-and-theater-arts/21m-385-interactive-music-systems-fall-2016/index.htm", 
    "other_versions": "", 
    "description": "<p>This course explores audio synthesis, musical structure, human computer interaction (HCI), and visual presentation for the creation of interactive musical experiences. Topics include audio synthesis; mixing and looping; MIDI sequencing; generative composition; motion sensors; music games; and graphics for UI, visualization, and aesthetics. Weekly programming assignments in python are included. Student teams build an original, dynamic, and engaging interactive music system for their final project.</p>", 
    "software_requirements": [
        {
            "software_type_col": "Browser", 
            "minimum_version_col": "40.0", 
            "software_name_col": "Chrome", 
            "maximum_version_col": ""
        }, 
        {
            "software_type_col": "Browser", 
            "minimum_version_col": "8.0", 
            "software_name_col": "Safari", 
            "maximum_version_col": ""
        }, 
        {
            "software_type_col": "Browser", 
            "minimum_version_col": "38.0", 
            "software_name_col": "Mozilla Firefox", 
            "maximum_version_col": ""
        }, 
        {
            "software_type_col": "Browser", 
            "minimum_version_col": "9.0", 
            "software_name_col": "Internet Explorer", 
            "maximum_version_col": ""
        }, 
        {
            "software_type_col": "Browser", 
            "minimum_version_col": "13.1", 
            "software_name_col": "Edge", 
            "maximum_version_col": ""
        }
    ], 
    "_content_type_technical_location": "text/plain", 
    "_layout": "custom_view", 
    "_properties": [
        [
            "title", 
            "Course Home", 
            "string"
        ]
    ], 
    "subject": [], 
    "_content_type_rights": "text/html", 
    "_directly_provided": [
        "Products.CMFEditions.interfaces.IVersioned"
    ], 
    "image_caption_text": "<p><em>Guitar Hero</em> has become a cultural phenomenon with impact not only on the video game and music industries, but has been utlilized in the field of health for treatment and recovery from various conditions. (Courtesy of <a href=\"https://www.flickr.com/photos/marvinkuo/2084937750\">Marvin Kuo</a> on Flickr. License: CC BY.)</p>", 
    "image_alternate_text": "A person playing a Guitar Hero controller that looks like a red electric guitar with multi-colored buttons instead of strings.", 
    "_content_type_materialtype": "text/plain", 
    "tcATmit_instructional_tags": [], 
    "creation_date": "2017/06/29 15:28:24.071 GMT-4", 
    "highlights_text": "", 
    "parent_uid": "2be15d66c0601364e35f5c5f35a9fccf", 
    "modification_date": "2017/08/11 14:44:28.653 GMT-4", 
    "course_linking": [], 
    "publisher": "MIT OpenCourseWare", 
    "excludeFromNav": false, 
    "language": "", 
    "license": "https://creativecommons.org/licenses/by-nc-sa/3.0/us/", 
    "chp_image_thumb": "35dc30d3fc491fa06c60784037191318", 
    "url_rewrite_patterns": [], 
    "always_publish": false, 
    "_id": "index.htm", 
    "materialtype": "Other", 
    "technical_requirements_text": "", 
    "_content_type_unique_identifier": "text/plain", 
    "_content_type_description": "text/html", 
    "_owner": null, 
    "_defaultpage": "", 
    "firstTimeEdit": true, 
    "_permissions": {
        "Modify portal content": {
            "acquire": false, 
            "roles": [
                "Manager", 
                "MetadataEditor"
            ]
        }, 
        "Access contents information": {
            "acquire": false, 
            "roles": [
                "Authenticated"
            ]
        }, 
        "View": {
            "acquire": false, 
            "roles": [
                "Authenticated"
            ]
        }
    }, 
    "ad_champion_text": "", 
    "allowDiscussion": false, 
    "metadata_contributor_list": [], 
    "_content_type_image_caption_text": "text/html", 
    "creators": [
        "shiba"
    ], 
    "courselist_features": [], 
    "_ac_local_roles": {
        "shiba": [
            "Owner"
        ]
    }, 
    "_path": "/Plone/courses/music-and-theater-arts/21m-385-interactive-music-systems-fall-2016/index.htm"
}