{
    "text": "<div class=\"navigation progress\"><button id=\"continue_btn\" type=\"button\" onclick=\"window.location.assign('/courses/aeronautics-and-astronautics/16-90-computational-methods-in-aerospace-engineering-spring-2014/numerical-integration-of-ordinary-differential-equations/overview2');\">Continue<span>Overview</span></button></div> <h2 class=\"subhead\">Contents of a Unit</h2> <p>Each unit is composed of:</p> <ul> <li>a set of readings that include some short videos to emphasize key ideas. Throughout the readings are embedded questions that are intended to help check your understanding of the material in the readings and videos. Each embedded question&nbsp;also has a corresponding solution, which you may use to check you answer.</li> <li>sample problems that are similar to the homework problems. A solution is provided for each sample problem. The sample problems do not have answers to be entered, but we suggest you attempt to solve the sample problems before continuing.</li> </ul> <p><strong>1.1 Overview</strong></p> <ul class=\"arrow\"> <li><a href=\"./resolveuid/223cf785d78eaf28f88b913e0d5df7b1\">1.1.1 Measurable Outcomes</a></li> <li><a href=\"./resolveuid/9e0b2936bf45dbe7099763b67bb223f3\">1.1.2 Pre-requisite Material</a></li> </ul> <p><strong>1.2 Discretizing ODEs</strong></p> <ul class=\"arrow\"> <li><a href=\"./resolveuid/f239c31a53e628b3a06a8e6fff5ed57c\">1.2.1 First-Order ODEs</a></li> <li><a href=\"./resolveuid/18e3e2fd45b738b5b9bb4940200d150a\">1.2.2 An Example of First Order ODE</a></li> <li><a href=\"./resolveuid/0baef83edfb4b31266ed4f9fe5c876ba\">1.2.3 Discretization</a></li> <li><a href=\"./resolveuid/9b1b577d12e2e60d75d3f8fb6ed609d5\">1.2.4 The Forward Euler Method</a></li> <li><a href=\"./resolveuid/ae250ef953d178da8810f88b0aaa6408\">1.2.5 The Midpoint Method</a></li> </ul> <p><strong>1.3 Order of Accuracy</strong></p> <ul class=\"arrow\"> <li><a href=\"./resolveuid/a3fbfbbde140393baed5af945a9316f9\">1.3.1 Errors</a></li> <li><a href=\"./resolveuid/6121a3cad8f1c65278216a952ea8ff2c\">1.3.2 Local Truncation Error</a></li> <li><a href=\"./resolveuid/09523d4baafc8f4ce9b7d3d67ad30e7b\">1.3.3 Local Order of Accuracy</a></li> <li><a href=\"./resolveuid/58553753c9ccc012f030d87844ae8db5\">1.3.4 Definition of Multi-Step Methods</a></li> <li><a href=\"./resolveuid/ff3b4491f1d1d23e2d3a939de701c5c2\">1.3.5 Example of Most Accurate Multi-Step Method</a></li> </ul> <p><strong>1.4 Convergence</strong></p> <ul class=\"arrow\"> <li><a href=\"./resolveuid/99ee39b779f49afb0849103c798f1c50\">1.4.1 Types of Errors</a></li> <li><a href=\"./resolveuid/c1ab4737a98d26fbdcee7c83dfab47d4\">1.4.2 Convergence of Numerical Methods</a></li> <li><a href=\"./resolveuid/bc0d43fe1169e2be34aacfba7fd50607\">1.4.3 Rate of Convergence Global Order of Accuracy</a></li> </ul> <p><strong>1.5 Zero Stability and the Dahlquist Equivalence Theorem</strong></p> <ul class=\"arrow\"> <li><a href=\"./resolveuid/fab29380eb6691e4e3ce4dfce3f50fbe\">1.5.1 Consistency</a></li> <li><a href=\"./resolveuid/69a13333afb590eed339c7fba31529fd\">1.5.2 Stability</a></li> <li><a href=\"./resolveuid/e726e961fd269620907a1248b173744d\">1.5.3 Dahlquist Equivalence Theorem</a></li> </ul> <p><strong>1.6 Systems of ODE's and Eigenvalue Stability</strong></p> <ul class=\"arrow\"> <li><a href=\"./resolveuid/36e637ced6ffe05d36060d537611ad2e\">1.6.1 Nonlinear Systems</a></li> <li><a href=\"./resolveuid/e8dbfb2204cb6fc4431e0b32e5ea65da\">1.6.2 Linear Constant Coefficient Systems</a></li> <li><a href=\"./resolveuid/04ce95ca3b3acc385d8381923a3dd6fe\">1.6.3 Eigenvalue Stability for a Linear ODE</a></li> <li><a href=\"./resolveuid/64bbf17403266a46283d2d2450cf7589\">1.6.4 Imaginary Eigenvalues</a></li> </ul> <p><strong>1.7 Stiffness and Implicit Methods</strong></p> <ul class=\"arrow\"> <li><a href=\"./resolveuid/935324e31ab2cb5790590ba1f034fcd5\">1.7.1 Stiffness</a></li> <li><a href=\"./resolveuid/900cc931acfbc43572d7f303ce81ef83\">1.7.2 Spectral Condition Number</a></li> <li><a href=\"./resolveuid/543e84063445482c020205c77ce31e71\">1.7.3 Implicit Methods for Linear Systems of ODEs</a></li> <li><a href=\"./resolveuid/b363c2d01814cf4c0cb36fe540840d02\">1.7.4 Newton-Raphson Implement Implicit Methods on Nonlinear Problems</a></li> <li><a href=\"./resolveuid/84564160240cf3bee329df42818d2eaa\">1.7.5 Apply Newton-Rhapson</a></li> </ul> <p><strong>1.8 Multi-Step Methods</strong></p> <ul class=\"arrow\"> <li><a href=\"./resolveuid/67717326dffb74445162101fd9a9ec91\">1.8.1 Adams-Bashforth Methods</a></li> <li><a href=\"./resolveuid/75e73977a306f5532134b4e0a24fdb81\">1.8.2 Adams-Moulton Methods</a></li> <li><a href=\"./resolveuid/998bd38300b68dbd2d38c251f8262e37\">1.8.3 Backwards Differentiation Methods</a></li> <li><a href=\"./resolveuid/f02cecfe1cd48c17eeff25be1aaa895d\">1.8.4 Backwards Differentiation Excercise</a></li> </ul> <p><strong>1.9 Runge-Kutta Methods</strong></p> <ul class=\"arrow\"> <li><a href=\"./resolveuid/c5e7e539a82c8e620c8ae738a18f6f10\">1.9.1 Two-Stage Runge-Kutta Methods</a></li> <li><a href=\"./resolveuid/d5200dfdd11c9d138626a6b253c602ff\">1.9.2 Four-Stage Runge-Kutta Method</a></li> <li><a href=\"./resolveuid/1f5a4263b1f3f52202d6af00f58ae206\">1.9.3 Stability Regions</a></li> </ul> <div class=\"navigation progress\"><button id=\"continue_btn\" type=\"button\" onclick=\"window.location.assign('/courses/aeronautics-and-astronautics/16-90-computational-methods-in-aerospace-engineering-spring-2014/numerical-integration-of-ordinary-differential-equations/overview2');\">Continue<span>Overview</span></button></div> <p>&nbsp;</p>", 
    "_content_type_license": "text/plain", 
    "_uid": "5cae4847c59aa247c7673c0c6b0abef1", 
    "title": "Unit 1: Numerical Integration of Ordinary Differential Equations", 
    "_ac_local_roles": {
        "jmartis": [
            "Owner"
        ]
    }, 
    "location": "", 
    "_content_type_course_identifier": "text/plain", 
    "_atbrefs": {
        "isReferencing": [
            "1e0ad6584271b05964ac402248219b7c", 
            "223cf785d78eaf28f88b913e0d5df7b1"
        ]
    }, 
    "constrainTypesMode": 0, 
    "technical_location": "https://ocw.mit.edu/courses/aeronautics-and-astronautics/16-90-computational-methods-in-aerospace-engineering-spring-2014/numerical-integration-of-ordinary-differential-equations", 
    "software_requirements": [
        {
            "software_type_col": "Browser", 
            "minimum_version_col": "40.0", 
            "software_name_col": "Chrome", 
            "maximum_version_col": ""
        }, 
        {
            "software_type_col": "Browser", 
            "minimum_version_col": "8.0", 
            "software_name_col": "Safari", 
            "maximum_version_col": ""
        }, 
        {
            "software_type_col": "Browser", 
            "minimum_version_col": "38.0", 
            "software_name_col": "Mozilla Firefox", 
            "maximum_version_col": ""
        }, 
        {
            "software_type_col": "Browser", 
            "minimum_version_col": "9.0", 
            "software_name_col": "Internet Explorer", 
            "maximum_version_col": ""
        }, 
        {
            "software_type_col": "Browser", 
            "minimum_version_col": "13.1", 
            "software_name_col": "Edge", 
            "maximum_version_col": ""
        }
    ], 
    "_content_type_technical_location": "text/plain", 
    "_content_type_rights": "text/html", 
    "_directly_provided": [
        "Products.CMFEditions.interfaces.IVersioned"
    ], 
    "parent_uid": "c20ba6edc9d26448cd5545a1ccb7c3cd", 
    "excludeFromNav": false, 
    "_content_type_unique_identifier": "text/plain", 
    "allowDiscussion": false, 
    "metadata_contributor_list": [], 
    "locallyAllowedTypes": [
        "OCWImage", 
        "CourseSection", 
        "OCWExtFile", 
        "OCWFile", 
        "MediaResource"
    ], 
    "_content_type_text": "text/html", 
    "ad_type": "HOUSE", 
    "creation_date": "2015/11/06 09:48:31.952 US/Eastern", 
    "aggregationlevel": 3, 
    "duration": "", 
    "immediatelyAddableTypes": [
        "OCWImage", 
        "CourseSection", 
        "OCWExtFile", 
        "OCWFile", 
        "MediaResource"
    ], 
    "subject": [], 
    "_content_type_short_page_title": "text/plain", 
    "effectiveDate": "2015/11/18 04:37:12.690 US/Eastern", 
    "parent_module": "c20ba6edc9d26448cd5545a1ccb7c3cd", 
    "is_mathml_document": false, 
    "bottomtext": "", 
    "short_page_title": "Unit 1: Numerical Integration of ODEs", 
    "section_identifier": null, 
    "related_mit_links": "", 
    "_content_type_ad_type": "text/plain", 
    "_layout": "custom_view", 
    "_workflow_history": {
        "page_workflow": [
            {
                "action": null, 
                "review_state": "waiting_for_authoring", 
                "actor": "jmartis", 
                "comments": "", 
                "time": "2015/11/06 09:48:32.075 US/Eastern"
            }, 
            {
                "action": "approve_to_staging", 
                "review_state": "ready_for_staging", 
                "comments": "", 
                "actor": "pgandhi3", 
                "time": "2015/11/18 04:37:13.472 US/Eastern"
            }, 
            {
                "action": "decline_to_qa", 
                "review_state": "waiting_for_qa", 
                "actor": "bmcintosh", 
                "comments": "", 
                "time": "2016/01/13 13:14:36.775 US/Eastern"
            }, 
            {
                "action": "decline", 
                "review_state": "waiting_for_authoring", 
                "comments": "", 
                "actor": "asingh33", 
                "time": "2016/01/14 06:42:06.037 US/Eastern"
            }, 
            {
                "action": "approve_to_staging", 
                "review_state": "ready_for_staging", 
                "comments": "", 
                "actor": "asingh33", 
                "time": "2016/01/14 06:42:09.359 US/Eastern"
            }, 
            {
                "action": "decline_to_qa", 
                "review_state": "waiting_for_qa", 
                "actor": "bmcintosh", 
                "comments": "", 
                "time": "2016/05/24 18:48:28.495 GMT-4"
            }, 
            {
                "action": "approve_to_staging", 
                "review_state": "ready_for_staging", 
                "actor": "bmcintosh", 
                "comments": "", 
                "time": "2016/05/24 19:33:32.679 GMT-4"
            }, 
            {
                "action": "decline_to_qa", 
                "review_state": "waiting_for_qa", 
                "comments": "", 
                "actor": "bmcintosh", 
                "time": "2016/05/25 09:39:53.164 GMT-4"
            }, 
            {
                "action": "approve_to_staging", 
                "review_state": "ready_for_staging", 
                "actor": "bmcintosh", 
                "comments": "", 
                "time": "2016/05/25 10:21:51.143 GMT-4"
            }, 
            {
                "action": "decline_to_qa", 
                "review_state": "waiting_for_qa", 
                "comments": "", 
                "actor": "bmcintosh", 
                "time": "2016/05/25 14:57:54.342 GMT-4"
            }, 
            {
                "action": "approve_to_staging", 
                "review_state": "ready_for_staging", 
                "actor": "bmcintosh", 
                "comments": "", 
                "time": "2016/05/26 13:27:12.062 GMT-4"
            }, 
            {
                "action": "decline_to_qa", 
                "review_state": "waiting_for_qa", 
                "comments": "", 
                "actor": "bmcintosh", 
                "time": "2016/05/27 10:09:31.725 GMT-4"
            }, 
            {
                "action": "approve_to_staging", 
                "review_state": "ready_for_staging", 
                "comments": "", 
                "actor": "bmcintosh", 
                "time": "2016/05/27 10:12:00.587 GMT-4"
            }, 
            {
                "action": "decline_to_qa", 
                "review_state": "waiting_for_qa", 
                "actor": "bmcintosh", 
                "comments": "", 
                "time": "2016/05/27 10:21:41.558 GMT-4"
            }, 
            {
                "action": "approve_to_staging", 
                "review_state": "ready_for_staging", 
                "actor": "bmcintosh", 
                "comments": "", 
                "time": "2016/05/27 10:40:13.238 GMT-4"
            }, 
            {
                "action": "decline_to_qa", 
                "review_state": "waiting_for_qa", 
                "comments": "", 
                "actor": "bmcintosh", 
                "time": "2016/07/19 15:46:15.869 GMT-4"
            }, 
            {
                "action": "approve_to_staging", 
                "review_state": "ready_for_staging", 
                "actor": "bmcintosh", 
                "comments": "", 
                "time": "2016/07/20 13:24:45.200 GMT-4"
            }
        ]
    }, 
    "_classname": "CourseSection", 
    "_content_type_materialtype": "text/plain", 
    "_userdefined_roles": [], 
    "publisher": "MIT OpenCourseWare", 
    "nextPreviousEnabled": false, 
    "language": "", 
    "url_rewrite_patterns": [], 
    "widgets_features": [], 
    "category_features": [], 
    "firstTimeEdit": true, 
    "feature_requirements": [], 
    "list_in_left_nav": false, 
    "short_name_tlp": "", 
    "expirationDate": "None", 
    "_content_type_id": "text/plain", 
    "contributor_list": [], 
    "is_media_gallery": false, 
    "contributors": [], 
    "_gopip": 5, 
    "_content_type_title": "text/plain", 
    "course_linking": [], 
    "_atrefs": {
        "BelongsTo": [
            "c20ba6edc9d26448cd5545a1ccb7c3cd"
        ], 
        "isReferencing": [
            "36e637ced6ffe05d36060d537611ad2e", 
            "67717326dffb74445162101fd9a9ec91", 
            "ff3b4491f1d1d23e2d3a939de701c5c2", 
            "69a13333afb590eed339c7fba31529fd", 
            "04ce95ca3b3acc385d8381923a3dd6fe", 
            "900cc931acfbc43572d7f303ce81ef83", 
            "e8dbfb2204cb6fc4431e0b32e5ea65da", 
            "09523d4baafc8f4ce9b7d3d67ad30e7b", 
            "bc0d43fe1169e2be34aacfba7fd50607", 
            "1f5a4263b1f3f52202d6af00f58ae206", 
            "9b1b577d12e2e60d75d3f8fb6ed609d5", 
            "998bd38300b68dbd2d38c251f8262e37", 
            "a3fbfbbde140393baed5af945a9316f9", 
            "ae250ef953d178da8810f88b0aaa6408", 
            "0baef83edfb4b31266ed4f9fe5c876ba", 
            "c1ab4737a98d26fbdcee7c83dfab47d4", 
            "d5200dfdd11c9d138626a6b253c602ff", 
            "543e84063445482c020205c77ce31e71", 
            "c5e7e539a82c8e620c8ae738a18f6f10", 
            "64bbf17403266a46283d2d2450cf7589", 
            "b363c2d01814cf4c0cb36fe540840d02", 
            "75e73977a306f5532134b4e0a24fdb81", 
            "e726e961fd269620907a1248b173744d", 
            "6121a3cad8f1c65278216a952ea8ff2c", 
            "f239c31a53e628b3a06a8e6fff5ed57c", 
            "99ee39b779f49afb0849103c798f1c50", 
            "18e3e2fd45b738b5b9bb4940200d150a", 
            "f02cecfe1cd48c17eeff25be1aaa895d", 
            "223cf785d78eaf28f88b913e0d5df7b1", 
            "9e0b2936bf45dbe7099763b67bb223f3", 
            "935324e31ab2cb5790590ba1f034fcd5", 
            "84564160240cf3bee329df42818d2eaa", 
            "58553753c9ccc012f030d87844ae8db5", 
            "fab29380eb6691e4e3ce4dfce3f50fbe"
        ]
    }, 
    "other_platform_requirements": "", 
    "license": "http://creativecommons.org/licenses/by-nc-sa/3.0/us/", 
    "rights": "This site (c) Massachusetts Institute of Technology 2015.  Content within individual courses is (c) by the individual authors unless otherwise noted. The Massachusetts Institute of Technology is providing this Work (as defined below) under the terms of this Creative Commons public license (\"CCPL\" or \"license\") unless otherwise noted. The Work is protected by copyright and/or other applicable law. Any use of the work other than as authorized under this license is prohibited. By exercising any of the rights to the Work provided here, You (as defined below) accept and agree to be bound by the terms of this license. The Licensor, the Massachusetts Institute of Technology, grants You the rights contained here in consideration of Your acceptance of such terms and conditions.", 
    "hide_Page_title": false, 
    "_defaultpage": "", 
    "tcATmit_subject_tags": [], 
    "features_tracking": [], 
    "ad_champion_text": "", 
    "has_inline_embed": false, 
    "unique_identifier": "https://ocw.mit.edu/courses/aeronautics-and-astronautics/16-90-computational-methods-in-aerospace-engineering-spring-2014/numerical-integration-of-ordinary-differential-equations", 
    "is_image_gallery": false, 
    "id": "numerical-integration-of-ordinary-differential-equations", 
    "materialtype": "Other", 
    "_type": "CourseSection", 
    "description": "", 
    "course_identifier": "https://ocw.mit.edu/courses/aeronautics-and-astronautics/16-90-computational-methods-in-aerospace-engineering-spring-2014", 
    "_content_type_publisher": "text/plain", 
    "tcATmit_instructional_tags": [], 
    "_content_type": "text/html", 
    "creators": [
        "jmartis"
    ], 
    "modification_date": "2016/10/20 06:45:18.078 GMT-4", 
    "always_publish": false, 
    "_owner": null, 
    "_permissions": {
        "Change portal events": {
            "acquire": false, 
            "roles": [
                "Editor", 
                "Manager", 
                "MetadataEditor", 
                "Owner"
            ]
        }, 
        "Modify portal content": {
            "acquire": false, 
            "roles": [
                "Manager", 
                "MetadataEditor"
            ]
        }, 
        "Access contents information": {
            "acquire": false, 
            "roles": [
                "Authenticated"
            ]
        }, 
        "List folder contents": {
            "acquire": false, 
            "roles": [
                "Editor", 
                "Manager", 
                "MetadataEditor", 
                "Owner"
            ]
        }, 
        "View": {
            "acquire": false, 
            "roles": [
                "Authenticated"
            ]
        }
    }, 
    "_properties": [
        [
            "title", 
            "Unit 1: Numerical Integration of Ordinary Differential Equations", 
            "string"
        ]
    ], 
    "_id": "numerical-integration-of-ordinary-differential-equations", 
    "courselist_features": [], 
    "_path": "/Plone/courses/aeronautics-and-astronautics/16-90-computational-methods-in-aerospace-engineering-spring-2014/numerical-integration-of-ordinary-differential-equations"
}