{
    "text": "<div class=\"navigation pagination\">\r\n<ul>\r\n<li id=\"top_bck_btn\"><a href=\"./resolveuid/223cf785d78eaf28f88b913e0d5df7b1\">&lt;<span>Overview</span></a></li>\r\n<li id=\"flp_btn_1\"><a href=\"./resolveuid/223cf785d78eaf28f88b913e0d5df7b1\">1.1.1<span>Measurable Outcomes</span></a></li>\r\n<li id=\"flp_btn_2\" class=\"button_selected\"><a href=\"./resolveuid/9e0b2936bf45dbe7099763b67bb223f3\">1.1.2<span>Pre-requisite Material</span></a></li>\r\n<li id=\"top_continue_btn\"><a href=\"./resolveuid/f239c31a53e628b3a06a8e6fff5ed57c\">&gt;<span>Discretizing ODEs</span></a></li>\r\n</ul>\r\n</div>\r\n<!--?xml version='1.0' encoding='utf-8'?-->\r\n<h2 class=\"subhead\">1.1.2 Pre-requisite material</h2>\r\n<p>Before reading this chapter, you may wish to review...</p>\r\n<ol class=\"enumerate\">\r\n<li>\r\n<p><a href=\"http://ocw.mit.edu/courses/mathematics/18-03-differential-equations-spring-2010/video-lectures/lecture-3-solving-first-order-linear-odes/\">Video: solutions of first-order ODEs</a></p>\r\n</li>\r\n<li>\r\n<p><a href=\"http://ocw.mit.edu/courses/mathematics/18-01-single-variable-calculus-fall-2006/video-lectures/lecture-38-taylors-series/\">Video: Taylor series expansions</a></p>\r\n</li>\r\n<li>\r\n<p><a href=\"http://www.mathworks.com/help/matlab/\">MATLAB&copy; plotting basics</a></p>\r\n</li>\r\n</ol>\r\n<div class=\"navigation progress\"><button id=\"bck_btn\" type=\"button\" onclick=\"window.location.assign('/courses/aeronautics-and-astronautics/16-90-computational-methods-in-aerospace-engineering-spring-2014/numerical-integration-of-ordinary-differential-equations/overview2');\">Back<span>Overview</span></button> <button id=\"continue_btn\" type=\"button\" onclick=\"window.location.assign('/courses/aeronautics-and-astronautics/16-90-computational-methods-in-aerospace-engineering-spring-2014/numerical-integration-of-ordinary-differential-equations/discretizing-odes');\">Continue<span>Discretizing ODEs</span></button></div>", 
    "_content_type_license": "text/plain", 
    "_uid": "9e0b2936bf45dbe7099763b67bb223f3", 
    "title": "1.1 Overview", 
    "_ac_local_roles": {
        "jmartis": [
            "Owner"
        ]
    }, 
    "location": "", 
    "_content_type_course_identifier": "text/plain", 
    "_atbrefs": {
        "isReferencing": [
            "5cae4847c59aa247c7673c0c6b0abef1", 
            "9e0b2936bf45dbe7099763b67bb223f3", 
            "223cf785d78eaf28f88b913e0d5df7b1", 
            "f239c31a53e628b3a06a8e6fff5ed57c"
        ]
    }, 
    "constrainTypesMode": -1, 
    "_content_type_section_identifier": "text/plain", 
    "technical_location": "https://ocw.mit.edu/courses/aeronautics-and-astronautics/16-90-computational-methods-in-aerospace-engineering-spring-2014/numerical-integration-of-ordinary-differential-equations/overview2/1690r-pre-requisite-material2", 
    "software_requirements": [
        {
            "software_type_col": "Browser", 
            "minimum_version_col": "40.0", 
            "software_name_col": "Chrome", 
            "maximum_version_col": ""
        }, 
        {
            "software_type_col": "Browser", 
            "minimum_version_col": "8.0", 
            "software_name_col": "Safari", 
            "maximum_version_col": ""
        }, 
        {
            "software_type_col": "Browser", 
            "minimum_version_col": "38.0", 
            "software_name_col": "Mozilla Firefox", 
            "maximum_version_col": ""
        }, 
        {
            "software_type_col": "Browser", 
            "minimum_version_col": "9.0", 
            "software_name_col": "Internet Explorer", 
            "maximum_version_col": ""
        }, 
        {
            "software_type_col": "Browser", 
            "minimum_version_col": "13.1", 
            "software_name_col": "Edge", 
            "maximum_version_col": ""
        }
    ], 
    "_content_type_technical_location": "text/plain", 
    "_content_type_rights": "text/html", 
    "_directly_provided": [
        "Products.CMFEditions.interfaces.IVersioned"
    ], 
    "parent_uid": "223cf785d78eaf28f88b913e0d5df7b1", 
    "excludeFromNav": false, 
    "_content_type_unique_identifier": "text/plain", 
    "allowDiscussion": false, 
    "metadata_contributor_list": [], 
    "locallyAllowedTypes": [
        "OCWImage", 
        "CourseSection", 
        "OCWExtFile", 
        "OCWFile", 
        "MediaResource"
    ], 
    "_content_type_text": "text/html", 
    "ad_type": "HOUSE", 
    "creation_date": "2015/11/06 09:48:34.332 US/Eastern", 
    "aggregationlevel": 3, 
    "duration": "", 
    "immediatelyAddableTypes": [
        "OCWImage", 
        "CourseSection", 
        "OCWExtFile", 
        "OCWFile", 
        "MediaResource"
    ], 
    "subject": [], 
    "_content_type_short_page_title": "text/plain", 
    "effectiveDate": "2015/11/18 04:40:43.606 US/Eastern", 
    "parent_module": "c20ba6edc9d26448cd5545a1ccb7c3cd", 
    "is_mathml_document": false, 
    "bottomtext": "", 
    "short_page_title": "1.1.2 Pre-requisite Material", 
    "section_identifier": "https://ocw.mit.edu/courses/aeronautics-and-astronautics/16-90-computational-methods-in-aerospace-engineering-spring-2014/numerical-integration-of-ordinary-differential-equations", 
    "related_mit_links": "", 
    "_content_type_ad_type": "text/plain", 
    "_layout": "custom_view", 
    "_workflow_history": {
        "page_workflow": [
            {
                "action": null, 
                "review_state": "waiting_for_authoring", 
                "actor": "jmartis", 
                "comments": "", 
                "time": "2015/11/06 09:48:34.373 US/Eastern"
            }, 
            {
                "action": "approve_to_staging", 
                "review_state": "ready_for_staging", 
                "comments": "", 
                "actor": "pgandhi3", 
                "time": "2015/11/18 04:40:43.679 US/Eastern"
            }, 
            {
                "action": "decline_to_qa", 
                "review_state": "waiting_for_qa", 
                "actor": "bmcintosh", 
                "comments": "", 
                "time": "2015/12/07 09:11:11.576 US/Eastern"
            }, 
            {
                "action": "approve_to_staging", 
                "review_state": "ready_for_staging", 
                "comments": "", 
                "actor": "jmartis", 
                "time": "2015/12/08 07:48:11.686 US/Eastern"
            }, 
            {
                "action": "decline_to_qa", 
                "review_state": "waiting_for_qa", 
                "actor": "bmcintosh", 
                "comments": "", 
                "time": "2016/04/28 13:53:26.248 GMT-4"
            }, 
            {
                "action": "approve_to_staging", 
                "review_state": "ready_for_staging", 
                "comments": "", 
                "actor": "jmartis", 
                "time": "2016/05/25 06:14:52.967 GMT-4"
            }, 
            {
                "action": "decline_to_qa", 
                "review_state": "waiting_for_qa", 
                "actor": "bmcintosh", 
                "comments": "", 
                "time": "2016/07/20 10:56:52.567 GMT-4"
            }, 
            {
                "action": "approve_to_staging", 
                "review_state": "ready_for_staging", 
                "actor": "bmcintosh", 
                "comments": "", 
                "time": "2016/07/20 10:58:36.074 GMT-4"
            }
        ]
    }, 
    "_classname": "CourseSection", 
    "_content_type_materialtype": "text/plain", 
    "_userdefined_roles": [], 
    "publisher": "MIT OpenCourseWare", 
    "nextPreviousEnabled": false, 
    "language": "", 
    "url_rewrite_patterns": [], 
    "widgets_features": [], 
    "category_features": [], 
    "firstTimeEdit": true, 
    "feature_requirements": [], 
    "list_in_left_nav": false, 
    "short_name_tlp": "", 
    "expirationDate": "None", 
    "_content_type_id": "text/plain", 
    "contributor_list": [], 
    "is_media_gallery": false, 
    "contributors": [], 
    "_gopip": 0, 
    "_content_type_title": "text/plain", 
    "course_linking": [], 
    "_atrefs": {
        "BelongsTo": [
            "c20ba6edc9d26448cd5545a1ccb7c3cd"
        ], 
        "isReferencing": [
            "223cf785d78eaf28f88b913e0d5df7b1", 
            "9e0b2936bf45dbe7099763b67bb223f3", 
            "f239c31a53e628b3a06a8e6fff5ed57c"
        ]
    }, 
    "other_platform_requirements": "", 
    "license": "http://creativecommons.org/licenses/by-nc-sa/3.0/us/", 
    "rights": "This site (c) Massachusetts Institute of Technology 2015.  Content within individual courses is (c) by the individual authors unless otherwise noted. The Massachusetts Institute of Technology is providing this Work (as defined below) under the terms of this Creative Commons public license (\"CCPL\" or \"license\") unless otherwise noted. The Work is protected by copyright and/or other applicable law. Any use of the work other than as authorized under this license is prohibited. By exercising any of the rights to the Work provided here, You (as defined below) accept and agree to be bound by the terms of this license. The Licensor, the Massachusetts Institute of Technology, grants You the rights contained here in consideration of Your acceptance of such terms and conditions.", 
    "hide_Page_title": false, 
    "_defaultpage": "", 
    "tcATmit_subject_tags": [], 
    "features_tracking": [], 
    "ad_champion_text": "", 
    "has_inline_embed": false, 
    "unique_identifier": "https://ocw.mit.edu/courses/aeronautics-and-astronautics/16-90-computational-methods-in-aerospace-engineering-spring-2014/numerical-integration-of-ordinary-differential-equations/overview2/1690r-pre-requisite-material2", 
    "is_image_gallery": false, 
    "id": "1690r-pre-requisite-material2", 
    "materialtype": "Other", 
    "_type": "CourseSection", 
    "description": "", 
    "course_identifier": "https://ocw.mit.edu/courses/aeronautics-and-astronautics/16-90-computational-methods-in-aerospace-engineering-spring-2014", 
    "_content_type_publisher": "text/plain", 
    "tcATmit_instructional_tags": [], 
    "_content_type": "text/html", 
    "creators": [
        "jmartis"
    ], 
    "modification_date": "2016/10/27 11:38:49.311 GMT-4", 
    "always_publish": true, 
    "_owner": null, 
    "_permissions": {
        "Change portal events": {
            "acquire": false, 
            "roles": [
                "Editor", 
                "Manager", 
                "MetadataEditor", 
                "Owner"
            ]
        }, 
        "Modify portal content": {
            "acquire": false, 
            "roles": [
                "Manager", 
                "MetadataEditor"
            ]
        }, 
        "Access contents information": {
            "acquire": false, 
            "roles": [
                "Authenticated"
            ]
        }, 
        "List folder contents": {
            "acquire": false, 
            "roles": [
                "Editor", 
                "Manager", 
                "MetadataEditor", 
                "Owner"
            ]
        }, 
        "View": {
            "acquire": false, 
            "roles": [
                "Authenticated"
            ]
        }
    }, 
    "_properties": [
        [
            "title", 
            "1.1 Overview", 
            "string"
        ]
    ], 
    "_id": "1690r-pre-requisite-material2", 
    "courselist_features": [], 
    "_path": "/Plone/courses/aeronautics-and-astronautics/16-90-computational-methods-in-aerospace-engineering-spring-2014/numerical-integration-of-ordinary-differential-equations/overview2/1690r-pre-requisite-material2"
}