{
    "text": "<div class=\"navigation pagination\"><ul><li id=\"top_bck_btn\"><a href=\"./resolveuid/998bd38300b68dbd2d38c251f8262e37\">&lt;<span>Backwards Differentiation Methods</span></a></li><li id=\"flp_btn_1\"><a href=\"./resolveuid/67717326dffb74445162101fd9a9ec91\">1.8.1<span>Adams-Bashforth Methods</span></a></li><li id=\"flp_btn_2\"><a href=\"./resolveuid/75e73977a306f5532134b4e0a24fdb81\">1.8.2<span>Adams-Moulton Methods</span></a></li><li id=\"flp_btn_3\"><a href=\"./resolveuid/998bd38300b68dbd2d38c251f8262e37\">1.8.3<span>Backwards Differentiation Methods</span></a></li><li id=\"flp_btn_4\" class=\"button_selected\"><a href=\"./resolveuid/f02cecfe1cd48c17eeff25be1aaa895d\">1.8.4<span>Backwards Differentiation Excercise</span></a></li><li id=\"top_continue_btn\"><a href=\"./resolveuid/c5e7e539a82c8e620c8ae738a18f6f10\">&gt;<span>Runge-Kutta Methods</span></a></li></ul></div><div class=\"self_assessment\"><h2 class=\"subhead\">1.8.4 Backwards Differentiation Exercise</h2> <p id=\"taglist\"><a id=\"stiffonmethod\" class=\"mo_link\" href=\"./resolveuid/6018b2cc123ed80f52d919c7a1393c2e/#anchorMO112\" title=\"MO1.12:  Describe how stiffness impacts the choice of numerical method for solving the equations. \">Measurable Outcome 1.12</a>, <a id=\"multistep\" class=\"mo_link\" href=\"./resolveuid/6018b2cc123ed80f52d919c7a1393c2e/#anchorMO115\" title=\"MO1.15:  Describe multi-step methods, including the Adams-Bashforth, Adams-Moulton, and backwards differentiation families. \">Measurable Outcome 1.15</a>, <a id=\"stabilityboundry\" class=\"mo_link\" href=\"./resolveuid/6018b2cc123ed80f52d919c7a1393c2e/#anchorMO118\" title=\"MO1.18:  Determine the stability boundary for a multi-step or multi-stage method applied to a linear system of ODEs. \">Measurable Outcome 1.18</a>, <a id=\"odeinteg\" class=\"mo_link\" href=\"./resolveuid/6018b2cc123ed80f52d919c7a1393c2e/#anchorMO119\" title=\"MO1.19:  Recommend an appropriate ODE integration method based on the features of the problem being solved. \">Measurable Outcome 1.19</a></p> <text> </text><p>&nbsp;</p> <p>&nbsp;</p><div id=\"Q1_div\" class=\"problem_question\"><p>Suppose we wish to simulate the ODE \\(u_ t = Au\\) defined by the 2-by-2 matrix \\(A\\) for \\({\\Delta t}=0.1\\). For which of the following \\(A\\) matrices will the fourth-order accurate backwards differentiation method be eigenvalue stable?</p>\n<fieldset><legend class=\"visually-hidden\">Exercise 1</legend><div class=\"choice\"><label id=\"Q1_input_1_label\"><span id=\"Q1_input_1_aria_status\" tabindex=\"-1\" class=\"visually-hidden\">&amp;nbsp;</span><input type=\"radio\" id=\"Q1_input_1\" onclick=\"optionSelected(1)\" name=\"Q1_input\" class=\"problem_radio_input\" correct=\"false\" /><span class=\"choice\">\n<text> \\(A = \\left[\\begin{array}{cc} 0 &amp;  1 \\\\ -180 &amp;  0 \\end{array}\\right]\\)</text>\n</span><span id=\"Q1_input_1_normal_status\" class=\"nostatus\" aria-hidden=\"true\">&amp;nbsp;</span></label></div><div class=\"choice\"><label id=\"Q1_input_2_label\"><span id=\"Q1_input_2_aria_status\" tabindex=\"-1\" class=\"visually-hidden\">&amp;nbsp;</span><input type=\"radio\" id=\"Q1_input_2\" onclick=\"optionSelected(1)\" name=\"Q1_input\" class=\"problem_radio_input\" correct=\"false\" /><span class=\"choice\">\n<text> \\(A = \\left[\\begin{array}{cc} 0 &amp;  1 \\\\ -290 &amp;  -2 \\end{array}\\right]\\)</text>\n</span><span id=\"Q1_input_2_normal_status\" class=\"nostatus\" aria-hidden=\"true\">&amp;nbsp;</span></label></div><div class=\"choice\"><label id=\"Q1_input_3_label\"><span id=\"Q1_input_3_aria_status\" tabindex=\"-1\" class=\"visually-hidden\">&amp;nbsp;</span><input type=\"radio\" id=\"Q1_input_3\" onclick=\"optionSelected(1)\" name=\"Q1_input\" class=\"problem_radio_input\" correct=\"true\" /><span class=\"choice\">\n<text> \\(A = \\left[\\begin{array}{cc} 0 &amp;  1 \\\\ -8 &amp;  -4 \\end{array}\\right]\\)</text>\n</span><span id=\"Q1_input_3_normal_status\" class=\"nostatus\" aria-hidden=\"true\">&amp;nbsp;</span></label></div><div class=\"choice\"><label id=\"Q1_input_4_label\"><span id=\"Q1_input_4_aria_status\" tabindex=\"-1\" class=\"visually-hidden\">&amp;nbsp;</span><input type=\"radio\" id=\"Q1_input_4\" onclick=\"optionSelected(1)\" name=\"Q1_input\" class=\"problem_radio_input\" correct=\"false\" /><span class=\"choice\">\n<text> \\(A = \\left[\\begin{array}{cc} -5 &amp;  0 \\\\ 0 &amp;  5 \\end{array}\\right]\\)</text>\n</span><span id=\"Q1_input_4_normal_status\" class=\"nostatus\" aria-hidden=\"true\">&amp;nbsp;</span></label></div></fieldset>\n<div class=\"action\"><button id=\"Q1_button\" onclick=\"checkAnswer({1: 'multiple_choice'})\" class=\"problem_mo_button\">Check</button><button id=\"Q1_button_show\" onclick=\"showHideSolution({1: 'multiple_choice'}, 1, [1])\" class=\"problem_mo_button\">Show Answer</button></div></div><p>&nbsp;</p> <p>&nbsp;</p><div id=\"S1_div\" class=\"problem_solution\" tabindex=\"-1\"><font color=\"blue\">Answer: </font> <font color=\"blue\">The third matrix is the only one with both eigenvalues inside of the stability region for \\({\\Delta t}=0.1\\). </font></div><p>&nbsp;</p></div><div class=\"navigation progress\"><button id=\"bck_btn\" type=\"button\" onclick=\"window.location.assign('/courses/aeronautics-and-astronautics/16-90-computational-methods-in-aerospace-engineering-spring-2014/numerical-integration-of-ordinary-differential-equations/multi-step-methods/1690r-backwards-differentiation-methods');\">Back<span>Backwards Differentiation Methods</span></button> <button id=\"continue_btn\" type=\"button\" onclick=\"window.location.assign('/courses/aeronautics-and-astronautics/16-90-computational-methods-in-aerospace-engineering-spring-2014/numerical-integration-of-ordinary-differential-equations/runge-kutta-methods');\">Continue<span>Runge-Kutta Methods</span></button></div>", 
    "_content_type_license": "text/plain", 
    "_uid": "f02cecfe1cd48c17eeff25be1aaa895d", 
    "title": "1.8 Multi-Step Methods", 
    "_ac_local_roles": {
        "jmartis": [
            "Owner"
        ]
    }, 
    "location": "", 
    "_content_type_course_identifier": "text/plain", 
    "_atbrefs": {
        "isReferencing": [
            "f02cecfe1cd48c17eeff25be1aaa895d", 
            "5cae4847c59aa247c7673c0c6b0abef1", 
            "6018b2cc123ed80f52d919c7a1393c2e", 
            "998bd38300b68dbd2d38c251f8262e37", 
            "75e73977a306f5532134b4e0a24fdb81", 
            "67717326dffb74445162101fd9a9ec91", 
            "c5e7e539a82c8e620c8ae738a18f6f10"
        ]
    }, 
    "constrainTypesMode": -1, 
    "_content_type_section_identifier": "text/plain", 
    "technical_location": "https://ocw.mit.edu/courses/aeronautics-and-astronautics/16-90-computational-methods-in-aerospace-engineering-spring-2014/numerical-integration-of-ordinary-differential-equations/multi-step-methods/1690r-backwards-differentiation-excercise", 
    "software_requirements": [
        {
            "software_type_col": "Browser", 
            "minimum_version_col": "40.0", 
            "software_name_col": "Chrome", 
            "maximum_version_col": ""
        }, 
        {
            "software_type_col": "Browser", 
            "minimum_version_col": "8.0", 
            "software_name_col": "Safari", 
            "maximum_version_col": ""
        }, 
        {
            "software_type_col": "Browser", 
            "minimum_version_col": "38.0", 
            "software_name_col": "Mozilla Firefox", 
            "maximum_version_col": ""
        }, 
        {
            "software_type_col": "Browser", 
            "minimum_version_col": "9.0", 
            "software_name_col": "Internet Explorer", 
            "maximum_version_col": ""
        }, 
        {
            "software_type_col": "Browser", 
            "minimum_version_col": "13.1", 
            "software_name_col": "Edge", 
            "maximum_version_col": ""
        }
    ], 
    "_content_type_technical_location": "text/plain", 
    "_content_type_rights": "text/html", 
    "_directly_provided": [
        "Products.CMFEditions.interfaces.IVersioned"
    ], 
    "parent_uid": "67717326dffb74445162101fd9a9ec91", 
    "excludeFromNav": false, 
    "_content_type_unique_identifier": "text/plain", 
    "allowDiscussion": false, 
    "metadata_contributor_list": [], 
    "locallyAllowedTypes": [
        "OCWImage", 
        "CourseSection", 
        "OCWExtFile", 
        "OCWFile", 
        "MediaResource"
    ], 
    "_content_type_text": "text/html", 
    "ad_type": "HOUSE", 
    "creation_date": "2015/11/06 09:49:16.853 US/Eastern", 
    "aggregationlevel": 3, 
    "duration": "", 
    "immediatelyAddableTypes": [
        "OCWImage", 
        "CourseSection", 
        "OCWExtFile", 
        "OCWFile", 
        "MediaResource"
    ], 
    "subject": [], 
    "_content_type_short_page_title": "text/plain", 
    "effectiveDate": "2015/11/18 04:43:09.045 US/Eastern", 
    "parent_module": "c20ba6edc9d26448cd5545a1ccb7c3cd", 
    "is_mathml_document": true, 
    "bottomtext": "", 
    "short_page_title": "1.8.4 Backwards Differentiation Excercise", 
    "section_identifier": "https://ocw.mit.edu/courses/aeronautics-and-astronautics/16-90-computational-methods-in-aerospace-engineering-spring-2014/numerical-integration-of-ordinary-differential-equations", 
    "related_mit_links": "", 
    "_content_type_ad_type": "text/plain", 
    "_layout": "custom_view", 
    "_workflow_history": {
        "page_workflow": [
            {
                "action": null, 
                "review_state": "waiting_for_authoring", 
                "actor": "jmartis", 
                "comments": "", 
                "time": "2015/11/06 09:49:16.894 US/Eastern"
            }, 
            {
                "action": "approve_to_staging", 
                "review_state": "ready_for_staging", 
                "comments": "", 
                "actor": "pgandhi3", 
                "time": "2015/11/18 04:43:09.321 US/Eastern"
            }, 
            {
                "action": "decline_to_qa", 
                "review_state": "waiting_for_qa", 
                "actor": "brem", 
                "comments": "", 
                "time": "2016/10/11 14:02:57.707 GMT-4"
            }, 
            {
                "action": "approve_to_staging", 
                "review_state": "ready_for_staging", 
                "comments": "", 
                "actor": "brem", 
                "time": "2016/10/11 14:03:19.558 GMT-4"
            }, 
            {
                "action": "decline_to_qa", 
                "review_state": "waiting_for_qa", 
                "actor": "brem", 
                "comments": "", 
                "time": "2016/10/12 10:44:14.217 GMT-4"
            }, 
            {
                "action": "approve_to_staging", 
                "review_state": "ready_for_staging", 
                "actor": "brem", 
                "comments": "", 
                "time": "2016/10/12 10:45:20.565 GMT-4"
            }
        ]
    }, 
    "_classname": "CourseSection", 
    "_content_type_materialtype": "text/plain", 
    "_userdefined_roles": [], 
    "publisher": "MIT OpenCourseWare", 
    "nextPreviousEnabled": false, 
    "language": "", 
    "url_rewrite_patterns": [], 
    "widgets_features": [], 
    "category_features": [], 
    "firstTimeEdit": true, 
    "feature_requirements": [], 
    "list_in_left_nav": false, 
    "short_name_tlp": "", 
    "expirationDate": "None", 
    "_content_type_id": "text/plain", 
    "contributor_list": [], 
    "is_media_gallery": false, 
    "contributors": [], 
    "_gopip": 3, 
    "_content_type_title": "text/plain", 
    "course_linking": [], 
    "_atrefs": {
        "BelongsTo": [
            "c20ba6edc9d26448cd5545a1ccb7c3cd"
        ], 
        "isReferencing": [
            "67717326dffb74445162101fd9a9ec91", 
            "f02cecfe1cd48c17eeff25be1aaa895d", 
            "75e73977a306f5532134b4e0a24fdb81", 
            "c5e7e539a82c8e620c8ae738a18f6f10", 
            "998bd38300b68dbd2d38c251f8262e37", 
            "6018b2cc123ed80f52d919c7a1393c2e"
        ]
    }, 
    "other_platform_requirements": "", 
    "license": "http://creativecommons.org/licenses/by-nc-sa/3.0/us/", 
    "rights": "This site (c) Massachusetts Institute of Technology 2015.  Content within individual courses is (c) by the individual authors unless otherwise noted. The Massachusetts Institute of Technology is providing this Work (as defined below) under the terms of this Creative Commons public license (\"CCPL\" or \"license\") unless otherwise noted. The Work is protected by copyright and/or other applicable law. Any use of the work other than as authorized under this license is prohibited. By exercising any of the rights to the Work provided here, You (as defined below) accept and agree to be bound by the terms of this license. The Licensor, the Massachusetts Institute of Technology, grants You the rights contained here in consideration of Your acceptance of such terms and conditions.", 
    "hide_Page_title": false, 
    "_defaultpage": "", 
    "tcATmit_subject_tags": [], 
    "features_tracking": [], 
    "ad_champion_text": "", 
    "has_inline_embed": false, 
    "unique_identifier": "https://ocw.mit.edu/courses/aeronautics-and-astronautics/16-90-computational-methods-in-aerospace-engineering-spring-2014/numerical-integration-of-ordinary-differential-equations/multi-step-methods/1690r-backwards-differentiation-excercise", 
    "is_image_gallery": false, 
    "id": "1690r-backwards-differentiation-excercise", 
    "materialtype": "Other", 
    "_type": "CourseSection", 
    "description": "", 
    "course_identifier": "https://ocw.mit.edu/courses/aeronautics-and-astronautics/16-90-computational-methods-in-aerospace-engineering-spring-2014", 
    "_content_type_publisher": "text/plain", 
    "tcATmit_instructional_tags": [], 
    "_content_type": "text/html", 
    "creators": [
        "jmartis"
    ], 
    "modification_date": "2016/10/20 06:45:24.101 GMT-4", 
    "always_publish": true, 
    "_owner": null, 
    "_permissions": {
        "Change portal events": {
            "acquire": false, 
            "roles": [
                "Editor", 
                "Manager", 
                "MetadataEditor", 
                "Owner"
            ]
        }, 
        "Modify portal content": {
            "acquire": false, 
            "roles": [
                "Manager", 
                "MetadataEditor"
            ]
        }, 
        "Access contents information": {
            "acquire": false, 
            "roles": [
                "Authenticated"
            ]
        }, 
        "List folder contents": {
            "acquire": false, 
            "roles": [
                "Editor", 
                "Manager", 
                "MetadataEditor", 
                "Owner"
            ]
        }, 
        "View": {
            "acquire": false, 
            "roles": [
                "Authenticated"
            ]
        }
    }, 
    "_properties": [
        [
            "title", 
            "1.8 Multi-Step Methods", 
            "string"
        ]
    ], 
    "_id": "1690r-backwards-differentiation-excercise", 
    "courselist_features": [], 
    "_path": "/Plone/courses/aeronautics-and-astronautics/16-90-computational-methods-in-aerospace-engineering-spring-2014/numerical-integration-of-ordinary-differential-equations/multi-step-methods/1690r-backwards-differentiation-excercise"
}