{
    "rsi_top_html_area": "", 
    "text": "", 
    "_content_type_license": "text/plain", 
    "_uid": "590d3a66a5ec00f4a5d7ba4ca7983ac5", 
    "pg_section": "", 
    "title": "Ionic Bonds", 
    "_ac_local_roles": {
        "ndhamija": [
            "Owner"
        ]
    }, 
    "template_type": "popup", 
    "location": "", 
    "ad_department": "", 
    "_content_type_course_identifier": "text/plain", 
    "_atbrefs": {}, 
    "constrainTypesMode": 0, 
    "_content_type_section_identifier": "text/plain", 
    "technical_location": "https://ocw.mit.edu/high-school/chemistry/exam-prep/structure-of-matter/chemical-bonding/ionic-bonds", 
    "software_requirements": [
        {
            "software_type_col": "Browser", 
            "minimum_version_col": "6.0", 
            "software_name_col": "Internet Explorer", 
            "maximum_version_col": ""
        }, 
        {
            "software_type_col": "Browser", 
            "minimum_version_col": "3.0", 
            "software_name_col": "Mozilla Firefox", 
            "maximum_version_col": ""
        }, 
        {
            "software_type_col": "Browser", 
            "minimum_version_col": "4.0", 
            "software_name_col": "Safari", 
            "maximum_version_col": ""
        }
    ], 
    "_content_type_technical_location": "text/plain", 
    "start_time": "2228", 
    "_content_type_rights": "text/html", 
    "_directly_provided": [
        "Products.CMFEditions.interfaces.IVersioned"
    ], 
    "pg_tlp": "", 
    "media_rights": "(CC BY-NC-SA)", 
    "parent_uid": "3922f30f9f6af9c895676a379391d284", 
    "excludeFromNav": false, 
    "about_this_resource_text": "", 
    "_content_type_unique_identifier": "text/plain", 
    "end_time": "2845", 
    "allowDiscussion": false, 
    "_content_type_materialtype": "text/plain", 
    "locallyAllowedTypes": [
        "OCWImage", 
        "OCWFile", 
        "OCWMediaAsset"
    ], 
    "ad_slot_c": "", 
    "ad_slot_a": "", 
    "optional_tab_title": "", 
    "ad_type": "HOUSE", 
    "creation_date": "2013/06/07 03:15:38.962 GMT-4", 
    "aggregationlevel": 2, 
    "bottom_html_area": "", 
    "duration": "", 
    "immediatelyAddableTypes": [
        "OCWImage", 
        "OCWFile", 
        "OCWMediaAsset"
    ], 
    "_content_type_template_type": "text/plain", 
    "subject": [], 
    "_content_type_short_page_title": "text/plain", 
    "effectiveDate": "2013/06/12 03:48:48.653 GMT-4", 
    "parent_module": "da5043f5acaf2d713d1216ce1cf5cc89", 
    "is_mathml_document": false, 
    "bottomtext": "", 
    "short_page_title": "Ionic Bonds", 
    "section_identifier": "https://ocw.mit.edu/high-school/chemistry/exam-prep", 
    "show_captions_outside_player": false, 
    "related_mit_links": "", 
    "_content_type_ad_type": "text/plain", 
    "_layout": "custom_view", 
    "_workflow_history": {
        "page_workflow": [
            {
                "action": null, 
                "review_state": "waiting_for_authoring", 
                "comments": "", 
                "actor": "ndhamija", 
                "time": "2013/06/07 03:15:38.975 GMT-4"
            }, 
            {
                "action": "approve_to_staging", 
                "review_state": "ready_for_staging", 
                "actor": "ndhamija", 
                "comments": "", 
                "time": "2013/06/12 03:48:48.675 GMT-4"
            }, 
            {
                "action": "decline", 
                "review_state": "waiting_for_authoring", 
                "comments": "", 
                "actor": "kkamra", 
                "time": "2017/02/14 05:30:39.896 US/Eastern"
            }, 
            {
                "action": "approve_to_staging", 
                "review_state": "ready_for_staging", 
                "actor": "kkamra", 
                "comments": "", 
                "time": "2017/02/17 05:11:42.322 US/Eastern"
            }
        ]
    }, 
    "pg_area": "", 
    "_classname": "HFHMediaResource", 
    "metadata_contributor_list": [], 
    "_userdefined_roles": [], 
    "_content_type_inline_embed_id": "text/plain", 
    "publisher": "MIT OpenCourseWare", 
    "nextPreviousEnabled": false, 
    "_gopip": 15, 
    "license": "http://creativecommons.org/licenses/by-nc-sa/3.0/us/", 
    "url_rewrite_patterns": [], 
    "widgets_features": [], 
    "category_features": [], 
    "resource_contributor_list": [], 
    "show_jump_back_5_seconds_button": false, 
    "firstTimeEdit": false, 
    "_content_type_media_rights": "text/plain", 
    "feature_requirements": [], 
    "list_in_left_nav": false, 
    "_content_type_end_time": "text/plain", 
    "inline_embed_id": "36141686ionicbonds54498594", 
    "short_name_tlp": "", 
    "expirationDate": "None", 
    "_content_type_id": "text/plain", 
    "ad_slot_b": "", 
    "contributor_list": [], 
    "is_media_gallery": false, 
    "contributors": [], 
    "media_locations": [], 
    "_content_type_media_resource_type": "text/plain", 
    "_content_type_title": "text/plain", 
    "subtitle_exemption": "None", 
    "_content_type": "text/html", 
    "resource_index_text": "", 
    "_atrefs": {
        "BelongsTo": [
            "da5043f5acaf2d713d1216ce1cf5cc89"
        ]
    }, 
    "media_slides": [], 
    "other_platform_requirements": "", 
    "language": "", 
    "rights": "This site (c) Massachusetts Institute of Technology 2013.  Content within individual courses is (c) by the individual authors unless otherwise noted. The Massachusetts Institute of Technology is providing this Work (as defined below) under the terms of this Creative Commons public license (\"CCPL\" or \"license\") unless otherwise noted. The Work is protected by copyright and/or other applicable law. Any use of the work other than as authorized under this license is prohibited. By exercising any of the rights to the Work provided here, You (as defined below) accept and agree to be bound by the terms of this license. The Licensor, the Massachusetts Institute of Technology, grants You the rights contained here in consideration of Your acceptance of such terms and conditions.", 
    "hide_Page_title": false, 
    "_content_type_start_time": "text/plain", 
    "_defaultpage": "", 
    "related_resources_text": "", 
    "tcATmit_subject_tags": [], 
    "features_tracking": [], 
    "ad_champion_text": "", 
    "has_inline_embed": false, 
    "unique_identifier": "https://ocw.mit.edu/high-school/chemistry/exam-prep/structure-of-matter/chemical-bonding/ionic-bonds", 
    "link_text": "video clips from Lecture 12 (37:08 - 47:25)", 
    "is_image_gallery": false, 
    "id": "ionic-bonds", 
    "_content_type_subtitle_exemption": "text/plain", 
    "materialtype": "Other", 
    "optional_text": "", 
    "_type": "HFHMediaResource", 
    "description": "", 
    "media_resource_type": "Video", 
    "course_identifier": "https://ocw.mit.edu/high-school/chemistry", 
    "_content_type_publisher": "text/plain", 
    "tcATmit_instructional_tags": [], 
    "transcript": "", 
    "_content_type_link_text": "text/plain", 
    "course_linking": [], 
    "_id": "ionic-bonds", 
    "modification_date": "2017/02/17 05:11:41.714 US/Eastern", 
    "media_index": [], 
    "always_publish": false, 
    "_owner": null, 
    "_permissions": {
        "Change portal events": {
            "acquire": false, 
            "roles": [
                "Editor", 
                "Manager", 
                "MetadataEditor", 
                "Owner"
            ]
        }, 
        "Modify portal content": {
            "acquire": false, 
            "roles": [
                "Manager", 
                "MetadataEditor"
            ]
        }, 
        "Access contents information": {
            "acquire": false, 
            "roles": [
                "Authenticated"
            ]
        }, 
        "List folder contents": {
            "acquire": false, 
            "roles": [
                "Editor", 
                "Manager", 
                "MetadataEditor", 
                "Owner"
            ]
        }, 
        "View": {
            "acquire": false, 
            "roles": [
                "Authenticated"
            ]
        }
    }, 
    "_properties": [
        [
            "title", 
            "Ionic Bonds", 
            "string"
        ]
    ], 
    "creators": [
        "ndhamija"
    ], 
    "courselist_features": [], 
    "_path": "/Plone/high-school/chemistry/exam-prep/structure-of-matter/chemical-bonding/ionic-bonds"
}