{
    "tcATmit_subject_tags": [], 
    "features_tracking": [], 
    "widgets_features": [], 
    "_content_type_ad_department": "text/plain", 
    "_content_type_ad_slot_a": "text/plain", 
    "has_inline_embed": false, 
    "_content_type_text": "text/html", 
    "unique_identifier": "https://ocw.mit.edu/high-school/chemistry/index.htm", 
    "text": "<div class=\"subject-head\"><div class=\"subject-splash\"><img width=\"530\" height=\"325\" src=\"./resolveuid/7eb4377e56e5ace227ddba0f8de8c483\" alt=\"Two female students stand at a lab bench with a male professor. They are looking at a glass container filled with a neon yellow liquid.\" /><br /> <p class=\"instruction\">A group of MIT freshmen learn laboratory techniques from Prof. John Dolhun.  Image courtesy of George Zaidan.</p></div> <p class=\"subject-highlight\">In this section we have provided a collection of chemistry courses and resources from across MIT.  Some are materials that were used to teach MIT undergraduates, while others were designed specifically for high school students.</p> <p class=\"subject-highlight\">The research and teaching in the Chemistry Department cover such topics as biological chemistry, inorganic chemistry, organic chemistry, and physical chemistry.  The department is considered to be one of the strongest chemistry departments in the world.</p> <p class=\"subject-highlight\">Learn more about <a href=\"http://chemistry.mit.edu/\">MIT&rsquo;s Chemistry Department</a>.</p> <ul class=\"hfh-large-arrow\">     <li><a href=\"#prep\">Exam Preparation</a></li>     <li><a href=\"#intro-courses\">Introductory MIT Courses</a></li>     <li><a href=\"#videos\">Video Series</a></li>     <li><a href=\"#labs\">Chemistry Labs</a></li> </ul> <p>&nbsp;</p></div>", 
    "contributors": [], 
    "_content_type_publisher": "text/plain", 
    "_content_type_license": "text/plain", 
    "ad_type": "HOUSE", 
    "creation_date": "2011/09/29 15:18:05.421 GMT-4", 
    "aggregationlevel": 4, 
    "_uid": "56c9d6ed8cd89f7ecce2bde3d8f2d558", 
    "_content_type_pg_area": "text/plain", 
    "expirationDate": "None", 
    "_content_type_id": "text/plain", 
    "ad_slot_b": "HFH_180_150", 
    "id": "index.htm", 
    "is_media_gallery": false, 
    "subject": [], 
    "pg_section": "HFH_AP", 
    "related_mit_links": "", 
    "rights": "This site (c) Massachusetts Institute of Technology 2011.  Content within individual courses is (c) by the individual authors unless otherwise noted. The Massachusetts Institute of Technology is providing this Work (as defined below) under the terms of this Creative Commons public license (\"CCPL\" or \"license\") unless otherwise noted. The Work is protected by copyright and/or other applicable law. Any use of the work other than as authorized under this license is prohibited. By exercising any of the rights to the Work provided here, You (as defined below) accept and agree to be bound by the terms of this license. The Licensor, the Massachusetts Institute of Technology, grants You the rights contained here in consideration of Your acceptance of such terms and conditions.", 
    "body_text_1": "<!-- *begin main column, lower half of page* --> <div class=\"subject_lists\"><a name=\"prep\"></a> <p class=\"title\">Exam Prep</p></div> <p>We have selected relevant material from MIT's introductory courses to support students as they study and  educators as they teach the AP* Chemistry curriculum. This section is organized by the topics that you&rsquo;ll see on the chemistry exam.</p> <p><em>* AP is a registered trademark of the College Board, which was not involved in the production of, and does not endorse, this product.</em></p> <p><a href=\"./resolveuid/58fbfb38dd366784ffdce3d967529261\">Chemistry Exam Prep</a></p> <p>&nbsp;</p> <div class=\"subject_lists\"><a name=\"intro-courses\"></a> <p class=\"title\"><nobr>Introductory MIT Courses</nobr></p></div> <p>The following courses have been selected to help you explore Chemistry at MIT.&nbsp;The first course listed below, Introduction to Solid State Chemistry (3.091SC), is in our OCW Scholar format. OCW Scholar courses are designed for study at your own pace. They contain substantially more material than typical OCW courses, blending new content with existing material used in MIT classes.</p> <p>Learn more about <a href=\"./resolveuid/9cb44fcccdf7263baf5c3214553b1bb2\"> OCW Scholar</a>.</p> <table class=\"linklist\">     <tbody>         <tr class=\"odd\">             <td class=\"col1\">&raquo; <a href=\"./resolveuid/7f589fe1bd387de3dfddfe3e148db2bb\">Introduction to Solid State Chemistry (3.091SC)</a></td>             <td class=\"col2\">Prof. Donald Sadoway</td>         </tr>         <tr>             <td>&raquo; <a href=\"./resolveuid/807a333eacc6fe03252bca0fc01b0dce\"> Principles of Chemical Science (5.111)</a></td>             <td>Prof. Catherine Drennan, Dr. Elizabeth Vogel Taylor</td>         </tr>         <tr class=\"odd\">             <td>&raquo; <a href=\"./resolveuid/0815fd5d5cb11bf566f8d6836013a6f2\"> Kitchen Chemistry (ES.287)</a></td>             <td>Dr. Patricia Christie</td>         </tr>         <tr>             <td>&raquo; <a href=\"./resolveuid/cb610ac80381d3471a77c0c7d75173c3\">Organic Chemistry I (5.12)</a></td>             <td>Dr. Kimberly Berkowski, Prof. Sarah O&rsquo;Connor</td>         </tr>         <tr class=\"odd\">             <td>&raquo; <a href=\"./resolveuid/3b3a5c9978912c3e72d00a86ec51b4a4\">Chemical Investigations of Boston Harbor (12.097)</a></td>             <td>Dr. Elizabeth Kujawinski,&nbsp;Prof. Franz Hover,&nbsp;Dr. Sheri White</td>         </tr>         <tr>             <td>&raquo; <a href=\"./resolveuid/56f0af895fdca981a6fd6648e80e899f\">Chemistry of Sports (ES.010)</a></td>             <td>Dr. Patricia Christie, Mr. Steven Lyons</td>         </tr>     </tbody> </table> <p>&nbsp;</p> <div class=\"subject_lists\"><a name=\"videos\"></a> <p class=\"title\">Video Series</p></div> <p>In this section, you can watch a variety of videos that highlight different aspects of chemistry at MIT.</p> <table class=\"linklist\">     <tbody>         <tr class=\"odd\">             <td class=\"col1\">&raquo; <a href=\"./resolveuid/e456abe011e76668aae29bb5d9488281\">ChemLab Boot Camp Reality Series</a></td>             <td class=\"col2\">Dr. John Dolhun, MIT Students</td>         </tr>         <tr>             <td>&raquo; <a href=\"./resolveuid/82b7f08f9202fd088e85bd16e51a29f2\"> Chemistry Behind the Magic: Chemical Demonstrations for the Classroom</a></td>             <td>Dr. John Dolhun, Dr. Bassam Shakhashiri</td>         </tr>         <tr class=\"odd\">             <td>&raquo; <a href=\"./resolveuid/b5cd0f6f8200d483608ca4eb4be76615\"> Chemistry in Action: Profiles of MIT Researchers</a></td>             <td>Prof. Jacquin Niles, Prof. Liz Nolan, Prof. Katharina Ribbeck</td>         </tr>         <tr>             <td>&raquo; <a href=\"http://chemvideos.mit.edu/\"> Behind the Scenes at MIT&nbsp;</a></td>             <td>The Drennan Research and Education Laboratory</td>         </tr>     </tbody> </table> <p>&nbsp;</p> <div class=\"subject_lists\"><a name=\"labs\"></a> <p class=\"title\">Labs</p></div> <p>Much of the work that chemists do takes place in the laboratory.  Learning how to use the equipment and conduct experiments are essential skills for any future chemists to master.  MIT offers several laboratory-based classes to help students learn these fundamental techniques.</p> <table class=\"linklist\">     <tbody>         <tr class=\"odd\">             <td class=\"col1\">&raquo; <a href=\"./resolveuid/0f4b39500f495f4ba167bf8552fb24fc\">Chemistry Laboratory Techniques (5.301)</a></td>             <td class=\"col2\">Dr. John J. Dolhun</td>         </tr>         <tr>             <td>&raquo; <a href=\"./resolveuid/b9ea26cc6dce0c8211807d45ef00ec67\"> Introduction to Experimental Chemistry (5.302)</a></td>             <td>Dr. Janet Schrenk</td>         </tr>         <tr class=\"odd\">             <td>&raquo; <a href=\"./resolveuid/31053459460dfb2069fd49066b4a2e65\"> Laboratory Chemistry (5.310)</a></td>             <td>Dr. Janet Schrenk, Dr. Mircea Gheorghiu</td>         </tr>     </tbody> </table> <div class=\"labwarning\"><p class=\"title\"><strong>WARNING NOTICE</strong></p> <p>The experiments described in these materials are potentially hazardous.  Among other things, the experiments should include the following safety measures: a high level of safety training, special facilities and equipment, the use of proper personal protective equipment, and supervision by appropriate individuals. You bear the sole responsibility, liability, and risk for the implementation of such safety procedures and measures. MIT and Dow shall have no responsibility, liability, or risk for the content or implementation of any of the material presented. <a href=\"/terms\">Legal Notice</a></p></div> <p>&nbsp;</p>", 
    "effectiveDate": "2011/11/07 11:07:56.602 US/Eastern", 
    "title": "Chemistry", 
    "parent_module": "da5043f5acaf2d713d1216ce1cf5cc89", 
    "_content_type_ad_type": "text/plain", 
    "_userdefined_roles": [], 
    "ad_slot_c": "", 
    "_gopip": 0, 
    "location": "", 
    "bottomtext": "", 
    "ad_department": "HFH", 
    "_content_type_title": "text/plain", 
    "_content_type_body_text_1": "text/html", 
    "_atbrefs": {
        "isReferencing": [
            "56c9d6ed8cd89f7ecce2bde3d8f2d558"
        ]
    }, 
    "_content_type": "text/html", 
    "_type": "HFHDefaultPage", 
    "technical_location": "https://ocw.mit.edu/high-school/chemistry/index.htm", 
    "description": "", 
    "software_requirements": [
        {
            "software_type_col": "Browser", 
            "minimum_version_col": "40.0", 
            "software_name_col": "Chrome", 
            "maximum_version_col": ""
        }, 
        {
            "software_type_col": "Browser", 
            "minimum_version_col": "8.0", 
            "software_name_col": "Safari", 
            "maximum_version_col": ""
        }, 
        {
            "software_type_col": "Browser", 
            "minimum_version_col": "38.0", 
            "software_name_col": "Mozilla Firefox", 
            "maximum_version_col": ""
        }, 
        {
            "software_type_col": "Browser", 
            "minimum_version_col": "9.0", 
            "software_name_col": "Internet Explorer", 
            "maximum_version_col": ""
        }, 
        {
            "software_type_col": "Browser", 
            "minimum_version_col": "13.1", 
            "software_name_col": "Edge", 
            "maximum_version_col": ""
        }
    ], 
    "_atrefs": {
        "BelongsTo": [
            "da5043f5acaf2d713d1216ce1cf5cc89"
        ], 
        "isReferencing": [
            "7eb4377e56e5ace227ddba0f8de8c483", 
            "93820a56046423e59ec92fa37666f5e9", 
            "58fbfb38dd366784ffdce3d967529261", 
            "82b7f08f9202fd088e85bd16e51a29f2", 
            "0f4b39500f495f4ba167bf8552fb24fc", 
            "b9ea26cc6dce0c8211807d45ef00ec67", 
            "0815fd5d5cb11bf566f8d6836013a6f2", 
            "7f589fe1bd387de3dfddfe3e148db2bb", 
            "9cb44fcccdf7263baf5c3214553b1bb2", 
            "807a333eacc6fe03252bca0fc01b0dce", 
            "31053459460dfb2069fd49066b4a2e65", 
            "cb610ac80381d3471a77c0c7d75173c3", 
            "3b3a5c9978912c3e72d00a86ec51b4a4", 
            "56f0af895fdca981a6fd6648e80e899f", 
            "e456abe011e76668aae29bb5d9488281", 
            "b5cd0f6f8200d483608ca4eb4be76615", 
            "56c9d6ed8cd89f7ecce2bde3d8f2d558"
        ]
    }, 
    "_content_type_technical_location": "text/plain", 
    "_layout": "custom_view", 
    "_properties": [
        [
            "title", 
            "Chemistry", 
            "string"
        ]
    ], 
    "_workflow_history": {
        "page_workflow": [
            {
                "action": null, 
                "review_state": "waiting_for_authoring", 
                "comments": "", 
                "actor": "tabikoff", 
                "time": "2011/09/29 15:18:05.460 GMT-4"
            }, 
            {
                "action": "approve_to_staging", 
                "review_state": "ready_for_staging", 
                "actor": "shellyu", 
                "comments": "", 
                "time": "2011/11/07 11:07:56.687 US/Eastern"
            }, 
            {
                "action": "decline_to_qa", 
                "review_state": "waiting_for_qa", 
                "comments": "", 
                "actor": "shellyu", 
                "time": "2011/11/16 13:56:23.689 US/Eastern"
            }, 
            {
                "action": "approve_to_staging", 
                "review_state": "ready_for_staging", 
                "actor": "shellyu", 
                "comments": "", 
                "time": "2011/11/16 13:57:38.665 US/Eastern"
            }, 
            {
                "action": "decline_to_qa", 
                "review_state": "waiting_for_qa", 
                "comments": "", 
                "actor": "Kcanavan", 
                "time": "2011/12/29 23:55:19.198 US/Eastern"
            }, 
            {
                "action": "approve_to_staging", 
                "review_state": "ready_for_staging", 
                "comments": "", 
                "actor": "Kcanavan", 
                "time": "2011/12/29 23:55:23.077 US/Eastern"
            }, 
            {
                "action": "decline_to_qa", 
                "review_state": "waiting_for_qa", 
                "actor": "Kcanavan", 
                "comments": "", 
                "time": "2012/01/10 17:02:30.124 US/Eastern"
            }, 
            {
                "action": "approve_to_staging", 
                "review_state": "ready_for_staging", 
                "actor": "Kcanavan", 
                "comments": "", 
                "time": "2012/01/10 17:02:35.369 US/Eastern"
            }, 
            {
                "action": "decline_to_qa", 
                "review_state": "waiting_for_qa", 
                "actor": "Kcanavan", 
                "comments": "", 
                "time": "2012/01/11 13:10:56.819 US/Eastern"
            }, 
            {
                "action": "approve_to_staging", 
                "review_state": "ready_for_staging", 
                "actor": "Kcanavan", 
                "comments": "", 
                "time": "2012/01/11 13:18:57.980 US/Eastern"
            }, 
            {
                "action": "decline_to_qa", 
                "review_state": "waiting_for_qa", 
                "comments": "", 
                "actor": "Csiegel", 
                "time": "2012/01/21 13:47:07.151 US/Eastern"
            }, 
            {
                "action": "approve_to_staging", 
                "review_state": "ready_for_staging", 
                "actor": "Csiegel", 
                "comments": "", 
                "time": "2012/01/21 13:48:02.301 US/Eastern"
            }, 
            {
                "action": "decline_to_qa", 
                "review_state": "waiting_for_qa", 
                "comments": "", 
                "actor": "Kcanavan", 
                "time": "2012/05/03 10:44:22.855 GMT-4"
            }, 
            {
                "action": "approve_to_staging", 
                "review_state": "ready_for_staging", 
                "comments": "", 
                "actor": "Kcanavan", 
                "time": "2012/05/03 10:44:31.317 GMT-4"
            }, 
            {
                "action": "decline_to_qa", 
                "review_state": "waiting_for_qa", 
                "actor": "Jcplayer", 
                "comments": "", 
                "time": "2012/11/20 11:46:31.443 US/Eastern"
            }, 
            {
                "action": "approve_to_staging", 
                "review_state": "ready_for_staging", 
                "comments": "", 
                "actor": "Jcplayer", 
                "time": "2012/11/20 11:46:34.099 US/Eastern"
            }, 
            {
                "action": "decline_to_qa", 
                "review_state": "waiting_for_qa", 
                "comments": "", 
                "actor": "Jcplayer", 
                "time": "2012/11/20 13:35:42.905 US/Eastern"
            }, 
            {
                "action": "approve_to_staging", 
                "review_state": "ready_for_staging", 
                "comments": "", 
                "actor": "Jcplayer", 
                "time": "2012/11/20 13:35:58.740 US/Eastern"
            }, 
            {
                "action": "decline_to_qa", 
                "review_state": "waiting_for_qa", 
                "actor": "Kcanavan", 
                "comments": "", 
                "time": "2013/02/20 10:23:40.099 US/Eastern"
            }, 
            {
                "action": "approve_to_staging", 
                "review_state": "ready_for_staging", 
                "actor": "Kcanavan", 
                "comments": "", 
                "time": "2013/02/20 10:23:52.731 US/Eastern"
            }, 
            {
                "action": "decline_to_qa", 
                "review_state": "waiting_for_qa", 
                "comments": "", 
                "actor": "Jcplayer", 
                "time": "2013/05/20 10:50:48.767 GMT-4"
            }, 
            {
                "action": "approve_to_staging", 
                "review_state": "ready_for_staging", 
                "actor": "Jcplayer", 
                "comments": "", 
                "time": "2013/05/20 13:25:52.055 GMT-4"
            }, 
            {
                "action": "decline_to_qa", 
                "review_state": "waiting_for_qa", 
                "comments": "", 
                "actor": "Jcplayer", 
                "time": "2013/05/20 14:29:04.796 GMT-4"
            }, 
            {
                "action": "approve_to_staging", 
                "review_state": "ready_for_staging", 
                "actor": "Jcplayer", 
                "comments": "", 
                "time": "2013/05/20 14:30:53.055 GMT-4"
            }, 
            {
                "action": "decline_to_qa", 
                "review_state": "waiting_for_qa", 
                "comments": "", 
                "actor": "Jcplayer", 
                "time": "2013/06/03 13:03:41.812 GMT-4"
            }, 
            {
                "action": "approve_to_staging", 
                "review_state": "ready_for_staging", 
                "comments": "", 
                "actor": "Jcplayer", 
                "time": "2013/06/03 13:04:20.614 GMT-4"
            }, 
            {
                "action": "decline_to_qa", 
                "review_state": "waiting_for_qa", 
                "actor": "Jcplayer", 
                "comments": "", 
                "time": "2013/06/11 14:04:19.132 GMT-4"
            }, 
            {
                "action": "approve_to_staging", 
                "review_state": "ready_for_staging", 
                "actor": "Jcplayer", 
                "comments": "", 
                "time": "2013/06/11 14:04:51.545 GMT-4"
            }, 
            {
                "action": "decline_to_qa", 
                "review_state": "waiting_for_qa", 
                "comments": "", 
                "actor": "Jcplayer", 
                "time": "2013/06/20 13:53:41.911 GMT-4"
            }, 
            {
                "action": "approve_to_staging", 
                "review_state": "ready_for_staging", 
                "actor": "Jcplayer", 
                "comments": "", 
                "time": "2013/06/20 13:55:03.020 GMT-4"
            }, 
            {
                "action": "decline_to_qa", 
                "review_state": "waiting_for_qa", 
                "comments": "", 
                "actor": "Jcplayer", 
                "time": "2013/06/20 15:10:01.453 GMT-4"
            }, 
            {
                "action": "approve_to_staging", 
                "review_state": "ready_for_staging", 
                "comments": "", 
                "actor": "Jcplayer", 
                "time": "2013/06/20 15:10:03.711 GMT-4"
            }, 
            {
                "action": "decline_to_qa", 
                "review_state": "waiting_for_qa", 
                "comments": "", 
                "actor": "Jcplayer", 
                "time": "2013/06/20 15:49:56.437 GMT-4"
            }, 
            {
                "action": "approve_to_staging", 
                "review_state": "ready_for_staging", 
                "actor": "Jcplayer", 
                "comments": "", 
                "time": "2013/06/20 16:00:04.581 GMT-4"
            }, 
            {
                "action": "decline_to_qa", 
                "review_state": "waiting_for_qa", 
                "comments": "", 
                "actor": "Jcplayer", 
                "time": "2013/06/20 16:37:00.299 GMT-4"
            }, 
            {
                "action": "approve_to_staging", 
                "review_state": "ready_for_staging", 
                "comments": "", 
                "actor": "Jcplayer", 
                "time": "2013/06/20 16:37:02.656 GMT-4"
            }, 
            {
                "action": "decline_to_qa", 
                "review_state": "waiting_for_qa", 
                "actor": "Jcplayer", 
                "comments": "", 
                "time": "2013/06/20 16:48:01.353 GMT-4"
            }, 
            {
                "action": "approve_to_staging", 
                "review_state": "ready_for_staging", 
                "actor": "Jcplayer", 
                "comments": "", 
                "time": "2013/06/20 16:48:03.561 GMT-4"
            }, 
            {
                "action": "decline_to_qa", 
                "review_state": "waiting_for_qa", 
                "comments": "", 
                "actor": "Jcplayer", 
                "time": "2013/06/28 10:29:44.362 GMT-4"
            }, 
            {
                "action": "approve_to_staging", 
                "review_state": "ready_for_staging", 
                "comments": "", 
                "actor": "Jcplayer", 
                "time": "2013/06/28 10:29:55.599 GMT-4"
            }, 
            {
                "action": "decline_to_qa", 
                "review_state": "waiting_for_qa", 
                "actor": "Jcplayer", 
                "comments": "", 
                "time": "2013/06/28 10:51:11.792 GMT-4"
            }, 
            {
                "action": "approve_to_staging", 
                "review_state": "ready_for_staging", 
                "comments": "", 
                "actor": "Jcplayer", 
                "time": "2013/06/28 10:51:27.323 GMT-4"
            }, 
            {
                "action": "decline_to_qa", 
                "review_state": "waiting_for_qa", 
                "actor": "Jcplayer", 
                "comments": "", 
                "time": "2013/06/28 12:57:22.584 GMT-4"
            }, 
            {
                "action": "approve_to_staging", 
                "review_state": "ready_for_staging", 
                "comments": "", 
                "actor": "Jcplayer", 
                "time": "2013/06/28 12:57:25.447 GMT-4"
            }, 
            {
                "action": "decline_to_qa", 
                "review_state": "waiting_for_qa", 
                "actor": "Jcplayer", 
                "comments": "", 
                "time": "2013/07/11 13:23:34.677 GMT-4"
            }, 
            {
                "action": "approve_to_staging", 
                "review_state": "ready_for_staging", 
                "comments": "", 
                "actor": "Jcplayer", 
                "time": "2013/07/11 13:23:44.556 GMT-4"
            }, 
            {
                "action": "decline_to_qa", 
                "review_state": "waiting_for_qa", 
                "actor": "Jcplayer", 
                "comments": "", 
                "time": "2013/07/11 13:40:59.382 GMT-4"
            }, 
            {
                "action": "approve_to_staging", 
                "review_state": "ready_for_staging", 
                "actor": "Jcplayer", 
                "comments": "", 
                "time": "2013/07/11 13:41:02.974 GMT-4"
            }, 
            {
                "action": "decline_to_qa", 
                "review_state": "waiting_for_qa", 
                "comments": "", 
                "actor": "Jcplayer", 
                "time": "2013/07/11 13:41:15.947 GMT-4"
            }, 
            {
                "action": "approve_to_staging", 
                "review_state": "ready_for_staging", 
                "actor": "Jcplayer", 
                "comments": "", 
                "time": "2013/07/11 13:41:24.015 GMT-4"
            }, 
            {
                "action": "decline_to_qa", 
                "review_state": "waiting_for_qa", 
                "actor": "Jcplayer", 
                "comments": "", 
                "time": "2013/07/11 14:09:46.104 GMT-4"
            }, 
            {
                "action": "approve_to_staging", 
                "review_state": "ready_for_staging", 
                "comments": "", 
                "actor": "Jcplayer", 
                "time": "2013/07/11 14:09:49.422 GMT-4"
            }, 
            {
                "action": "decline_to_qa", 
                "review_state": "waiting_for_qa", 
                "comments": "", 
                "actor": "Jcplayer", 
                "time": "2013/07/11 15:26:04.811 GMT-4"
            }, 
            {
                "action": "approve_to_staging", 
                "review_state": "ready_for_staging", 
                "actor": "Jcplayer", 
                "comments": "", 
                "time": "2013/07/11 15:26:07.640 GMT-4"
            }, 
            {
                "action": "decline_to_qa", 
                "review_state": "waiting_for_qa", 
                "comments": "", 
                "actor": "Jcplayer", 
                "time": "2013/07/11 15:54:05.858 GMT-4"
            }, 
            {
                "action": "approve_to_staging", 
                "review_state": "ready_for_staging", 
                "actor": "Jcplayer", 
                "comments": "", 
                "time": "2013/07/11 15:54:11.505 GMT-4"
            }, 
            {
                "action": "decline_to_qa", 
                "review_state": "waiting_for_qa", 
                "comments": "", 
                "actor": "Jcplayer", 
                "time": "2013/07/11 16:13:34.242 GMT-4"
            }, 
            {
                "action": "approve_to_staging", 
                "review_state": "ready_for_staging", 
                "actor": "Jcplayer", 
                "comments": "", 
                "time": "2013/07/11 16:13:37.532 GMT-4"
            }, 
            {
                "action": "decline_to_qa", 
                "review_state": "waiting_for_qa", 
                "comments": "", 
                "actor": "Jcplayer", 
                "time": "2013/07/11 16:48:39.276 GMT-4"
            }, 
            {
                "action": "approve_to_staging", 
                "review_state": "ready_for_staging", 
                "actor": "Jcplayer", 
                "comments": "", 
                "time": "2013/07/11 16:48:42.059 GMT-4"
            }, 
            {
                "action": "decline_to_qa", 
                "review_state": "waiting_for_qa", 
                "comments": "", 
                "actor": "Jcplayer", 
                "time": "2013/07/11 17:05:57.176 GMT-4"
            }, 
            {
                "action": "approve_to_staging", 
                "review_state": "ready_for_staging", 
                "actor": "Jcplayer", 
                "comments": "", 
                "time": "2013/07/11 17:06:02.751 GMT-4"
            }, 
            {
                "action": "decline_to_qa", 
                "review_state": "waiting_for_qa", 
                "comments": "", 
                "actor": "Jcplayer", 
                "time": "2013/07/11 17:21:33.735 GMT-4"
            }, 
            {
                "action": "approve_to_staging", 
                "review_state": "ready_for_staging", 
                "actor": "Jcplayer", 
                "comments": "", 
                "time": "2013/07/11 17:21:43.754 GMT-4"
            }, 
            {
                "action": "decline_to_qa", 
                "review_state": "waiting_for_qa", 
                "comments": "", 
                "actor": "Jcplayer", 
                "time": "2013/07/16 11:19:23.414 GMT-4"
            }, 
            {
                "action": "approve_to_staging", 
                "review_state": "ready_for_staging", 
                "actor": "Jcplayer", 
                "comments": "", 
                "time": "2013/07/16 11:19:46.940 GMT-4"
            }, 
            {
                "action": "decline_to_qa", 
                "review_state": "waiting_for_qa", 
                "comments": "", 
                "actor": "Csiegel", 
                "time": "2013/07/24 11:49:14.013 GMT-4"
            }, 
            {
                "action": "approve_to_staging", 
                "review_state": "ready_for_staging", 
                "comments": "", 
                "actor": "Csiegel", 
                "time": "2013/07/24 12:35:30.870 GMT-4"
            }, 
            {
                "action": "decline_to_qa", 
                "review_state": "waiting_for_qa", 
                "actor": "Csiegel", 
                "comments": "", 
                "time": "2013/07/25 16:43:58.369 GMT-4"
            }, 
            {
                "action": "approve_to_staging", 
                "review_state": "ready_for_staging", 
                "comments": "", 
                "actor": "Csiegel", 
                "time": "2013/07/25 16:45:33.605 GMT-4"
            }, 
            {
                "action": "decline_to_qa", 
                "review_state": "waiting_for_qa", 
                "actor": "pdpinch", 
                "comments": "", 
                "time": "2013/07/30 10:01:33.424 GMT-4"
            }, 
            {
                "action": "approve_to_staging", 
                "review_state": "ready_for_staging", 
                "comments": "", 
                "actor": "Jcplayer", 
                "time": "2013/07/30 10:03:56.867 GMT-4"
            }, 
            {
                "action": "decline_to_qa", 
                "review_state": "waiting_for_qa", 
                "actor": "Csiegel", 
                "comments": "", 
                "time": "2014/08/04 15:58:26.361 GMT-4"
            }, 
            {
                "action": "approve_to_staging", 
                "review_state": "ready_for_staging", 
                "comments": "", 
                "actor": "Csiegel", 
                "time": "2014/08/04 16:09:59.360 GMT-4"
            }, 
            {
                "action": "decline_to_qa", 
                "review_state": "waiting_for_qa", 
                "actor": "Csiegel", 
                "comments": "", 
                "time": "2014/08/08 14:47:50.640 GMT-4"
            }, 
            {
                "action": "approve_to_staging", 
                "review_state": "ready_for_staging", 
                "comments": "", 
                "actor": "Csiegel", 
                "time": "2014/08/08 14:53:26.110 GMT-4"
            }, 
            {
                "action": "decline_to_qa", 
                "review_state": "waiting_for_qa", 
                "actor": "Csiegel", 
                "comments": "", 
                "time": "2014/10/29 15:48:52.255 GMT-4"
            }, 
            {
                "action": "approve_to_staging", 
                "review_state": "ready_for_staging", 
                "actor": "Csiegel", 
                "comments": "", 
                "time": "2014/10/29 15:50:17.110 GMT-4"
            }, 
            {
                "action": "decline_to_qa", 
                "review_state": "waiting_for_qa", 
                "comments": "", 
                "actor": "Csiegel", 
                "time": "2014/10/30 15:36:10.833 GMT-4"
            }, 
            {
                "action": "approve_to_staging", 
                "review_state": "ready_for_staging", 
                "actor": "Csiegel", 
                "comments": "", 
                "time": "2014/10/30 15:36:48.896 GMT-4"
            }, 
            {
                "action": "decline", 
                "review_state": "waiting_for_authoring", 
                "comments": "", 
                "actor": "asingh33", 
                "time": "2016/01/11 02:59:35.138 US/Eastern"
            }, 
            {
                "action": "approve_to_staging", 
                "review_state": "ready_for_staging", 
                "comments": "", 
                "actor": "asingh33", 
                "time": "2016/01/11 03:07:04.177 US/Eastern"
            }, 
            {
                "action": "decline_to_qa", 
                "review_state": "waiting_for_qa", 
                "actor": "Jcplayer", 
                "comments": "", 
                "time": "2016/03/23 10:26:30.906 GMT-4"
            }, 
            {
                "action": "approve_to_staging", 
                "review_state": "ready_for_staging", 
                "actor": "Jcplayer", 
                "comments": "", 
                "time": "2016/03/23 10:26:52.534 GMT-4"
            }, 
            {
                "action": "decline_to_qa", 
                "review_state": "waiting_for_qa", 
                "comments": "", 
                "actor": "Jcplayer", 
                "time": "2016/05/16 12:37:24.641 GMT-4"
            }, 
            {
                "action": "approve_to_staging", 
                "review_state": "ready_for_staging", 
                "actor": "Jcplayer", 
                "comments": "", 
                "time": "2016/07/14 15:33:13.103 GMT-4"
            }, 
            {
                "action": "decline", 
                "review_state": "waiting_for_authoring", 
                "comments": "", 
                "actor": "support", 
                "time": "2017/12/21 03:54:42.111 US/Eastern"
            }, 
            {
                "action": "approve_to_staging", 
                "review_state": "ready_for_staging", 
                "actor": "support", 
                "comments": "", 
                "time": "2017/12/21 03:54:51.276 US/Eastern"
            }
        ]
    }, 
    "_content_type_ad_slot_b": "text/plain", 
    "pg_area": "CHEMISTRY", 
    "_content_type_rights": "text/html", 
    "pg_tlp": "", 
    "_id": "index.htm", 
    "_classname": "HFHDefaultPage", 
    "_content_type_materialtype": "text/plain", 
    "tcATmit_instructional_tags": [], 
    "_content_type_pg_section": "text/plain", 
    "parent_uid": "da5043f5acaf2d713d1216ce1cf5cc89", 
    "modification_date": "2017/12/21 03:54:51.202 US/Eastern", 
    "course_linking": [], 
    "publisher": "MIT OpenCourseWare", 
    "excludeFromNav": false, 
    "language": "", 
    "license": "http://creativecommons.org/licenses/by-nc-sa/3.0/us/", 
    "metadata_contributor_list": [], 
    "url_rewrite_patterns": [], 
    "always_publish": false, 
    "_directly_provided": [], 
    "materialtype": "Other", 
    "ad_slot_a": "HFH_180_200", 
    "_content_type_unique_identifier": "text/plain", 
    "category_features": [], 
    "_owner": null, 
    "_defaultpage": "", 
    "firstTimeEdit": true, 
    "_permissions": {
        "Modify portal content": {
            "acquire": false, 
            "roles": [
                "Manager", 
                "MetadataEditor"
            ]
        }, 
        "Access contents information": {
            "acquire": false, 
            "roles": [
                "Authenticated"
            ]
        }, 
        "View": {
            "acquire": false, 
            "roles": [
                "Authenticated"
            ]
        }
    }, 
    "ad_champion_text": "", 
    "allowDiscussion": false, 
    "feature_requirements": [], 
    "creators": [
        "tabikoff"
    ], 
    "courselist_features": [], 
    "_ac_local_roles": {
        "tabikoff": [
            "Owner"
        ]
    }, 
    "_path": "/Plone/high-school/chemistry/index.htm"
}