{
    "text": "<div class=\"resource\"><h2 class=\"subhead_resource\"><a id=\"Radioactive Decay\" name=\"Radioactive Decay\"></a>Radioactive Decay</h2> <p>The process by which an atomic nucleus of an unstable atom loses energy by emitting ionizing particles.</p> <ul class=\"source\">     <li class=\"source\"><p><a title=\"Launch this course.\" href=\"/courses/chemistry/5-111-principles-of-chemical-science-fall-2008\">5.111 <em>Principles of Chemical Sciences</em>, Fall 2008</a> <br />     Instructors: Prof. Catherine Drennan, Dr. Elizabeth Vogel Taylor</p></li> </ul> <p><strong>Course Material Related to This Topic:</strong></p> <ul>     <li>Read <span class=\"courseAreaInfoInline\"><a title=\"View this PDF.\" href=\"./resolveuid/fc35be0fd8898d45d39d092e270bd428\">lecture notes, page 1&ndash;4</a></span></li>     <li>Watch 84806290discoveryoftheelectron44093781</li> </ul></div> <p class=\"top\"><a href=\"#top\"><img alt=\"Upward arrow.\" src=\"/images/hfh_nav_top.png\" class=\"top\" /></a> \t<a href=\"#top\">Back to Top</a></p>", 
    "_content_type_license": "text/plain", 
    "_uid": "b628f255222623a609ca01a1c466e964", 
    "pg_section": "", 
    "title": "Nuclear Chemistry", 
    "_ac_local_roles": {
        "pdpinch": [
            "Owner"
        ]
    }, 
    "location": "", 
    "ad_department": "", 
    "_atbrefs": {
        "isReferencing": [
            "b628f255222623a609ca01a1c466e964"
        ]
    }, 
    "constrainTypesMode": -1, 
    "technical_location": "https://ocw.mit.edu/high-school/chemistry/exam-prep/structure-of-matter/nuclear-chemistry", 
    "software_requirements": [
        {
            "software_type_col": "Browser", 
            "minimum_version_col": "40.0", 
            "software_name_col": "Chrome", 
            "maximum_version_col": ""
        }, 
        {
            "software_type_col": "Browser", 
            "minimum_version_col": "8.0", 
            "software_name_col": "Safari", 
            "maximum_version_col": ""
        }, 
        {
            "software_type_col": "Browser", 
            "minimum_version_col": "38.0", 
            "software_name_col": "Mozilla Firefox", 
            "maximum_version_col": ""
        }, 
        {
            "software_type_col": "Browser", 
            "minimum_version_col": "9.0", 
            "software_name_col": "Internet Explorer", 
            "maximum_version_col": ""
        }, 
        {
            "software_type_col": "Browser", 
            "minimum_version_col": "13.1", 
            "software_name_col": "Edge", 
            "maximum_version_col": ""
        }
    ], 
    "_content_type_technical_location": "text/plain", 
    "_content_type_rights": "text/html", 
    "_directly_provided": [], 
    "pg_tlp": "", 
    "parent_uid": "f2a404ca70bbd6977cd957ead0b0f21b", 
    "_content_type_unique_identifier": "text/plain", 
    "allowDiscussion": false, 
    "_content_type_materialtype": "text/plain", 
    "locallyAllowedTypes": [
        "HFHAPSection", 
        "OCWImage", 
        "OCWExtFile", 
        "OCWFile"
    ], 
    "ad_slot_c": "", 
    "_content_type_text": "text/html", 
    "ad_type": "HOUSE", 
    "creation_date": "2011/09/29 16:42:28.688 GMT-4", 
    "aggregationlevel": 3, 
    "immediatelyAddableTypes": [
        "HFHAPSection", 
        "OCWImage", 
        "OCWExtFile", 
        "OCWFile"
    ], 
    "subject": [], 
    "_content_type_short_page_title": "text/plain", 
    "effectiveDate": "2011/11/07 11:06:52.377 US/Eastern", 
    "parent_module": "da5043f5acaf2d713d1216ce1cf5cc89", 
    "is_mathml_document": false, 
    "bottomtext": "", 
    "short_page_title": "Nuclear Chemistry", 
    "excludeFromNav": false, 
    "related_mit_links": "", 
    "_content_type_ad_type": "text/plain", 
    "_layout": "custom_view", 
    "_workflow_history": {
        "page_workflow": [
            {
                "action": null, 
                "review_state": "waiting_for_authoring", 
                "actor": "tabikoff", 
                "comments": "", 
                "time": "2011/09/29 16:42:28.698 GMT-4"
            }, 
            {
                "action": "approve_to_staging", 
                "review_state": "ready_for_staging", 
                "comments": "", 
                "actor": "shellyu", 
                "time": "2011/11/07 11:06:52.405 US/Eastern"
            }, 
            {
                "action": "decline_to_qa", 
                "review_state": "waiting_for_qa", 
                "actor": "shellyu", 
                "comments": "", 
                "time": "2011/11/08 07:43:00.138 US/Eastern"
            }, 
            {
                "action": "approve_to_staging", 
                "review_state": "ready_for_staging", 
                "actor": "shellyu", 
                "comments": "", 
                "time": "2011/11/08 07:43:57.009 US/Eastern"
            }, 
            {
                "action": "decline_to_qa", 
                "review_state": "waiting_for_qa", 
                "comments": "", 
                "actor": "Kcanavan", 
                "time": "2011/12/27 13:38:05.232 US/Eastern"
            }, 
            {
                "action": "approve_to_staging", 
                "review_state": "ready_for_staging", 
                "comments": "", 
                "actor": "Kcanavan", 
                "time": "2011/12/27 13:52:53.303 US/Eastern"
            }, 
            {
                "action": "decline_to_qa", 
                "review_state": "waiting_for_qa", 
                "comments": "", 
                "actor": "Kcanavan", 
                "time": "2011/12/27 13:53:05.133 US/Eastern"
            }, 
            {
                "action": "approve_to_staging", 
                "review_state": "ready_for_staging", 
                "comments": "", 
                "actor": "Kcanavan", 
                "time": "2011/12/27 13:56:58.154 US/Eastern"
            }, 
            {
                "action": "decline_to_qa", 
                "review_state": "waiting_for_qa", 
                "actor": "Kcanavan", 
                "comments": "", 
                "time": "2012/06/12 15:24:06.410 GMT-4"
            }, 
            {
                "action": "approve_to_staging", 
                "review_state": "ready_for_staging", 
                "actor": "Kcanavan", 
                "comments": "", 
                "time": "2012/06/12 15:26:22.305 GMT-4"
            }, 
            {
                "action": null, 
                "review_state": "waiting_for_authoring", 
                "actor": "pdpinch", 
                "comments": "", 
                "time": "2013/06/04 12:44:54.991 GMT-4"
            }, 
            {
                "action": "approve_to_staging", 
                "review_state": "ready_for_staging", 
                "comments": "", 
                "actor": "ndhamija", 
                "time": "2013/06/12 03:24:20.853 GMT-4"
            }, 
            {
                "action": "decline", 
                "review_state": "waiting_for_authoring", 
                "actor": "ndhamija", 
                "comments": "", 
                "time": "2013/06/12 03:46:35.218 GMT-4"
            }, 
            {
                "action": "approve_to_staging", 
                "review_state": "ready_for_staging", 
                "comments": "", 
                "actor": "ndhamija", 
                "time": "2013/06/12 03:47:47.645 GMT-4"
            }, 
            {
                "action": "decline", 
                "review_state": "waiting_for_authoring", 
                "actor": "rsharma20", 
                "comments": "", 
                "time": "2013/06/17 06:16:03.688 GMT-4"
            }, 
            {
                "action": "approve_to_staging", 
                "review_state": "ready_for_staging", 
                "comments": "", 
                "actor": "rsharma20", 
                "time": "2013/06/17 07:17:07.015 GMT-4"
            }, 
            {
                "action": "decline_to_qa", 
                "review_state": "waiting_for_qa", 
                "actor": "Jcplayer", 
                "comments": "", 
                "time": "2017/08/17 16:09:22.173 GMT-4"
            }, 
            {
                "action": "approve_to_staging", 
                "review_state": "ready_for_staging", 
                "actor": "Jcplayer", 
                "comments": "", 
                "time": "2017/08/17 16:09:40.756 GMT-4"
            }, 
            {
                "action": "decline_to_qa", 
                "review_state": "waiting_for_qa", 
                "comments": "", 
                "actor": "Jcplayer", 
                "time": "2017/08/17 16:18:15.423 GMT-4"
            }, 
            {
                "action": "approve_to_staging", 
                "review_state": "ready_for_staging", 
                "actor": "Jcplayer", 
                "comments": "", 
                "time": "2017/08/17 16:18:27.990 GMT-4"
            }
        ]
    }, 
    "pg_area": "", 
    "_classname": "HFHAPSection", 
    "metadata_contributor_list": [], 
    "_userdefined_roles": [], 
    "publisher": "MIT OpenCourseWare", 
    "nextPreviousEnabled": false, 
    "language": "", 
    "url_rewrite_patterns": [], 
    "widgets_features": [], 
    "category_features": [], 
    "firstTimeEdit": true, 
    "feature_requirements": [], 
    "list_in_left_nav": false, 
    "short_name_tlp": "", 
    "expirationDate": "None", 
    "_content_type_id": "text/plain", 
    "ad_slot_b": "", 
    "is_media_gallery": false, 
    "contributors": [], 
    "_gopip": 2, 
    "ad_slot_a": "", 
    "_content_type_title": "text/plain", 
    "course_linking": [], 
    "_atrefs": {
        "BelongsTo": [
            "da5043f5acaf2d713d1216ce1cf5cc89"
        ], 
        "isReferencing": [
            "b628f255222623a609ca01a1c466e964", 
            "fc35be0fd8898d45d39d092e270bd428", 
            "807a333eacc6fe03252bca0fc01b0dce"
        ]
    }, 
    "license": "http://creativecommons.org/licenses/by-nc-sa/3.0/us/", 
    "rights": "This site (c) Massachusetts Institute of Technology 2011.  Content within individual courses is (c) by the individual authors unless otherwise noted. The Massachusetts Institute of Technology is providing this Work (as defined below) under the terms of this Creative Commons public license (\"CCPL\" or \"license\") unless otherwise noted. The Work is protected by copyright and/or other applicable law. Any use of the work other than as authorized under this license is prohibited. By exercising any of the rights to the Work provided here, You (as defined below) accept and agree to be bound by the terms of this license. The Licensor, the Massachusetts Institute of Technology, grants You the rights contained here in consideration of Your acceptance of such terms and conditions.", 
    "hide_Page_title": false, 
    "_defaultpage": "", 
    "tcATmit_subject_tags": [], 
    "features_tracking": [], 
    "ad_champion_text": "", 
    "has_inline_embed": true, 
    "unique_identifier": "https://ocw.mit.edu/high-school/chemistry/exam-prep/structure-of-matter/nuclear-chemistry", 
    "is_image_gallery": false, 
    "id": "nuclear-chemistry", 
    "materialtype": "Other", 
    "note": "", 
    "_type": "HFHAPSection", 
    "description": "", 
    "_content_type_publisher": "text/plain", 
    "tcATmit_instructional_tags": [], 
    "_content_type": "text/html", 
    "creators": [
        "tabikoff"
    ], 
    "modification_date": "2017/08/17 16:18:27.954 GMT-4", 
    "always_publish": true, 
    "_owner": null, 
    "_permissions": {
        "Change portal events": {
            "acquire": false, 
            "roles": [
                "Editor", 
                "Manager", 
                "MetadataEditor", 
                "Owner"
            ]
        }, 
        "Modify portal content": {
            "acquire": false, 
            "roles": [
                "Manager", 
                "MetadataEditor"
            ]
        }, 
        "Access contents information": {
            "acquire": false, 
            "roles": [
                "Authenticated"
            ]
        }, 
        "List folder contents": {
            "acquire": false, 
            "roles": [
                "Editor", 
                "Manager", 
                "MetadataEditor", 
                "Owner"
            ]
        }, 
        "View": {
            "acquire": false, 
            "roles": [
                "Authenticated"
            ]
        }
    }, 
    "_properties": [
        [
            "title", 
            "Nuclear Chemistry", 
            "string"
        ]
    ], 
    "_id": "nuclear-chemistry", 
    "courselist_features": [], 
    "_path": "/Plone/high-school/chemistry/exam-prep/structure-of-matter/nuclear-chemistry"
}