{
    "text": "", 
    "_content_type_license": "text/plain", 
    "_uid": "cc5cbbb2882425e03ad6b43d146ad5e1", 
    "pg_section": "", 
    "title": "Descriptive Chemistry", 
    "_ac_local_roles": {
        "pdpinch": [
            "Owner"
        ]
    }, 
    "location": "", 
    "ad_department": "", 
    "_atbrefs": {}, 
    "constrainTypesMode": 0, 
    "technical_location": "https://ocw.mit.edu/high-school/chemistry/exam-prep/descriptive-chemistry", 
    "software_requirements": [
        {
            "software_type_col": "Browser", 
            "minimum_version_col": "40.0", 
            "software_name_col": "Chrome", 
            "maximum_version_col": ""
        }, 
        {
            "software_type_col": "Browser", 
            "minimum_version_col": "8.0", 
            "software_name_col": "Safari", 
            "maximum_version_col": ""
        }, 
        {
            "software_type_col": "Browser", 
            "minimum_version_col": "38.0", 
            "software_name_col": "Mozilla Firefox", 
            "maximum_version_col": ""
        }, 
        {
            "software_type_col": "Browser", 
            "minimum_version_col": "9.0", 
            "software_name_col": "Internet Explorer", 
            "maximum_version_col": ""
        }, 
        {
            "software_type_col": "Browser", 
            "minimum_version_col": "13.1", 
            "software_name_col": "Edge", 
            "maximum_version_col": ""
        }
    ], 
    "_content_type_technical_location": "text/plain", 
    "_content_type_rights": "text/html", 
    "_directly_provided": [], 
    "pg_tlp": "", 
    "parent_uid": "58fbfb38dd366784ffdce3d967529261", 
    "_content_type_unique_identifier": "text/plain", 
    "allowDiscussion": false, 
    "_content_type_materialtype": "text/plain", 
    "locallyAllowedTypes": [
        "HFHAPSection", 
        "OCWImage", 
        "OCWExtFile", 
        "OCWFile"
    ], 
    "ad_slot_c": "", 
    "ad_slot_a": "", 
    "ad_type": "HOUSE", 
    "creation_date": "2011/10/03 14:02:25.179 GMT-4", 
    "aggregationlevel": 3, 
    "immediatelyAddableTypes": [
        "HFHAPSection", 
        "OCWImage", 
        "OCWExtFile", 
        "OCWFile"
    ], 
    "subject": [], 
    "effectiveDate": "2011/11/07 11:07:42.132 US/Eastern", 
    "parent_module": "da5043f5acaf2d713d1216ce1cf5cc89", 
    "is_mathml_document": false, 
    "bottomtext": "", 
    "short_page_title": "", 
    "excludeFromNav": false, 
    "related_mit_links": "", 
    "_content_type_ad_type": "text/plain", 
    "_layout": "custom_view", 
    "_workflow_history": {
        "page_workflow": [
            {
                "action": null, 
                "review_state": "waiting_for_authoring", 
                "comments": "", 
                "actor": "tabikoff", 
                "time": "2011/10/03 14:02:25.188 GMT-4"
            }, 
            {
                "action": "approve_to_staging", 
                "review_state": "ready_for_staging", 
                "actor": "shellyu", 
                "comments": "", 
                "time": "2011/11/07 11:07:42.181 US/Eastern"
            }, 
            {
                "action": null, 
                "review_state": "waiting_for_authoring", 
                "actor": "pdpinch", 
                "comments": "", 
                "time": "2013/06/04 12:45:22.605 GMT-4"
            }, 
            {
                "action": "approve_to_staging", 
                "review_state": "ready_for_staging", 
                "comments": "", 
                "actor": "ndhamija", 
                "time": "2013/06/12 06:29:52.790 GMT-4"
            }, 
            {
                "action": "decline", 
                "review_state": "waiting_for_authoring", 
                "actor": "ndhamija", 
                "comments": "", 
                "time": "2013/06/17 06:21:25.842 GMT-4"
            }, 
            {
                "action": "approve_to_staging", 
                "review_state": "ready_for_staging", 
                "comments": "", 
                "actor": "rsharma20", 
                "time": "2013/06/17 07:23:23.330 GMT-4"
            }, 
            {
                "action": "decline_to_qa", 
                "review_state": "waiting_for_qa", 
                "actor": "Jcplayer", 
                "comments": "", 
                "time": "2017/08/17 16:12:12.937 GMT-4"
            }, 
            {
                "action": "approve_to_staging", 
                "review_state": "ready_for_staging", 
                "actor": "Jcplayer", 
                "comments": "", 
                "time": "2017/08/17 16:12:23.118 GMT-4"
            }, 
            {
                "action": "decline_to_qa", 
                "review_state": "waiting_for_qa", 
                "comments": "", 
                "actor": "Jcplayer", 
                "time": "2017/08/17 16:18:31.965 GMT-4"
            }, 
            {
                "action": "approve_to_staging", 
                "review_state": "ready_for_staging", 
                "actor": "Jcplayer", 
                "comments": "", 
                "time": "2017/08/17 16:18:40.448 GMT-4"
            }
        ]
    }, 
    "pg_area": "", 
    "_classname": "HFHAPSection", 
    "metadata_contributor_list": [], 
    "_userdefined_roles": [], 
    "publisher": "MIT OpenCourseWare", 
    "nextPreviousEnabled": false, 
    "language": "", 
    "url_rewrite_patterns": [], 
    "widgets_features": [], 
    "category_features": [], 
    "firstTimeEdit": true, 
    "feature_requirements": [], 
    "list_in_left_nav": false, 
    "short_name_tlp": "", 
    "expirationDate": "None", 
    "_content_type_id": "text/plain", 
    "ad_slot_b": "", 
    "is_media_gallery": false, 
    "contributors": [], 
    "_gopip": 3, 
    "_content_type_title": "text/plain", 
    "course_linking": [], 
    "_atrefs": {
        "BelongsTo": [
            "da5043f5acaf2d713d1216ce1cf5cc89"
        ]
    }, 
    "license": "http://creativecommons.org/licenses/by-nc-sa/3.0/us/", 
    "rights": "This site (c) Massachusetts Institute of Technology 2011.  Content within individual courses is (c) by the individual authors unless otherwise noted. The Massachusetts Institute of Technology is providing this Work (as defined below) under the terms of this Creative Commons public license (\"CCPL\" or \"license\") unless otherwise noted. The Work is protected by copyright and/or other applicable law. Any use of the work other than as authorized under this license is prohibited. By exercising any of the rights to the Work provided here, You (as defined below) accept and agree to be bound by the terms of this license. The Licensor, the Massachusetts Institute of Technology, grants You the rights contained here in consideration of Your acceptance of such terms and conditions.", 
    "hide_Page_title": false, 
    "_defaultpage": "", 
    "tcATmit_subject_tags": [], 
    "features_tracking": [], 
    "ad_champion_text": "", 
    "has_inline_embed": false, 
    "unique_identifier": "https://ocw.mit.edu/high-school/chemistry/exam-prep/descriptive-chemistry", 
    "is_image_gallery": false, 
    "id": "descriptive-chemistry", 
    "materialtype": "Other", 
    "note": "", 
    "_type": "HFHAPSection", 
    "description": "", 
    "_content_type_publisher": "text/plain", 
    "tcATmit_instructional_tags": [], 
    "_content_type": "text/plain", 
    "creators": [
        "tabikoff"
    ], 
    "modification_date": "2017/08/17 16:18:40.430 GMT-4", 
    "always_publish": true, 
    "_owner": null, 
    "_permissions": {
        "Change portal events": {
            "acquire": false, 
            "roles": [
                "Editor", 
                "Manager", 
                "MetadataEditor", 
                "Owner"
            ]
        }, 
        "Modify portal content": {
            "acquire": false, 
            "roles": [
                "Manager", 
                "MetadataEditor"
            ]
        }, 
        "Access contents information": {
            "acquire": false, 
            "roles": [
                "Authenticated"
            ]
        }, 
        "List folder contents": {
            "acquire": false, 
            "roles": [
                "Editor", 
                "Manager", 
                "MetadataEditor", 
                "Owner"
            ]
        }, 
        "View": {
            "acquire": false, 
            "roles": [
                "Authenticated"
            ]
        }
    }, 
    "_properties": [
        [
            "title", 
            "Descriptive Chemistry", 
            "string"
        ]
    ], 
    "_id": "descriptive-chemistry", 
    "courselist_features": [], 
    "_path": "/Plone/high-school/chemistry/exam-prep/descriptive-chemistry"
}