{
    "text": "<div class=\"column\"><ul>     <li><a href=\"#d-Electron Counting\">d-Electron Counting in Coordination Complexes</a></li> </ul></div> <div class=\"column\"><ul>     <li><a href=\"#Products\">Products of Chemical Reactions</a></li> </ul></div> <div class=\"clear\">&nbsp;</div> <div class=\"resource\"><h2 class=\"subhead_resource\"><a id=\"d-Electron Counting\" name=\"d-Electron Counting\"></a>d-Electron Counting in Coordination Complexes</h2> <p>Most common counts have 18 or 16 electrons</p> <ul class=\"source\">     <li class=\"source\"><p><a title=\"Launch this course.\" href=\"/courses/chemistry/5-111-principles-of-chemical-science-fall-2008\">5.111 <em>Principles of Chemical Sciences</em>, Fall 2008</a><br />     Instructors: Prof. Catherine Drennan, Dr. Elizabeth Vogel Taylor</p></li> </ul> <p><strong>Course Material Related to This Topic:</strong></p> <ul>     <li>Read <a title=\"View this PDF.\" href=\"./resolveuid/d9da5154ebf53defb8b2965d84a39a63\">lecture notes, pages 5&ndash;6</a></li>     <li>Watch 47027204d-electroncountingincoordinationcomplexes33352326</li> </ul></div> <p class=\"top\"><a href=\"#top\"><img class=\"top\" src=\"/images/hfh_nav_top.png\" alt=\"Upward arrow.\" /></a> \t<a href=\"#top\">Back to Top</a></p> <div class=\"resource\"><h2 class=\"subhead_resource\"><a id=\"Products\" name=\"Products\"></a>Products of Chemical Reactions</h2> <p>Solubility rules, oxidation-reduction</p> <ul class=\"source\">     <li class=\"source\"><p><a title=\"Launch this course.\" href=\"/courses/chemistry/5-111-principles-of-chemical-science-fall-2008\">5.111 <em>Principles of Chemical Sciences</em>, Fall 2008</a><br />     Instructors: Prof. Catherine Drennan, Dr. Elizabeth Vogel Taylor</p></li> </ul> <p><strong>Course Material Related to This Topic:</strong></p> <ul>     <li>Read <a title=\"View this PDF.\" href=\"./resolveuid/50d8bc13f9fa459ae5dbc10542f6bbf2\">lecture notes, page 1</a></li>     <li>Watch 69056899productsofchemicalreactions81955316</li> </ul></div> <p class=\"top\"><a href=\"#top\"><img class=\"top\" src=\"/images/hfh_nav_top.png\" alt=\"Upward arrow.\" /></a> \t<a href=\"#top\">Back to Top</a></p>", 
    "_content_type_license": "text/plain", 
    "_uid": "4ae62f47205e18744908b58809903244", 
    "pg_section": "", 
    "title": "Chemical Reactivity", 
    "_ac_local_roles": {
        "pdpinch": [
            "Owner"
        ]
    }, 
    "location": "", 
    "ad_department": "", 
    "_atbrefs": {
        "isReferencing": [
            "4ae62f47205e18744908b58809903244"
        ]
    }, 
    "constrainTypesMode": -1, 
    "technical_location": "https://ocw.mit.edu/high-school/chemistry/exam-prep/descriptive-chemistry/chemical-reactivity", 
    "software_requirements": [
        {
            "software_type_col": "Browser", 
            "minimum_version_col": "40.0", 
            "software_name_col": "Chrome", 
            "maximum_version_col": ""
        }, 
        {
            "software_type_col": "Browser", 
            "minimum_version_col": "8.0", 
            "software_name_col": "Safari", 
            "maximum_version_col": ""
        }, 
        {
            "software_type_col": "Browser", 
            "minimum_version_col": "38.0", 
            "software_name_col": "Mozilla Firefox", 
            "maximum_version_col": ""
        }, 
        {
            "software_type_col": "Browser", 
            "minimum_version_col": "9.0", 
            "software_name_col": "Internet Explorer", 
            "maximum_version_col": ""
        }, 
        {
            "software_type_col": "Browser", 
            "minimum_version_col": "13.1", 
            "software_name_col": "Edge", 
            "maximum_version_col": ""
        }
    ], 
    "_content_type_technical_location": "text/plain", 
    "_content_type_rights": "text/html", 
    "_directly_provided": [], 
    "pg_tlp": "", 
    "parent_uid": "cc5cbbb2882425e03ad6b43d146ad5e1", 
    "_content_type_unique_identifier": "text/plain", 
    "allowDiscussion": false, 
    "_content_type_materialtype": "text/plain", 
    "locallyAllowedTypes": [
        "HFHAPSection", 
        "OCWImage", 
        "OCWExtFile", 
        "OCWFile"
    ], 
    "ad_slot_c": "", 
    "_content_type_text": "text/html", 
    "ad_type": "HOUSE", 
    "creation_date": "2011/10/03 14:02:44.784 GMT-4", 
    "aggregationlevel": 3, 
    "immediatelyAddableTypes": [
        "HFHAPSection", 
        "OCWImage", 
        "OCWExtFile", 
        "OCWFile"
    ], 
    "subject": [], 
    "_content_type_short_page_title": "text/plain", 
    "effectiveDate": "2011/11/07 11:07:46.330 US/Eastern", 
    "parent_module": "da5043f5acaf2d713d1216ce1cf5cc89", 
    "is_mathml_document": false, 
    "bottomtext": "", 
    "short_page_title": "Chemical Reactivity", 
    "excludeFromNav": false, 
    "related_mit_links": "", 
    "_content_type_ad_type": "text/plain", 
    "_layout": "custom_view", 
    "_workflow_history": {
        "page_workflow": [
            {
                "action": null, 
                "review_state": "waiting_for_authoring", 
                "comments": "", 
                "actor": "tabikoff", 
                "time": "2011/10/03 14:02:44.792 GMT-4"
            }, 
            {
                "action": "approve_to_staging", 
                "review_state": "ready_for_staging", 
                "actor": "shellyu", 
                "comments": "", 
                "time": "2011/11/07 11:07:46.355 US/Eastern"
            }, 
            {
                "action": "decline_to_qa", 
                "review_state": "waiting_for_qa", 
                "comments": "", 
                "actor": "shellyu", 
                "time": "2011/11/08 07:51:10.558 US/Eastern"
            }, 
            {
                "action": "approve_to_staging", 
                "review_state": "ready_for_staging", 
                "comments": "", 
                "actor": "shellyu", 
                "time": "2011/11/08 07:51:26.038 US/Eastern"
            }, 
            {
                "action": "decline_to_qa", 
                "review_state": "waiting_for_qa", 
                "actor": "shellyu", 
                "comments": "", 
                "time": "2011/12/28 11:34:02.931 US/Eastern"
            }, 
            {
                "action": "approve_to_staging", 
                "review_state": "ready_for_staging", 
                "comments": "", 
                "actor": "shellyu", 
                "time": "2011/12/28 11:47:15.231 US/Eastern"
            }, 
            {
                "action": "decline_to_qa", 
                "review_state": "waiting_for_qa", 
                "actor": "shellyu", 
                "comments": "", 
                "time": "2011/12/28 14:22:00.353 US/Eastern"
            }, 
            {
                "action": "approve_to_staging", 
                "review_state": "ready_for_staging", 
                "actor": "shellyu", 
                "comments": "", 
                "time": "2011/12/28 14:24:57.808 US/Eastern"
            }, 
            {
                "action": "decline_to_qa", 
                "review_state": "waiting_for_qa", 
                "comments": "", 
                "actor": "Kcanavan", 
                "time": "2012/06/12 15:54:19.734 GMT-4"
            }, 
            {
                "action": "approve_to_staging", 
                "review_state": "ready_for_staging", 
                "comments": "", 
                "actor": "Kcanavan", 
                "time": "2012/06/12 15:56:19.833 GMT-4"
            }, 
            {
                "action": null, 
                "review_state": "waiting_for_authoring", 
                "comments": "", 
                "actor": "pdpinch", 
                "time": "2013/06/04 12:45:22.534 GMT-4"
            }, 
            {
                "action": "approve_to_staging", 
                "review_state": "ready_for_staging", 
                "actor": "ndhamija", 
                "comments": "", 
                "time": "2013/06/12 06:29:44.379 GMT-4"
            }, 
            {
                "action": "decline", 
                "review_state": "waiting_for_authoring", 
                "comments": "", 
                "actor": "ndhamija", 
                "time": "2013/06/17 06:24:08.103 GMT-4"
            }, 
            {
                "action": "approve_to_staging", 
                "review_state": "ready_for_staging", 
                "actor": "rsharma20", 
                "comments": "", 
                "time": "2013/06/17 07:23:14.609 GMT-4"
            }, 
            {
                "action": "decline_to_qa", 
                "review_state": "waiting_for_qa", 
                "comments": "", 
                "actor": "Jcplayer", 
                "time": "2017/08/17 16:13:20.218 GMT-4"
            }, 
            {
                "action": "approve_to_staging", 
                "review_state": "ready_for_staging", 
                "actor": "Jcplayer", 
                "comments": "", 
                "time": "2017/08/17 16:14:00.946 GMT-4"
            }
        ]
    }, 
    "pg_area": "", 
    "_classname": "HFHAPSection", 
    "metadata_contributor_list": [], 
    "_userdefined_roles": [], 
    "publisher": "MIT OpenCourseWare", 
    "nextPreviousEnabled": false, 
    "language": "", 
    "url_rewrite_patterns": [], 
    "widgets_features": [], 
    "category_features": [], 
    "firstTimeEdit": true, 
    "feature_requirements": [], 
    "list_in_left_nav": false, 
    "short_name_tlp": "", 
    "expirationDate": "None", 
    "_content_type_id": "text/plain", 
    "ad_slot_b": "", 
    "is_media_gallery": false, 
    "contributors": [], 
    "_gopip": 0, 
    "ad_slot_a": "", 
    "_content_type_title": "text/plain", 
    "course_linking": [], 
    "_atrefs": {
        "BelongsTo": [
            "da5043f5acaf2d713d1216ce1cf5cc89"
        ], 
        "isReferencing": [
            "807a333eacc6fe03252bca0fc01b0dce", 
            "d9da5154ebf53defb8b2965d84a39a63", 
            "50d8bc13f9fa459ae5dbc10542f6bbf2", 
            "4ae62f47205e18744908b58809903244"
        ]
    }, 
    "license": "http://creativecommons.org/licenses/by-nc-sa/3.0/us/", 
    "rights": "This site (c) Massachusetts Institute of Technology 2011.  Content within individual courses is (c) by the individual authors unless otherwise noted. The Massachusetts Institute of Technology is providing this Work (as defined below) under the terms of this Creative Commons public license (\"CCPL\" or \"license\") unless otherwise noted. The Work is protected by copyright and/or other applicable law. Any use of the work other than as authorized under this license is prohibited. By exercising any of the rights to the Work provided here, You (as defined below) accept and agree to be bound by the terms of this license. The Licensor, the Massachusetts Institute of Technology, grants You the rights contained here in consideration of Your acceptance of such terms and conditions.", 
    "hide_Page_title": false, 
    "_defaultpage": "", 
    "tcATmit_subject_tags": [], 
    "features_tracking": [], 
    "ad_champion_text": "", 
    "has_inline_embed": true, 
    "unique_identifier": "https://ocw.mit.edu/high-school/chemistry/exam-prep/descriptive-chemistry/chemical-reactivity", 
    "is_image_gallery": false, 
    "id": "chemical-reactivity", 
    "materialtype": "Other", 
    "note": "", 
    "_type": "HFHAPSection", 
    "description": "", 
    "_content_type_publisher": "text/plain", 
    "tcATmit_instructional_tags": [], 
    "_content_type": "text/html", 
    "creators": [
        "tabikoff"
    ], 
    "modification_date": "2017/08/17 16:14:00.912 GMT-4", 
    "always_publish": true, 
    "_owner": null, 
    "_permissions": {
        "Change portal events": {
            "acquire": false, 
            "roles": [
                "Editor", 
                "Manager", 
                "MetadataEditor", 
                "Owner"
            ]
        }, 
        "Modify portal content": {
            "acquire": false, 
            "roles": [
                "Manager", 
                "MetadataEditor"
            ]
        }, 
        "Access contents information": {
            "acquire": false, 
            "roles": [
                "Authenticated"
            ]
        }, 
        "List folder contents": {
            "acquire": false, 
            "roles": [
                "Editor", 
                "Manager", 
                "MetadataEditor", 
                "Owner"
            ]
        }, 
        "View": {
            "acquire": false, 
            "roles": [
                "Authenticated"
            ]
        }
    }, 
    "_properties": [
        [
            "title", 
            "Chemical Reactivity", 
            "string"
        ]
    ], 
    "_id": "chemical-reactivity", 
    "courselist_features": [], 
    "_path": "/Plone/high-school/chemistry/exam-prep/descriptive-chemistry/chemical-reactivity"
}