{
    "contributors": [], 
    "text": "", 
    "_content_type_media_location": "text/plain", 
    "_content_type_license": "text/plain", 
    "asset_language": "en-us", 
    "media_location": "http://archive.org/download/MIT5.301F12/MIT5_301F12_Ep2_Overwhelmed_300k.mp4", 
    "_uid": "3906b5e18d9790124515aae5df4f92a5", 
    "_workflow_history": {
        "one_state_workflow": [
            {
                "action": null, 
                "review_state": "published", 
                "actor": "shellyu", 
                "comments": "", 
                "time": "2012/09/25 08:39:15.558 GMT-4"
            }
        ]
    }, 
    "expirationDate": "None", 
    "_content_type_id": "text/plain", 
    "id": "Video-InternetArchive-MP4", 
    "tableContents": false, 
    "_path": "/Plone/high-school/chemistry/chemistry-lab-boot-camp/episode-2-overwhelmed/Video-InternetArchive-MP4", 
    "media_asset_source": "Internet Archive", 
    "effectiveDate": "None", 
    "title": "Video-Internet Archive-MP4", 
    "media_asset_type": "Video", 
    "_ac_local_roles": {
        "shellyu": [
            "Owner"
        ]
    }, 
    "_userdefined_roles": [], 
    "_content_type_media_size": "text/plain", 
    "_gopip": 7, 
    "location": "", 
    "_content_type_title": "text/plain", 
    "excludeFromNav": false, 
    "presentation": false, 
    "_type": "OCWMediaAsset", 
    "description": "", 
    "_atrefs": {}, 
    "_layout": "custom_view", 
    "subject": [], 
    "_content_type_rights": "text/html", 
    "_directly_provided": [], 
    "language": "", 
    "_content_type_asset_language": "text/plain", 
    "_classname": "OCWMediaAsset", 
    "_content_type_media_format": "text/plain", 
    "creation_date": "2012/09/25 08:39:15.542 GMT-4", 
    "parent_uid": "a1c13ec80c38a2f3ebeffa9f080f973a", 
    "_content_type_media_asset_type": "text/plain", 
    "modification_date": "2012/12/01 16:40:03.860 US/Eastern", 
    "_content_type": "text/html", 
    "_id": "Video-InternetArchive-MP4", 
    "file_uid": "", 
    "license": "http://ocw.mit.edu/terms", 
    "rights": "This site (c) Massachusetts Institute of Technology 2012.  Content within individual courses is (c) by the individual authors unless otherwise noted. The Massachusetts Institute of Technology is providing this Work (as defined below) under the terms of this Creative Commons public license (\"CCPL\" or \"license\") unless otherwise noted. The Work is protected by copyright and/or other applicable law. Any use of the work other than as authorized under this license is prohibited. By exercising any of the rights to the Work provided here, You (as defined below) accept and agree to be bound by the terms of this license. The Licensor, the Massachusetts Institute of Technology, grants You the rights contained here in consideration of Your acceptance of such terms and conditions.", 
    "_atbrefs": {}, 
    "media_size": "11.7MB", 
    "_owner": null, 
    "_defaultpage": "", 
    "_permissions": {
        "Modify portal content": {
            "acquire": false, 
            "roles": [
                "Editor", 
                "Manager", 
                "Owner"
            ]
        }, 
        "Access contents information": {
            "acquire": false, 
            "roles": [
                "Anonymous"
            ]
        }, 
        "View": {
            "acquire": false, 
            "roles": [
                "Anonymous"
            ]
        }
    }, 
    "media_format": "MP4", 
    "_properties": [
        [
            "title", 
            "Video-Internet Archive-MP4", 
            "string"
        ]
    ], 
    "allowDiscussion": false, 
    "creators": [
        "shellyu"
    ], 
    "_content_type_media_asset_source": "text/plain"
}