{
    "text": "<p><img src=\"./resolveuid/dc849302e03ff79728483ba639240537\" alt=\"relaterdresources.jpg\" width=\"530\" height=\"231\" /></p> <p><strong><a href=\"http://web.mit.edu/newsoffice/2012/behind-the-scenes-of-chemlab-boot-camp.html\">The Making of ChemLab Boot Camp</a></strong><br /> Go behind the scenes to learn more about how this innovative web series was made.</p> <p><strong><a href=\"./resolveuid/0f4b39500f495f4ba167bf8552fb24fc\">5.301 Chemistry Laboratory Techniques on OCW</a></strong><br /> Explore the course materials for 5.301, the same course the freshmen from ChemLab Boot Camp went through.</p> <p><strong><a href=\"./resolveuid/66f28fcd3fd1fa0304750947917a8acc\">5.301 Digital Lab Techniques Manual on OCW</a></strong><br /> This &ldquo;manual&rdquo; is a series of videos designed to help you prepare for a chemistry lab class. Each video demonstrates common laboratory techniques, such as titration, filtration, and column chromatography, among others.</p>", 
    "_content_type_license": "text/plain", 
    "_uid": "9b1d3d31d14e4035defa4967657186b3", 
    "pg_section": "", 
    "title": "Related Resources", 
    "_ac_local_roles": {
        "shellyu": [
            "Owner"
        ]
    }, 
    "location": "", 
    "ad_department": "", 
    "_atbrefs": {}, 
    "constrainTypesMode": -1, 
    "technical_location": "https://ocw.mit.edu/high-school/chemistry/chemistry-lab-boot-camp/related-resources", 
    "software_requirements": [
        {
            "software_type_col": "Browser", 
            "minimum_version_col": "40.0", 
            "software_name_col": "Chrome", 
            "maximum_version_col": ""
        }, 
        {
            "software_type_col": "Browser", 
            "minimum_version_col": "8.0", 
            "software_name_col": "Safari", 
            "maximum_version_col": ""
        }, 
        {
            "software_type_col": "Browser", 
            "minimum_version_col": "38.0", 
            "software_name_col": "Mozilla Firefox", 
            "maximum_version_col": ""
        }, 
        {
            "software_type_col": "Browser", 
            "minimum_version_col": "9.0", 
            "software_name_col": "Internet Explorer", 
            "maximum_version_col": ""
        }, 
        {
            "software_type_col": "Browser", 
            "minimum_version_col": "13.1", 
            "software_name_col": "Edge", 
            "maximum_version_col": ""
        }
    ], 
    "_content_type_technical_location": "text/plain", 
    "_content_type_rights": "text/html", 
    "_directly_provided": [
        "Products.CMFEditions.interfaces.IVersioned"
    ], 
    "pg_tlp": "", 
    "parent_uid": "e456abe011e76668aae29bb5d9488281", 
    "_content_type_unique_identifier": "text/plain", 
    "allowDiscussion": false, 
    "_content_type_materialtype": "text/plain", 
    "locallyAllowedTypes": [
        "HFHSection", 
        "OCWImage", 
        "OCWExtFile", 
        "OCWFile", 
        "HFHMediaResource"
    ], 
    "ad_slot_c": "", 
    "_content_type_text": "text/html", 
    "ad_type": "HOUSE", 
    "creation_date": "2012/09/13 13:51:28.066 GMT-4", 
    "aggregationlevel": 3, 
    "immediatelyAddableTypes": [
        "HFHSection", 
        "OCWImage", 
        "OCWExtFile", 
        "OCWFile", 
        "HFHMediaResource"
    ], 
    "subject": [], 
    "effectiveDate": "2012/09/13 14:02:54.913 GMT-4", 
    "parent_module": "da5043f5acaf2d713d1216ce1cf5cc89", 
    "is_mathml_document": false, 
    "bottomtext": "", 
    "short_page_title": "", 
    "excludeFromNav": false, 
    "related_mit_links": "", 
    "_content_type_ad_type": "text/plain", 
    "_layout": "custom_view", 
    "_workflow_history": {
        "page_workflow": [
            {
                "action": null, 
                "review_state": "waiting_for_authoring", 
                "comments": "", 
                "actor": "shellyu", 
                "time": "2012/09/13 13:51:28.076 GMT-4"
            }, 
            {
                "action": "approve_to_staging", 
                "review_state": "ready_for_staging", 
                "actor": "shellyu", 
                "comments": "", 
                "time": "2012/09/13 14:02:54.942 GMT-4"
            }, 
            {
                "action": "decline_to_qa", 
                "review_state": "waiting_for_qa", 
                "comments": "", 
                "actor": "shellyu", 
                "time": "2012/09/13 14:03:01.308 GMT-4"
            }, 
            {
                "action": "approve_to_staging", 
                "review_state": "ready_for_staging", 
                "actor": "shellyu", 
                "comments": "", 
                "time": "2012/09/13 14:04:51.776 GMT-4"
            }, 
            {
                "action": "decline_to_qa", 
                "review_state": "waiting_for_qa", 
                "comments": "", 
                "actor": "shellyu", 
                "time": "2012/09/14 08:13:48.748 GMT-4"
            }, 
            {
                "action": "approve_to_staging", 
                "review_state": "ready_for_staging", 
                "comments": "", 
                "actor": "shellyu", 
                "time": "2012/09/14 08:15:23.201 GMT-4"
            }, 
            {
                "action": "decline_to_qa", 
                "review_state": "waiting_for_qa", 
                "comments": "", 
                "actor": "shellyu", 
                "time": "2012/09/14 08:29:23.562 GMT-4"
            }, 
            {
                "action": "approve_to_staging", 
                "review_state": "ready_for_staging", 
                "actor": "shellyu", 
                "comments": "", 
                "time": "2012/09/14 08:29:50.591 GMT-4"
            }, 
            {
                "action": "decline_to_qa", 
                "review_state": "waiting_for_qa", 
                "comments": "", 
                "actor": "shellyu", 
                "time": "2012/09/17 08:46:20.998 GMT-4"
            }, 
            {
                "action": "approve_to_staging", 
                "review_state": "ready_for_staging", 
                "actor": "shellyu", 
                "comments": "", 
                "time": "2012/09/17 08:47:25.106 GMT-4"
            }, 
            {
                "action": "decline_to_qa", 
                "review_state": "waiting_for_qa", 
                "comments": "", 
                "actor": "shellyu", 
                "time": "2012/09/17 09:41:49.137 GMT-4"
            }, 
            {
                "action": "approve_to_staging", 
                "review_state": "ready_for_staging", 
                "actor": "shellyu", 
                "comments": "", 
                "time": "2012/09/17 09:43:08.109 GMT-4"
            }
        ]
    }, 
    "pg_area": "", 
    "_classname": "HFHSection", 
    "metadata_contributor_list": [], 
    "_userdefined_roles": [], 
    "publisher": "MIT OpenCourseWare", 
    "nextPreviousEnabled": false, 
    "language": "", 
    "url_rewrite_patterns": [], 
    "widgets_features": [], 
    "category_features": [], 
    "firstTimeEdit": true, 
    "feature_requirements": [], 
    "list_in_left_nav": false, 
    "short_name_tlp": "", 
    "expirationDate": "None", 
    "_content_type_id": "text/plain", 
    "ad_slot_b": "", 
    "is_media_gallery": false, 
    "contributors": [], 
    "_gopip": 4, 
    "ad_slot_a": "", 
    "_content_type_title": "text/plain", 
    "course_linking": [], 
    "_atrefs": {
        "BelongsTo": [
            "da5043f5acaf2d713d1216ce1cf5cc89"
        ], 
        "isReferencing": [
            "dc849302e03ff79728483ba639240537", 
            "66f28fcd3fd1fa0304750947917a8acc"
        ]
    }, 
    "license": "http://creativecommons.org/licenses/by-nc-sa/3.0/us/", 
    "rights": "This site (c) Massachusetts Institute of Technology 2012.  Content within individual courses is (c) by the individual authors unless otherwise noted. The Massachusetts Institute of Technology is providing this Work (as defined below) under the terms of this Creative Commons public license (\"CCPL\" or \"license\") unless otherwise noted. The Work is protected by copyright and/or other applicable law. Any use of the work other than as authorized under this license is prohibited. By exercising any of the rights to the Work provided here, You (as defined below) accept and agree to be bound by the terms of this license. The Licensor, the Massachusetts Institute of Technology, grants You the rights contained here in consideration of Your acceptance of such terms and conditions.", 
    "hide_Page_title": false, 
    "_defaultpage": "", 
    "tcATmit_subject_tags": [], 
    "features_tracking": [], 
    "ad_champion_text": "", 
    "has_inline_embed": false, 
    "unique_identifier": "https://ocw.mit.edu/high-school/chemistry/chemistry-lab-boot-camp/related-resources", 
    "is_image_gallery": false, 
    "id": "related-resources", 
    "materialtype": "Other", 
    "_type": "HFHSection", 
    "description": "", 
    "_content_type_publisher": "text/plain", 
    "tcATmit_instructional_tags": [], 
    "_content_type": "text/html", 
    "creators": [
        "shellyu"
    ], 
    "modification_date": "2016/09/24 01:22:51.381 GMT-4", 
    "always_publish": true, 
    "_owner": null, 
    "_permissions": {
        "Change portal events": {
            "acquire": false, 
            "roles": [
                "Editor", 
                "Manager", 
                "MetadataEditor", 
                "Owner"
            ]
        }, 
        "Modify portal content": {
            "acquire": false, 
            "roles": [
                "Manager", 
                "MetadataEditor"
            ]
        }, 
        "Access contents information": {
            "acquire": false, 
            "roles": [
                "Authenticated"
            ]
        }, 
        "List folder contents": {
            "acquire": false, 
            "roles": [
                "Editor", 
                "Manager", 
                "MetadataEditor", 
                "Owner"
            ]
        }, 
        "View": {
            "acquire": false, 
            "roles": [
                "Authenticated"
            ]
        }
    }, 
    "_properties": [
        [
            "title", 
            "Related Resources", 
            "string"
        ]
    ], 
    "_id": "related-resources", 
    "courselist_features": [], 
    "_path": "/Plone/high-school/chemistry/chemistry-lab-boot-camp/related-resources"
}