{
    "rsi_top_html_area": "", 
    "text": "<div class=\"labwarning\">\r\n<p class=\"title\"><strong>WARNING NOTICE</strong></p>\r\n<p>The experiments described in these materials are potentially hazardous.  Among other things, the experiments should include the following safety measures: a high level of safety training, special facilities and equipment, the use of proper personal protective equipment, and supervision by appropriate individuals. You bear the sole responsibility, liability, and risk for the implementation of such safety procedures and measures. MIT and Dow shall have no responsibility, liability, or risk for the content or implementation of any of the material presented. <a href=\"./resolveuid/93820a56046423e59ec92fa37666f5e9\">Legal Notice</a></p>\r\n</div>\r\n<p>&nbsp;</p>", 
    "_content_type_license": "text/plain", 
    "_uid": "3ecd2bda6024f74868d47a1152c29441", 
    "pg_section": "", 
    "title": "Anatomy of a Glowstick", 
    "_ac_local_roles": {
        "Kcanavan": [
            "Owner"
        ]
    }, 
    "_content_type_about_this_resource_text": "text/html", 
    "template_type": "Tabbed", 
    "location": "", 
    "ad_department": "", 
    "_content_type_course_identifier": "text/plain", 
    "_atbrefs": {}, 
    "constrainTypesMode": 0, 
    "_content_type_section_identifier": "text/plain", 
    "technical_location": "https://ocw.mit.edu/high-school/chemistry/demonstrations/videos/anatomy-of-a-glowstick", 
    "software_requirements": [
        {
            "software_type_col": "Browser", 
            "minimum_version_col": "6.0", 
            "software_name_col": "Internet Explorer", 
            "maximum_version_col": ""
        }, 
        {
            "software_type_col": "Browser", 
            "minimum_version_col": "3.0", 
            "software_name_col": "Mozilla Firefox", 
            "maximum_version_col": ""
        }, 
        {
            "software_type_col": "Browser", 
            "minimum_version_col": "4.0", 
            "software_name_col": "Safari", 
            "maximum_version_col": ""
        }
    ], 
    "_content_type_technical_location": "text/plain", 
    "start_time": "", 
    "_content_type_rights": "text/html", 
    "_directly_provided": [
        "Products.CMFEditions.interfaces.IVersioned"
    ], 
    "pg_tlp": "", 
    "media_rights": "(CC BY-NC-SA)", 
    "parent_uid": "d9a67c3fee3a44a67ef5b123920ab682", 
    "excludeFromNav": false, 
    "about_this_resource_text": "<p>Discover the colorful chemistry that makes a good party glow.</p> <p><em>Teaching Notes:</em> Chemiluminescence: What's Inside a Light Stick Anyway? (<a href=\"./resolveuid/f2a8a738828b407d55ea775c7475b4d2\">PDF</a>)</p> <p><em>Chemistry Magician:</em> Dr. John Dolhun</p> <p>&nbsp;</p> <p>You can also <a href=\"http://techtv.mit.edu/videos/21337-anatomy-of-a-glowstick\">view this video on TechTV</a>.</p>", 
    "_content_type_unique_identifier": "text/plain", 
    "end_time": "", 
    "allowDiscussion": false, 
    "_content_type_materialtype": "text/plain", 
    "locallyAllowedTypes": [
        "OCWImage", 
        "OCWFile", 
        "OCWMediaAsset"
    ], 
    "ad_slot_c": "", 
    "_content_type_text": "text/html", 
    "optional_tab_title": "", 
    "ad_type": "HOUSE", 
    "creation_date": "2012/11/06 13:09:12.254 US/Eastern", 
    "aggregationlevel": 2, 
    "bottom_html_area": "", 
    "duration": "", 
    "immediatelyAddableTypes": [
        "OCWImage", 
        "OCWFile", 
        "OCWMediaAsset"
    ], 
    "_content_type_template_type": "text/plain", 
    "subject": [], 
    "_content_type_short_page_title": "text/plain", 
    "effectiveDate": "2012/11/06 13:16:07.123 US/Eastern", 
    "parent_module": "da5043f5acaf2d713d1216ce1cf5cc89", 
    "is_mathml_document": false, 
    "bottomtext": "", 
    "short_page_title": "Anatomy of a Glowstick", 
    "section_identifier": "https://ocw.mit.edu/high-school/chemistry/demonstrations", 
    "show_captions_outside_player": false, 
    "related_mit_links": "", 
    "_content_type_ad_type": "text/plain", 
    "_layout": "custom_view", 
    "_workflow_history": {
        "page_workflow": [
            {
                "action": null, 
                "review_state": "waiting_for_authoring", 
                "comments": "", 
                "actor": "Kcanavan", 
                "time": "2012/11/06 13:09:12.295 US/Eastern"
            }, 
            {
                "action": "approve_to_staging", 
                "review_state": "ready_for_staging", 
                "actor": "Kcanavan", 
                "comments": "", 
                "time": "2012/11/06 13:16:16.373 US/Eastern"
            }, 
            {
                "action": "decline_to_qa", 
                "review_state": "waiting_for_qa", 
                "comments": "", 
                "actor": "Jcplayer", 
                "time": "2017/05/09 14:51:53.058 GMT-4"
            }, 
            {
                "action": "approve_to_staging", 
                "review_state": "ready_for_staging", 
                "actor": "Jcplayer", 
                "comments": "", 
                "time": "2017/05/09 14:52:20.407 GMT-4"
            }
        ]
    }, 
    "pg_area": "", 
    "_content_type_transcript": "text/html", 
    "metadata_contributor_list": [], 
    "_userdefined_roles": [], 
    "_content_type_inline_embed_id": "text/plain", 
    "publisher": "MIT OpenCourseWare", 
    "nextPreviousEnabled": false, 
    "_gopip": 5, 
    "license": "http://creativecommons.org/licenses/by-nc-sa/3.0/us/", 
    "url_rewrite_patterns": [], 
    "widgets_features": [], 
    "category_features": [], 
    "resource_contributor_list": [], 
    "show_jump_back_5_seconds_button": false, 
    "firstTimeEdit": false, 
    "_content_type_media_rights": "text/plain", 
    "feature_requirements": [], 
    "list_in_left_nav": false, 
    "inline_embed_id": "60750341anatomyofaglowstick68447371", 
    "_classname": "HFHMediaResource", 
    "short_name_tlp": "", 
    "expirationDate": "None", 
    "_content_type_id": "text/plain", 
    "ad_slot_b": "", 
    "contributor_list": [], 
    "is_media_gallery": false, 
    "contributors": [], 
    "media_locations": [], 
    "_content_type_media_resource_type": "text/plain", 
    "ad_slot_a": "", 
    "_content_type_title": "text/plain", 
    "subtitle_exemption": "None", 
    "_content_type": "text/html", 
    "resource_index_text": "", 
    "_atrefs": {
        "BelongsTo": [
            "da5043f5acaf2d713d1216ce1cf5cc89"
        ], 
        "isReferencing": [
            "f2a8a738828b407d55ea775c7475b4d2", 
            "93820a56046423e59ec92fa37666f5e9"
        ]
    }, 
    "media_slides": [], 
    "other_platform_requirements": "", 
    "language": "", 
    "rights": "This site (c) Massachusetts Institute of Technology 2012.  Content within individual courses is (c) by the individual authors unless otherwise noted. The Massachusetts Institute of Technology is providing this Work (as defined below) under the terms of this Creative Commons public license (\"CCPL\" or \"license\") unless otherwise noted. The Work is protected by copyright and/or other applicable law. Any use of the work other than as authorized under this license is prohibited. By exercising any of the rights to the Work provided here, You (as defined below) accept and agree to be bound by the terms of this license. The Licensor, the Massachusetts Institute of Technology, grants You the rights contained here in consideration of Your acceptance of such terms and conditions.", 
    "hide_Page_title": false, 
    "_defaultpage": "", 
    "related_resources_text": "", 
    "tcATmit_subject_tags": [], 
    "features_tracking": [], 
    "ad_champion_text": "", 
    "has_inline_embed": false, 
    "unique_identifier": "https://ocw.mit.edu/high-school/chemistry/demonstrations/videos/anatomy-of-a-glowstick", 
    "link_text": "Anatomy of a Glowstick", 
    "is_image_gallery": false, 
    "id": "anatomy-of-a-glowstick", 
    "_content_type_subtitle_exemption": "text/plain", 
    "materialtype": "Other", 
    "optional_text": "", 
    "_type": "HFHMediaResource", 
    "description": "", 
    "media_resource_type": "Video", 
    "course_identifier": "https://ocw.mit.edu/high-school/chemistry", 
    "_content_type_publisher": "text/plain", 
    "tcATmit_instructional_tags": [], 
    "transcript": "<p><span m='0'>[MUSIC PLAYING]</span> </p><p><span m='7665'>JESSICA HARROP:</span> <span m='7787'>Hi,</span> <span m='7910'>I'm</span> <span m='7990'>Jessica</span> <span m='8500'>and</span> <span m='8620'>today</span> <span m='8890'>I'm</span> <span m='8980'>going</span> <span m='9280'>to</span> <span m='9370'>shed</span> <span m='9640'>some</span> <span m='9850'>light</span> <span m='10090'>on</span> <span m='10330'>a</span> <span m='10390'>chemical</span> <span m='10810'>demonstration</span> <span m='11680'>I</span> <span m='11860'>like</span> <span m='12070'>to</span> <span m='12190'>call</span> <span m='12610'>anatomy</span> <span m='13270'>of</span> <span m='13540'>a</span> <span m='13600'>glow</span> <span m='13800'>stick.</span> <span m='15490'>There</span> <span m='15640'>are</span> <span m='15670'>many</span> <span m='16030'>different</span> <span m='16300'>kinds</span> <span m='16780'>of</span> <span m='16900'>chemical</span> <span m='17290'>reactions.</span> <span m='18400'>Some</span> <span m='18670'>absorb</span> <span m='19180'>energy</span> <span m='19660'>and</span> <span m='19810'>some</span> <span m='20080'>release</span> <span m='20410'>energy.</span> <span m='21190'>Some</span> <span m='21430'>release</span> <span m='21820'>energy</span> <span m='22210'>as</span> <span m='22360'>heat</span> <span m='22780'>and</span> <span m='22960'>others</span> <span m='23320'>as</span> <span m='23560'>light.</span> <span m='24400'>And</span> <span m='24550'>when</span> <span m='24670'>a</span> <span m='24700'>reaction</span> <span m='25210'>produces</span> <span m='25690'>light,</span> <span m='26110'>the</span> <span m='26230'>process</span> <span m='26700'>is</span> <span m='26830'>called</span> <span m='27280'>chemiluminescence.</span> <span m='31240'>Let's</span> <span m='31510'>watch</span> <span m='31900'>MIT's</span> <span m='32470'>Dr.</span> <span m='32800'>John</span> <span m='33160'>Dolhun,</span> <span m='33820'>his</span> <span m='33970'>assistant,</span> <span m='34480'>Shannon,</span> <span m='35110'>and</span> <span m='35260'>volunteers,</span> <span m='35920'>Sarah,</span> <span m='36310'>Catherine,</span> <span m='36850'>and</span> <span m='37030'>Trevor.</span> <span m='37840'>They</span> <span m='38070'>are</span> <span m='38140'>going</span> <span m='38290'>to</span> <span m='38350'>show</span> <span m='38590'>us</span> <span m='38770'>some</span> <span m='38980'>chemiluminescence</span> <span m='40030'>at</span> <span m='40120'>the</span> <span m='40240'>Cambridge</span> <span m='40840'>Science</span> <span m='41440'>Festival.</span> </p><p><span m='42100'>[WHOOSH]</span> </p><p><span m='42565'>SHANNON MOREY:</span> <span m='42632'>So</span> <span m='42970'>not</span> <span m='43240'>all</span> <span m='43450'>reactions</span> <span m='44110'>have</span> <span m='44290'>this</span> <span m='44410'>ability</span> <span m='44860'>to</span> <span m='44980'>produce</span> <span m='45310'>light.</span> <span m='45650'>And</span> <span m='45750'>so we</span> <span m='45850'>have</span> <span m='45970'>to</span> <span m='46060'>use</span> <span m='46240'>some</span> <span m='46390'>very</span> <span m='46660'>special</span> <span m='47020'>chemicals</span> <span m='48400'>in</span> <span m='48520'>order</span> <span m='48880'>to</span> <span m='49030'>do</span> <span m='49220'>this.</span> <span m='49420'>And</span> <span m='49510'>we</span> <span m='49600'>have</span> <span m='50020'>some</span> <span m='50230'>light</span> <span m='50410'>sticks</span> <span m='50770'>that</span> <span m='51010'>I</span> <span m='51130'>broke</span> <span m='51370'>apart</span> <span m='51670'>here,</span> <span m='52690'>if</span> <span m='52840'>you</span> <span m='52930'>guys</span> <span m='54430'>just</span> <span m='54610'>want</span> <span m='54760'>to</span> <span m='54820'>take</span> <span m='55150'>these</span> <span m='55300'>solutions.</span> <span m='56440'>Hold</span> <span m='56650'>them</span> <span m='56770'>carefully.</span> </p><p><span m='61690'>And</span> <span m='61810'>so</span> <span m='62200'>in</span> <span m='62320'>a</span> <span m='62410'>light</span> <span m='62710'>stick,</span> <span m='63790'>usually</span> <span m='64330'>there's</span> <span m='64510'>actually</span> <span m='64840'>hydrogen</span> <span m='65230'>peroxide.</span> <span m='65920'>And</span> <span m='66310'>it</span> <span m='66520'>oxidizes</span> <span m='67390'>different</span> <span m='67720'>chemicals--</span> <span m='68320'>oh,</span> <span m='68730'>yeah,</span> <span m='68830'>you</span> <span m='68950'>can</span> <span m='69100'>just face the</span> <span m='69400'>audience.</span> <span m='69790'>That's</span> <span m='69910'>cool.</span> <span m='70580'>And</span> <span m='70710'>it</span> <span m='70770'>will</span> <span m='70930'>oxidize</span> <span m='71440'>different</span> <span m='71710'>chemicals</span> <span m='72190'>depending</span> <span m='72610'>on</span> <span m='72700'>what</span> <span m='72880'>color</span> <span m='73210'>you</span> <span m='73390'>want</span> <span m='74170'>to</span> <span m='74290'>give</span> <span m='74500'>off</span> <span m='74790'>light.</span> <span m='75460'>All</span> <span m='75520'>right.</span> <span m='75810'>So</span> <span m='75970'>just</span> <span m='76090'>pour</span> <span m='76330'>one</span> <span m='76480'>solution</span> <span m='76780'>together.</span> <span m='77110'>It</span> <span m='77170'>doesn't</span> <span m='77320'>matter</span> <span m='77560'>which</span> <span m='77740'>way.</span> </p><p><span m='80032'>AUDIENCE:</span> <span m='80281'>Oh.</span> </p><p><span m='80530'>SHANNON MOREY:</span> <span m='80585'>And</span> <span m='80640'>there</span> <span m='80910'>we</span> <span m='81060'>go,</span> <span m='81720'>OK.</span> <span m='83550'>Beautiful,</span> <span m='84300'>beautiful.</span> <span m='85090'>All</span> <span m='85260'>right.</span> <span m='85950'>So</span> <span m='86130'>in</span> <span m='86250'>each</span> <span m='86460'>of</span> <span m='86550'>these,</span> <span m='86850'>we</span> <span m='87000'>have</span> <span m='87210'>a</span> <span m='87300'>different</span> <span m='87690'>chemical</span> <span m='88110'>that</span> <span m='88260'>gets</span> <span m='88560'>oxidized</span> <span m='89890'>to</span> <span m='90020'>give</span> <span m='90240'>us</span> <span m='90540'>a</span> <span m='90600'>different</span> <span m='90930'>color.</span> <span m='92740'>All</span> <span m='92860'>right,</span> <span m='93340'>thank</span> <span m='93550'>you</span> <span m='93610'>guys</span> <span m='93910'>so</span> <span m='94300'>much.</span> </p><p><span m='94820'>[APPLAUSE]</span> </p><p><span m='97568'>[WHOOSH]</span> </p><p><span m='98490'>JESSICA:</span> <span m='98530'>So</span> <span m='98570'>how</span> <span m='98720'>does</span> <span m='98870'>a</span> <span m='98930'>reaction</span> <span m='99470'>produce</span> <span m='99890'>light?</span> <span m='100820'>Let's</span> <span m='101060'>start</span> <span m='101360'>with</span> <span m='101510'>two</span> <span m='101780'>molecules.</span> <span m='102540'>Let's</span> <span m='102650'>call</span> <span m='102860'>them A</span> <span m='103220'>and</span> <span m='103880'>B.</span> <span m='104510'>They</span> <span m='104750'>react</span> <span m='105230'>to</span> <span m='105380'>produce</span> <span m='105800'>C</span> <span m='106280'>and</span> <span m='106490'>D.</span> <span m='108650'>Energy</span> <span m='108980'>that's</span> <span m='109160'>produced</span> <span m='109530'>in</span> <span m='109610'>the</span> <span m='109700'>reaction</span> <span m='110300'>causes</span> <span m='110690'>the</span> <span m='110810'>electrons</span> <span m='111410'>in</span> <span m='111710'>D</span> <span m='112010'>to</span> <span m='112130'>become</span> <span m='112460'>excited.</span> </p><p><span m='113270'>As</span> <span m='113420'>the</span> <span m='113540'>electrons</span> <span m='114110'>relax</span> <span m='114560'>back</span> <span m='114830'>down,</span> <span m='115310'>they</span> <span m='115430'>give</span> <span m='115670'>off</span> <span m='115880'>energy</span> <span m='116390'>as</span> <span m='116720'>light.</span> <span m='117890'>So</span> <span m='118040'>basically,</span> <span m='118520'>chemical</span> <span m='118940'>energy</span> <span m='119390'>is</span> <span m='119570'>transformed</span> <span m='120350'>into</span> <span m='120620'>light</span> <span m='120890'>energy.</span> <span m='121520'>This</span> <span m='121730'>all</span> <span m='121880'>happens</span> <span m='122300'>in</span> <span m='122420'>one</span> <span m='122750'>step</span> <span m='123230'>as</span> <span m='123380'>the</span> <span m='123440'>reaction</span> <span m='124010'>is</span> <span m='124160'>progressing.</span> <span m='125060'>Here's</span> <span m='125390'>what's</span> <span m='125660'>happening.</span> </p><p><span m='145470'>This</span> <span m='145550'>is</span> <span m='145640'>the</span> <span m='145760'>energy</span> <span m='146060'>level</span> <span m='146300'>of</span> <span m='146390'>our</span> <span m='146570'>reactants,</span> <span m='146955'>A</span> <span m='147340'>and</span> <span m='147740'>B.</span> <span m='149090'>When</span> <span m='149270'>they</span> <span m='149360'>react,</span> <span m='149940'>they</span> <span m='149960'>form</span> <span m='150230'>C</span> <span m='151100'>and</span> <span m='151340'>D</span> <span m='151680'>in</span> <span m='151820'>its</span> <span m='151970'>excited</span> <span m='152480'>state.</span> <span m='154920'>Now</span> <span m='155030'>to</span> <span m='155150'>relax</span> <span m='155810'>back</span> <span m='156080'>down</span> <span m='156290'>to</span> <span m='156380'>where</span> <span m='156500'>it</span> <span m='156560'>needs</span> <span m='156830'>to</span> <span m='156920'>be,</span> <span m='157690'>D</span> <span m='158000'>emits</span> <span m='158510'>energy</span> <span m='159140'>as</span> <span m='159410'>light.</span> <span m='160550'>Now</span> <span m='160700'>there's</span> <span m='160850'>a</span> <span m='160910'>different</span> <span m='161240'>amount</span> <span m='161450'>of</span> <span m='161540'>energy</span> <span m='161870'>in</span> <span m='161960'>our</span> <span m='162050'>reactants</span> <span m='162890'>than</span> <span m='163070'>our</span> <span m='163190'>products,</span> <span m='163850'>so</span> <span m='163970'>that's</span> <span m='164240'>why</span> <span m='164720'>these</span> <span m='165020'>two</span> <span m='165290'>energy</span> <span m='165560'>levels</span> <span m='165950'>are</span> <span m='166070'>different.</span> </p><p><span m='168050'>All</span> <span m='168170'>right,</span> <span m='168440'>so</span> <span m='168590'>in</span> <span m='168680'>Dr.</span> <span m='169010'>Dolhun's</span> <span m='169460'>experiment,</span> <span m='170120'>each</span> <span m='170420'>volunteer</span> <span m='171050'>has</span> <span m='171230'>a</span> <span m='171320'>cup</span> <span m='171680'>containing</span> <span m='172160'>a</span> <span m='172220'>different</span> <span m='172580'>chemical</span> <span m='173510'>and</span> <span m='173660'>adds</span> <span m='173930'>hydrogen</span> <span m='174500'>peroxide</span> <span m='175220'>to</span> <span m='175400'>each</span> <span m='175760'>cup.</span> <span m='176720'>And</span> <span m='176870'>each</span> <span m='177125'>cup</span> <span m='177380'>glows</span> <span m='177950'>a</span> <span m='178040'>different</span> <span m='178370'>color,</span> <span m='179150'>red,</span> <span m='179700'>blue,</span> <span m='180060'>or</span> <span m='180080'>green.</span> <span m='181880'>This</span> <span m='182060'>happens</span> <span m='182360'>because</span> <span m='182600'>the</span> <span m='182690'>hydrogen</span> <span m='183170'>peroxide</span> <span m='183830'>is</span> <span m='184160'>oxidizing</span> <span m='185000'>each</span> <span m='185270'>of</span> <span m='185360'>the</span> <span m='185450'>different</span> <span m='185780'>chemicals.</span> <span m='187080'>So</span> <span m='187130'>oxidation</span> <span m='187910'>is</span> <span m='188060'>the</span> <span m='188180'>chemical</span> <span m='188600'>reaction</span> <span m='189170'>that</span> <span m='189260'>will</span> <span m='189440'>ultimately</span> <span m='189980'>cause</span> <span m='190490'>the</span> <span m='190610'>chemiluminescence.</span> </p><p><span m='192650'>So</span> <span m='192830'>why</span> <span m='193040'>did</span> <span m='193190'>each</span> <span m='193430'>of</span> <span m='193490'>these</span> <span m='193730'>chemicals</span> <span m='194330'>glow</span> <span m='194640'>a</span> <span m='194690'>different</span> <span m='194990'>color?</span> <span m='195830'>Well</span> <span m='196010'>it's</span> <span m='196160'>because</span> <span m='196460'>they</span> <span m='196670'>each</span> <span m='197030'>emitted</span> <span m='197450'>a</span> <span m='197510'>different</span> <span m='197900'>amount</span> <span m='198350'>of</span> <span m='198590'>energy.</span> <span m='199100'>And</span> <span m='199580'>energy</span> <span m='200030'>equals</span> <span m='200420'>color.</span> <span m='201300'>So</span> <span m='201320'>let's</span> <span m='201560'>think</span> <span m='201770'>of</span> <span m='201890'>it</span> <span m='202010'>in</span> <span m='202130'>terms</span> <span m='202460'>of</span> <span m='202550'>a</span> <span m='202610'>rainbow</span> <span m='203090'>spectrum.</span> </p><p><span m='213870'>So</span> <span m='213890'>the</span> <span m='214010'>amount</span> <span m='214250'>of</span> <span m='214340'>energy</span> <span m='214730'>increases</span> <span m='215420'>as</span> <span m='215540'>you</span> <span m='215630'>move</span> <span m='215840'>up</span> <span m='215960'>the</span> <span m='216050'>spectrum.</span> <span m='216990'>So</span> <span m='217100'>red</span> <span m='217520'>is</span> <span m='217670'>lower</span> <span m='218000'>energy</span> <span m='218660'>than</span> <span m='218840'>blue.</span> <span m='219890'>So</span> <span m='220040'>if</span> <span m='220160'>the</span> <span m='220250'>difference</span> <span m='220670'>between</span> <span m='220970'>the</span> <span m='221060'>ground</span> <span m='221480'>state</span> <span m='221900'>and</span> <span m='222020'>the</span> <span m='222140'>excited</span> <span m='222680'>state</span> <span m='223100'>is</span> <span m='223220'>small,</span> <span m='224180'>there</span> <span m='224330'>is</span> <span m='224450'>a</span> <span m='224510'>smaller</span> <span m='224960'>amount</span> <span m='225200'>of</span> <span m='225290'>energy</span> <span m='225650'>released,</span> <span m='226250'>and</span> <span m='226460'>the</span> <span m='226550'>light</span> <span m='226850'>is</span> <span m='226940'>on</span> <span m='227090'>the</span> <span m='227210'>redder</span> <span m='227550'>side</span> <span m='227990'>of</span> <span m='228110'>the</span> <span m='228230'>spectrum.</span> <span m='229220'>Conversely,</span> <span m='229880'>if</span> <span m='230060'>that</span> <span m='230210'>gap</span> <span m='230480'>is</span> <span m='230630'>larger,</span> <span m='231200'>there's</span> <span m='231440'>more</span> <span m='231830'>energy</span> <span m='232160'>released.</span> <span m='232890'>So</span> <span m='232970'>the</span> <span m='233090'>light</span> <span m='233450'>is</span> <span m='233600'>on</span> <span m='233960'>the</span> <span m='234080'>bluer</span> <span m='234470'>side</span> <span m='234710'>of</span> <span m='234800'>the</span> <span m='234860'>spectrum.</span> </p><p><span m='235940'>And</span> <span m='236060'>this</span> <span m='236240'>chemiluminescence</span> <span m='237110'>chemistry</span> <span m='237650'>has</span> <span m='237860'>practical</span> <span m='238430'>uses</span> <span m='238880'>beyond</span> <span m='239480'>glowsticks</span> <span m='240110'>that</span> <span m='240260'>light</span> <span m='240500'>up</span> <span m='240650'>a</span> <span m='240710'>good</span> <span m='240950'>party.</span> <span m='242030'>We</span> <span m='242150'>also</span> <span m='242360'>use</span> <span m='242600'>reactions</span> <span m='243170'>like</span> <span m='243380'>these</span> <span m='243680'>to</span> <span m='243770'>create</span> <span m='244160'>flares</span> <span m='244760'>that</span> <span m='244880'>don't</span> <span m='245090'>get</span> <span m='245240'>too</span> <span m='245480'>hot</span> <span m='245960'>in</span> <span m='246050'>use</span> <span m='246260'>of</span> <span m='246350'>emergency</span> <span m='246830'>situations.</span> <span m='248120'>And</span> <span m='248270'>nature</span> <span m='248630'>uses</span> <span m='248930'>chemiluminescence</span> <span m='249470'>too.</span> <span m='250160'>[WHOOSH]</span> <span m='250490'>If</span> <span m='250820'>you've</span> <span m='250940'>ever</span> <span m='251090'>seen</span> <span m='251300'>a</span> <span m='251360'>firefly</span> <span m='252080'>light</span> <span m='252320'>up</span> <span m='252440'>at</span> <span m='252530'>night</span> <span m='252785'>or</span> <span m='253040'>an</span> <span m='253350'>[WHOOSH]</span> <span m='253550'>Angler</span> <span m='253940'>fish</span> <span m='254300'>hunt</span> <span m='254540'>for</span> <span m='254690'>prey,</span> <span m='255470'>you've</span> <span m='255650'>seen</span> <span m='256010'>bioluminescence</span> <span m='257000'>which</span> <span m='257230'>is</span> <span m='257390'>chemiluminescence</span> <span m='258350'>in</span> <span m='258500'>a</span> <span m='258560'>biological</span> <span m='259190'>system.</span> </p><p><span m='260329'>It's</span> <span m='260480'>the</span> <span m='260600'>exact</span> <span m='260959'>same</span> <span m='261230'>principle</span> <span m='261709'>as</span> <span m='261829'>the</span> <span m='261950'>chemical</span> <span m='262310'>reactions</span> <span m='263030'>that</span> <span m='263150'>Dr.</span> <span m='263540'>Dolhun</span> <span m='263930'>showed</span> <span m='264350'>us.</span> <span m='264860'>[MUSIC PLAYING]</span> <span m='265250'>Hope</span> <span m='265430'>you</span> <span m='265490'>enjoyed</span> <span m='265730'>the</span> <span m='265790'>video.</span> <span m='266550'>I'll</span> <span m='266650'>see</span> <span m='266690'>you</span> <span m='266750'>next</span> <span m='266960'>time.</span> </p>", 
    "_content_type_link_text": "text/plain", 
    "course_linking": [], 
    "_id": "anatomy-of-a-glowstick", 
    "modification_date": "2017/05/09 14:52:20.365 GMT-4", 
    "media_index": [], 
    "always_publish": false, 
    "_owner": null, 
    "_permissions": {
        "Change portal events": {
            "acquire": false, 
            "roles": [
                "Editor", 
                "Manager", 
                "MetadataEditor", 
                "Owner"
            ]
        }, 
        "Modify portal content": {
            "acquire": false, 
            "roles": [
                "Manager", 
                "MetadataEditor"
            ]
        }, 
        "Access contents information": {
            "acquire": false, 
            "roles": [
                "Authenticated"
            ]
        }, 
        "List folder contents": {
            "acquire": false, 
            "roles": [
                "Editor", 
                "Manager", 
                "MetadataEditor", 
                "Owner"
            ]
        }, 
        "View": {
            "acquire": false, 
            "roles": [
                "Authenticated"
            ]
        }
    }, 
    "_properties": [
        [
            "title", 
            "Anatomy of a Glowstick", 
            "string"
        ]
    ], 
    "creators": [
        "Kcanavan"
    ], 
    "courselist_features": [], 
    "_path": "/Plone/high-school/chemistry/demonstrations/videos/anatomy-of-a-glowstick"
}