{
    "rsi_top_html_area": "", 
    "text": "<div class=\"labwarning\">\r\n<p class=\"title\"><strong>WARNING NOTICE</strong></p>\r\n<p>The experiments described in these materials are potentially hazardous.  Among other things, the experiments should include the following safety measures: a high level of safety training, special facilities and equipment, the use of proper personal protective equipment, and supervision by appropriate individuals. You bear the sole responsibility, liability, and risk for the implementation of such safety procedures and measures. MIT and Dow shall have no responsibility, liability, or risk for the content or implementation of any of the material presented. <a href=\"./resolveuid/93820a56046423e59ec92fa37666f5e9\">Legal Notice</a></p>\r\n</div>\r\n<p>&nbsp;</p>", 
    "_content_type_license": "text/plain", 
    "_uid": "53b6463082fe90f157f1b828ea975094", 
    "pg_section": "", 
    "title": "The Steaming Gun", 
    "_ac_local_roles": {
        "Kcanavan": [
            "Owner"
        ]
    }, 
    "_content_type_about_this_resource_text": "text/html", 
    "template_type": "Tabbed", 
    "location": "", 
    "ad_department": "", 
    "_content_type_course_identifier": "text/plain", 
    "_atbrefs": {}, 
    "constrainTypesMode": 0, 
    "_content_type_section_identifier": "text/plain", 
    "technical_location": "https://ocw.mit.edu/high-school/chemistry/demonstrations/videos/the-steaming-gun", 
    "software_requirements": [
        {
            "software_type_col": "Browser", 
            "minimum_version_col": "6.0", 
            "software_name_col": "Internet Explorer", 
            "maximum_version_col": ""
        }, 
        {
            "software_type_col": "Browser", 
            "minimum_version_col": "3.0", 
            "software_name_col": "Mozilla Firefox", 
            "maximum_version_col": ""
        }, 
        {
            "software_type_col": "Browser", 
            "minimum_version_col": "4.0", 
            "software_name_col": "Safari", 
            "maximum_version_col": ""
        }
    ], 
    "_content_type_technical_location": "text/plain", 
    "start_time": "", 
    "_content_type_rights": "text/html", 
    "_directly_provided": [
        "Products.CMFEditions.interfaces.IVersioned"
    ], 
    "pg_tlp": "", 
    "media_rights": "(CC BY-NC-SA)", 
    "parent_uid": "d9a67c3fee3a44a67ef5b123920ab682", 
    "excludeFromNav": false, 
    "about_this_resource_text": "<p>In a dark bottle at room temperature, hydrogen peroxide decomposes very, very slowly. But add manganese dioxide, and that same reaction happens thousands of times faster, with very... tall results.</p>  <p><em>Teaching Notes:</em><br /> Chemical Transformation I: Decomposition with H<sub>2</sub>O<sub>2</sub> with MnO<sub>2</sub> (<a href=\"./resolveuid/061503498cdc995b02ba8c922e940044\">PDF</a>)<br /> Chemical Transformation II: Decomposition with H<sub>2</sub>O<sub>2</sub> with KI (<a href=\"./resolveuid/3d3f8a888b1d481aa01c243b2dd79f60\">PDF</a>)</p> <p><em>Chemistry Magician:</em> Dr. John Dolhun</p> <p>&nbsp;</p> <p>You can also <a href=\"http://techtv.mit.edu/videos/21348-steaming-gun\">view this video on TechTV</a>.</p>", 
    "_content_type_unique_identifier": "text/plain", 
    "end_time": "", 
    "allowDiscussion": false, 
    "_content_type_materialtype": "text/plain", 
    "locallyAllowedTypes": [
        "OCWImage", 
        "OCWFile", 
        "OCWMediaAsset"
    ], 
    "ad_slot_c": "", 
    "_content_type_text": "text/html", 
    "optional_tab_title": "", 
    "ad_type": "HOUSE", 
    "creation_date": "2012/11/06 12:41:52.865 US/Eastern", 
    "aggregationlevel": 2, 
    "bottom_html_area": "", 
    "duration": "", 
    "immediatelyAddableTypes": [
        "OCWImage", 
        "OCWFile", 
        "OCWMediaAsset"
    ], 
    "_content_type_template_type": "text/plain", 
    "subject": [], 
    "_content_type_short_page_title": "text/plain", 
    "effectiveDate": "2012/11/06 12:56:32.870 US/Eastern", 
    "parent_module": "da5043f5acaf2d713d1216ce1cf5cc89", 
    "is_mathml_document": false, 
    "bottomtext": "", 
    "short_page_title": "Steaming Gun", 
    "section_identifier": "https://ocw.mit.edu/high-school/chemistry/demonstrations", 
    "show_captions_outside_player": false, 
    "related_mit_links": "", 
    "_content_type_ad_type": "text/plain", 
    "_layout": "custom_view", 
    "_workflow_history": {
        "page_workflow": [
            {
                "action": null, 
                "review_state": "waiting_for_authoring", 
                "actor": "Kcanavan", 
                "comments": "", 
                "time": "2012/11/06 12:41:52.877 US/Eastern"
            }, 
            {
                "action": "approve_to_staging", 
                "review_state": "ready_for_staging", 
                "actor": "Kcanavan", 
                "comments": "", 
                "time": "2012/11/06 12:56:32.891 US/Eastern"
            }, 
            {
                "action": "decline_to_qa", 
                "review_state": "waiting_for_qa", 
                "actor": "Kcanavan", 
                "comments": "", 
                "time": "2012/11/06 12:56:52.645 US/Eastern"
            }, 
            {
                "action": "approve_to_staging", 
                "review_state": "ready_for_staging", 
                "actor": "Kcanavan", 
                "comments": "", 
                "time": "2012/11/06 12:57:46.112 US/Eastern"
            }, 
            {
                "action": "decline_to_qa", 
                "review_state": "waiting_for_qa", 
                "comments": "", 
                "actor": "Jcplayer", 
                "time": "2017/05/09 14:52:30.642 GMT-4"
            }, 
            {
                "action": "approve_to_staging", 
                "review_state": "ready_for_staging", 
                "actor": "Jcplayer", 
                "comments": "", 
                "time": "2017/05/09 14:52:52.755 GMT-4"
            }
        ]
    }, 
    "pg_area": "", 
    "_content_type_transcript": "text/html", 
    "metadata_contributor_list": [], 
    "_userdefined_roles": [], 
    "_content_type_inline_embed_id": "text/plain", 
    "publisher": "MIT OpenCourseWare", 
    "nextPreviousEnabled": false, 
    "_gopip": 6, 
    "license": "http://creativecommons.org/licenses/by-nc-sa/3.0/us/", 
    "url_rewrite_patterns": [], 
    "widgets_features": [], 
    "category_features": [], 
    "resource_contributor_list": [], 
    "show_jump_back_5_seconds_button": false, 
    "firstTimeEdit": false, 
    "_content_type_media_rights": "text/plain", 
    "feature_requirements": [], 
    "list_in_left_nav": false, 
    "inline_embed_id": "63398716thesteaminggun10748741", 
    "_classname": "HFHMediaResource", 
    "short_name_tlp": "", 
    "expirationDate": "None", 
    "_content_type_id": "text/plain", 
    "ad_slot_b": "", 
    "contributor_list": [], 
    "is_media_gallery": false, 
    "contributors": [], 
    "media_locations": [], 
    "_content_type_media_resource_type": "text/plain", 
    "ad_slot_a": "", 
    "_content_type_title": "text/plain", 
    "subtitle_exemption": "None", 
    "_content_type": "text/html", 
    "resource_index_text": "", 
    "_atrefs": {
        "BelongsTo": [
            "da5043f5acaf2d713d1216ce1cf5cc89"
        ], 
        "isReferencing": [
            "061503498cdc995b02ba8c922e940044", 
            "3d3f8a888b1d481aa01c243b2dd79f60", 
            "93820a56046423e59ec92fa37666f5e9"
        ]
    }, 
    "media_slides": [], 
    "other_platform_requirements": "", 
    "language": "", 
    "rights": "This site (c) Massachusetts Institute of Technology 2012.  Content within individual courses is (c) by the individual authors unless otherwise noted. The Massachusetts Institute of Technology is providing this Work (as defined below) under the terms of this Creative Commons public license (\"CCPL\" or \"license\") unless otherwise noted. The Work is protected by copyright and/or other applicable law. Any use of the work other than as authorized under this license is prohibited. By exercising any of the rights to the Work provided here, You (as defined below) accept and agree to be bound by the terms of this license. The Licensor, the Massachusetts Institute of Technology, grants You the rights contained here in consideration of Your acceptance of such terms and conditions.", 
    "hide_Page_title": false, 
    "_defaultpage": "", 
    "related_resources_text": "", 
    "tcATmit_subject_tags": [], 
    "features_tracking": [], 
    "ad_champion_text": "", 
    "has_inline_embed": false, 
    "unique_identifier": "https://ocw.mit.edu/high-school/chemistry/demonstrations/videos/the-steaming-gun", 
    "link_text": "The Steaming Gun", 
    "is_image_gallery": false, 
    "id": "the-steaming-gun", 
    "_content_type_subtitle_exemption": "text/plain", 
    "materialtype": "Other", 
    "optional_text": "", 
    "_type": "HFHMediaResource", 
    "description": "", 
    "media_resource_type": "Video", 
    "course_identifier": "https://ocw.mit.edu/high-school/chemistry", 
    "_content_type_publisher": "text/plain", 
    "tcATmit_instructional_tags": [], 
    "transcript": "<p><span m='0'>[MUSIC PLAYING]</span> </p><p><span m='7490'>JESSICA HARROP:</span> <span m='7720'>Hi,</span> <span m='7950'>I'm</span> <span m='8029'>Jessica.</span> <span m='8540'>And</span> <span m='8630'>today</span> <span m='8900'>I'm</span> <span m='8960'>going</span> <span m='9080'>to</span> <span m='9140'>be</span> <span m='9230'>talking</span> <span m='9620'>about</span> <span m='9920'>a</span> <span m='10010'>chemical</span> <span m='10520'>demonstration</span> <span m='11420'>I</span> <span m='11600'>like</span> <span m='11810'>to</span> <span m='11930'>call</span> <span m='12680'>the</span> <span m='12770'>steaming</span> <span m='13610'>gun.</span> <span m='16280'>So</span> <span m='16400'>you've</span> <span m='16580'>probably</span> <span m='17000'>seen</span> <span m='17600'>this</span> <span m='17930'>before</span> <span m='18650'>at</span> <span m='18740'>the</span> <span m='18830'>drugstore</span> <span m='19640'>or</span> <span m='19790'>in</span> <span m='19940'>your</span> <span m='20090'>house.</span> <span m='20930'>It's</span> <span m='21080'>called</span> <span m='21440'>hydrogen</span> <span m='22040'>peroxide</span> <span m='22760'>and</span> <span m='22880'>it's</span> <span m='23060'>the</span> <span m='23150'>stuff</span> <span m='23540'>you</span> <span m='23600'>put</span> <span m='23810'>on</span> <span m='23990'>cuts.</span> </p><p><span m='25280'>But</span> <span m='25460'>it</span> <span m='25580'>has</span> <span m='25730'>many</span> <span m='26120'>other</span> <span m='26360'>uses</span> <span m='26720'>as</span> <span m='26870'>well,</span> <span m='27320'>from</span> <span m='27590'>bleaching</span> <span m='28040'>things</span> <span m='28490'>to</span> <span m='28610'>powering</span> <span m='29060'>rockets,</span> <span m='29930'>depending</span> <span m='30350'>on</span> <span m='30440'>its</span> <span m='30590'>concentration.</span> <span m='31760'>The</span> <span m='31850'>solution</span> <span m='32360'>that</span> <span m='32450'>you</span> <span m='32570'>get</span> <span m='32689'>at</span> <span m='32780'>the</span> <span m='32870'>drugstore</span> <span m='33560'>is</span> <span m='33710'>usually</span> <span m='34160'>3%.</span> </p><p><span m='36110'>So</span> <span m='36770'>it's</span> <span m='36860'>called</span> <span m='37100'>hydrogen</span> <span m='37550'>peroxide</span> <span m='40790'>and</span> <span m='41000'>it's</span> <span m='41120'>chemical</span> <span m='41480'>formula</span> <span m='42080'>is</span> <span m='42570'>H2O2.</span> <span m='45200'>So</span> <span m='45350'>the</span> <span m='45500'>atoms</span> <span m='46160'>are</span> <span m='46340'>arranged</span> <span m='46850'>like</span> <span m='47120'>this.</span> <span m='50170'>It</span> <span m='50290'>sort</span> <span m='50530'>of</span> <span m='50650'>looks</span> <span m='50860'>like</span> <span m='51100'>water,</span> <span m='51490'>but</span> <span m='51640'>the</span> <span m='51790'>extra</span> <span m='52210'>oxygen</span> <span m='52840'>makes</span> <span m='53170'>the</span> <span m='53260'>molecule</span> <span m='53860'>more</span> <span m='54190'>reactive.</span> <span m='55720'>Now</span> <span m='55870'>if</span> <span m='55990'>you</span> <span m='56080'>leave</span> <span m='56350'>it</span> <span m='56440'>alone,</span> <span m='57190'>it</span> <span m='57310'>decomposes</span> <span m='58060'>into</span> <span m='58270'>water</span> <span m='58660'>and</span> <span m='58870'>oxygen.</span> <span m='59960'>The</span> <span m='60060'>equation</span> <span m='60430'>looks</span> <span m='60640'>like</span> <span m='60850'>this.</span> <span m='63998'>I'm</span> <span m='64441'>going</span> <span m='64890'>to</span> <span m='65129'>balance</span> <span m='65580'>it.</span> </p><p><span m='68130'>Now,</span> <span m='68270'>normally,</span> <span m='68730'>you</span> <span m='68850'>can't</span> <span m='69180'>see</span> <span m='69330'>this</span> <span m='69480'>reaction</span> <span m='69930'>happening</span> <span m='70380'>because</span> <span m='70620'>at</span> <span m='70680'>room</span> <span m='70980'>temperature,</span> <span m='71550'>it's</span> <span m='71760'>very</span> <span m='72090'>slow.</span> <span m='72990'>But</span> <span m='73140'>there</span> <span m='73290'>are</span> <span m='73350'>many</span> <span m='73710'>ways</span> <span m='74040'>to</span> <span m='74130'>speed</span> <span m='74490'>it</span> <span m='74580'>up</span> <span m='74940'>like</span> <span m='75180'>increasing</span> <span m='75660'>the</span> <span m='75750'>temperature</span> <span m='76320'>or</span> <span m='76590'>adding</span> <span m='76950'>a</span> <span m='77010'>catalyst.</span> <span m='78120'>In</span> <span m='78270'>this</span> <span m='78510'>demonstration</span> <span m='79320'>MIT's</span> <span m='79950'>Dr.</span> <span m='80370'>Dolhun</span> <span m='81210'>uses a</span> <span m='81600'>catalyst</span> <span m='82350'>to</span> <span m='82470'>make</span> <span m='82740'>the</span> <span m='82830'>reaction</span> <span m='83370'>go</span> <span m='83520'>thousands</span> <span m='84180'>of</span> <span m='84270'>times</span> <span m='84630'>faster</span> <span m='85080'>than</span> <span m='85200'>normal.</span> <span m='86070'>Let's</span> <span m='86310'>watch.</span> </p><p><span m='87300'>JOHN DOLHUN:</span> <span m='87390'>So</span> <span m='87480'>we're</span> <span m='87630'>going</span> <span m='87750'>to</span> <span m='87810'>do</span> <span m='87990'>this</span> <span m='88260'>experiment</span> <span m='89070'>here.</span> <span m='90810'>And</span> <span m='90990'>basically</span> <span m='91560'>what</span> <span m='91740'>we've</span> <span m='91950'>got</span> <span m='93240'>is</span> <span m='93390'>we've</span> <span m='93570'>got</span> <span m='93840'>four</span> <span m='94170'>bottles.</span> <span m='95330'>We're</span> <span m='95630'>each</span> <span m='95920'>going</span> <span m='96060'>to</span> <span m='96150'>do</span> <span m='96330'>the</span> <span m='96480'>experiment</span> <span m='97290'>in</span> <span m='97470'>a</span> <span m='97530'>bottle.</span> <span m='97890'>We've</span> <span m='98100'>got</span> <span m='98820'>15</span> <span m='99330'>mLs</span> <span m='99720'>of</span> <span m='99900'>hydrogen</span> <span m='100410'>peroxide</span> <span m='101130'>here.</span> <span m='102450'>And</span> <span m='102990'>we're</span> <span m='103200'>going</span> <span m='103410'>to</span> <span m='103470'>be</span> <span m='103620'>using</span> <span m='104160'>a</span> <span m='104310'>man-made</span> <span m='104850'>catalyst.</span> <span m='107460'>We're</span> <span m='107580'>going</span> <span m='107700'>to</span> <span m='107760'>be</span> <span m='107880'>using</span> <span m='108270'>manganese</span> <span m='108900'>dioxide.</span> </p><p><span m='115620'>And</span> <span m='116070'>we're</span> <span m='116240'>each</span> <span m='116460'>going</span> <span m='116610'>to</span> <span m='116670'>take</span> <span m='117030'>a</span> <span m='117090'>scoop</span> <span m='117540'>of</span> <span m='117690'>this.</span> <span m='129060'>And</span> <span m='129389'>we're</span> <span m='129509'>going</span> <span m='129630'>to</span> <span m='129690'>put</span> <span m='129900'>it</span> <span m='130020'>in.</span> <span m='136260'>You</span> <span m='136410'>can</span> <span m='136560'>set</span> <span m='136800'>it</span> <span m='136860'>down</span> <span m='137130'>on</span> <span m='137310'>the</span> <span m='137400'>tray.</span> <span m='140370'>And</span> <span m='140490'>just--</span> <span m='140970'>it's</span> <span m='141350'>starting</span> <span m='142080'>to</span> <span m='142200'>work.</span> <span m='143550'>You</span> <span m='143640'>won't</span> <span m='143880'>have</span> <span m='144060'>to</span> <span m='144180'>stand</span> <span m='144570'>up</span> <span m='144720'>to</span> <span m='144840'>see</span> <span m='145110'>this.</span> <span m='146880'>You</span> <span m='147030'>can</span> <span m='147210'>start</span> <span m='147510'>to</span> <span m='147630'>see</span> <span m='147990'>some</span> <span m='148740'>condensed</span> <span m='149250'>water</span> <span m='149610'>vapor</span> <span m='150030'>forming</span> <span m='150480'>inside</span> <span m='150900'>the</span> <span m='151020'>flasks.</span> <span m='151650'>Oxygen</span> <span m='152280'>bundles</span> <span m='152850'>are</span> <span m='154350'>coming</span> <span m='154710'>out.</span> <span m='156060'>Now</span> <span m='156270'>we're</span> <span m='156420'>just</span> <span m='156630'>going</span> <span m='156780'>to</span> <span m='156840'>lightly</span> <span m='157260'>hold</span> <span m='157590'>that.</span> <span m='158395'>Whew!</span> </p><p><span m='165530'>JESSICA HARROP:</span> <span m='165690'>OK,</span> <span m='165850'>so</span> <span m='166030'>what</span> <span m='166210'>happened?</span> <span m='167170'>Dr.</span> <span m='167530'>Dolhun</span> <span m='167920'>had</span> <span m='168160'>hydrogen</span> <span m='168640'>peroxide</span> <span m='169330'>in</span> <span m='169480'>the</span> <span m='169600'>plastic</span> <span m='170080'>bottle.</span> <span m='170950'>Then</span> <span m='171190'>he</span> <span m='171340'>added</span> <span m='171670'>a</span> <span m='171760'>catalyst,</span> <span m='172600'>some</span> <span m='172780'>manganese</span> <span m='173530'>dioxide</span> <span m='174400'>or</span> <span m='174760'>MNO2,</span> <span m='177990'>and</span> <span m='178110'>got</span> <span m='178440'>a</span> <span m='178500'>plume</span> <span m='179220'>of</span> <span m='179400'>water</span> <span m='179790'>vapor.</span> </p><p><span m='181150'>So</span> <span m='181170'>let's</span> <span m='181380'>talk</span> <span m='181560'>about</span> <span m='181770'>how</span> <span m='181920'>a</span> <span m='181980'>catalyst</span> <span m='182520'>works.</span> <span m='183450'>I'm</span> <span m='183630'>going</span> <span m='183840'>to</span> <span m='183930'>draw</span> <span m='184240'>a</span> <span m='184260'>potential</span> <span m='184770'>energy</span> <span m='185070'>diagram</span> <span m='185640'>for</span> <span m='185760'>this</span> <span m='185970'>reaction.</span> </p><p><span m='187114'>[MUSIC PLAYING]</span> </p><p><span m='200690'>So</span> <span m='201040'>here's</span> <span m='201340'>my</span> <span m='201460'>potential</span> <span m='201910'>energy</span> <span m='202240'>diagram.</span> <span m='203260'>So</span> <span m='203380'>I've</span> <span m='203470'>got</span> <span m='203620'>potential</span> <span m='204130'>energy</span> <span m='204490'>on</span> <span m='204580'>the</span> <span m='204670'>y-axis</span> <span m='205510'>and</span> <span m='205750'>the</span> <span m='205840'>reaction</span> <span m='206380'>coordinate,</span> <span m='207130'>or</span> <span m='207370'>time,</span> <span m='208030'>on</span> <span m='208210'>the</span> <span m='208390'>x-axis.</span> <span m='209620'>The</span> <span m='209880'>reactants</span> <span m='210460'>are</span> <span m='210550'>starting</span> <span m='210880'>at</span> <span m='210970'>this</span> <span m='211120'>amount</span> <span m='211360'>of</span> <span m='211450'>energy</span> <span m='212020'>and</span> <span m='212140'>the</span> <span m='212230'>products</span> <span m='213160'>have</span> <span m='213310'>this</span> <span m='213520'>amount.</span> </p><p><span m='214680'>Here,</span> <span m='215000'>EA,</span> <span m='215440'>that's</span> <span m='215710'>the</span> <span m='215860'>activation</span> <span m='216580'>energy.</span> <span m='217270'>It's</span> <span m='217480'>the</span> <span m='217600'>amount</span> <span m='217870'>of</span> <span m='217990'>energy</span> <span m='218440'>you</span> <span m='218560'>need</span> <span m='218800'>to</span> <span m='219070'>add</span> <span m='219400'>to</span> <span m='219520'>the</span> <span m='219610'>reactants</span> <span m='220450'>to</span> <span m='220600'>make</span> <span m='220930'>the</span> <span m='221020'>reaction</span> <span m='221620'>go.</span> <span m='222420'>And</span> <span m='222520'>delta</span> <span m='222850'>H,</span> <span m='223330'>that's</span> <span m='223570'>the</span> <span m='223690'>amount</span> <span m='223930'>of</span> <span m='224050'>energy</span> <span m='224470'>that's</span> <span m='224740'>released</span> <span m='225430'>when</span> <span m='225580'>the</span> <span m='225670'>reaction</span> <span m='226180'>happens.</span> <span m='226870'>Now</span> <span m='227110'>let's</span> <span m='227290'>see</span> <span m='227380'>what</span> <span m='227500'>happens</span> <span m='227920'>when</span> <span m='228070'>I</span> <span m='228190'>add</span> <span m='228460'>a</span> <span m='228520'>catalyst.</span> </p><p><span m='229460'>[MUSIC PLAYING]</span> </p><p><span m='236400'>With</span> <span m='236640'>a</span> <span m='236700'>catalyst,</span> <span m='237420'>my</span> <span m='237630'>activation</span> <span m='238290'>energy</span> <span m='238710'>is</span> <span m='238830'>a</span> <span m='238920'>lot</span> <span m='239250'>lower.</span> <span m='240270'>And</span> <span m='240390'>even</span> <span m='240600'>a</span> <span m='240660'>small</span> <span m='241020'>reduction</span> <span m='241470'>in</span> <span m='241590'>activation</span> <span m='242130'>energy</span> <span m='242610'>can</span> <span m='242790'>make</span> <span m='243000'>the</span> <span m='243090'>reaction</span> <span m='243630'>go</span> <span m='243840'>thousands</span> <span m='244350'>of</span> <span m='244410'>times</span> <span m='244770'>faster</span> <span m='245220'>than</span> <span m='245370'>it</span> <span m='245460'>normally</span> <span m='245970'>would.</span> <span m='246510'>But</span> <span m='246690'>notice</span> <span m='247140'>that</span> <span m='247260'>regardless</span> <span m='247860'>of</span> <span m='247950'>whether</span> <span m='248190'>or</span> <span m='248220'>not</span> <span m='248370'>you</span> <span m='248460'>have</span> <span m='248610'>a</span> <span m='248670'>catalyst,</span> <span m='249450'>the</span> <span m='249570'>delta</span> <span m='249990'>H,</span> <span m='250380'>the</span> <span m='250470'>amount</span> <span m='250680'>of</span> <span m='250770'>energy</span> <span m='251130'>released</span> <span m='251640'>in</span> <span m='251720'>the</span> <span m='251790'>reaction,</span> <span m='252390'>doesn't</span> <span m='252750'>change.</span> <span m='253870'>So</span> <span m='254040'>the</span> <span m='254130'>catalyst</span> <span m='254670'>only</span> <span m='254940'>speeds</span> <span m='255360'>up</span> <span m='255510'>the</span> <span m='255600'>reaction.</span> <span m='256120'>It</span> <span m='256260'>doesn't</span> <span m='256620'>change</span> <span m='256980'>the</span> <span m='257070'>amount</span> <span m='257310'>of</span> <span m='257399'>energy</span> <span m='257760'>released.</span> <span m='258450'>Now,</span> <span m='258630'>take</span> <span m='258810'>a</span> <span m='258870'>look</span> <span m='259019'>at</span> <span m='259079'>this.</span> </p><p><span m='259680'>JOHN DOLHUN:</span> <span m='259860'>Notice</span> <span m='260040'>the</span> <span m='260160'>size</span> <span m='260579'>of</span> <span m='260640'>the</span> <span m='260730'>bottles.</span> <span m='261750'>These</span> <span m='261990'>are</span> <span m='262079'>very</span> <span m='262530'>exothermic</span> <span m='263430'>reactions.</span> <span m='264870'>The</span> <span m='264990'>bundles</span> <span m='265470'>have</span> <span m='265590'>basically</span> <span m='267720'>shrunk</span> <span m='268260'>down</span> <span m='268650'>to</span> <span m='269990'>a</span> <span m='270060'>very,</span> <span m='270610'>very</span> <span m='271080'>tiny</span> <span m='271440'>size</span> <span m='271890'>compared</span> <span m='272310'>to</span> <span m='272400'>the</span> <span m='272520'>control</span> <span m='272970'>bundles.</span> </p><p><span m='273900'>JESSICA HARROP:</span> <span m='274005'>So</span> <span m='274110'>as</span> <span m='274380'>you</span> <span m='274470'>can</span> <span m='274650'>see,</span> <span m='274890'>the</span> <span m='275010'>catalyzed</span> <span m='275700'>reaction</span> <span m='276180'>releases</span> <span m='276630'>so</span> <span m='276960'>much</span> <span m='277230'>heat</span> <span m='277530'>that</span> <span m='277680'>it</span> <span m='277770'>actually</span> <span m='278160'>melts</span> <span m='278640'>the</span> <span m='278760'>bottles</span> <span m='279210'>and</span> <span m='279300'>makes</span> <span m='279600'>them</span> <span m='279780'>smaller.</span> <span m='281190'>Also,</span> <span m='281490'>the</span> <span m='281580'>catalyst</span> <span m='282120'>itself</span> <span m='282630'>remains</span> <span m='283050'>unchanged</span> <span m='283740'>by</span> <span m='283980'>the</span> <span m='284070'>reaction.</span> <span m='285090'>And</span> <span m='285180'>designing</span> <span m='285720'>catalysts</span> <span m='286290'>is</span> <span m='286440'>actually</span> <span m='286980'>a</span> <span m='287070'>key</span> <span m='287490'>subfield</span> <span m='288120'>of</span> <span m='288240'>chemistry.</span> <span m='289260'>MIT's</span> <span m='289770'>Richard</span> <span m='290100'>Schrock</span> <span m='290550'>won</span> <span m='290760'>the</span> <span m='290850'>Nobel</span> <span m='291210'>Prize</span> <span m='291780'>working</span> <span m='292200'>in</span> <span m='292350'>this</span> <span m='292590'>field.</span> </p><p><span m='293590'>And</span> <span m='293700'>remember</span> <span m='294030'>how</span> <span m='294200'>we</span> <span m='294270'>used</span> <span m='294630'>H2O2</span> <span m='295500'>on</span> <span m='295700'>our</span> <span m='295800'>cuts?</span> <span m='296770'>Well,</span> <span m='297090'>we</span> <span m='297240'>have</span> <span m='297420'>an</span> <span m='297510'>enzyme</span> <span m='298140'>in</span> <span m='298260'>our</span> <span m='298380'>bodies</span> <span m='298800'>called</span> <span m='299160'>catalase</span> <span m='299910'>that</span> <span m='300030'>does</span> <span m='300270'>the</span> <span m='300390'>same</span> <span m='300870'>thing</span> <span m='301260'>as</span> <span m='301470'>the</span> <span m='301560'>manganese</span> <span m='302130'>dioxide</span> <span m='302790'>that</span> <span m='302910'>Dr.</span> <span m='303240'>Dolhun</span> <span m='303600'>used.</span> <span m='304530'>That's</span> <span m='304830'>why</span> <span m='305100'>when</span> <span m='305250'>you</span> <span m='305340'>put</span> <span m='305550'>hydrogen</span> <span m='306060'>peroxide</span> <span m='306630'>on</span> <span m='306780'>a</span> <span m='306870'>cut</span> <span m='307680'>you</span> <span m='307800'>see</span> <span m='307980'>fizzing</span> <span m='308520'>and</span> <span m='308640'>bundles.</span> <span m='309540'>The</span> <span m='309660'>catalase</span> <span m='310290'>in</span> <span m='310380'>your</span> <span m='310500'>blood</span> <span m='310890'>is</span> <span m='311010'>breaking</span> <span m='311520'>down</span> <span m='311790'>the</span> <span m='311880'>hydrogen</span> <span m='312360'>peroxide.</span> </p><p><span m='313410'>And</span> <span m='313560'>according</span> <span m='313980'>to</span> <span m='314040'>recent</span> <span m='314430'>studies,</span> <span m='315030'>low</span> <span m='315390'>levels</span> <span m='315810'>of</span> <span m='315900'>catalase</span> <span m='316560'>may</span> <span m='316830'>play</span> <span m='317130'>a</span> <span m='317220'>role</span> <span m='317580'>in</span> <span m='317670'>the</span> <span m='317790'>graying</span> <span m='318270'>process</span> <span m='318780'>of</span> <span m='318900'>human</span> <span m='319260'>hair.</span> <span m='320190'>If</span> <span m='320310'>catalase</span> <span m='320880'>levels</span> <span m='321240'>are</span> <span m='321390'>low,</span> <span m='321930'>it</span> <span m='322050'>can't</span> <span m='322590'>break</span> <span m='322870'>down</span> <span m='323160'>all</span> <span m='323410'>of</span> <span m='323450'>the</span> <span m='323550'>hydrogen</span> <span m='324030'>peroxide</span> <span m='324690'>in</span> <span m='324840'>the</span> <span m='324930'>blood.</span> <span m='325800'>And</span> <span m='325890'>that</span> <span m='326160'>extra</span> <span m='326580'>H2O2</span> <span m='327390'>starts</span> <span m='327750'>to</span> <span m='327870'>bleach</span> <span m='328320'>your</span> <span m='328470'>hair</span> <span m='328950'>from</span> <span m='329220'>the</span> <span m='329400'>inside</span> <span m='329940'>out.</span> </p><p><span m='330880'>So</span> <span m='330990'>to</span> <span m='331080'>wrap</span> <span m='331350'>up,</span> <span m='331770'>catalysts</span> <span m='332320'>don't</span> <span m='332700'>change</span> <span m='333180'>the</span> <span m='333330'>products</span> <span m='333990'>of</span> <span m='334200'>the</span> <span m='334320'>reaction</span> <span m='335280'>or</span> <span m='335640'>how</span> <span m='335850'>much</span> <span m='336090'>heat</span> <span m='336390'>is</span> <span m='336510'>released</span> <span m='337230'>or</span> <span m='337470'>absorbed.</span> <span m='338460'>They</span> <span m='338670'>only</span> <span m='339060'>change</span> <span m='339420'>the</span> <span m='339540'>time</span> <span m='339960'>it</span> <span m='340050'>takes</span> <span m='340680'>for</span> <span m='340770'>the</span> <span m='340860'>reaction</span> <span m='341340'>to</span> <span m='341430'>finish.</span> </p><p><span m='342290'>[MUSIC PLAYING]</span> </p><p><span m='342670'>All</span> <span m='342770'>right,</span> <span m='342920'>that's</span> <span m='343050'>it</span> <span m='343110'>for</span> <span m='343230'>me</span> <span m='343350'>today.</span> <span m='343900'>I'll</span> <span m='343920'>see</span> <span m='344130'>you</span> <span m='344190'>next</span> <span m='344430'>time.</span> </p>", 
    "_content_type_link_text": "text/plain", 
    "course_linking": [], 
    "_id": "the-steaming-gun", 
    "modification_date": "2017/05/09 14:52:52.604 GMT-4", 
    "media_index": [], 
    "always_publish": false, 
    "_owner": null, 
    "_permissions": {
        "Change portal events": {
            "acquire": false, 
            "roles": [
                "Editor", 
                "Manager", 
                "MetadataEditor", 
                "Owner"
            ]
        }, 
        "Modify portal content": {
            "acquire": false, 
            "roles": [
                "Manager", 
                "MetadataEditor"
            ]
        }, 
        "Access contents information": {
            "acquire": false, 
            "roles": [
                "Authenticated"
            ]
        }, 
        "List folder contents": {
            "acquire": false, 
            "roles": [
                "Editor", 
                "Manager", 
                "MetadataEditor", 
                "Owner"
            ]
        }, 
        "View": {
            "acquire": false, 
            "roles": [
                "Authenticated"
            ]
        }
    }, 
    "_properties": [
        [
            "title", 
            "The Steaming Gun", 
            "string"
        ]
    ], 
    "creators": [
        "Kcanavan"
    ], 
    "courselist_features": [], 
    "_path": "/Plone/high-school/chemistry/demonstrations/videos/the-steaming-gun"
}