{
    "rsi_top_html_area": "", 
    "text": "", 
    "_content_type_license": "text/plain", 
    "_uid": "a00a0f1956f1dae1d0ddb327acec1747", 
    "title": "Inflating a Balloon", 
    "_ac_local_roles": {
        "pgandhi3": [
            "Owner"
        ]
    }, 
    "template_type": "Embed", 
    "location": "", 
    "_content_type_course_identifier": "text/plain", 
    "_atbrefs": {}, 
    "constrainTypesMode": 0, 
    "_content_type_section_identifier": "text/plain", 
    "technical_location": "https://ocw.mit.edu/courses/mathematics/18-01sc-single-variable-calculus-fall-2010/unit-2-applications-of-differentiation/part-b-optimization-related-rates-and-newtons-method/session-31-related-rates/inflating-a-balloon", 
    "software_requirements": [
        {
            "software_type_col": "Browser", 
            "minimum_version_col": "40.0", 
            "software_name_col": "Chrome", 
            "maximum_version_col": ""
        }, 
        {
            "software_type_col": "Browser", 
            "minimum_version_col": "8.0", 
            "software_name_col": "Safari", 
            "maximum_version_col": ""
        }, 
        {
            "software_type_col": "Browser", 
            "minimum_version_col": "38.0", 
            "software_name_col": "Mozilla Firefox", 
            "maximum_version_col": ""
        }, 
        {
            "software_type_col": "Browser", 
            "minimum_version_col": "9.0", 
            "software_name_col": "Internet Explorer", 
            "maximum_version_col": ""
        }, 
        {
            "software_type_col": "Browser", 
            "minimum_version_col": "13.1", 
            "software_name_col": "Edge", 
            "maximum_version_col": ""
        }
    ], 
    "_content_type_technical_location": "text/plain", 
    "start_time": "", 
    "_content_type_rights": "text/html", 
    "_directly_provided": [
        "Products.CMFEditions.interfaces.IVersioned"
    ], 
    "media_rights": "(CC BY-NC-SA)", 
    "parent_uid": "740c26e9a52f298e76ec9fb9679d1f19", 
    "excludeFromNav": false, 
    "about_this_resource_text": "", 
    "_content_type_unique_identifier": "text/plain", 
    "end_time": "", 
    "allowDiscussion": false, 
    "_content_type_materialtype": "text/plain", 
    "locallyAllowedTypes": [
        "OCWImage", 
        "OCWFile", 
        "OCWMediaAsset"
    ], 
    "optional_tab_title": "", 
    "ad_type": "HOUSE", 
    "creation_date": "2015/12/08 04:59:46.797 US/Eastern", 
    "aggregationlevel": 2, 
    "bottom_html_area": "", 
    "duration": "", 
    "immediatelyAddableTypes": [
        "OCWImage", 
        "OCWFile", 
        "OCWMediaAsset"
    ], 
    "_content_type_template_type": "text/plain", 
    "subject": [], 
    "_content_type_short_page_title": "text/plain", 
    "effectiveDate": "2015/12/23 01:52:18.819 US/Eastern", 
    "parent_module": "bfe41979b9593362793fd930b36efa01", 
    "is_mathml_document": false, 
    "bottomtext": "", 
    "short_page_title": "Inflating a Balloon", 
    "section_identifier": "https://ocw.mit.edu/courses/mathematics/18-01sc-single-variable-calculus-fall-2010/unit-2-applications-of-differentiation", 
    "show_captions_outside_player": false, 
    "related_mit_links": "", 
    "_content_type_ad_type": "text/plain", 
    "_layout": "custom_view", 
    "_workflow_history": {
        "page_workflow": [
            {
                "action": null, 
                "review_state": "waiting_for_authoring", 
                "comments": "", 
                "actor": "pgandhi3", 
                "time": "2015/12/08 04:59:46.809 US/Eastern"
            }, 
            {
                "action": "approve_to_staging", 
                "review_state": "ready_for_staging", 
                "actor": "pgandhi3", 
                "comments": "", 
                "time": "2015/12/23 01:52:18.856 US/Eastern"
            }
        ]
    }, 
    "_content_type_transcript": "text/html", 
    "metadata_contributor_list": [], 
    "_userdefined_roles": [], 
    "_content_type_inline_embed_id": "text/plain", 
    "publisher": "MIT OpenCourseWare", 
    "nextPreviousEnabled": false, 
    "_gopip": 13, 
    "license": "http://creativecommons.org/licenses/by-nc-sa/3.0/us/", 
    "url_rewrite_patterns": [], 
    "widgets_features": [], 
    "category_features": [], 
    "resource_contributor_list": [
        {
            "res_contributor_entity": "Jerison, David", 
            "res_contributor_uid": "b28f05bbf3c3b44d28bc8f11fc7834cd", 
            "res_contributor_role": "Performer"
        }
    ], 
    "show_jump_back_5_seconds_button": false, 
    "firstTimeEdit": false, 
    "_content_type_media_rights": "text/plain", 
    "feature_requirements": [], 
    "list_in_left_nav": false, 
    "inline_embed_id": "84830535inflatingaballoon75386107", 
    "_classname": "MediaResource", 
    "short_name_tlp": "", 
    "expirationDate": "None", 
    "_content_type_id": "text/plain", 
    "contributor_list": [
        {}
    ], 
    "is_media_gallery": false, 
    "contributors": [], 
    "media_locations": [
        {}
    ], 
    "_content_type_media_resource_type": "text/plain", 
    "_content_type_title": "text/plain", 
    "subtitle_exemption": "None", 
    "_content_type": "text/html", 
    "resource_index_text": "", 
    "_atrefs": {
        "BelongsTo": [
            "bfe41979b9593362793fd930b36efa01"
        ]
    }, 
    "media_slides": [], 
    "other_platform_requirements": "", 
    "language": "", 
    "rights": "This site (c) Massachusetts Institute of Technology 2015.  Content within individual courses is (c) by the individual authors unless otherwise noted. The Massachusetts Institute of Technology is providing this Work (as defined below) under the terms of this Creative Commons public license (\"CCPL\" or \"license\") unless otherwise noted. The Work is protected by copyright and/or other applicable law. Any use of the work other than as authorized under this license is prohibited. By exercising any of the rights to the Work provided here, You (as defined below) accept and agree to be bound by the terms of this license. The Licensor, the Massachusetts Institute of Technology, grants You the rights contained here in consideration of Your acceptance of such terms and conditions.", 
    "hide_Page_title": false, 
    "_defaultpage": "", 
    "related_resources_text": "", 
    "tcATmit_subject_tags": [], 
    "features_tracking": [], 
    "ad_champion_text": "", 
    "has_inline_embed": false, 
    "unique_identifier": "https://ocw.mit.edu/courses/mathematics/18-01sc-single-variable-calculus-fall-2010/unit-2-applications-of-differentiation/part-b-optimization-related-rates-and-newtons-method/session-31-related-rates/inflating-a-balloon", 
    "link_text": "Inflating a Balloon", 
    "is_image_gallery": false, 
    "id": "inflating-a-balloon", 
    "_content_type_subtitle_exemption": "text/plain", 
    "materialtype": "Other", 
    "optional_text": "", 
    "_type": "MediaResource", 
    "description": "", 
    "media_resource_type": "Video", 
    "course_identifier": "https://ocw.mit.edu/courses/mathematics/18-01sc-single-variable-calculus-fall-2010", 
    "_content_type_publisher": "text/plain", 
    "tcATmit_instructional_tags": [], 
    "transcript": "<p><span m='0'>PROFESSOR:</span> <span m='7050'>Hi</span> <span m='7220'>everybody.</span> <span m='7740'>Welcome</span> <span m='8040'>back</span> <span m='8220'>to</span> <span m='8300'>recitation.</span> </p><p><span m='9280'>In</span> <span m='9460'>lecture</span> <span m='10030'>you</span> <span m='10240'>did</span> <span m='10360'>a</span> <span m='10410'>bunch</span> <span m='10640'>of</span> <span m='10710'>examples</span> <span m='11260'>of</span> <span m='11370'>related</span> <span m='11780'>rates</span> <span m='12100'>problems.</span> <span m='13040'>So</span> <span m='13740'>I</span> <span m='13870'>have</span> <span m='13980'>a</span> <span m='14040'>couple</span> <span m='14300'>more</span> <span m='14520'>for</span> <span m='14670'>you</span> <span m='14790'>to</span> <span m='14880'>do</span> <span m='15050'>today.</span> </p><p><span m='16550'>So</span> <span m='17290'>here</span> <span m='19220'>we've</span> <span m='19370'>got-- OK, so we've got</span> <span m='19790'>air</span> <span m='20200'>being</span> <span m='20640'>blown</span> <span m='21120'>into</span> <span m='21420'>a</span> <span m='21490'>spherical</span> <span m='22040'>balloon</span> <span m='23110'>at</span> <span m='23290'>a</span> <span m='23370'>rate</span> <span m='23790'>of</span> <span m='23940'>1,000</span> <span m='24590'>cubic</span> <span m='24950'>centimeters</span> <span m='25470'>per</span> <span m='25610'>second.</span> <span m='26690'>So</span> <span m='26830'>the</span> <span m='26920'>question</span> <span m='27350'>is,</span> <span m='27560'>how</span> <span m='27870'>fast</span> <span m='28410'>is</span> <span m='28530'>the</span> <span m='28630'>radius</span> <span m='29170'>growing</span> <span m='30120'>when</span> <span m='30700'>the</span> <span m='30780'>radius</span> <span m='31190'>is</span> <span m='31300'>equal</span> <span m='31560'>to</span> <span m='31760'>8</span> <span m='32010'>centimeters?</span> <span m='32930'>And</span> <span m='33160'>then OK, so </span> <span m='33620'>I've</span> <span m='33720'>got</span> <span m='33840'>a</span> <span m='33890'>second</span> <span m='34320'>question,</span> <span m='34690'>which</span> <span m='34840'>is,</span> <span m='35210'>how</span> <span m='35400'>fast</span> <span m='35700'>is</span> <span m='35820'>the</span> <span m='35920'>surface</span> <span m='36310'>area</span> <span m='36690'>growing</span> <span m='37080'>at</span> <span m='37180'>that</span> <span m='37390'>same time?</span> </p><p><span m='38810'>So</span> <span m='38980'>why</span> <span m='39050'>don't</span> <span m='39120'>you</span> <span m='39240'>take</span> <span m='39850'>a</span> <span m='39980'>few</span> <span m='40140'>minutes,</span> <span m='40930'>work</span> <span m='41250'>this</span> <span m='41410'>one</span> <span m='41560'>out</span> <span m='41730'>for</span> <span m='41810'>yourself,</span> <span m='42520'>come</span> <span m='42720'>back,</span> <span m='43000'>and</span> <span m='43200'>we'll</span> <span m='43300'>work</span> <span m='43490'>it</span> <span m='43550'>out</span> <span m='43710'>together.</span> </p><p><span m='51590'>All</span> <span m='51720'>right.</span> <span m='52020'>Welcome</span> <span m='52330'>back.</span> </p><p><span m='52830'>So</span> <span m='54230'>this</span> <span m='54550'>question,</span> <span m='55010'>like</span> <span m='55580'>all</span> <span m='55910'>related</span> <span m='56300'>rates</span> <span m='56580'>questions,</span> <span m='57520'>has</span> <span m='57770'>the</span> <span m='57840'>property</span> <span m='58230'>that</span> <span m='58390'>the</span> <span m='58490'>calculus</span> <span m='59130'>is</span> <span m='59280'>typically</span> <span m='59640'>very</span> <span m='59890'>straightforward,</span> <span m='61330'>but</span> <span m='61540'>that</span> <span m='61680'>there's</span> <span m='61890'>some</span> <span m='63260'>geometric</span> <span m='63980'>or</span> <span m='64120'>algebraic</span> <span m='64550'>setup.</span> <span m='65040'>So</span> <span m='65250'>in</span> <span m='65490'>this</span> <span m='65620'>case,</span> <span m='66110'>it's</span> <span m='66680'>straight</span> <span m='67000'>up</span> <span m='67140'>geometry.</span> </p><p><span m='68410'>So</span> <span m='68650'>we</span> <span m='68760'>have</span> <span m='70040'>a</span> <span m='70180'>balloon,</span> <span m='71250'>we</span> <span m='71410'>know</span> <span m='71580'>it's</span> <span m='71760'>a</span> <span m='71860'>perfect</span> <span m='72320'>sphere,</span> <span m='73300'>we</span> <span m='73490'>know</span> <span m='73890'>how</span> <span m='74170'>fast</span> <span m='74510'>the</span> <span m='74610'>volume</span> <span m='75030'>is</span> <span m='75170'>changing.</span> <span m='76540'>So OK, but</span> <span m='76670'>we</span> <span m='76770'>need</span> <span m='76960'>to</span> <span m='77020'>know</span> <span m='77140'>how</span> <span m='77330'>fast</span> <span m='77550'>the</span> <span m='77630'>radius</span> <span m='78060'>is</span> <span m='78180'>changing.</span> <span m='79050'>So</span> <span m='79350'>in</span> <span m='79460'>order</span> <span m='79680'>to</span> <span m='79820'>do</span> <span m='80000'>that</span> <span m='80380'>we</span> <span m='80590'>need</span> <span m='80720'>to</span> <span m='80790'>figure</span> <span m='81090'>out</span> <span m='81180'>a</span> <span m='81250'>relationship</span> <span m='82100'>between</span> <span m='82440'>the</span> <span m='82520'>radius</span> <span m='83000'>and</span> <span m='83160'>the</span> <span m='83220'>volume.</span> <span m='83910'>And</span> <span m='84160'>then</span> <span m='84470'>we</span> <span m='84610'>can</span> <span m='84740'>just</span> <span m='84920'>do</span> <span m='85140'>implicit</span> <span m='85590'>differentiation</span> <span m='86340'>like</span> <span m='86530'>we've</span> <span m='86720'>been</span> <span m='86880'>doing.</span> </p><p><span m='87540'>So</span> <span m='88410'>for</span> <span m='88610'>example, OK, so</span> <span m='89980'>for</span> <span m='90330'>a</span> <span m='90820'>sphere--</span> <span m='91580'>the</span> <span m='91700'>setup</span> <span m='91900'>is</span> <span m='92060'>not</span> <span m='92300'>so</span> <span m='92400'>bad</span> <span m='92770'>for</span> <span m='93180'>this</span> <span m='93370'>first</span> <span m='93680'>one--</span> <span m='94020'>so</span> <span m='94120'>we</span> <span m='94230'>know</span> <span m='94480'>that</span> <span m='94650'>for</span> <span m='94840'>a</span> <span m='95030'>sphere</span> <span m='96150'>the</span> <span m='96270'>volume</span> <span m='97640'>is</span> <span m='97810'>equal</span> <span m='98020'>to</span> <span m='98110'>4/3</span> <span m='100560'>pi</span> <span m='101970'>times</span> <span m='102170'>the</span> <span m='102370'>radius</span> <span m='102790'>cubed.</span> <span m='103670'>So</span> <span m='103840'>that's</span> <span m='106080'>the</span> <span m='106330'>fundamental</span> <span m='106840'>relationship</span> <span m='107300'>between</span> <span m='107550'>the</span> <span m='107620'>volume</span> <span m='107980'>and</span> <span m='108100'>radius</span> <span m='108520'>of</span> <span m='108640'>a</span> <span m='108760'>sphere,</span> <span m='109020'>and</span> <span m='109110'>it's</span> <span m='109220'>true</span> <span m='109400'>for</span> <span m='109520'>every</span> <span m='109740'>sphere</span> <span m='110410'>everywhere</span> <span m='111310'>in</span> <span m='111680'>Euclidean</span> <span m='112110'>space.</span> </p><p><span m='112920'>And</span> <span m='113460'>we're</span> <span m='113630'>given</span> <span m='114170'>also,</span> <span m='115140'>that the</span> <span m='115720'>volume</span> <span m='116880'>is</span> <span m='117300'>changing</span> <span m='117910'>at</span> <span m='118010'>a</span> <span m='118060'>constant</span> <span m='118610'>rate</span> <span m='119290'>of</span> <span m='120240'>1,000</span> <span m='122500'>centimeters</span> <span m='123010'>cubed</span> <span m='123170'>per</span> <span m='123310'>second.</span> <span m='123620'>So</span> <span m='124220'>dV/dt</span> <span m='125100'>is</span> <span m='125310'>just</span> <span m='125520'>given</span> <span m='126040'>to</span> <span m='126160'>be</span> <span m='126360'>1,000.</span> <span m='127470'>You know, leave</span> <span m='127680'>off</span> <span m='128045'>the</span> <span m='128227'>units</span> <span m='128410'>at</span> <span m='128520'>this</span> <span m='128680'>point.</span> </p><p><span m='130650'>So</span> <span m='130770'>the</span> <span m='130870'>question</span> <span m='131290'>is,</span> <span m='131670'>what</span> <span m='132150'>is</span> <span m='132870'>dr/dt?</span> <span m='133610'>That's</span> <span m='133830'>what</span> <span m='133980'>we're</span> <span m='134080'>trying</span> <span m='134290'>to</span> <span m='134360'>figure</span> <span m='134630'>out.</span> <span m='134760'>We're</span> <span m='134860'>trying</span> <span m='135070'>to</span> <span m='135130'>figure</span> <span m='135410'>out</span> <span m='135850'>how</span> <span m='136030'>fast</span> <span m='136290'>the</span> <span m='136360'>radius</span> <span m='136690'>is</span> <span m='136810'>changing</span> <span m='137510'>at</span> <span m='137840'>the</span> <span m='137940'>moment</span> <span m='138420'>when</span> <span m='139060'>the</span> <span m='139150'>radius</span> <span m='139600'>is</span> <span m='139810'>equal</span> <span m='140170'>to</span> <span m='140460'>8</span> <span m='140860'>centimeters.</span> <span m='141260'>So</span> <span m='141710'>how</span> <span m='141870'>can</span> <span m='141980'>we</span> <span m='142090'>do</span> <span m='142260'>that?</span> <span m='142600'>Well,</span> <span m='143780'>this</span> <span m='144060'>fundamental</span> <span m='144530'>relationship,</span> <span m='145070'>it's</span> <span m='145190'>an</span> <span m='145270'>identity.</span> <span m='145790'>It</span> <span m='145870'>always</span> <span m='146210'>holds.</span> <span m='146850'>So</span> <span m='147010'>that</span> <span m='147170'>means</span> <span m='147350'>we</span> <span m='147450'>can</span> <span m='147600'>differentiate</span> <span m='148043'>it.</span> </p><p><span m='150020'>So</span> <span m='150230'>if</span> <span m='150320'>we</span> <span m='150440'>take</span> <span m='150680'>the</span> <span m='150780'>derivative</span> <span m='152620'>of</span> <span m='152780'>this</span> <span m='152930'>identity,</span> <span m='153400'>well,</span> <span m='153760'>V</span> <span m='154030'>on</span> <span m='154180'>the</span> <span m='154280'>left</span> <span m='154610'>just</span> <span m='154810'>becomes</span> <span m='159210'>dV/dt.</span> <span m='160110'>And</span> <span m='160310'>on</span> <span m='160410'>the</span> <span m='160490'>right</span> <span m='161040'>we</span> <span m='161260'>want</span> <span m='161380'>to</span> <span m='161500'>do</span> <span m='162100'>implicit</span> <span m='162690'>differentiation.</span> <span m='163880'>So</span> <span m='164150'>here</span> <span m='164530'>r</span> <span m='165120'>is</span> <span m='165330'>changing</span> <span m='165830'>with</span> <span m='165970'>respect</span> <span m='166165'>to</span> <span m='166360'>time.</span> <span m='166930'>r</span> <span m='166970'>is</span> <span m='167010'>a</span> <span m='167050'>function</span> <span m='167460'>of</span> <span m='167570'>t.</span> <span m='168330'>Well, OK.</span> <span m='168480'>So</span> <span m='168620'>4/3</span> <span m='169200'>pi</span> <span m='169580'>is</span> <span m='169610'>a</span> <span m='169640'>constant.</span> <span m='170500'>So</span> <span m='170760'>that</span> <span m='171100'>when</span> <span m='171240'>we</span> <span m='171500'>differentiate</span> <span m='172612'>nothing</span> <span m='173000'>happens.</span> <span m='173520'>4/3</span> <span m='173700'>pi.</span> <span m='174560'>And</span> <span m='174690'>so</span> <span m='174790'>now</span> <span m='175010'>we</span> <span m='175140'>differentiate</span> <span m='175880'>r</span> <span m='176110'>cubed</span> <span m='176530'>with</span> <span m='176810'>respect</span> <span m='177210'>to</span> <span m='177300'>t,</span> <span m='178180'>so</span> <span m='178380'>that</span> <span m='178620'>gives</span> <span m='178920'>us</span> <span m='180420'>3</span> <span m='181550'>r</span> <span m='181920'>squared</span> <span m='183160'>times</span> <span m='186570'>dr/dt.</span> <span m='187160'>So</span> <span m='187300'>that's</span> <span m='187500'>just</span> <span m='187700'>the</span> <span m='187770'>chain</span> <span m='188090'>rule</span> <span m='188260'>in</span> <span m='188430'>action</span> <span m='188880'>there.</span> </p><p><span m='189790'>And</span> <span m='190120'>now</span> <span m='190670'>what</span> <span m='190890'>we</span> <span m='191050'>want</span> <span m='192120'>is</span> <span m='192320'>this</span> <span m='192870'>dr/dt.</span> <span m='193040'>Right?</span> <span m='194550'>That's</span> <span m='194920'>the</span> <span m='195070'>thing</span> <span m='195740'>that</span> <span m='195900'>we're</span> <span m='196070'>looking</span> <span m='196420'>for,</span> <span m='196670'>is</span> <span m='197000'>how</span> <span m='197280'>fast</span> <span m='197740'>the</span> <span m='197830'>radius</span> <span m='198260'>is</span> <span m='198390'>growing.</span> <span m='198760'>So</span> <span m='198910'>that's</span> <span m='199530'>dr/dt.</span> <span m='200310'>And</span> <span m='200580'>we</span> <span m='200680'>want</span> <span m='201060'>it</span> <span m='201190'>at</span> <span m='201350'>the</span> <span m='201440'>moment</span> <span m='202000'>when</span> <span m='202340'>r</span> <span m='202535'>is</span> <span m='202730'>equal</span> <span m='202990'>to</span> <span m='203090'>8.</span> <span m='203800'>So</span> <span m='207270'>when</span> <span m='207630'>r</span> <span m='208980'>is</span> <span m='209140'>equal</span> <span m='209255'>to</span> <span m='209370'>8,</span> <span m='210610'>this</span> <span m='210860'>implies</span> <span m='211630'>that--</span> <span m='211840'>well, OK,</span> <span m='212160'>so</span> <span m='212800'>dV/dt</span> <span m='213420'>is</span> <span m='213640'>1,000</span> <span m='214150'>always.</span> <span m='218220'>And</span> <span m='218485'>it</span> <span m='218750'>implies</span> <span m='219250'>that--</span> <span m='219450'>OK,</span> <span m='219710'>so</span> <span m='219850'>it's</span> <span m='220020'>equal</span> <span m='220310'>to,</span> <span m='220550'>1,000</span> <span m='220970'>is</span> <span m='221060'>equal</span> <span m='221220'>to</span> <span m='221300'>4/3</span> <span m='222490'>pi</span> <span m='223580'>times</span> <span m='224390'>3</span> <span m='225550'>times</span> <span m='226270'>8</span> <span m='227160'>squared</span> <span m='231590'>times</span> <span m='232220'>dr/dt.</span> <span m='233410'>So</span> <span m='235360'>at</span> <span m='235610'>this</span> <span m='235840'>moment</span> <span m='236680'>that</span> <span m='236820'>we're</span> <span m='236940'>interested</span> <span m='237470'>in,</span> <span m='238000'>we</span> <span m='238260'>have</span> <span m='238580'>this</span> <span m='239070'>equation</span> <span m='239600'>to</span> <span m='239700'>solve,</span> <span m='240010'>for</span> <span m='240570'>dr/dt,</span> <span m='241040'>and</span> <span m='241240'>this</span> <span m='241330'>is</span> <span m='241440'>a</span> <span m='241500'>nice,</span> <span m='241740'>simple</span> <span m='242050'>equation</span> <span m='242390'>to</span> <span m='242517'>solve.</span> <span m='242900'>You</span> <span m='243090'>just</span> <span m='243330'>divide</span> <span m='243700'>through</span> <span m='243790'>by</span> <span m='244050'>everything</span> <span m='244480'>on</span> <span m='244650'>the</span> <span m='244860'>right-hand</span> <span m='245310'>side</span> <span m='245570'>other</span> <span m='245760'>than</span> <span m='246230'>dr/dt.</span> <span m='246990'>So</span> <span m='247435'>this</span> <span m='247880'>implies</span> <span m='249310'>that</span> <span m='250460'>dr/dt</span> <span m='252060'>is</span> <span m='252240'>equal</span> <span m='252490'>to--</span> <span m='252730'>well, OK,</span> <span m='253320'>so</span> <span m='253450'>I</span> <span m='253510'>have</span> <span m='253600'>to</span> <span m='253720'>divide</span> <span m='254170'>1,000</span> <span m='254650'>by</span> <span m='254800'>all</span> <span m='254960'>this</span> <span m='255130'>stuff.</span> <span m='256000'>I</span> <span m='256170'>think</span> <span m='256360'>it</span> <span m='256450'>works</span> <span m='256710'>out</span> <span m='256930'>to</span> <span m='257000'>something</span> <span m='257350'>like</span> <span m='257970'>125</span> <span m='260230'>over</span> <span m='260930'>32*pi. All right.</span> </p><p><span m='263360'>So</span> <span m='263490'>that's</span> <span m='263700'>the</span> <span m='263810'>exact</span> <span m='264280'>value.</span> <span m='265010'>Maybe</span> <span m='265280'>you're</span> <span m='265460'>interested</span> <span m='265960'>in</span> <span m='266130'>sort</span> <span m='266310'>of</span> <span m='266370'>knowing</span> <span m='266630'>about</span> <span m='266950'>how</span> <span m='267160'>large</span> <span m='267580'>this</span> <span m='267800'>is.</span> <span m='268670'>So</span> <span m='269280'>32*pi</span> <span m='270170'>is</span> <span m='270265'>pretty</span> <span m='270360'>close</span> <span m='270610'>to</span> <span m='270780'>100,</span> <span m='271220'>so</span> <span m='271330'>this</span> <span m='271470'>is</span> <span m='271570'>about</span> <span m='271800'>1.2</span> <span m='272900'>something.</span> </p><p><span m='275750'>So, all</span> <span m='275880'>right.</span> <span m='276270'>So</span> <span m='276460'>there</span> <span m='276620'>we</span> <span m='276710'>go.</span> <span m='276900'>So</span> <span m='277020'>that</span> <span m='277230'>answers</span> <span m='277510'>the</span> <span m='277600'>first</span> <span m='277870'>question.</span> <span m='278530'>At</span> <span m='278790'>that</span> <span m='279050'>moment</span> <span m='279940'>the</span> <span m='280060'>radius</span> <span m='280640'>is</span> <span m='281000'>growing</span> <span m='281720'>at</span> <span m='281920'>a</span> <span m='281990'>rate</span> <span m='282350'>of</span> <span m='282690'>125</span> <span m='283970'>over</span> <span m='284160'>32*pi</span> <span m='285230'>centimeters</span> <span m='285790'>per</span> <span m='285910'>second.</span> </p><p><span m='287010'>OK.</span> <span m='287320'>So</span> <span m='287450'>now</span> <span m='287560'>how</span> <span m='287720'>about</span> <span m='287910'>the</span> <span m='288010'>second</span> <span m='288350'>question</span> <span m='288700'>that</span> <span m='288790'>we've</span> <span m='288940'>got</span> <span m='289110'>here?</span> <span m='289240'>What</span> <span m='289390'>about</span> <span m='289590'>the</span> <span m='289680'>surface</span> <span m='290040'>area?</span> <span m='290610'>So</span> <span m='291090'>again,</span> <span m='292210'>we</span> <span m='292360'>know</span> <span m='292520'>how</span> <span m='292680'>fast</span> <span m='293060'>now</span> <span m='293210'>the</span> <span m='293340'>radius</span> <span m='293800'>is</span> <span m='293960'>changing</span> <span m='294730'>and</span> <span m='294890'>we</span> <span m='294965'>know</span> <span m='295040'>how</span> <span m='295160'>fast</span> <span m='295310'>the</span> <span m='295410'>volume</span> <span m='295810'>is</span> <span m='295940'>changing.</span> <span m='296540'>So</span> <span m='296730'>in</span> <span m='296800'>order</span> <span m='297050'>to</span> <span m='297160'>figure</span> <span m='297450'>out</span> <span m='297600'>how</span> <span m='297750'>fast</span> <span m='298040'>the</span> <span m='298120'>surface</span> <span m='298540'>area</span> <span m='298720'>is</span> <span m='298900'>changing,</span> <span m='299440'>we</span> <span m='299660'>need</span> <span m='299860'>something</span> <span m='300160'>that</span> <span m='300280'>relates</span> <span m='301130'>the</span> <span m='301240'>surface</span> <span m='301670'>area</span> <span m='301980'>to</span> <span m='302090'>either</span> <span m='302330'>the</span> <span m='302470'>volume</span> <span m='303060'>or</span> <span m='303340'>the</span> <span m='303440'>radius.</span> <span m='304300'>Now</span> <span m='304760'>the</span> <span m='304870'>relationship</span> <span m='305560'>between</span> <span m='306040'>surface</span> <span m='306420'>area</span> <span m='306780'>and</span> <span m='306930'>volume</span> <span m='307230'>is</span> <span m='307320'>something</span> <span m='307620'>that</span> <span m='307890'>we</span> <span m='308130'>could</span> <span m='308280'>sort</span> <span m='308440'>of</span> <span m='308530'>work</span> <span m='308800'>out</span> <span m='308970'>if</span> <span m='309080'>we</span> <span m='309180'>had</span> <span m='309470'>to,</span> <span m='309780'>but</span> <span m='309960'>it's</span> <span m='310050'>a</span> <span m='310100'>lot</span> <span m='310300'>easier</span> <span m='310600'>to</span> <span m='310670'>write</span> <span m='310870'>down</span> <span m='311040'>the</span> <span m='311120'>surface</span> <span m='311460'>area</span> <span m='311950'>in</span> <span m='312110'>terms</span> <span m='312410'>of</span> <span m='312500'>the</span> <span m='312590'>radius.</span> <span m='312910'>So</span> <span m='313120'>let's</span> <span m='313350'>do</span> <span m='313490'>that.</span> </p><p><span m='316920'>So we have, I'm</span> <span m='317090'>going</span> <span m='317210'>to</span> <span m='317540'>use</span> <span m='317710'>the</span> <span m='317790'>letter</span> <span m='318140'>S</span> <span m='318720'>to</span> <span m='318870'>denote</span> <span m='319270'>surface</span> <span m='319660'>area</span> <span m='320080'>of</span> <span m='320190'>a</span> <span m='320370'>sphere.</span> <span m='320930'>So</span> <span m='321510'>again,</span> <span m='321920'>it's</span> <span m='322120'>a</span> <span m='322270'>general</span> <span m='322830'>identity, you know,</span> <span m='323540'>a</span> <span m='323640'>geometric</span> <span m='324250'>fact</span> <span m='324960'>that</span> <span m='325160'>the</span> <span m='325250'>surface</span> <span m='325650'>area</span> <span m='326080'>of</span> <span m='326210'>a</span> <span m='326460'>sphere</span> <span m='327300'>is</span> <span m='327480'>equal</span> <span m='327720'>to</span> <span m='327840'>4*pi</span> <span m='331020'>times</span> <span m='331310'>the</span> <span m='331490'>radius</span> <span m='331670'>squared.</span> <span m='331960'>And</span> <span m='332250'>this</span> <span m='332550'>is</span> <span m='332810'>always</span> <span m='333280'>true.</span> <span m='334000'>And</span> <span m='334165'>now</span> <span m='334247'>the</span> <span m='334330'>thing</span> <span m='334590'>that</span> <span m='334700'>we</span> <span m='334820'>want</span> <span m='335700'>is</span> <span m='336080'>the</span> <span m='336210'>rate</span> <span m='336570'>of</span> <span m='336730'>change</span> <span m='337330'>of</span> <span m='337450'>the</span> <span m='337530'>surface</span> <span m='337870'>area.</span> <span m='338400'>So</span> <span m='338590'>the</span> <span m='338690'>rate</span> <span m='338990'>of</span> <span m='339090'>change</span> <span m='339460'>is</span> <span m='339830'>the</span> <span m='339960'>derivative.</span> <span m='340850'>So</span> <span m='341040'>we</span> <span m='341160'>want to</span> <span m='341400'>compute</span> <span m='341890'>the</span> <span m='341990'>derivative</span> <span m='342420'>here,</span> <span m='343790'>dS/dt.</span> </p><p><span m='345570'>So OK, so</span> <span m='345780'>we</span> <span m='345920'>just</span> <span m='346110'>do</span> <span m='346240'>it.</span> <span m='346580'>So</span> <span m='347916'>dS/dt</span> <span m='349370'>is</span> <span m='349510'>equal</span> <span m='349800'>to--</span> <span m='350530'>well,</span> <span m='351080'>4*pi</span> <span m='351960'>hangs</span> <span m='352220'>around.</span> <span m='352500'>And again,</span> <span m='353320'>we</span> <span m='353680'>differentiate</span> <span m='354320'>r</span> <span m='354520'>squared.</span> <span m='355180'>r</span> <span m='355330'>is</span> <span m='355710'>a</span> <span m='355780'>function</span> <span m='356160'>of</span> <span m='356250'>t,</span> <span m='356520'>so</span> <span m='356640'>we</span> <span m='356730'>have</span> <span m='356840'>to</span> <span m='356930'>use</span> <span m='357080'>the</span> <span m='357160'>chain</span> <span m='357480'>rule</span> <span m='357740'>here.</span> <span m='358520'>So</span> <span m='358660'>this</span> <span m='358870'>is</span> <span m='359610'>times</span> <span m='360740'>2r</span> <span m='362790'>times</span> <span m='364775'>dr/dt.</span> <span m='366270'>So</span> <span m='367040'>this</span> <span m='367240'>is</span> <span m='367360'>an</span> <span m='367420'>identity.</span> <span m='367890'>So</span> <span m='368020'>this</span> <span m='368200'>is</span> <span m='368350'>true</span> <span m='368630'>always.</span> </p><p><span m='369510'>And</span> <span m='369740'>now</span> <span m='369820'>we</span> <span m='369980'>want</span> <span m='370100'>to</span> <span m='370220'>know,</span> <span m='371090'>at</span> <span m='371340'>this</span> <span m='371520'>particular</span> <span m='372150'>moment</span> <span m='372520'>in</span> <span m='372660'>time,</span> <span m='373120'>when</span> <span m='373260'>r</span> <span m='373430'>is</span> <span m='373600'>equal</span> <span m='373860'>to</span> <span m='373950'>8,</span> <span m='374420'>what</span> <span m='374830'>is</span> <span m='375530'>ds/dt?</span> <span m='376055'>And</span> <span m='376400'>in</span> <span m='376680'>order</span> <span m='376920'>figure</span> <span m='377210'>that</span> <span m='377410'>out,</span> <span m='377570'>well OK,</span> <span m='378280'>we</span> <span m='378450'>just</span> <span m='378610'>have</span> <span m='378730'>to</span> <span m='378820'>be</span> <span m='378920'>able</span> <span m='379050'>to</span> <span m='379130'>plug</span> <span m='379400'>in</span> <span m='379530'>for</span> <span m='379650'>everything</span> <span m='380000'>else.</span> <span m='382350'>So</span> <span m='382560'>when</span> <span m='383840'>r</span> <span m='384230'>equals</span> <span m='384810'>8-- all right,</span> <span m='385840'>well luckily,</span> <span m='386420'>you</span> <span m='386810'>know,</span> <span m='387380'>if</span> <span m='387570'>we</span> <span m='388070'>were</span> <span m='388170'>just</span> <span m='388330'>starting</span> <span m='388730'>this</span> <span m='388880'>problem</span> <span m='389220'>from</span> <span m='389380'>scratch</span> <span m='389990'>here,</span> <span m='390430'>we'd</span> <span m='390650'>have</span> <span m='390750'>a</span> <span m='390800'>problem.</span> <span m='391250'>Which</span> <span m='391390'>is</span> <span m='391480'>we</span> <span m='391600'>wouldn't</span> <span m='391960'>know</span> <span m='392090'>what</span> <span m='392650'>dr/dt</span> <span m='393020'>was.</span> <span m='393810'>But</span> <span m='394000'>luckily,</span> <span m='394330'>we've</span> <span m='394460'>already</span> <span m='394680'>figured</span> <span m='394990'>it</span> <span m='395090'>out, right?</span> <span m='396660'>In</span> <span m='396800'>the</span> <span m='396910'>first</span> <span m='397170'>part</span> <span m='397340'>of</span> <span m='397400'>the</span> <span m='397470'>problem.</span> <span m='397830'>So</span> <span m='398830'>we</span> <span m='399160'>know</span> <span m='399440'>that</span> <span m='399580'>when</span> <span m='399760'>r</span> <span m='400100'>is</span> <span m='400210'>equal</span> <span m='400320'>to</span> <span m='400420'>8,</span> <span m='402386'>dr/dt</span> <span m='403510'>is</span> <span m='403970'>equal</span> <span m='404250'>to</span> <span m='405030'>125</span> <span m='407570'>over</span> <span m='408670'>32*pi.</span> <span m='409550'>Did</span> <span m='409680'>I</span> <span m='409810'>copy</span> <span m='410120'>that</span> <span m='410340'>right?</span> <span m='410750'>Yes,</span> <span m='411020'>I</span> <span m='411110'>did.</span> <span m='411490'>OK.</span> </p><p><span m='415610'>So OK, so</span> <span m='416090'>in</span> <span m='416270'>this</span> <span m='416450'>case,</span> <span m='417040'>the</span> <span m='417220'>equation</span> <span m='417670'>we</span> <span m='417770'>have</span> <span m='417940'>to</span> <span m='418050'>solve</span> <span m='418730'>is</span> <span m='418920'>just</span> <span m='419210'>completely</span> <span m='419710'>straightforward.</span> <span m='420180'>We</span> <span m='420270'>just</span> <span m='420470'>plug</span> <span m='420710'>in</span> <span m='420800'>the</span> <span m='420880'>values</span> <span m='421270'>and</span> <span m='421370'>it's</span> <span m='421480'>already</span> <span m='421820'>solved</span> <span m='422210'>for</span> <span m='422435'>us.</span> <span m='423400'>So</span> <span m='423540'>that's</span> <span m='423780'>nice.</span> <span m='424760'>So</span> <span m='424930'>that</span> <span m='425080'>we</span> <span m='425220'>get</span> <span m='426765'>that</span> <span m='427465'>ds/dt</span> <span m='429960'>at</span> <span m='430230'>that</span> <span m='430480'>moment</span> <span m='431140'>is</span> <span m='431350'>equal</span> <span m='431630'>to--</span> <span m='431970'>well,</span> <span m='432660'>it's</span> <span m='433570'>4*pi</span> <span m='434880'>times</span> <span m='435360'>2</span> <span m='436700'>times</span> <span m='438530'>8</span> <span m='439070'>is</span> <span m='439570'>the</span> <span m='439690'>radius</span> <span m='441270'>times</span> <span m='442820'>125</span> <span m='445150'>over</span> <span m='447640'>32*pi.</span> <span m='448610'>Oh</span> <span m='448940'>boy,</span> <span m='449250'>and</span> <span m='449330'>all</span> <span m='449570'>right.</span> <span m='449625'>So</span> <span m='449680'>we</span> <span m='449780'>can</span> <span m='450320'>work</span> <span m='450800'>this</span> <span m='451030'>out</span> <span m='451200'>if</span> <span m='451300'>we</span> <span m='451410'>want,</span> <span m='451650'>I</span> <span m='451700'>guess.</span> <span m='452080'>That's</span> <span m='452670'>32*pi</span> <span m='452970'>to</span> <span m='453140'>cancel,</span> <span m='453810'>so</span> <span m='453985'>that's</span> <span m='454160'>equal</span> <span m='454510'>to</span> <span m='454930'>250.</span> <span m='456980'>And</span> <span m='457110'>I</span> <span m='457180'>guess</span> <span m='457360'>the</span> <span m='457460'>units</span> <span m='457810'>there</span> <span m='458165'>better</span> <span m='458760'>be</span> <span m='459020'>centimeters</span> <span m='459610'>squared</span> <span m='460070'>per</span> <span m='460230'>second.</span> </p><p><span m='461060'>So</span> <span m='461210'>at</span> <span m='461370'>this</span> <span m='461540'>moment</span> <span m='461850'>in</span> <span m='461940'>time</span> <span m='462560'>the</span> <span m='462670'>surface</span> <span m='463040'>area</span> <span m='463680'>is</span> <span m='463850'>growing</span> <span m='464190'>by</span> <span m='464350'>250</span> <span m='465100'>centimeters</span> <span m='465540'>squared</span> <span m='465880'>per</span> <span m='466000'>second.</span> <span m='467130'>So</span> <span m='468360'>that's</span> <span m='468640'>all</span> <span m='469220'>we</span> <span m='469330'>had</span> <span m='469470'>to</span> <span m='469550'>do.</span> </p><p><span m='470140'>So</span> <span m='470290'>we're</span> <span m='470450'>all</span> <span m='470610'>set.</span> </p>", 
    "_content_type_link_text": "text/plain", 
    "course_linking": [], 
    "_id": "inflating-a-balloon", 
    "modification_date": "2016/09/25 01:19:34.863 GMT-4", 
    "media_index": [], 
    "always_publish": false, 
    "_owner": null, 
    "_permissions": {
        "Change portal events": {
            "acquire": false, 
            "roles": [
                "Editor", 
                "Manager", 
                "MetadataEditor", 
                "Owner"
            ]
        }, 
        "Modify portal content": {
            "acquire": false, 
            "roles": [
                "Manager", 
                "MetadataEditor"
            ]
        }, 
        "Access contents information": {
            "acquire": false, 
            "roles": [
                "Authenticated"
            ]
        }, 
        "List folder contents": {
            "acquire": false, 
            "roles": [
                "Editor", 
                "Manager", 
                "MetadataEditor", 
                "Owner"
            ]
        }, 
        "View": {
            "acquire": false, 
            "roles": [
                "Authenticated"
            ]
        }
    }, 
    "_properties": [
        [
            "title", 
            "Inflating a Balloon", 
            "string"
        ]
    ], 
    "creators": [
        "pgandhi3"
    ], 
    "courselist_features": [], 
    "_path": "/Plone/courses/mathematics/18-01sc-single-variable-calculus-fall-2010/unit-2-applications-of-differentiation/part-b-optimization-related-rates-and-newtons-method/session-31-related-rates/inflating-a-balloon"
}