{
    "rsi_top_html_area": "", 
    "text": "", 
    "_content_type_license": "text/plain", 
    "_uid": "cbe1bbf45b554105deab8c04852e12f3", 
    "title": "Increasing or Decreasing", 
    "_ac_local_roles": {
        "pgandhi3": [
            "Owner"
        ]
    }, 
    "template_type": "Embed", 
    "location": "", 
    "_content_type_course_identifier": "text/plain", 
    "_atbrefs": {}, 
    "constrainTypesMode": 0, 
    "_content_type_section_identifier": "text/plain", 
    "technical_location": "https://ocw.mit.edu/courses/mathematics/18-01sc-single-variable-calculus-fall-2010/unit-2-applications-of-differentiation/part-c-mean-value-theorem-antiderivatives-and-differential-equations/session-34-introduction-to-the-mean-value-theorem/increasing-or-decreasing", 
    "software_requirements": [
        {
            "software_type_col": "Browser", 
            "minimum_version_col": "40.0", 
            "software_name_col": "Chrome", 
            "maximum_version_col": ""
        }, 
        {
            "software_type_col": "Browser", 
            "minimum_version_col": "8.0", 
            "software_name_col": "Safari", 
            "maximum_version_col": ""
        }, 
        {
            "software_type_col": "Browser", 
            "minimum_version_col": "38.0", 
            "software_name_col": "Mozilla Firefox", 
            "maximum_version_col": ""
        }, 
        {
            "software_type_col": "Browser", 
            "minimum_version_col": "9.0", 
            "software_name_col": "Internet Explorer", 
            "maximum_version_col": ""
        }, 
        {
            "software_type_col": "Browser", 
            "minimum_version_col": "13.1", 
            "software_name_col": "Edge", 
            "maximum_version_col": ""
        }
    ], 
    "_content_type_technical_location": "text/plain", 
    "start_time": "", 
    "_content_type_rights": "text/html", 
    "_directly_provided": [
        "Products.CMFEditions.interfaces.IVersioned"
    ], 
    "media_rights": "(CC BY-NC-SA)", 
    "parent_uid": "7a88ceaa20502ee6fbc4c0ceeb51122e", 
    "excludeFromNav": false, 
    "about_this_resource_text": "", 
    "_content_type_unique_identifier": "text/plain", 
    "end_time": "", 
    "allowDiscussion": false, 
    "_content_type_materialtype": "text/plain", 
    "locallyAllowedTypes": [
        "OCWImage", 
        "OCWFile", 
        "OCWMediaAsset"
    ], 
    "optional_tab_title": "", 
    "ad_type": "HOUSE", 
    "creation_date": "2015/12/08 06:21:24.624 US/Eastern", 
    "aggregationlevel": 2, 
    "bottom_html_area": "", 
    "duration": "", 
    "immediatelyAddableTypes": [
        "OCWImage", 
        "OCWFile", 
        "OCWMediaAsset"
    ], 
    "_content_type_template_type": "text/plain", 
    "subject": [], 
    "_content_type_short_page_title": "text/plain", 
    "effectiveDate": "2015/12/23 02:01:53.988 US/Eastern", 
    "parent_module": "bfe41979b9593362793fd930b36efa01", 
    "is_mathml_document": false, 
    "bottomtext": "", 
    "short_page_title": "Increasing or Decreasing", 
    "section_identifier": "https://ocw.mit.edu/courses/mathematics/18-01sc-single-variable-calculus-fall-2010/unit-2-applications-of-differentiation", 
    "show_captions_outside_player": false, 
    "related_mit_links": "", 
    "_content_type_ad_type": "text/plain", 
    "_layout": "custom_view", 
    "_workflow_history": {
        "page_workflow": [
            {
                "action": null, 
                "review_state": "waiting_for_authoring", 
                "comments": "", 
                "actor": "pgandhi3", 
                "time": "2015/12/08 06:21:24.641 US/Eastern"
            }, 
            {
                "action": "approve_to_staging", 
                "review_state": "ready_for_staging", 
                "actor": "pgandhi3", 
                "comments": "", 
                "time": "2015/12/23 02:01:58.445 US/Eastern"
            }
        ]
    }, 
    "_content_type_transcript": "text/html", 
    "metadata_contributor_list": [], 
    "_userdefined_roles": [], 
    "_content_type_inline_embed_id": "text/plain", 
    "publisher": "MIT OpenCourseWare", 
    "nextPreviousEnabled": false, 
    "_gopip": 8, 
    "license": "http://creativecommons.org/licenses/by-nc-sa/3.0/us/", 
    "url_rewrite_patterns": [], 
    "widgets_features": [], 
    "category_features": [], 
    "resource_contributor_list": [
        {
            "res_contributor_entity": "Jerison, David", 
            "res_contributor_uid": "b28f05bbf3c3b44d28bc8f11fc7834cd", 
            "res_contributor_role": "Performer"
        }
    ], 
    "show_jump_back_5_seconds_button": false, 
    "firstTimeEdit": false, 
    "_content_type_media_rights": "text/plain", 
    "feature_requirements": [], 
    "list_in_left_nav": false, 
    "inline_embed_id": "49555388increasingordecreasing53515164", 
    "_classname": "MediaResource", 
    "short_name_tlp": "", 
    "expirationDate": "None", 
    "_content_type_id": "text/plain", 
    "contributor_list": [
        {}
    ], 
    "is_media_gallery": false, 
    "contributors": [], 
    "media_locations": [
        {}
    ], 
    "_content_type_media_resource_type": "text/plain", 
    "_content_type_title": "text/plain", 
    "subtitle_exemption": "None", 
    "_content_type": "text/html", 
    "resource_index_text": "", 
    "_atrefs": {
        "BelongsTo": [
            "bfe41979b9593362793fd930b36efa01"
        ]
    }, 
    "media_slides": [], 
    "other_platform_requirements": "", 
    "language": "", 
    "rights": "This site (c) Massachusetts Institute of Technology 2015.  Content within individual courses is (c) by the individual authors unless otherwise noted. The Massachusetts Institute of Technology is providing this Work (as defined below) under the terms of this Creative Commons public license (\"CCPL\" or \"license\") unless otherwise noted. The Work is protected by copyright and/or other applicable law. Any use of the work other than as authorized under this license is prohibited. By exercising any of the rights to the Work provided here, You (as defined below) accept and agree to be bound by the terms of this license. The Licensor, the Massachusetts Institute of Technology, grants You the rights contained here in consideration of Your acceptance of such terms and conditions.", 
    "hide_Page_title": false, 
    "_defaultpage": "", 
    "related_resources_text": "", 
    "tcATmit_subject_tags": [], 
    "features_tracking": [], 
    "ad_champion_text": "", 
    "has_inline_embed": false, 
    "unique_identifier": "https://ocw.mit.edu/courses/mathematics/18-01sc-single-variable-calculus-fall-2010/unit-2-applications-of-differentiation/part-c-mean-value-theorem-antiderivatives-and-differential-equations/session-34-introduction-to-the-mean-value-theorem/increasing-or-decreasing", 
    "link_text": "Increasing or Decreasing", 
    "is_image_gallery": false, 
    "id": "increasing-or-decreasing", 
    "_content_type_subtitle_exemption": "text/plain", 
    "materialtype": "Other", 
    "optional_text": "", 
    "_type": "MediaResource", 
    "description": "", 
    "media_resource_type": "Video", 
    "course_identifier": "https://ocw.mit.edu/courses/mathematics/18-01sc-single-variable-calculus-fall-2010", 
    "_content_type_publisher": "text/plain", 
    "tcATmit_instructional_tags": [], 
    "transcript": "<p><span m='0'>PROFESSOR:</span> <span m='7150'>Welcome</span> <span m='7510'>back</span> <span m='7690'>to</span> <span m='7790'>recitation.</span> </p><p><span m='8820'>In</span> <span m='9030'>this</span> <span m='9160'>video,</span> <span m='9490'>what</span> <span m='9610'>I'd</span> <span m='9720'>like</span> <span m='9910'>us</span> <span m='10000'>to</span> <span m='10220'>do</span> <span m='10850'>is</span> <span m='11160'>answer</span> <span m='11470'>the</span> <span m='11560'>following</span> <span m='11830'>question.</span> <span m='13400'>Suppose</span> <span m='13970'>that</span> <span m='14080'>f</span> <span m='14340'>is</span> <span m='14395'>a</span> <span m='14450'>continuous,</span> <span m='14950'>differentiable</span> <span m='15480'>function.</span> <span m='16730'>And</span> <span m='16930'>if</span> <span m='17250'>it's</span> <span m='17490'>derivative,</span> <span m='18220'>if</span> <span m='18295'>f</span> <span m='18370'>prime</span> <span m='18610'>is</span> <span m='18710'>never</span> <span m='19000'>0,</span> <span m='19930'>and</span> <span m='20210'>a</span> <span m='20370'>is</span> <span m='20530'>not</span> <span m='20730'>equal</span> <span m='20900'>to</span> <span m='21000'>b,</span> <span m='21900'>then</span> <span m='22060'>show</span> <span m='22290'>that</span> <span m='22430'>f</span> <span m='22590'>of</span> <span m='22730'>a</span> <span m='23010'>is</span> <span m='23140'>not</span> <span m='23330'>equal</span> <span m='23360'>to</span> <span m='23390'>f</span> <span m='23780'>of</span> <span m='23880'>b.</span> <span m='24680'>I'm</span> <span m='24760'>going</span> <span m='24840'>to</span> <span m='24970'>let</span> <span m='25100'>you</span> <span m='25210'>think</span> <span m='25410'>about</span> <span m='25640'>it</span> <span m='25750'>for</span> <span m='25880'>a</span> <span m='26070'>while,</span> <span m='26640'>see</span> <span m='26850'>if</span> <span m='26940'>you</span> <span m='27010'>can</span> <span m='27140'>come</span> <span m='27330'>up</span> <span m='27440'>with</span> <span m='27540'>a</span> <span m='27590'>good</span> <span m='27740'>reason</span> <span m='28050'>for</span> <span m='28170'>that,</span> <span m='28490'>and</span> <span m='28630'>then</span> <span m='28730'>I'll</span> <span m='28850'>be</span> <span m='28950'>back</span> <span m='29250'>to</span> <span m='29370'>explain</span> <span m='29720'>my</span> <span m='29840'>reasons.</span> </p><p><span m='38160'>OK.</span> <span m='38510'>Our</span> <span m='38640'>object,</span> <span m='39150'>again,</span> <span m='41280'>is</span> <span m='41510'>to</span> <span m='41580'>show,</span> <span m='41900'>if</span> <span m='42060'>f</span> <span m='42300'>is</span> <span m='42410'>continuous</span> <span m='42650'>and</span> <span m='42890'>differentiable</span> <span m='43850'>and</span> <span m='44080'>its</span> <span m='44210'>derivative</span> <span m='44600'>is</span> <span m='44720'>never</span> <span m='45000'>0</span> <span m='46290'>and</span> <span m='46550'>you're</span> <span m='46720'>looking</span> <span m='47000'>at</span> <span m='47180'>two</span> <span m='47820'>x-values</span> <span m='48410'>that</span> <span m='48600'>are</span> <span m='48700'>different,</span> <span m='49200'>show</span> <span m='49430'>that</span> <span m='49580'>their</span> <span m='49960'>y-values</span> <span m='50210'>have</span> <span m='50410'>to</span> <span m='50510'>be</span> <span m='50620'>different.</span> <span m='51480'>Show</span> <span m='51660'>that</span> <span m='51890'>if</span> <span m='52040'>the</span> <span m='52120'>inputs</span> <span m='52390'>are</span> <span m='52480'>different,</span> <span m='52800'>the</span> <span m='52985'>outputs</span> <span m='53170'>have</span> <span m='53330'>to</span> <span m='53430'>be</span> <span m='53530'>different.</span> </p><p><span m='54300'>Now,</span> <span m='54470'>this</span> <span m='54740'>might</span> <span m='55000'>remind</span> <span m='55380'>you</span> <span m='55490'>of</span> <span m='55580'>something</span> <span m='55880'>you</span> <span m='55990'>saw</span> <span m='56370'>in</span> <span m='56460'>lecture</span> <span m='57010'>about</span> <span m='57630'>if</span> <span m='57920'>the</span> <span m='58000'>derivative</span> <span m='58490'>has</span> <span m='58700'>a</span> <span m='58770'>sign, show the function--</span> <span m='60490'>if</span> <span m='60720'>the</span> <span m='60840'>derivative</span> <span m='61030'>is</span> <span m='61200'>positive,</span> <span m='61670'>show</span> <span m='61800'>the</span> <span m='61890'>function</span> <span m='62060'>is</span> <span m='62230'>always</span> <span m='62420'>increasing,</span> <span m='63020'>or</span> <span m='63080'>if</span> <span m='63140'>the</span> <span m='63200'>derivative</span> <span m='63510'>is</span> <span m='63610'>negative,</span> <span m='64060'>show</span> <span m='64200'>the</span> <span m='64290'>function</span> <span m='64460'>is</span> <span m='64630'>always</span> <span m='64850'>decreasing.</span> <span m='66160'>So</span> <span m='66380'>this</span> <span m='66600'>is</span> <span m='66940'>a</span> <span m='67270'>similar</span> <span m='68730'>type</span> <span m='68990'>of</span> <span m='69100'>problem</span> <span m='69490'>to</span> <span m='69600'>that.</span> <span m='70340'>So what</span> <span m='70590'>we're</span> <span m='70710'>going</span> <span m='70890'>to</span> <span m='70980'>use</span> <span m='71800'>is</span> <span m='72100'>actually</span> <span m='72470'>the</span> <span m='72560'>mean</span> <span m='72700'>value</span> <span m='73010'>theorem.</span> </p><p><span m='73880'>If</span> <span m='74020'>you'll</span> <span m='74160'>notice,</span> <span m='74930'>I</span> <span m='75150'>have</span> <span m='75390'>f.</span> <span m='75690'>It</span> <span m='75795'>does</span> <span m='75900'>satisfy</span> <span m='76350'>the</span> <span m='76455'>mean</span> <span m='76560'>value</span> <span m='76880'>theorem</span> <span m='78380'>on</span> <span m='78470'>an</span> <span m='78560'>interval</span> <span m='78820'>from</span> <span m='78970'>a</span> <span m='79100'>to</span> <span m='79210'>b.</span> <span m='80220'>I</span> <span m='80340'>haven't</span> <span m='80620'>even</span> <span m='80800'>specified</span> <span m='81320'>which</span> <span m='81530'>is</span> <span m='81610'>bigger,</span> <span m='81910'>a</span> <span m='82055'>or</span> <span m='82200'>b.</span> <span m='82420'>But</span> <span m='82590'>it</span> <span m='82670'>doesn't</span> <span m='82960'>matter</span> <span m='83870'>in</span> <span m='84080'>this</span> <span m='84270'>case.</span> </p><p><span m='85350'>So</span> <span m='85720'>what</span> <span m='85890'>do</span> <span m='85950'>we</span> <span m='86060'>know?</span> <span m='86280'>The</span> <span m='86370'>mean</span> <span m='86570'>value</span> <span m='86910'>theorem</span> <span m='87180'>tells</span> <span m='87440'>us</span> <span m='89880'>that</span> <span m='90100'>if</span> <span m='90210'>we</span> <span m='90330'>look</span> <span m='90560'>at--</span> <span m='90840'>well,</span> <span m='91290'>let's</span> <span m='91460'>just</span> <span m='91640'>write</span> <span m='91780'>it</span> <span m='91920'>out--</span> <span m='92320'>f</span> <span m='92475'>of</span> <span m='92630'>b</span> <span m='92770'>minus</span> <span m='93040'>f</span> <span m='93210'>of</span> <span m='93350'>a</span> <span m='95400'>over</span> <span m='95610'>b</span> <span m='95750'>minus</span> <span m='95960'>a</span> <span m='97990'>is</span> <span m='98100'>equal</span> <span m='98340'>to</span> <span m='98480'>f</span> <span m='98730'>prime</span> <span m='99200'>of</span> <span m='99670'>c--</span> <span m='100610'>and</span> <span m='100720'>what</span> <span m='100830'>do</span> <span m='100895'>we</span> <span m='100960'>know--</span> <span m='101150'>for</span> <span m='101310'>c</span> <span m='102140'>between</span> <span m='102480'>a</span> <span m='102620'>and</span> <span m='102760'>b.</span> </p><p><span m='106100'>So</span> <span m='106280'>we</span> <span m='106420'>want</span> <span m='106570'>to</span> <span m='106660'>know</span> <span m='107470'>whether</span> <span m='107760'>or</span> <span m='107820'>not</span> <span m='108180'>f</span> <span m='108335'>of</span> <span m='108490'>b</span> <span m='108610'>minus</span> <span m='108750'>f</span> <span m='108860'>of</span> <span m='109030'>a</span> <span m='109300'>can</span> <span m='109420'>ever</span> <span m='109590'>be</span> <span m='109730'>0.</span> <span m='110320'>We're</span> <span m='110480'>trying</span> <span m='110680'>to</span> <span m='110740'>show</span> <span m='110930'>that</span> <span m='111100'>it</span> <span m='111230'>cannot</span> <span m='111640'>be</span> <span m='111800'>0.</span> <span m='112740'>So</span> <span m='113080'>we're</span> <span m='113220'>going</span> <span m='113325'>to</span> <span m='113430'>isolate</span> <span m='113950'>this</span> <span m='114100'>expression</span> <span m='115180'>and</span> <span m='115370'>show</span> <span m='115510'>that</span> <span m='117810'>this</span> <span m='117960'>subtraction</span> <span m='118500'>cannot</span> <span m='118810'>be</span> <span m='118940'>0.</span> <span m='119800'>Well,</span> <span m='120000'>how</span> <span m='120100'>do</span> <span m='120170'>we</span> <span m='120260'>do</span> <span m='120300'>that?</span> <span m='120530'>Let</span> <span m='120620'>me</span> <span m='120740'>come</span> <span m='120880'>over</span> <span m='121060'>here</span> <span m='121290'>to</span> <span m='121370'>give</span> <span m='121530'>us</span> <span m='121650'>a</span> <span m='121710'>little</span> <span m='121890'>more</span> <span m='122040'>room.</span> </p><p><span m='123670'>I'm</span> <span m='123870'>going</span> <span m='123990'>to</span> <span m='124060'>rewrite</span> <span m='124440'>the</span> <span m='124480'>mean</span> <span m='124690'>value</span> <span m='125070'>theorem.</span> <span m='125260'>I'm</span> <span m='125460'>going</span> <span m='125610'>to</span> <span m='125670'>multiply</span> <span m='126050'>through</span> <span m='126270'>by</span> <span m='126400'>b</span> <span m='126550'>minus</span> <span m='126840'>a.</span> <span m='132250'>So</span> <span m='132420'>we</span> <span m='132520'>get</span> <span m='132650'>f</span> <span m='132820'>prime</span> <span m='133234'>of</span> <span m='133441'>c</span> <span m='134890'>time</span> <span m='135260'>b</span> <span m='135390'>minus</span> <span m='135720'>a.</span> <span m='138460'>Now,</span> <span m='138970'>we</span> <span m='139130'>just</span> <span m='139310'>want</span> <span m='139450'>to</span> <span m='139510'>show,</span> <span m='139680'>again,</span> <span m='140090'>that</span> <span m='140210'>f</span> <span m='140290'>of</span> <span m='140390'>b</span> <span m='140500'>minus</span> <span m='140670'>f</span> <span m='140705'>of</span> <span m='140740'>a</span> <span m='141110'>cannot</span> <span m='141460'>be</span> <span m='141600'>0.</span> </p><p><span m='142530'>What's</span> <span m='142870'>the</span> <span m='143010'>only</span> <span m='143330'>thing--</span> <span m='143620'>well,</span> <span m='144010'>not</span> <span m='144200'>only</span> <span m='144440'>thing,</span> <span m='144640'>we</span> <span m='144730'>know</span> <span m='144830'>two</span> <span m='145070'>things--</span> <span m='145370'>what</span> <span m='145520'>two</span> <span m='145700'>things</span> <span m='145950'>do</span> <span m='146050'>we</span> <span m='146160'>know?</span> <span m='146570'>We</span> <span m='147210'>know</span> <span m='147340'>f</span> <span m='147590'>prime</span> <span m='147975'>of</span> <span m='148167'>c</span> <span m='148360'>is</span> <span m='148520'>not</span> <span m='148770'>0.</span> <span m='149350'>That</span> <span m='149460'>was</span> <span m='149580'>given</span> <span m='149830'>to</span> <span m='149920'>you.</span> <span m='150380'>f</span> <span m='150515'>prime</span> <span m='150650'>is</span> <span m='150760'>never</span> <span m='151200'>0,</span> <span m='151720'>so</span> <span m='151880'>certainly</span> <span m='152290'>at</span> <span m='152390'>any</span> <span m='152640'>fixed</span> <span m='152950'>value,</span> <span m='153360'>f</span> <span m='153530'>prime</span> <span m='153695'>of</span> <span m='153860'>c</span> <span m='154070'>is</span> <span m='154220'>not</span> <span m='154440'>0.</span> <span m='155360'>So</span> <span m='155530'>we</span> <span m='155610'>know</span> <span m='156100'>this</span> <span m='156380'>term</span> <span m='156650'>is</span> <span m='156750'>not</span> <span m='156930'>0.</span> <span m='157860'>We</span> <span m='158090'>also</span> <span m='158300'>know</span> <span m='158410'>that</span> <span m='158550'>b</span> <span m='158810'>is</span> <span m='158940'>not</span> <span m='159150'>equal</span> <span m='159350'>to</span> <span m='159480'>a,</span> <span m='159720'>so</span> <span m='159900'>we</span> <span m='159990'>know</span> <span m='160100'>b</span> <span m='160250'>minus</span> <span m='160530'>a</span> <span m='160710'>is</span> <span m='160890'>not</span> <span m='161100'>0.</span> </p><p><span m='162160'>The</span> <span m='162290'>only</span> <span m='162440'>way</span> <span m='162540'>to</span> <span m='162630'>get</span> <span m='162730'>a</span> <span m='162770'>product</span> <span m='163150'>of</span> <span m='163240'>two</span> <span m='163420'>numbers</span> <span m='164610'>to</span> <span m='164730'>be</span> <span m='164870'>0</span> <span m='165170'>is</span> <span m='165450'>if</span> <span m='165580'>one</span> <span m='165730'>of</span> <span m='165820'>them</span> <span m='165960'>is</span> <span m='166060'>0.</span> <span m='166380'>So this</span> <span m='166810'>in</span> <span m='166910'>fact,</span> <span m='167210'>this</span> <span m='167380'>product</span> <span m='168140'>is</span> <span m='168310'>not</span> <span m='168530'>equal</span> <span m='168740'>to</span> <span m='168830'>0.</span> <span m='171080'>The</span> <span m='171200'>fact</span> <span m='171480'>that</span> <span m='171630'>this</span> <span m='171855'>product</span> <span m='172080'>is</span> <span m='172175'>not</span> <span m='172270'>equal</span> <span m='172450'>to</span> <span m='172645'>0</span> <span m='172840'>tells</span> <span m='173090'>us</span> <span m='173220'>f</span> <span m='173480'>of</span> <span m='173610'>b</span> <span m='173830'>minus</span> <span m='174130'>f</span> <span m='174300'>of</span> <span m='174400'>a</span> <span m='174550'>is</span> <span m='174700'>not</span> <span m='174900'>equal</span> <span m='175090'>to</span> <span m='175180'>0.</span> <span m='175950'>And</span> <span m='176190'>that</span> <span m='176450'>alone</span> <span m='177270'>is</span> <span m='177440'>enough</span> <span m='177670'>to</span> <span m='177770'>conclude</span> <span m='178540'>that</span> <span m='178680'>f</span> <span m='178810'>of</span> <span m='178880'>b</span> <span m='179600'>is</span> <span m='179760'>not</span> <span m='179970'>equal</span> <span m='180730'>to</span> <span m='181110'>f</span> <span m='181290'>of</span> <span m='181470'>a.</span> </p><p><span m='183150'>So,</span> <span m='183370'>again,</span> <span m='183690'>let</span> <span m='183850'>me</span> <span m='183930'>just</span> <span m='184120'>point</span> <span m='184360'>out</span> <span m='184550'>of</span> <span m='184620'>this is</span> <span m='185210'>probably</span> <span m='186200'>reminds</span> <span m='186690'>you</span> <span m='186790'>very</span> <span m='187020'>much</span> <span m='187490'>of</span> <span m='187580'>the</span> <span m='187670'>type</span> <span m='187880'>of</span> <span m='187960'>thing</span> <span m='188140'>you've</span> <span m='188290'>seen</span> <span m='188580'>where</span> <span m='188710'>you</span> <span m='188820'>were</span> <span m='188940'>showing</span> <span m='189840'>if</span> <span m='190040'>f</span> <span m='190300'>prime</span> <span m='190630'>had</span> <span m='190750'>a</span> <span m='190870'>sign,</span> <span m='191860'>then</span> <span m='192030'>you</span> <span m='192140'>could</span> <span m='192280'>determine</span> <span m='193160'>whether</span> <span m='193470'>f</span> <span m='193690'>was</span> <span m='193840'>increasing</span> <span m='194590'>or</span> <span m='194710'>decreasing.</span> <span m='195400'>It's</span> <span m='195570'>the</span> <span m='195670'>same</span> <span m='195900'>type</span> <span m='196170'>of</span> <span m='196250'>problem</span> <span m='196520'>as</span> <span m='196620'>that.</span> <span m='197200'>It's</span> <span m='197420'>exploiting</span> <span m='197990'>what</span> <span m='198130'>the</span> <span m='198200'>mean</span> <span m='198330'>value</span> <span m='198700'>theorem</span> <span m='198950'>tells</span> <span m='199210'>you.</span> </p><p><span m='200180'>So</span> <span m='200330'>I</span> <span m='200390'>think</span> <span m='200560'>we'll</span> <span m='200700'>stop</span> <span m='200830'>there.</span> </p>", 
    "_content_type_link_text": "text/plain", 
    "course_linking": [], 
    "_id": "increasing-or-decreasing", 
    "modification_date": "2016/09/25 01:20:02.001 GMT-4", 
    "media_index": [], 
    "always_publish": false, 
    "_owner": null, 
    "_permissions": {
        "Change portal events": {
            "acquire": false, 
            "roles": [
                "Editor", 
                "Manager", 
                "MetadataEditor", 
                "Owner"
            ]
        }, 
        "Modify portal content": {
            "acquire": false, 
            "roles": [
                "Manager", 
                "MetadataEditor"
            ]
        }, 
        "Access contents information": {
            "acquire": false, 
            "roles": [
                "Authenticated"
            ]
        }, 
        "List folder contents": {
            "acquire": false, 
            "roles": [
                "Editor", 
                "Manager", 
                "MetadataEditor", 
                "Owner"
            ]
        }, 
        "View": {
            "acquire": false, 
            "roles": [
                "Authenticated"
            ]
        }
    }, 
    "_properties": [
        [
            "title", 
            "Increasing or Decreasing", 
            "string"
        ]
    ], 
    "creators": [
        "pgandhi3"
    ], 
    "courselist_features": [], 
    "_path": "/Plone/courses/mathematics/18-01sc-single-variable-calculus-fall-2010/unit-2-applications-of-differentiation/part-c-mean-value-theorem-antiderivatives-and-differential-equations/session-34-introduction-to-the-mean-value-theorem/increasing-or-decreasing"
}