{
    "rsi_top_html_area": "", 
    "text": "", 
    "_content_type_license": "text/plain", 
    "_uid": "6caac3aa07029b9fae72b4e34c3fdc66", 
    "title": "Comparing Functions Using the MVT", 
    "_ac_local_roles": {
        "pgandhi3": [
            "Owner"
        ]
    }, 
    "template_type": "Embed", 
    "location": "", 
    "_content_type_course_identifier": "text/plain", 
    "_atbrefs": {}, 
    "constrainTypesMode": 0, 
    "_content_type_section_identifier": "text/plain", 
    "technical_location": "https://ocw.mit.edu/courses/mathematics/18-01sc-single-variable-calculus-fall-2010/unit-2-applications-of-differentiation/part-c-mean-value-theorem-antiderivatives-and-differential-equations/session-35-using-the-mean-value-theorem/comparing-functions-using-the-mvt", 
    "software_requirements": [
        {
            "software_type_col": "Browser", 
            "minimum_version_col": "40.0", 
            "software_name_col": "Chrome", 
            "maximum_version_col": ""
        }, 
        {
            "software_type_col": "Browser", 
            "minimum_version_col": "8.0", 
            "software_name_col": "Safari", 
            "maximum_version_col": ""
        }, 
        {
            "software_type_col": "Browser", 
            "minimum_version_col": "38.0", 
            "software_name_col": "Mozilla Firefox", 
            "maximum_version_col": ""
        }, 
        {
            "software_type_col": "Browser", 
            "minimum_version_col": "9.0", 
            "software_name_col": "Internet Explorer", 
            "maximum_version_col": ""
        }, 
        {
            "software_type_col": "Browser", 
            "minimum_version_col": "13.1", 
            "software_name_col": "Edge", 
            "maximum_version_col": ""
        }
    ], 
    "_content_type_technical_location": "text/plain", 
    "start_time": "", 
    "_content_type_rights": "text/html", 
    "_directly_provided": [
        "Products.CMFEditions.interfaces.IVersioned"
    ], 
    "media_rights": "(CC BY-NC-SA)", 
    "parent_uid": "673ff3f8ec331bce1196314f7e83c11b", 
    "excludeFromNav": false, 
    "about_this_resource_text": "", 
    "_content_type_unique_identifier": "text/plain", 
    "end_time": "", 
    "allowDiscussion": false, 
    "_content_type_materialtype": "text/plain", 
    "locallyAllowedTypes": [
        "OCWImage", 
        "OCWFile", 
        "OCWMediaAsset"
    ], 
    "optional_tab_title": "", 
    "ad_type": "HOUSE", 
    "creation_date": "2015/12/08 06:27:37.585 US/Eastern", 
    "aggregationlevel": 2, 
    "bottom_html_area": "", 
    "duration": "", 
    "immediatelyAddableTypes": [
        "OCWImage", 
        "OCWFile", 
        "OCWMediaAsset"
    ], 
    "_content_type_template_type": "text/plain", 
    "subject": [], 
    "_content_type_short_page_title": "text/plain", 
    "effectiveDate": "2015/12/23 02:13:26.448 US/Eastern", 
    "parent_module": "bfe41979b9593362793fd930b36efa01", 
    "is_mathml_document": false, 
    "bottomtext": "", 
    "short_page_title": "Comparing Functions Using the MVT", 
    "section_identifier": "https://ocw.mit.edu/courses/mathematics/18-01sc-single-variable-calculus-fall-2010/unit-2-applications-of-differentiation", 
    "show_captions_outside_player": false, 
    "related_mit_links": "", 
    "_content_type_ad_type": "text/plain", 
    "_layout": "custom_view", 
    "_workflow_history": {
        "page_workflow": [
            {
                "action": null, 
                "review_state": "waiting_for_authoring", 
                "comments": "", 
                "actor": "pgandhi3", 
                "time": "2015/12/08 06:27:37.597 US/Eastern"
            }, 
            {
                "action": "approve_to_staging", 
                "review_state": "ready_for_staging", 
                "actor": "pgandhi3", 
                "comments": "", 
                "time": "2015/12/23 02:13:27.215 US/Eastern"
            }
        ]
    }, 
    "_content_type_transcript": "text/html", 
    "metadata_contributor_list": [], 
    "_userdefined_roles": [], 
    "_content_type_inline_embed_id": "text/plain", 
    "publisher": "MIT OpenCourseWare", 
    "nextPreviousEnabled": false, 
    "_gopip": 7, 
    "license": "http://creativecommons.org/licenses/by-nc-sa/3.0/us/", 
    "url_rewrite_patterns": [], 
    "widgets_features": [], 
    "category_features": [], 
    "resource_contributor_list": [
        {
            "res_contributor_entity": "Jerison, David", 
            "res_contributor_uid": "b28f05bbf3c3b44d28bc8f11fc7834cd", 
            "res_contributor_role": "Performer"
        }
    ], 
    "show_jump_back_5_seconds_button": false, 
    "firstTimeEdit": false, 
    "_content_type_media_rights": "text/plain", 
    "feature_requirements": [], 
    "list_in_left_nav": false, 
    "inline_embed_id": "98810764comparingfunctionsusingthemvt73925196", 
    "_classname": "MediaResource", 
    "short_name_tlp": "", 
    "expirationDate": "None", 
    "_content_type_id": "text/plain", 
    "contributor_list": [
        {}
    ], 
    "is_media_gallery": false, 
    "contributors": [], 
    "media_locations": [
        {}
    ], 
    "_content_type_media_resource_type": "text/plain", 
    "_content_type_title": "text/plain", 
    "subtitle_exemption": "None", 
    "_content_type": "text/html", 
    "resource_index_text": "", 
    "_atrefs": {
        "BelongsTo": [
            "bfe41979b9593362793fd930b36efa01"
        ]
    }, 
    "media_slides": [], 
    "other_platform_requirements": "", 
    "language": "", 
    "rights": "This site (c) Massachusetts Institute of Technology 2015.  Content within individual courses is (c) by the individual authors unless otherwise noted. The Massachusetts Institute of Technology is providing this Work (as defined below) under the terms of this Creative Commons public license (\"CCPL\" or \"license\") unless otherwise noted. The Work is protected by copyright and/or other applicable law. Any use of the work other than as authorized under this license is prohibited. By exercising any of the rights to the Work provided here, You (as defined below) accept and agree to be bound by the terms of this license. The Licensor, the Massachusetts Institute of Technology, grants You the rights contained here in consideration of Your acceptance of such terms and conditions.", 
    "hide_Page_title": false, 
    "_defaultpage": "", 
    "related_resources_text": "", 
    "tcATmit_subject_tags": [], 
    "features_tracking": [], 
    "ad_champion_text": "", 
    "has_inline_embed": false, 
    "unique_identifier": "https://ocw.mit.edu/courses/mathematics/18-01sc-single-variable-calculus-fall-2010/unit-2-applications-of-differentiation/part-c-mean-value-theorem-antiderivatives-and-differential-equations/session-35-using-the-mean-value-theorem/comparing-functions-using-the-mvt", 
    "link_text": "Comparing Functions Using the MVT", 
    "is_image_gallery": false, 
    "id": "comparing-functions-using-the-mvt", 
    "_content_type_subtitle_exemption": "text/plain", 
    "materialtype": "Other", 
    "optional_text": "", 
    "_type": "MediaResource", 
    "description": "", 
    "media_resource_type": "Video", 
    "course_identifier": "https://ocw.mit.edu/courses/mathematics/18-01sc-single-variable-calculus-fall-2010", 
    "_content_type_publisher": "text/plain", 
    "tcATmit_instructional_tags": [], 
    "transcript": "<p><span m='0'>CHRISTINE BREINER:</span> <span m='6830'>Welcome</span> <span m='7280'>to</span> <span m='7360'>recitation.</span> </p><p><span m='8660'>Today</span> <span m='8930'>what</span> <span m='9080'>I'd</span> <span m='9190'>like</span> <span m='9390'>us</span> <span m='9520'>to</span> <span m='9630'>do</span> <span m='9880'>is</span> <span m='10150'>look</span> <span m='10410'>at</span> <span m='11680'>the</span> <span m='11880'>inequality</span> <span m='12500'>tangent</span> <span m='12840'>x</span> <span m='13180'>bigger</span> <span m='13440'>than</span> <span m='13570'>x</span> <span m='14550'>for</span> <span m='14710'>the</span> <span m='15060'>x-values</span> <span m='15300'>between</span> <span m='15630'>0</span> <span m='15900'>and</span> <span m='16010'>pi</span> <span m='16270'>over</span> <span m='16330'>2.</span> <span m='16570'>We</span> <span m='16730'>want</span> <span m='16900'>to</span> <span m='16960'>show</span> <span m='17200'>that</span> <span m='17840'>that</span> <span m='18060'>is</span> <span m='18560'>definitely</span> <span m='19220'>true</span> <span m='20160'>using</span> <span m='20590'>the</span> <span m='20670'>mean</span> <span m='20850'>value</span> <span m='21280'>theorem.</span> <span m='21960'>And</span> <span m='22130'>I</span> <span m='22170'>want</span> <span m='22330'>to</span> <span m='22390'>point</span> <span m='22640'>out</span> <span m='22810'>that</span> <span m='22910'>this</span> <span m='23080'>was</span> <span m='23190'>actually</span> <span m='23570'>something</span> <span m='24080'>that</span> <span m='24280'>Joel</span> <span m='24570'>used</span> <span m='24900'>when</span> <span m='25000'>he</span> <span m='25100'>was</span> <span m='25220'>a</span> <span m='25280'>graphing</span> <span m='25640'>tangent</span> <span m='26200'>x</span> <span m='26560'>and</span> <span m='26760'>arctangent</span> <span m='27240'>x</span> <span m='28020'>on</span> <span m='28220'>the</span> <span m='28310'>same</span> <span m='29610'>xy-plane.</span> <span m='30580'>He</span> <span m='30830'>used</span> <span m='31190'>this</span> <span m='31360'>fact</span> <span m='32500'>in</span> <span m='32630'>order</span> <span m='32860'>to</span> <span m='32970'>get</span> <span m='33140'>the</span> <span m='33500'>right-looking</span> <span m='34420'>graph.</span> </p><p><span m='35220'>So</span> <span m='35440'>what</span> <span m='35570'>I'd</span> <span m='35670'>like</span> <span m='35830'>you</span> <span m='35900'>to</span> <span m='36010'>do,</span> <span m='36190'>again,</span> <span m='36740'>is</span> <span m='36900'>I</span> <span m='36960'>want</span> <span m='37140'>you</span> <span m='37220'>to</span> <span m='37310'>show</span> <span m='37680'>that</span> <span m='37880'>for</span> <span m='38000'>any</span> <span m='38200'>x</span> <span m='38420'>between</span> <span m='38790'>0</span> <span m='39040'>and</span> <span m='39150'>pi</span> <span m='39380'>over</span> <span m='39440'>2,</span> <span m='40130'>tangent</span> <span m='40410'>x</span> <span m='40690'>is</span> <span m='40810'>bigger</span> <span m='41040'>than</span> <span m='41190'>x.</span> <span m='41880'>And</span> <span m='42030'>use</span> <span m='42230'>the</span> <span m='42280'>mean</span> <span m='42500'>value</span> <span m='42640'>theorem</span> <span m='42950'>to</span> <span m='43030'>do</span> <span m='43180'>it.</span> <span m='43620'>I'll</span> <span m='43780'>give</span> <span m='43940'>you</span> <span m='44010'>a</span> <span m='44060'>little</span> <span m='44260'>time</span> <span m='44540'>to</span> <span m='44620'>think</span> <span m='44810'>about</span> <span m='45100'>it,</span> <span m='45260'>to</span> <span m='45350'>work</span> <span m='45560'>on</span> <span m='45740'>it,</span> <span m='45980'>and</span> <span m='46130'>then</span> <span m='46230'>I'll</span> <span m='46320'>be</span> <span m='46410'>back</span> <span m='46720'>and</span> <span m='46830'>we'll</span> <span m='46920'>do</span> <span m='47050'>it</span> <span m='47150'>together.</span> </p><p><span m='56330'>OK.</span> <span m='56580'>Welcome</span> <span m='56890'>back.</span> </p><p><span m='57790'>So</span> <span m='58100'>I'm</span> <span m='58290'>going</span> <span m='58480'>to</span> <span m='58540'>take</span> <span m='58730'>us</span> <span m='58820'>through</span> <span m='59070'>how</span> <span m='59180'>to</span> <span m='59300'>do</span> <span m='59420'>this</span> <span m='59640'>problem.</span> <span m='60400'>And</span> <span m='60800'>what</span> <span m='61020'>I</span> <span m='61100'>want</span> <span m='61280'>to</span> <span m='61360'>do</span> <span m='61820'>is</span> <span m='62040'>I</span> <span m='62160'>want</span> <span m='62350'>to</span> <span m='62410'>point</span> <span m='62650'>out</span> <span m='62760'>a</span> <span m='62800'>few</span> <span m='63020'>things</span> <span m='63410'>initially.</span> <span m='63900'>So</span> <span m='64060'>what</span> <span m='64230'>I'm</span> <span m='64330'>going</span> <span m='64550'>to</span> <span m='64660'>do</span> <span m='64980'>is</span> <span m='65070'>I'm</span> <span m='65160'>going</span> <span m='65310'>to</span> <span m='65380'>remind</span> <span m='65800'>us</span> <span m='66010'>of</span> <span m='66130'>the</span> <span m='66230'>form</span> <span m='66630'>of</span> <span m='66730'>the</span> <span m='66830'>mean</span> <span m='67020'>value</span> <span m='67340'>theorem</span> <span m='67600'>that</span> <span m='67710'>we</span> <span m='67810'>need.</span> <span m='68590'>And</span> <span m='68750'>the</span> <span m='68810'>form</span> <span m='69100'>that</span> <span m='69230'>we</span> <span m='69340'>need</span> <span m='70110'>will</span> <span m='70390'>be</span> <span m='72490'>f</span> <span m='72660'>of</span> <span m='72780'>x</span> <span m='73660'>is</span> <span m='73875'>equal</span> <span m='74090'>to</span> <span m='74170'>f</span> <span m='74370'>of</span> <span m='74450'>a</span> <span m='76060'>plus</span> <span m='76340'>f</span> <span m='76630'>prime</span> <span m='77097'>of</span> <span m='77564'>c</span> <span m='78500'>times</span> <span m='78780'>x</span> <span m='79060'>minus</span> <span m='79260'>a.</span> <span m='80610'>And</span> <span m='80790'>here,</span> <span m='81100'>remember,</span> <span m='83930'>c</span> <span m='84020'>has</span> <span m='84320'>to</span> <span m='84440'>be</span> <span m='84590'>between</span> <span m='86310'>a</span> <span m='87210'>and</span> <span m='87470'>x.</span> </p><p><span m='89420'>So</span> <span m='90020'>in</span> <span m='90270'>this</span> <span m='90470'>case,</span> <span m='91450'>what</span> <span m='91890'>we</span> <span m='92020'>want</span> <span m='92210'>to</span> <span m='92310'>consider</span> <span m='92880'>is</span> <span m='94020'>the</span> <span m='94130'>region</span> <span m='94820'>from</span> <span m='95230'>0</span> <span m='95700'>up</span> <span m='95930'>to</span> <span m='96060'>some</span> <span m='96800'>x-value.</span> <span m='97360'>So always, this is,</span> <span m='98620'>if</span> <span m='98820'>you</span> <span m='98930'>think</span> <span m='99110'>about</span> <span m='99370'>it,</span> <span m='99480'>the</span> <span m='99650'>a</span> <span m='99900'>and</span> <span m='100050'>the</span> <span m='100490'>x,</span> <span m='100680'>well,</span> <span m='100870'>a</span> <span m='101080'>will</span> <span m='101270'>be</span> <span m='101440'>0</span> <span m='103160'>and</span> <span m='103270'>x</span> <span m='103380'>will</span> <span m='103416'>be</span> <span m='103453'>the</span> <span m='103490'>right-hand</span> <span m='103940'>region,</span> <span m='104420'>always</span> <span m='104810'>less</span> <span m='104985'>than</span> <span m='105160'>pi</span> <span m='105320'>over</span> <span m='105500'>2.</span> </p><p><span m='106280'>So</span> <span m='106530'>what</span> <span m='106670'>we</span> <span m='106780'>need</span> <span m='106960'>to</span> <span m='107060'>check</span> <span m='107490'>is,</span> <span m='107660'>I'm</span> <span m='107790'>going</span> <span m='107980'>to</span> <span m='108050'>consider</span> <span m='109180'>f</span> <span m='109450'>of</span> <span m='109620'>x</span> <span m='109790'>equal</span> <span m='110120'>tangent</span> <span m='110480'>x.</span> <span m='112730'>And</span> <span m='112890'>what</span> <span m='113020'>I</span> <span m='113070'>need</span> <span m='113250'>to</span> <span m='113320'>consider</span> <span m='113720'>is,</span> <span m='114930'>does</span> <span m='115440'>tangent</span> <span m='115755'>x</span> <span m='116070'>satisfy</span> <span m='117520'>the</span> <span m='117870'>hypotheses</span> <span m='118630'>of</span> <span m='118730'>the</span> <span m='118800'>mean</span> <span m='118990'>value</span> <span m='119380'>theorem</span> <span m='119780'>on</span> <span m='119910'>the</span> <span m='119980'>region</span> <span m='120280'>of</span> <span m='120370'>interest?</span> <span m='121230'>And</span> <span m='121430'>so</span> <span m='121540'>our</span> <span m='121680'>region</span> <span m='121960'>of</span> <span m='122060'>interest</span> <span m='122440'>will</span> <span m='122520'>always</span> <span m='122910'>be</span> <span m='123930'>a</span> <span m='124195'>equals</span> <span m='124460'>0</span> <span m='125430'>and</span> <span m='125600'>b</span> <span m='125790'>is</span> <span m='125910'>equal</span> <span m='125990'>to</span> <span m='126110'>x,</span> <span m='126670'>which</span> <span m='126920'>is</span> <span m='127050'>less</span> <span m='127250'>than</span> <span m='127390'>some</span> <span m='127790'>pi</span> <span m='127870'>over</span> <span m='127950'>2.</span> </p><p><span m='130390'>And</span> <span m='130890'>it</span> <span m='131060'>is</span> <span m='131190'>true,</span> <span m='131390'>tangent</span> <span m='131600'>x</span> <span m='131890'>is</span> <span m='132070'>continuous</span> <span m='133260'>between</span> <span m='133600'>0</span> <span m='133990'>and</span> <span m='134090'>any</span> <span m='134270'>value</span> <span m='134620'>less</span> <span m='134790'>than</span> <span m='134960'>pi</span> <span m='135120'>over</span> <span m='135300'>2.</span> <span m='135860'>And</span> <span m='136100'>it's</span> <span m='136210'>also</span> <span m='136450'>differentiable</span> <span m='137890'>between</span> <span m='138640'>0</span> <span m='138990'>and</span> <span m='139080'>any</span> <span m='139550'>value</span> <span m='139800'>less</span> <span m='139910'>than</span> <span m='140060'>pi</span> <span m='140155'>over</span> <span m='140250'>2.</span> <span m='140910'>So</span> <span m='141130'>I</span> <span m='141230'>can</span> <span m='141420'>apply</span> <span m='142000'>the</span> <span m='142090'>mean</span> <span m='142240'>value</span> <span m='142570'>theorem</span> <span m='142780'>to</span> <span m='142900'>tangent</span> <span m='143000'>x.</span> </p><p><span m='144670'>So</span> <span m='144940'>in</span> <span m='145040'>order</span> <span m='145280'>to</span> <span m='145380'>do</span> <span m='145530'>this</span> <span m='145690'>now,</span> <span m='145910'>what</span> <span m='146070'>I'd</span> <span m='146180'>like</span> <span m='146350'>to</span> <span m='146460'>see</span> <span m='146680'>is</span> <span m='146830'>what</span> <span m='147010'>kind</span> <span m='147190'>of</span> <span m='147270'>things</span> <span m='147510'>I</span> <span m='147590'>need</span> <span m='150070'>for</span> <span m='150170'>the</span> <span m='150260'>right-hand</span> <span m='150650'>side</span> <span m='151430'>of</span> <span m='151580'>this</span> <span m='151720'>equation.</span> <span m='152520'>So</span> <span m='152740'>I</span> <span m='152800'>obviously</span> <span m='153190'>need</span> <span m='153390'>to</span> <span m='153490'>know</span> <span m='153740'>what</span> <span m='153910'>the</span> <span m='154000'>output</span> <span m='154350'>is</span> <span m='154530'>at</span> <span m='154630'>a,</span> <span m='155060'>which</span> <span m='155260'>is</span> <span m='155340'>equal</span> <span m='155560'>to</span> <span m='155660'>0.</span> <span m='156795'>So</span> <span m='156972'>let's</span> <span m='157150'>recall</span> <span m='157930'>f</span> <span m='158050'>of</span> <span m='158170'>0.</span> <span m='158990'>Well,</span> <span m='159220'>tangent</span> <span m='159630'>0</span> <span m='160120'>is</span> <span m='160250'>0--</span> <span m='160700'>it's</span> <span m='160860'>sine</span> <span m='161055'>of</span> <span m='161250'>0</span> <span m='161570'>divided</span> <span m='161870'>by</span> <span m='161980'>cosine</span> <span m='162210'>of</span> <span m='162440'>0.</span> <span m='163500'>And</span> <span m='163840'>then</span> <span m='163990'>I</span> <span m='164060'>need</span> <span m='164270'>to</span> <span m='164480'>evaluate</span> <span m='165670'>the</span> <span m='165790'>derivative</span> <span m='166870'>somewhere</span> <span m='167500'>between</span> <span m='168630'>a,</span> <span m='168830'>which</span> <span m='169060'>is</span> <span m='169170'>0,</span> <span m='170010'>and</span> <span m='170790'>pi</span> <span m='171020'>over</span> <span m='171240'>2.</span> <span m='172120'>x</span> <span m='172195'>can</span> <span m='172270'>be</span> <span m='172370'>any</span> <span m='172600'>value</span> <span m='172830'>less</span> <span m='172995'>than</span> <span m='173160'>pi</span> <span m='173530'>over</span> <span m='173645'>2.</span> </p><p><span m='173760'>So</span> <span m='174570'>let's</span> <span m='174870'>evaluate</span> <span m='175410'>what</span> <span m='175560'>the</span> <span m='175640'>derivative</span> <span m='176030'>is</span> <span m='176220'>in</span> <span m='176330'>terms</span> <span m='176600'>of</span> <span m='176660'>x.</span> <span m='177940'>We</span> <span m='178080'>did</span> <span m='178270'>this,</span> <span m='178420'>actually,</span> <span m='178800'>in</span> <span m='178975'>another</span> <span m='179150'>recitation.</span> <span m='179880'>The</span> <span m='179980'>derivative</span> <span m='180370'>of</span> <span m='180470'>tangent</span> <span m='180882'>x</span> <span m='182120'>is</span> <span m='182350'>secant</span> <span m='182640'>squared</span> <span m='183010'>x.</span> </p><p><span m='184890'>And</span> <span m='185190'>so</span> <span m='185770'>now</span> <span m='186110'>let's</span> <span m='186380'>plug</span> <span m='186760'>in</span> <span m='186870'>what</span> <span m='187040'>we</span> <span m='187160'>know</span> <span m='188020'>and</span> <span m='188250'>then</span> <span m='188380'>see</span> <span m='188600'>what</span> <span m='188770'>else</span> <span m='188970'>we</span> <span m='189100'>need</span> <span m='190020'>to</span> <span m='190150'>do</span> <span m='190320'>in</span> <span m='190420'>order</span> <span m='190660'>to</span> <span m='190770'>finish</span> <span m='191090'>solving</span> <span m='191410'>this</span> <span m='191530'>problem.</span> </p><p><span m='196230'>OK.</span> <span m='196890'>So</span> <span m='197420'>what</span> <span m='197710'>we</span> <span m='197850'>have.</span> <span m='198710'>f</span> <span m='199020'>of</span> <span m='199120'>x,</span> <span m='199220'>I'm</span> <span m='199340'>actually</span> <span m='199620'>going</span> <span m='199790'>to</span> <span m='199870'>write</span> <span m='200170'>tangent</span> <span m='200600'>x,</span> <span m='200820'>so</span> <span m='200980'>we</span> <span m='201110'>can</span> <span m='201280'>see</span> <span m='201980'>what's</span> <span m='202170'>happening</span> <span m='202620'>here.</span> <span m='203380'>f</span> <span m='203590'>of</span> <span m='203680'>x</span> <span m='203835'>is</span> <span m='203990'>tangent</span> <span m='204400'>x,</span> <span m='205920'>and</span> <span m='206120'>then</span> <span m='206220'>I</span> <span m='206310'>have</span> <span m='206510'>that</span> <span m='206620'>that</span> <span m='206830'>equals,</span> <span m='207910'>well,</span> <span m='208260'>f</span> <span m='208415'>of</span> <span m='208570'>a</span> <span m='208735'>is</span> <span m='208900'>0,</span> <span m='211420'>plus</span> <span m='212400'>f</span> <span m='212690'>prime</span> <span m='212980'>evaluated</span> <span m='213560'>at</span> <span m='213730'>c--</span> <span m='214650'>so</span> <span m='214810'>that's</span> <span m='215040'>going</span> <span m='215260'>to</span> <span m='215340'>be</span> <span m='215470'>secant</span> <span m='215870'>squared</span> <span m='216230'>c--</span> <span m='220580'>times</span> <span m='221040'>x</span> <span m='221500'>minus</span> <span m='221690'>a.</span> <span m='222090'>Well,</span> <span m='222350'>a</span> <span m='222450'>here</span> <span m='222660'>is</span> <span m='222760'>0,</span> <span m='223090'>so</span> <span m='223260'>this</span> <span m='223420'>is</span> <span m='223540'>just</span> <span m='223800'>times</span> <span m='224060'>x.</span> </p><p><span m='226520'>So</span> <span m='227320'>we're</span> <span m='227550'>very</span> <span m='227860'>close.</span> <span m='228480'>We're</span> <span m='228660'>very</span> <span m='228900'>close</span> <span m='229180'>to</span> <span m='229280'>showing</span> <span m='229520'>tangent</span> <span m='229780'>x</span> <span m='230090'>is</span> <span m='230210'>always</span> <span m='230480'>bigger</span> <span m='230700'>than</span> <span m='230850'>x.</span> <span m='231230'>In</span> <span m='231700'>fact,</span> <span m='231980'>you</span> <span m='232080'>can</span> <span m='232220'>see</span> <span m='233020'>very</span> <span m='233340'>easily</span> <span m='233880'>what</span> <span m='234030'>ultimately</span> <span m='234530'>we</span> <span m='234640'>need</span> <span m='234750'>to</span> <span m='234860'>show.</span> <span m='235440'>We</span> <span m='235690'>just</span> <span m='235890'>need</span> <span m='236070'>to</span> <span m='236160'>show</span> <span m='236960'>that</span> <span m='237170'>secant</span> <span m='237580'>squared</span> <span m='237890'>c</span> <span m='238590'>is</span> <span m='238840'>bigger</span> <span m='239120'>than</span> <span m='239290'>1</span> <span m='239590'>in</span> <span m='239680'>our</span> <span m='239800'>region</span> <span m='240080'>of</span> <span m='240170'>interest.</span> <span m='240720'>And</span> <span m='240850'>that</span> <span m='241010'>would</span> <span m='241130'>do</span> <span m='241280'>it,</span> <span m='241490'>because</span> <span m='241800'>then</span> <span m='242010'>this</span> <span m='242220'>would</span> <span m='242360'>be</span> <span m='242490'>bigger</span> <span m='242830'>than</span> <span m='243260'>1</span> <span m='243480'>times</span> <span m='243760'>x.</span> <span m='244810'>The</span> <span m='244940'>right-hand</span> <span m='245290'>side</span> </p><p><span m='245790'>would</span> <span m='246030'>be</span> <span m='246190'>bigger</span> <span m='246340'>than</span> <span m='246560'>1</span> <span m='246780'>times</span> <span m='246900'>x,</span> <span m='247030'>so</span> <span m='247130'>that</span> <span m='247240'>would</span> <span m='247705'>be sufficient.</span> </p><p><span m='248170'>So</span> <span m='248370'>let's</span> <span m='248580'>make</span> <span m='248770'>sure</span> <span m='248960'>we</span> <span m='249080'>understand</span> <span m='249760'>what</span> <span m='249940'>secant</span> <span m='250300'>squared</span> <span m='250610'>c</span> <span m='251490'>can</span> <span m='251670'>look</span> <span m='251910'>like.</span> <span m='252180'>Or</span> <span m='252350'>what</span> <span m='252490'>the</span> <span m='252570'>values</span> <span m='252980'>can</span> <span m='253170'>be.</span> <span m='254530'>So</span> <span m='254920'>we</span> <span m='255100'>have</span> <span m='255400'>c</span> <span m='256250'>is</span> <span m='256520'>between</span> <span m='256960'>0</span> <span m='258440'>and</span> <span m='258670'>x,</span> <span m='259540'>which</span> <span m='259740'>is</span> <span m='259850'>less</span> <span m='260060'>than</span> <span m='260180'>pi</span> <span m='260380'>over</span> <span m='260580'>2. Right?</span> <span m='262430'>That's</span> <span m='262700'>where</span> <span m='262860'>c</span> <span m='263170'>is.</span> <span m='263350'>So</span> <span m='263700'>we</span> <span m='263830'>always</span> <span m='264060'>need</span> <span m='264230'>to</span> <span m='264310'>remember</span> <span m='264820'>what</span> <span m='265090'>values</span> <span m='265800'>c</span> <span m='265930'>could</span> <span m='266070'>possibly</span> <span m='266560'>have.</span> </p><p><span m='267910'>And</span> <span m='268080'>then</span> <span m='268210'>let's</span> <span m='268410'>think</span> <span m='268640'>about</span> <span m='269470'>what</span> <span m='269710'>we</span> <span m='269820'>know</span> <span m='270010'>about</span> <span m='270270'>secant</span> <span m='270410'>of</span> <span m='270470'>c,</span> <span m='271160'>there.</span> <span m='271650'>Well,</span> <span m='272340'>secant</span> <span m='274420'>of</span> <span m='274600'>c</span> <span m='275480'>is</span> <span m='275630'>equal</span> <span m='275910'>to</span> <span m='276040'>1</span> <span m='276290'>over</span> <span m='276530'>cosine</span> <span m='277000'>of</span> <span m='277090'>c.</span> <span m='279400'>So</span> <span m='279600'>if</span> <span m='279645'>you</span> <span m='279690'>can't</span> <span m='279920'>remember</span> <span m='280240'>what</span> <span m='280540'>secant's</span> <span m='281080'>values</span> <span m='281490'>are,</span> <span m='281910'>think</span> <span m='282110'>about</span> <span m='282360'>the</span> <span m='282420'>values</span> <span m='282720'>of</span> <span m='282810'>cosine</span> <span m='283640'>in</span> <span m='283840'>that</span> <span m='284030'>region.</span> <span m='284680'>So</span> <span m='284890'>I'm</span> <span m='284970'>going</span> <span m='285130'>to</span> <span m='285210'>draw</span> <span m='285325'>a</span> <span m='285440'>rough</span> <span m='285740'>sketch</span> <span m='285975'>of</span> <span m='286210'>the</span> <span m='286430'>value</span> <span m='286500'>of</span> <span m='286570'>cosine</span> <span m='287490'>between</span> <span m='287810'>0</span> <span m='288150'>and</span> <span m='288260'>pi</span> <span m='288440'>over</span> <span m='288650'>2.</span> <span m='292179'>The</span> <span m='292630'>value</span> <span m='292940'>of</span> <span m='293240'>cosine</span> <span m='293540'>does</span> <span m='293610'>something</span> <span m='293940'>like</span> <span m='294120'>this.</span> <span m='296250'>This</span> <span m='296580'>is</span> <span m='296680'>0,</span> <span m='297120'>this</span> <span m='297200'>is</span> <span m='297280'>pi</span> <span m='297560'>over</span> <span m='297840'>2.</span> <span m='299040'>This</span> <span m='299110'>is</span> <span m='299180'>a</span> <span m='299250'>very</span> <span m='299560'>rough</span> <span m='299810'>sketch.</span> <span m='301070'>But</span> <span m='301250'>this</span> <span m='301410'>output</span> <span m='301780'>is</span> <span m='301920'>1.</span> </p><p><span m='303310'>So</span> <span m='303490'>between</span> <span m='303870'>0</span> <span m='304280'>and</span> <span m='304440'>pi</span> <span m='304720'>over</span> <span m='304820'>2,</span> <span m='305600'>cosine</span> <span m='306170'>of</span> <span m='306270'>c</span> <span m='306650'>is</span> <span m='306820'>always</span> <span m='307140'>less</span> <span m='307420'>than</span> <span m='307570'>1.</span> <span m='308880'>So</span> <span m='309110'>1</span> <span m='309420'>over</span> <span m='309680'>cosine</span> <span m='309940'>of</span> <span m='310200'>c</span> <span m='310880'>is</span> <span m='311060'>always</span> <span m='311860'>bigger</span> <span m='312130'>than</span> <span m='312320'>1. OK?</span> <span m='314270'>Because</span> <span m='314560'>we're</span> <span m='314680'>taking</span> <span m='315000'>that</span> <span m='315150'>reciprocal</span> <span m='315700'>value.</span> <span m='316120'>So</span> <span m='316320'>again,</span> <span m='317020'>cosine</span> <span m='317285'>of</span> <span m='317550'>c</span> <span m='317910'>from</span> <span m='318120'>0</span> <span m='318430'>to</span> <span m='318530'>pi</span> <span m='318780'>over</span> <span m='318850'>2,</span> <span m='320020'>not</span> <span m='320280'>including</span> <span m='320660'>0,</span> <span m='321010'>is always</span> <span m='321260'>strictly</span> <span m='321640'>less</span> <span m='321930'>than</span> <span m='322080'>1.</span> <span m='322920'>And</span> <span m='323270'>so</span> <span m='323400'>1</span> <span m='323630'>over</span> <span m='323850'>cosine</span> <span m='324300'>c</span> <span m='324470'>is</span> <span m='324590'>always</span> <span m='324780'>strictly</span> <span m='325100'>greater</span> <span m='325390'>than</span> <span m='325560'>1.</span> </p><p><span m='326440'>And</span> <span m='326630'>so</span> <span m='326730'>now</span> <span m='327440'>I</span> <span m='327570'>have</span> <span m='327820'>the</span> <span m='327930'>information</span> <span m='328510'>I</span> <span m='328600'>need</span> <span m='329400'>to</span> <span m='329540'>come</span> <span m='329720'>back</span> <span m='329980'>and</span> <span m='330080'>finish</span> <span m='330360'>the</span> <span m='330470'>problem.</span> <span m='331260'>So</span> <span m='331480'>again,</span> <span m='331710'>we</span> <span m='331780'>were</span> <span m='331900'>looking</span> <span m='332110'>at</span> <span m='332210'>the</span> <span m='332290'>expression,</span> <span m='332820'>we</span> <span m='332910'>have</span> <span m='333030'>tangent</span> <span m='333430'>x</span> <span m='333820'>is</span> <span m='334030'>equal</span> <span m='334300'>to</span> <span m='335450'>secant</span> <span m='336020'>squared</span> <span m='336370'>c</span> <span m='336890'>times</span> <span m='337250'>x.</span> <span m='337930'>Well,</span> <span m='338220'>now</span> <span m='338430'>I</span> <span m='338500'>know</span> <span m='338670'>secant</span> <span m='338930'>c</span> <span m='339350'>is</span> <span m='339490'>bigger</span> <span m='339730'>than</span> <span m='339910'>1,</span> <span m='340690'>so</span> <span m='340910'>now</span> <span m='341140'>I</span> <span m='341220'>know</span> <span m='341380'>this</span> <span m='341570'>whole</span> <span m='341750'>thing</span> <span m='342010'>is</span> <span m='342140'>bigger</span> <span m='342430'>than</span> <span m='343400'>1</span> <span m='343810'>times</span> <span m='344150'>x,</span> <span m='345140'>which</span> <span m='345330'>is</span> <span m='345460'>just</span> <span m='345680'>equal</span> <span m='346000'>to</span> <span m='346250'>x.</span> </p><p><span m='347220'>So</span> <span m='347440'>if</span> <span m='347490'>you</span> <span m='347540'>noticed,</span> <span m='348130'>on</span> <span m='348210'>the</span> <span m='348290'>left-hand</span> <span m='348790'>side</span> <span m='349080'>we</span> <span m='349170'>have</span> <span m='349270'>a</span> <span m='349330'>tangent</span> <span m='349780'>x</span> <span m='350720'>equals</span> <span m='351340'>something</span> <span m='351850'>which</span> <span m='352020'>is</span> <span m='352140'>bigger</span> <span m='352480'>than</span> <span m='353610'>x.</span> <span m='354860'>So</span> <span m='355050'>we've</span> <span m='355190'>just</span> <span m='355490'>shown</span> <span m='356560'>that,</span> <span m='356740'>for</span> <span m='356840'>any</span> <span m='356990'>value</span> <span m='357260'>of</span> <span m='357460'>x</span> <span m='357660'>between</span> <span m='358170'>0</span> <span m='358510'>and</span> <span m='358650'>pi</span> <span m='358940'>over</span> <span m='359020'>2,</span> <span m='359990'>tangent</span> <span m='360430'>x</span> <span m='361360'>is</span> <span m='361540'>bigger</span> <span m='361790'>than</span> <span m='361980'>x.</span> </p><p><span m='363290'>And</span> <span m='363420'>I</span> <span m='363480'>think</span> <span m='363670'>we'll</span> <span m='363760'>stop</span> <span m='363980'>there.</span> </p>", 
    "_content_type_link_text": "text/plain", 
    "course_linking": [], 
    "_id": "comparing-functions-using-the-mvt", 
    "modification_date": "2016/09/25 01:19:36.310 GMT-4", 
    "media_index": [], 
    "always_publish": false, 
    "_owner": null, 
    "_permissions": {
        "Change portal events": {
            "acquire": false, 
            "roles": [
                "Editor", 
                "Manager", 
                "MetadataEditor", 
                "Owner"
            ]
        }, 
        "Modify portal content": {
            "acquire": false, 
            "roles": [
                "Manager", 
                "MetadataEditor"
            ]
        }, 
        "Access contents information": {
            "acquire": false, 
            "roles": [
                "Authenticated"
            ]
        }, 
        "List folder contents": {
            "acquire": false, 
            "roles": [
                "Editor", 
                "Manager", 
                "MetadataEditor", 
                "Owner"
            ]
        }, 
        "View": {
            "acquire": false, 
            "roles": [
                "Authenticated"
            ]
        }
    }, 
    "_properties": [
        [
            "title", 
            "Comparing Functions Using the MVT", 
            "string"
        ]
    ], 
    "creators": [
        "pgandhi3"
    ], 
    "courselist_features": [], 
    "_path": "/Plone/courses/mathematics/18-01sc-single-variable-calculus-fall-2010/unit-2-applications-of-differentiation/part-c-mean-value-theorem-antiderivatives-and-differential-equations/session-35-using-the-mean-value-theorem/comparing-functions-using-the-mvt"
}