{
    "rsi_top_html_area": "", 
    "text": "", 
    "_content_type_license": "text/plain", 
    "_uid": "be498b0d9f8809c4b6e93a17ac0e9038", 
    "title": "xy'=(x2+x)(y2+1)", 
    "_ac_local_roles": {
        "sbabbar": [
            "Owner"
        ]
    }, 
    "template_type": "Embed", 
    "location": "", 
    "_content_type_course_identifier": "text/plain", 
    "_atbrefs": {}, 
    "constrainTypesMode": 0, 
    "_content_type_section_identifier": "text/plain", 
    "technical_location": "https://ocw.mit.edu/courses/mathematics/18-01sc-single-variable-calculus-fall-2010/unit-2-applications-of-differentiation/part-c-mean-value-theorem-antiderivatives-and-differential-equations/session-40-separation-of-variables/xy-x2-x-y2-1", 
    "software_requirements": [
        {
            "software_type_col": "Browser", 
            "minimum_version_col": "40.0", 
            "software_name_col": "Chrome", 
            "maximum_version_col": ""
        }, 
        {
            "software_type_col": "Browser", 
            "minimum_version_col": "8.0", 
            "software_name_col": "Safari", 
            "maximum_version_col": ""
        }, 
        {
            "software_type_col": "Browser", 
            "minimum_version_col": "38.0", 
            "software_name_col": "Mozilla Firefox", 
            "maximum_version_col": ""
        }, 
        {
            "software_type_col": "Browser", 
            "minimum_version_col": "9.0", 
            "software_name_col": "Internet Explorer", 
            "maximum_version_col": ""
        }, 
        {
            "software_type_col": "Browser", 
            "minimum_version_col": "13.1", 
            "software_name_col": "Edge", 
            "maximum_version_col": ""
        }
    ], 
    "_content_type_technical_location": "text/plain", 
    "start_time": "", 
    "_content_type_rights": "text/html", 
    "_directly_provided": [
        "Products.CMFEditions.interfaces.IVersioned"
    ], 
    "media_rights": "(CC BY-NC-SA)", 
    "parent_uid": "6e674d24154a95a2d7b4dac2db7d6427", 
    "excludeFromNav": false, 
    "about_this_resource_text": "", 
    "_content_type_unique_identifier": "text/plain", 
    "end_time": "", 
    "allowDiscussion": false, 
    "_content_type_materialtype": "text/plain", 
    "locallyAllowedTypes": [
        "OCWImage", 
        "OCWFile", 
        "OCWMediaAsset"
    ], 
    "optional_tab_title": "", 
    "ad_type": "HOUSE", 
    "creation_date": "2015/12/22 04:41:16.441 US/Eastern", 
    "aggregationlevel": 2, 
    "bottom_html_area": "", 
    "duration": "", 
    "immediatelyAddableTypes": [
        "OCWImage", 
        "OCWFile", 
        "OCWMediaAsset"
    ], 
    "_content_type_template_type": "text/plain", 
    "subject": [], 
    "_content_type_short_page_title": "text/plain", 
    "effectiveDate": "2015/12/29 02:54:21.403 US/Eastern", 
    "parent_module": "bfe41979b9593362793fd930b36efa01", 
    "is_mathml_document": false, 
    "bottomtext": "", 
    "short_page_title": "xy'=(x2+x)(y2+1)", 
    "section_identifier": "https://ocw.mit.edu/courses/mathematics/18-01sc-single-variable-calculus-fall-2010/unit-2-applications-of-differentiation", 
    "show_captions_outside_player": false, 
    "related_mit_links": "", 
    "_content_type_ad_type": "text/plain", 
    "_layout": "custom_view", 
    "_workflow_history": {
        "page_workflow": [
            {
                "action": null, 
                "review_state": "waiting_for_authoring", 
                "comments": "", 
                "actor": "sbabbar", 
                "time": "2015/12/22 04:41:16.457 US/Eastern"
            }, 
            {
                "action": "approve_to_staging", 
                "review_state": "ready_for_staging", 
                "actor": "sbabbar", 
                "comments": "", 
                "time": "2015/12/29 02:54:21.458 US/Eastern"
            }
        ]
    }, 
    "_content_type_transcript": "text/html", 
    "metadata_contributor_list": [], 
    "_userdefined_roles": [], 
    "_content_type_inline_embed_id": "text/plain", 
    "publisher": "MIT OpenCourseWare", 
    "nextPreviousEnabled": false, 
    "_gopip": 11, 
    "license": "http://creativecommons.org/licenses/by-nc-sa/3.0/us/", 
    "url_rewrite_patterns": [], 
    "widgets_features": [], 
    "category_features": [], 
    "resource_contributor_list": [
        {
            "res_contributor_entity": "Jerison, David", 
            "res_contributor_uid": "b28f05bbf3c3b44d28bc8f11fc7834cd", 
            "res_contributor_role": "Performer"
        }
    ], 
    "show_jump_back_5_seconds_button": false, 
    "firstTimeEdit": false, 
    "_content_type_media_rights": "text/plain", 
    "feature_requirements": [], 
    "list_in_left_nav": false, 
    "inline_embed_id": "4754619xy'=(x2+x)(y2+1)32798347", 
    "_classname": "MediaResource", 
    "short_name_tlp": "", 
    "expirationDate": "None", 
    "_content_type_id": "text/plain", 
    "contributor_list": [
        {}
    ], 
    "is_media_gallery": false, 
    "contributors": [], 
    "media_locations": [
        {}
    ], 
    "_content_type_media_resource_type": "text/plain", 
    "_content_type_title": "text/plain", 
    "subtitle_exemption": "None", 
    "_content_type": "text/html", 
    "resource_index_text": "", 
    "_atrefs": {
        "BelongsTo": [
            "bfe41979b9593362793fd930b36efa01"
        ]
    }, 
    "media_slides": [], 
    "other_platform_requirements": "", 
    "language": "", 
    "rights": "This site (c) Massachusetts Institute of Technology 2015.  Content within individual courses is (c) by the individual authors unless otherwise noted. The Massachusetts Institute of Technology is providing this Work (as defined below) under the terms of this Creative Commons public license (\"CCPL\" or \"license\") unless otherwise noted. The Work is protected by copyright and/or other applicable law. Any use of the work other than as authorized under this license is prohibited. By exercising any of the rights to the Work provided here, You (as defined below) accept and agree to be bound by the terms of this license. The Licensor, the Massachusetts Institute of Technology, grants You the rights contained here in consideration of Your acceptance of such terms and conditions.", 
    "hide_Page_title": false, 
    "_defaultpage": "", 
    "related_resources_text": "", 
    "tcATmit_subject_tags": [], 
    "features_tracking": [], 
    "ad_champion_text": "", 
    "has_inline_embed": false, 
    "unique_identifier": "https://ocw.mit.edu/courses/mathematics/18-01sc-single-variable-calculus-fall-2010/unit-2-applications-of-differentiation/part-c-mean-value-theorem-antiderivatives-and-differential-equations/session-40-separation-of-variables/xy-x2-x-y2-1", 
    "link_text": "xy'=(x2+x)(y2+1)", 
    "is_image_gallery": false, 
    "id": "xy-x2-x-y2-1", 
    "_content_type_subtitle_exemption": "text/plain", 
    "materialtype": "Other", 
    "optional_text": "", 
    "_type": "MediaResource", 
    "description": "", 
    "media_resource_type": "Video", 
    "course_identifier": "https://ocw.mit.edu/courses/mathematics/18-01sc-single-variable-calculus-fall-2010", 
    "_content_type_publisher": "text/plain", 
    "tcATmit_instructional_tags": [], 
    "transcript": "<p><span m='7280'>PROFESSOR: Welcome</span> <span m='7650'>back</span> <span m='7820'>to</span> <span m='7910'>recitation.</span> <span m='9110'>In</span> <span m='9340'>this</span> <span m='9490'>video</span> <span m='9980'>what</span> <span m='10220'>we'd</span> <span m='10360'>like</span> <span m='10550'>to</span> <span m='10660'>do</span> <span m='11300'>is</span> <span m='11640'>to solve</span> <span m='11840'>a</span> <span m='12270'>certain</span> <span m='12520'>differential</span> <span m='12980'>equation.</span> <span m='13500'>And</span> <span m='13710'>I'm</span> <span m='13830'>not</span> <span m='14290'>even</span> <span m='14510'>giving</span> <span m='14730'>you</span> <span m='14850'>initial</span> <span m='15130'>condition.</span> <span m='15660'>So</span> <span m='15830'>we</span> <span m='15960'>just</span> <span m='16130'>want</span> <span m='16250'>to</span> <span m='16310'>find</span> <span m='16640'>a</span> <span m='16680'>y,</span> <span m='17620'>such</span> <span m='17900'>that</span> <span m='18195'>x</span> <span m='18490'>times</span> <span m='18830'>dy/dx</span> <span m='19840'>is</span> <span m='20030'>equal</span> <span m='20230'>to</span> <span m='20510'>x squared</span> <span m='20690'>plus</span> <span m='20910'>x</span> <span m='21810'>times</span> <span m='22120'>y</span> <span m='22330'>squared</span> <span m='22660'>plus</span> <span m='22880'>1.</span> <span m='23480'>So I'll</span> <span m='23660'>give</span> <span m='23810'>you a</span> <span m='23890'>minute to</span> <span m='24180'>think</span> <span m='24350'>about</span> <span m='24580'>it</span> <span m='24760'>and then</span> <span m='24940'>I'll</span> <span m='25110'>be</span> <span m='25200'>back.</span> </p><p><span m='34120'>Welcome</span> <span m='34520'>back.</span> <span m='35450'>I'm</span> <span m='35690'>going</span> <span m='35920'>to</span> <span m='36010'>use</span> <span m='36610'>the</span> <span m='36780'>technique</span> <span m='37210'>of</span> <span m='37310'>separation</span> <span m='37850'>of</span> <span m='37920'>variables</span> <span m='38500'>to</span> <span m='38610'>solve</span> <span m='38890'>this</span> <span m='39040'>differential</span> <span m='39480'>equation</span> <span m='39910'>problem.</span> <span m='40620'>Hopefully</span> <span m='41080'>you</span> <span m='41190'>thought</span> <span m='41380'>about</span> <span m='41610'>doing</span> <span m='41820'>that</span> <span m='42000'>as</span> <span m='42110'>well.</span> <span m='42470'>Because</span> <span m='42740'>it's</span> <span m='42860'>really</span> <span m='43270'>set</span> <span m='43540'>up</span> <span m='43670'>nicely</span> <span m='44090'>for</span> <span m='44250'>separation</span> <span m='44820'>of</span> <span m='44890'>variables.</span> </p><p><span m='45930'>So</span> <span m='46150'>let</span> <span m='46370'>me</span> <span m='46840'>let</span> <span m='47000'>me</span> <span m='47420'>first</span> <span m='48830'>get</span> <span m='49030'>all</span> <span m='50320'>of</span> <span m='50450'>the values, or</span> <span m='50970'>terms</span> <span m='51350'>that</span> <span m='51460'>involve</span> <span m='51790'>y</span> <span m='52170'>on</span> <span m='52380'>the</span> <span m='52460'>left-hand</span> <span m='52880'>side.</span> <span m='53450'>And</span> <span m='53660'>then</span> <span m='53900'>I'm</span> <span m='54090'>going</span> <span m='54310'>to</span> <span m='54420'>move</span> <span m='54600'>the</span> <span m='54700'>dx</span> <span m='55680'>to</span> <span m='55800'>the</span> <span m='55870'>right-hand</span> <span m='56180'>side</span> <span m='56420'>and</span> <span m='56700'>get</span> <span m='56800'>all</span> <span m='56930'>the</span> <span m='57050'>terms</span> <span m='57550'>that</span> <span m='58410'>involve</span> <span m='58730'>x</span> <span m='59030'>to</span> <span m='59140'>the</span> <span m='59220'>right-hand</span> <span m='59590'>side.</span> <span m='60390'>So</span> <span m='60720'>I'm</span> <span m='60900'>going</span> <span m='61140'>to</span> <span m='61240'>write</span> <span m='62520'>dy</span> <span m='63430'>divided</span> <span m='63780'>by</span> <span m='63910'>y</span> <span m='64130'>squared</span> <span m='64510'>plus</span> <span m='64730'>1</span> <span m='66600'>is</span> <span m='66830'>equal</span> <span m='67150'>to--</span> <span m='68100'>so</span> <span m='68240'>I'm</span> <span m='68330'>going</span> <span m='68560'>to</span> <span m='69180'>multiply</span> <span m='69670'>through</span> <span m='69920'>by</span> <span m='70090'>dx</span> <span m='70490'>divided</span> <span m='70840'>by</span> <span m='71020'>x.</span> <span m='71800'>So  I'm going to</span> <span m='72220'>get</span> <span m='72470'>x squared</span> <span m='73040'>plus</span> <span m='73436'>x</span> <span m='74230'>over</span> <span m='74490'>x</span> <span m='74900'>dx.</span> </p><p><span m='76200'>Now</span> <span m='77370'>if x is</span> <span m='77780'>0,</span> <span m='78070'>I</span> <span m='78140'>have</span> <span m='78280'>a</span> <span m='78320'>little</span> <span m='78490'>problem</span> <span m='78900'>but</span> <span m='78990'>we're</span> <span m='79110'>going</span> <span m='79300'>to</span> <span m='79360'>ignore</span> <span m='79620'>that</span> <span m='79860'>for</span> <span m='79980'>the</span> <span m='80040'>moment.</span> <span m='80540'>So</span> <span m='81270'>I</span> <span m='81400'>can</span> <span m='81550'>rewrite</span> <span m='81970'>this</span> <span m='82760'>as</span> <span m='83120'>x</span> <span m='83890'>plus</span> <span m='84180'>1</span> <span m='85690'>dx.</span> <span m='87420'>And</span> <span m='87600'>now</span> <span m='87780'>I'm</span> <span m='87920'>totally</span> <span m='88280'>set</span> <span m='88510'>up</span> <span m='89300'>with</span> <span m='89590'>my</span> <span m='90580'>next</span> <span m='90820'>step</span> <span m='91040'>in</span> <span m='91150'>separation</span> <span m='91600'>of</span> <span m='91670'>variables</span> <span m='92160'>and</span> <span m='92320'>so</span> <span m='92400'>I</span> <span m='92470'>can</span> <span m='92600'>integrate</span> <span m='93000'>both</span> <span m='93210'>sides.</span> </p><p><span m='94340'>So</span> <span m='94790'>let's</span> <span m='95110'>see</span> <span m='95240'>what</span> <span m='95400'>happens</span> <span m='95830'>when</span> <span m='95950'>I</span> <span m='96030'>integrate</span> <span m='96950'>the</span> <span m='97060'>left-hand</span> <span m='97490'>side. OK?</span> <span m='100370'>What</span> <span m='100700'>is</span> <span m='100790'>an</span> <span m='100870'>antiderivative</span> <span m='101680'>to</span> <span m='101990'>1</span> <span m='102340'>over</span> <span m='102560'>y</span> <span m='102730'>squared</span> <span m='103000'>plus</span> <span m='103200'>1?</span> <span m='104020'>Well</span> <span m='104330'>that's</span> <span m='105100'>arctangent, that's arctangent</span> <span m='106820'>of</span> <span m='107270'>y.</span> <span m='107580'>So</span> <span m='107770'>the</span> <span m='107940'>derivative</span> <span m='108310'>of</span> <span m='108520'>arctangent</span> <span m='108910'>of</span> <span m='109080'>y</span> <span m='109510'>is</span> <span m='110100'>1</span> <span m='110310'>over</span> <span m='110540'>y</span> <span m='110760'>squared</span> <span m='111010'>plus</span> <span m='111240'>1.</span> <span m='111640'>And</span> <span m='111790'>so</span> <span m='111920'>on</span> <span m='112080'>the</span> <span m='112210'>left-hand</span> <span m='112710'>side</span> <span m='113060'>I</span> <span m='113170'>get</span> <span m='113350'>arctan</span> <span m='113710'>y.</span> </p><p><span m='121790'>If</span> <span m='122010'>you</span> <span m='122670'>wrote</span> <span m='122970'>tangent</span> <span m='123600'>to</span> <span m='123690'>the</span> <span m='123760'>minus</span> <span m='124090'>1</span> <span m='124520'>y,</span> <span m='125680'>that's</span> <span m='125980'>the</span> <span m='126070'>same</span> <span m='126340'>thing,</span> <span m='126610'>the</span> <span m='126700'>inverse</span> <span m='127070'>tangent</span> <span m='127500'>of</span> <span m='127580'>y,</span> <span m='127820'>that's</span> <span m='128040'>the</span> <span m='128130'>same</span> <span m='128370'>thing.</span> <span m='129570'>And</span> <span m='129720'>on</span> <span m='129820'>the</span> <span m='129900'>right-hand</span> <span m='130350'>side</span> <span m='130620'>what</span> <span m='130750'>do</span> <span m='130810'>I</span> <span m='130930'>get?</span> <span m='131570'>Well</span> <span m='131840'>this</span> <span m='132000'>is</span> <span m='132080'>a</span> <span m='132140'>nice</span> <span m='132410'>easy</span> <span m='133400'>thing</span> <span m='133610'>to</span> <span m='133730'>integrate.</span> <span m='135360'>When</span> <span m='135490'>I</span> <span m='135530'>integrate</span> <span m='135700'>x,</span> <span m='136160'>I</span> <span m='136240'>get</span> <span m='136430'>x</span> <span m='136610'>squared</span> <span m='136890'>over</span> <span m='137050'>2.</span> <span m='137960'>And</span> <span m='138280'>here</span> <span m='138440'>I</span> <span m='138510'>just</span> <span m='138720'>get</span> <span m='138850'>an</span> <span m='138890'>x.</span> <span m='139320'>And</span> <span m='139460'>then</span> <span m='139570'>I</span> <span m='139630'>should</span> <span m='139810'>add</span> <span m='140000'>in</span> <span m='140090'>my</span> <span m='140220'>constants.</span> <span m='142610'>So</span> <span m='143240'>x squared</span> <span m='143540'>over</span> <span m='143840'>2</span> <span m='145000'>plus</span> <span m='145260'>x</span> <span m='146080'>plus</span> <span m='146430'>a</span> <span m='146510'>constant.</span> </p><p><span m='147780'>So this is, so</span> <span m='149200'>far</span> <span m='149580'>I'm</span> <span m='150400'>doing</span> <span m='150660'>everything</span> <span m='151070'>OK.</span> <span m='151390'>Now</span> <span m='151620'>I</span> <span m='151720'>need</span> <span m='151900'>to</span> <span m='151990'>figure</span> <span m='152230'>out</span> <span m='152340'>how</span> <span m='152440'>to</span> <span m='152510'>isolate</span> <span m='152980'>the</span> <span m='153060'>y.</span> <span m='153600'>Well</span> <span m='153940'>arctan</span> <span m='154380'>y</span> <span m='154730'>is</span> <span m='154900'>the</span> <span m='155030'>inverse</span> <span m='155400'>of</span> <span m='155490'>the</span> <span m='155570'>tangent</span> <span m='155910'>function.</span> <span m='156870'>So</span> <span m='157130'>if</span> <span m='157220'>I</span> <span m='157310'>want</span> <span m='157530'>to</span> <span m='157660'>isolate</span> <span m='158340'>y</span> <span m='158770'>I</span> <span m='158880'>have</span> <span m='159080'>to</span> <span m='159210'>take</span> <span m='159390'>the</span> <span m='159450'>tangent</span> <span m='159860'>of</span> <span m='159930'>both</span> <span m='160130'>sides.</span> <span m='160950'>So  when</span> <span m='161150'>I</span> <span m='161230'>take</span> <span m='161420'>tangent</span> <span m='161880'>of</span> <span m='161970'>arctangent</span> <span m='162350'>of</span> <span m='162490'>y</span> <span m='162870'>I</span> <span m='162910'>just get</span> <span m='163140'>y.</span> <span m='164200'>Then</span> <span m='164320'>over</span> <span m='164490'>here,</span> <span m='164740'>I</span> <span m='164810'>get</span> <span m='165000'>tangent</span> <span m='166340'>of</span> <span m='166610'>x squared</span> <span m='167070'>over</span> <span m='167320'>2</span> <span m='168470'>plus</span> <span m='168720'>x</span> <span m='169660'>plus</span> <span m='169780'>C.</span> </p><p><span m='172140'>And</span> <span m='172410'>now</span> <span m='172700'>because</span> <span m='172990'>I</span> <span m='173060'>didn't</span> <span m='173270'>give</span> <span m='173380'>you</span> <span m='173490'>any</span> <span m='173640'>initial</span> <span m='173970'>conditions,</span> <span m='174430'>we</span> <span m='174530'>can't</span> <span m='174740'>say</span> <span m='174880'>anything</span> <span m='175190'>about</span> <span m='175470'>C.</span> <span m='176370'>But</span> <span m='176710'>if</span> <span m='176820'>I</span> <span m='176890'>gave</span> <span m='177080'>you</span> <span m='177160'>some</span> <span m='177300'>initial</span> <span m='177590'>conditions</span> <span m='178140'>then</span> <span m='178260'>we</span> <span m='178350'>could</span> <span m='178470'>evaluate</span> <span m='179040'>and</span> <span m='179240'>solve</span> <span m='179470'>for</span> <span m='179750'>C.</span> <span m='180510'>Now</span> <span m='180620'>how</span> <span m='180760'>do</span> <span m='180870'>I</span> <span m='180970'>go</span> <span m='181120'>about</span> <span m='181340'>checking</span> <span m='181740'>to</span> <span m='181860'>make</span> <span m='182070'>sure</span> <span m='182240'>that</span> <span m='182440'>this</span> <span m='182620'>works?</span> <span m='183030'>Well,</span> <span m='183300'>what</span> <span m='183450'>I</span> <span m='183560'>do</span> <span m='183800'>is</span> <span m='183930'>actually</span> <span m='184210'>take</span> <span m='184390'>the</span> <span m='184470'>derivative.</span> <span m='185330'>So</span> <span m='185650'>you</span> <span m='185870'>may</span> <span m='186250'>want</span> <span m='186610'>to</span> <span m='186790'>take</span> <span m='187010'>the</span> <span m='187090'>derivative</span> <span m='188020'>of</span> <span m='189000'>the</span> <span m='189090'>right-hand</span> <span m='189480'>side,</span> <span m='189800'>take</span> <span m='190130'>dy/dx.</span> <span m='191410'>Evaluate</span> <span m='192390'>what</span> <span m='192610'>that</span> <span m='192830'>is</span> <span m='193110'>when</span> <span m='193340'>you</span> <span m='193410'>have</span> <span m='194340'>y</span> <span m='194630'>equals</span> <span m='194760'>tangent</span> <span m='195180'>of</span> <span m='195270'>x squared</span> <span m='195590'>over</span> <span m='195740'>2</span> <span m='196030'>plus</span> <span m='196300'>x</span> <span m='196570'>plus C</span> <span m='197300'>and</span> <span m='197690'>see</span> <span m='197840'>if</span> <span m='197950'>you</span> <span m='198050'>in</span> <span m='198150'>fact</span> <span m='198430'>get</span> <span m='200140'>the</span> <span m='200250'>relationship</span> <span m='200780'>you're</span> <span m='200900'>supposed</span> <span m='201180'>to</span> <span m='201250'>get.</span> <span m='202220'>But</span> <span m='202360'>I'll</span> <span m='202450'>stop</span> <span m='202680'>there.</span> </p>", 
    "_content_type_link_text": "text/plain", 
    "course_linking": [], 
    "_id": "xy-x2-x-y2-1", 
    "modification_date": "2016/09/25 01:18:45.528 GMT-4", 
    "media_index": [], 
    "always_publish": false, 
    "_owner": null, 
    "_permissions": {
        "Change portal events": {
            "acquire": false, 
            "roles": [
                "Editor", 
                "Manager", 
                "MetadataEditor", 
                "Owner"
            ]
        }, 
        "Modify portal content": {
            "acquire": false, 
            "roles": [
                "Manager", 
                "MetadataEditor"
            ]
        }, 
        "Access contents information": {
            "acquire": false, 
            "roles": [
                "Authenticated"
            ]
        }, 
        "List folder contents": {
            "acquire": false, 
            "roles": [
                "Editor", 
                "Manager", 
                "MetadataEditor", 
                "Owner"
            ]
        }, 
        "View": {
            "acquire": false, 
            "roles": [
                "Authenticated"
            ]
        }
    }, 
    "_properties": [
        [
            "title", 
            "xy'=(x2+x)(y2+1)", 
            "string"
        ]
    ], 
    "creators": [
        "sbabbar"
    ], 
    "courselist_features": [], 
    "_path": "/Plone/courses/mathematics/18-01sc-single-variable-calculus-fall-2010/unit-2-applications-of-differentiation/part-c-mean-value-theorem-antiderivatives-and-differential-equations/session-40-separation-of-variables/xy-x2-x-y2-1"
}