{
    "rsi_top_html_area": "", 
    "text": "", 
    "_content_type_license": "text/plain", 
    "_uid": "2efd24dfbef2645b2eaa7a3ccea57d57", 
    "title": "y\"=6x", 
    "_ac_local_roles": {
        "Jcplayer": [
            "Owner"
        ]
    }, 
    "template_type": "Embed", 
    "location": "", 
    "_content_type_course_identifier": "text/plain", 
    "_atbrefs": {}, 
    "constrainTypesMode": 0, 
    "_content_type_section_identifier": "text/plain", 
    "technical_location": "https://ocw.mit.edu/courses/mathematics/18-01sc-single-variable-calculus-fall-2010/unit-2-applications-of-differentiation/part-c-mean-value-theorem-antiderivatives-and-differential-equations/session-40-separation-of-variables/y-6x-1", 
    "software_requirements": [
        {
            "software_type_col": "Browser", 
            "minimum_version_col": "40.0", 
            "software_name_col": "Chrome", 
            "maximum_version_col": ""
        }, 
        {
            "software_type_col": "Browser", 
            "minimum_version_col": "8.0", 
            "software_name_col": "Safari", 
            "maximum_version_col": ""
        }, 
        {
            "software_type_col": "Browser", 
            "minimum_version_col": "38.0", 
            "software_name_col": "Mozilla Firefox", 
            "maximum_version_col": ""
        }, 
        {
            "software_type_col": "Browser", 
            "minimum_version_col": "9.0", 
            "software_name_col": "Internet Explorer", 
            "maximum_version_col": ""
        }, 
        {
            "software_type_col": "Browser", 
            "minimum_version_col": "13.1", 
            "software_name_col": "Edge", 
            "maximum_version_col": ""
        }
    ], 
    "_content_type_technical_location": "text/plain", 
    "start_time": "", 
    "_content_type_rights": "text/html", 
    "_directly_provided": [
        "Products.CMFEditions.interfaces.IVersioned"
    ], 
    "media_rights": "(CC BY-NC-SA)", 
    "parent_uid": "6e674d24154a95a2d7b4dac2db7d6427", 
    "excludeFromNav": false, 
    "about_this_resource_text": "", 
    "_content_type_unique_identifier": "text/plain", 
    "end_time": "", 
    "allowDiscussion": false, 
    "_content_type_materialtype": "text/plain", 
    "locallyAllowedTypes": [
        "OCWImage", 
        "OCWFile", 
        "OCWMediaAsset"
    ], 
    "optional_tab_title": "", 
    "ad_type": "HOUSE", 
    "creation_date": "2016/08/09 14:29:01.163 GMT-4", 
    "aggregationlevel": 2, 
    "bottom_html_area": "", 
    "duration": "", 
    "immediatelyAddableTypes": [
        "OCWImage", 
        "OCWFile", 
        "OCWMediaAsset"
    ], 
    "_content_type_template_type": "text/plain", 
    "subject": [], 
    "_content_type_short_page_title": "text/plain", 
    "effectiveDate": "2016/08/09 14:31:50.526 GMT-4", 
    "parent_module": "bfe41979b9593362793fd930b36efa01", 
    "is_mathml_document": false, 
    "bottomtext": "", 
    "short_page_title": "y\"=6x", 
    "section_identifier": "https://ocw.mit.edu/courses/mathematics/18-01sc-single-variable-calculus-fall-2010/unit-2-applications-of-differentiation", 
    "show_captions_outside_player": false, 
    "related_mit_links": "", 
    "_content_type_ad_type": "text/plain", 
    "_layout": "custom_view", 
    "_workflow_history": {
        "page_workflow": [
            {
                "action": null, 
                "review_state": "waiting_for_authoring", 
                "comments": "", 
                "actor": "Jcplayer", 
                "time": "2016/08/09 14:29:01.175 GMT-4"
            }, 
            {
                "action": "approve_to_staging", 
                "review_state": "ready_for_staging", 
                "actor": "Jcplayer", 
                "comments": "", 
                "time": "2016/08/09 14:31:50.548 GMT-4"
            }, 
            {
                "action": "decline_to_qa", 
                "review_state": "waiting_for_qa", 
                "actor": "Jcplayer", 
                "comments": "", 
                "time": "2016/08/09 14:32:27.941 GMT-4"
            }, 
            {
                "action": "approve_to_staging", 
                "review_state": "ready_for_staging", 
                "actor": "Jcplayer", 
                "comments": "", 
                "time": "2016/08/09 14:32:56.536 GMT-4"
            }
        ]
    }, 
    "_content_type_transcript": "text/html", 
    "metadata_contributor_list": [], 
    "_userdefined_roles": [], 
    "_content_type_inline_embed_id": "text/plain", 
    "publisher": "MIT OpenCourseWare", 
    "nextPreviousEnabled": false, 
    "_gopip": 12, 
    "license": "http://creativecommons.org/licenses/by-nc-sa/3.0/us/", 
    "url_rewrite_patterns": [], 
    "widgets_features": [], 
    "category_features": [], 
    "resource_contributor_list": [
        {
            "res_contributor_entity": "Jerison, David", 
            "res_contributor_uid": "b28f05bbf3c3b44d28bc8f11fc7834cd", 
            "res_contributor_role": "Performer"
        }
    ], 
    "show_jump_back_5_seconds_button": false, 
    "firstTimeEdit": false, 
    "_content_type_media_rights": "text/plain", 
    "feature_requirements": [], 
    "list_in_left_nav": false, 
    "inline_embed_id": "60494307y=6x84583184", 
    "_classname": "MediaResource", 
    "short_name_tlp": "", 
    "expirationDate": "None", 
    "_content_type_id": "text/plain", 
    "contributor_list": [
        {}
    ], 
    "is_media_gallery": false, 
    "contributors": [], 
    "media_locations": [
        {}
    ], 
    "_content_type_media_resource_type": "text/plain", 
    "_content_type_title": "text/plain", 
    "subtitle_exemption": "None", 
    "_content_type": "text/html", 
    "resource_index_text": "", 
    "_atrefs": {
        "BelongsTo": [
            "bfe41979b9593362793fd930b36efa01"
        ]
    }, 
    "media_slides": [], 
    "other_platform_requirements": "", 
    "language": "", 
    "rights": "This site (c) Massachusetts Institute of Technology 2016.  Content within individual courses is (c) by the individual authors unless otherwise noted. The Massachusetts Institute of Technology is providing this Work (as defined below) under the terms of this Creative Commons public license (\"CCPL\" or \"license\") unless otherwise noted. The Work is protected by copyright and/or other applicable law. Any use of the work other than as authorized under this license is prohibited. By exercising any of the rights to the Work provided here, You (as defined below) accept and agree to be bound by the terms of this license. The Licensor, the Massachusetts Institute of Technology, grants You the rights contained here in consideration of Your acceptance of such terms and conditions.", 
    "hide_Page_title": false, 
    "_defaultpage": "", 
    "related_resources_text": "", 
    "tcATmit_subject_tags": [], 
    "features_tracking": [], 
    "ad_champion_text": "", 
    "has_inline_embed": false, 
    "unique_identifier": "https://ocw.mit.edu/courses/mathematics/18-01sc-single-variable-calculus-fall-2010/unit-2-applications-of-differentiation/part-c-mean-value-theorem-antiderivatives-and-differential-equations/session-40-separation-of-variables/y-6x-1", 
    "link_text": "y\"=6x", 
    "is_image_gallery": false, 
    "id": "y-6x-1", 
    "_content_type_subtitle_exemption": "text/plain", 
    "materialtype": "Other", 
    "optional_text": "", 
    "_type": "MediaResource", 
    "description": "", 
    "media_resource_type": "Video", 
    "course_identifier": "https://ocw.mit.edu/courses/mathematics/18-01sc-single-variable-calculus-fall-2010", 
    "_content_type_publisher": "text/plain", 
    "tcATmit_instructional_tags": [], 
    "transcript": "<p><span m=\"7160\">PROFESSOR: Welcome</span> <span m=\"7600\">back to</span> <span m=\"7830\">recitation.</span> <span m=\"9250\">Today</span> <span m=\"9470\">we're</span> <span m=\"9570\">going</span> <span m=\"9690\">to</span> <span m=\"9750\">work</span> <span m=\"9880\">on</span> <span m=\"9970\">a</span> <span m=\"10030\">problem</span> <span m=\"10830\">involving</span> <span m=\"11290\">differential</span> <span m=\"11730\">equations.</span> <span m=\"12430\">I'm</span> <span m=\"12570\">going</span> <span m=\"12750\">to</span> <span m=\"12820\">read</span> <span m=\"13020\">it</span> <span m=\"13140\">to you,</span> <span m=\"13460\">give</span> <span m=\"13630\">you</span> <span m=\"13740\">a</span> <span m=\"13800\">little</span> <span m=\"14000\">hint,</span> <span m=\"14860\">give</span> <span m=\"15030\">you</span> <span m=\"15120\">some</span> <span m=\"15270\">time</span> <span m=\"15470\">to</span> <span m=\"15550\">work</span> <span m=\"15810\">on</span> <span m=\"15990\">it,</span> <span m=\"16340\">and</span> <span m=\"16570\">then</span> <span m=\"16740\">I'll</span> <span m=\"16850\">be</span> <span m=\"16960\">back</span> <span m=\"17250\">and</span> <span m=\"17360\">work</span> <span m=\"17570\">it</span> <span m=\"17660\">out</span> <span m=\"17870\">for</span> <span m=\"18120\">you.</span></p> <p><span m=\"18810\">So,</span> <span m=\"19880\">the</span> <span m=\"19990\">problem</span> <span m=\"20390\">is</span> <span m=\"20740\">to</span> <span m=\"20880\">find</span> <span m=\"21170\">a</span> <span m=\"21200\">function</span> <span m=\"21730\">y</span> <span m=\"21980\">equals</span> <span m=\"22210\">f</span> <span m=\"22370\">of</span> <span m=\"22460\">x</span> <span m=\"22870\">that</span> <span m=\"23030\">has</span> <span m=\"23200\">the</span> <span m=\"23280\">following</span> <span m=\"23700\">two</span> <span m=\"23830\">properties:</span> <span m=\"25590\">d</span> <span m=\"25990\">squared</span> <span m=\"26240\">y</span> <span m=\"26590\">dx</span> <span m=\"26790\">squared</span> <span m=\"27170\">is</span> <span m=\"27280\">equal</span> <span m=\"27510\">to</span> <span m=\"27640\">6x.</span> <span m=\"28400\">And</span> <span m=\"28570\">just</span> <span m=\"28730\">to</span> <span m=\"28800\">remind</span> <span m=\"29110\">you</span> <span m=\"29170\">what</span> <span m=\"29330\">this</span> <span m=\"29520\">means,</span> <span m=\"29970\">this</span> <span m=\"30170\">is</span> <span m=\"30310\">really, this is</span> <span m=\"30950\">the</span> <span m=\"31050\">second</span> <span m=\"31490\">derivative</span> <span m=\"31680\">of</span> <span m=\"31970\">y</span> <span m=\"32730\">with</span> <span m=\"33070\">respect</span> <span m=\"33440\">to</span> <span m=\"33823\">x.</span> <span m=\"34940\">So,</span> <span m=\"35440\">the</span> <span m=\"35650\">second</span> <span m=\"36060\">derivative</span> <span m=\"36450\">with respect</span> <span m=\"36620\">to x</span> <span m=\"37140\">should</span> <span m=\"37320\">be</span> <span m=\"37650\">6x.</span> <span m=\"38900\">And</span> <span m=\"39170\">the</span> <span m=\"39240\">second</span> <span m=\"39560\">condition's</span> <span m=\"40000\">kind</span> <span m=\"40170\">of</span> <span m=\"40250\">long,</span> <span m=\"41210\">but</span> <span m=\"41530\">it</span> <span m=\"41660\">says</span> <span m=\"42190\">the</span> <span m=\"42340\">graph</span> <span m=\"43150\">of</span> <span m=\"43310\">the</span> <span m=\"43410\">function</span> <span m=\"43990\">in</span> <span m=\"44180\">the</span> <span m=\"44480\">xy-plane</span> <span m=\"45590\">passes</span> <span m=\"46070\">through</span> <span m=\"46350\">the</span> <span m=\"46450\">point</span> <span m=\"46800\">(1, 1)</span> <span m=\"47850\">with a</span> <span m=\"48150\">horizontal</span> <span m=\"48740\">tangent</span> <span m=\"49160\">there.</span> <span m=\"49880\">So</span> <span m=\"50080\">let</span> <span m=\"50190\">me</span> <span m=\"50290\">give</span> <span m=\"50430\">you</span> <span m=\"50520\">one</span> <span m=\"50750\">hint.</span> <span m=\"51240\">And</span> <span m=\"51380\">that</span> <span m=\"51540\">hint</span> <span m=\"51980\">is</span> <span m=\"52130\">that</span> <span m=\"52270\">there</span> <span m=\"52390\">are</span> <span m=\"52470\">some</span> <span m=\"52760\">initial</span> <span m=\"53120\">conditions</span> <span m=\"53710\">buried</span> <span m=\"54070\">in</span> <span m=\"54180\">here.</span> <span m=\"54420\">That's</span> <span m=\"54660\">why</span> <span m=\"55130\">we</span> <span m=\"55310\">have</span> <span m=\"55570\">this</span> <span m=\"55750\">condition.</span> <span m=\"56940\">So</span> <span m=\"57210\">I'm</span> <span m=\"57330\">going to</span> <span m=\"57490\">give</span> <span m=\"57620\">you</span> <span m=\"57760\">a</span> <span m=\"58250\">little</span> <span m=\"58500\">bit</span> <span m=\"59030\">of</span> <span m=\"59140\">time</span> <span m=\"59390\">to</span> <span m=\"59500\">work</span> <span m=\"59690\">on</span> <span m=\"59850\">it</span> <span m=\"60040\">and</span> <span m=\"60200\">I'll</span> <span m=\"60310\">be</span> <span m=\"60400\">back</span> <span m=\"60840\">and</span> <span m=\"60980\">I'll</span> <span m=\"61110\">work</span> <span m=\"61310\">it</span> <span m=\"61410\">out</span> <span m=\"61590\">with</span> <span m=\"61770\">you.</span></p> <p><span m=\"70530\">Welcome</span> <span m=\"70920\">back.</span> <span m=\"71650\">Hopefully</span> <span m=\"72080\">you</span> <span m=\"72170\">were</span> <span m=\"72260\">able</span> <span m=\"72480\">to</span> <span m=\"72660\">start</span> <span m=\"73000\">at</span> <span m=\"73140\">least</span> <span m=\"73370\">solving</span> <span m=\"73670\">the</span> <span m=\"73750\">problem</span> <span m=\"75210\">initially,</span> <span m=\"75930\">give</span> <span m=\"76430\">yourself</span> <span m=\"76710\">a</span> <span m=\"76770\">little</span> <span m=\"77000\">direction.</span> <span m=\"77890\">So</span> <span m=\"78140\">let's</span> <span m=\"78340\">see</span> <span m=\"78480\">how</span> <span m=\"78590\">you</span> <span m=\"78700\">did.</span> <span m=\"80460\">OK,</span> <span m=\"80730\">so</span> <span m=\"80920\">the</span> <span m=\"81010\">first</span> <span m=\"81280\">thing</span> <span m=\"81440\">I</span> <span m=\"81510\">would</span> <span m=\"81670\">like</span> <span m=\"81860\">to</span> <span m=\"81970\">do</span> <span m=\"82240\">is</span> <span m=\"83810\">try</span> <span m=\"84190\">and</span> <span m=\"84410\">figure</span> <span m=\"84770\">out</span> <span m=\"85110\">maybe</span> <span m=\"85420\">what</span> <span m=\"85640\">the</span> <span m=\"85730\">first</span> <span m=\"86130\">derivative</span> <span m=\"86570\">of</span> <span m=\"87090\">the</span> <span m=\"87280\">function</span> <span m=\"88190\">y</span> <span m=\"88590\">equals</span> <span m=\"88710\">f</span> <span m=\"88850\">of</span> <span m=\"88970\">x</span> <span m=\"89230\">is.</span> <span m=\"89490\">I</span> <span m=\"89600\">have</span> <span m=\"89810\">its</span> <span m=\"89920\">second</span> <span m=\"90280\">derivative,</span> <span m=\"90930\">so</span> <span m=\"91130\">in</span> <span m=\"91200\">order</span> <span m=\"91410\">to</span> <span m=\"91540\">find</span> <span m=\"91830\">the</span> <span m=\"91890\">first</span> <span m=\"92170\">derivative</span> <span m=\"93030\">I</span> <span m=\"93150\">want</span> <span m=\"93370\">to</span> <span m=\"93450\">find,</span> <span m=\"94200\">ultimately,</span> <span m=\"94810\">a</span> <span m=\"94890\">function</span> <span m=\"95980\">that</span> <span m=\"96100\">when</span> <span m=\"96220\">I</span> <span m=\"96290\">take</span> <span m=\"96570\">its</span> <span m=\"96720\">derivative</span> <span m=\"97140\">I</span> <span m=\"97210\">get</span> <span m=\"97410\">6x. Right?</span></p> <p><span m=\"98390\">So,</span> <span m=\"99170\">we</span> <span m=\"99430\">can</span> <span m=\"99580\">think</span> <span m=\"99780\">about</span> <span m=\"100070\">this.</span> <span m=\"100530\">Maybe</span> <span m=\"100880\">the</span> <span m=\"100980\">easiest</span> <span m=\"101400\">thing</span> <span m=\"101580\">for</span> <span m=\"101700\">us</span> <span m=\"101840\">to</span> <span m=\"101960\">do</span> <span m=\"102140\">would</span> <span m=\"102260\">actually</span> <span m=\"103410\">be to</span> <span m=\"103720\">consider</span> <span m=\"104400\">another</span> <span m=\"104800\">function</span> <span m=\"105970\">whose</span> <span m=\"106270\">derivative</span> <span m=\"106650\">is</span> <span m=\"106960\">6x.</span> <span m=\"107600\">And</span> <span m=\"108090\">we'll</span> <span m=\"108310\">know</span> <span m=\"108460\">that's</span> <span m=\"108710\">dy</span> <span m=\"108820\">dx.</span> <span m=\"109380\">So</span> <span m=\"109490\">I'm</span> <span m=\"109660\">going</span> <span m=\"109860\">to</span> <span m=\"109970\">say</span> <span m=\"110120\">this: dy-- sorry--</span> <span m=\"112190\">d</span> <span m=\"112390\">squared</span> <span m=\"112840\">y</span> <span m=\"113310\">dx</span> <span m=\"113750\">squared,</span> <span m=\"115070\">I'm</span> <span m=\"115350\">going</span> <span m=\"115580\">to</span> <span m=\"115710\">say</span> <span m=\"116150\">is</span> <span m=\"116650\">the</span> <span m=\"116840\">first</span> <span m=\"117200\">derivative</span> <span m=\"117280\">of</span> <span m=\"117610\">another</span> <span m=\"118050\">function,</span> <span m=\"118780\">we'll</span> <span m=\"118990\">say</span> <span m=\"119350\">dw/dx.</span> <span m=\"121610\">And</span> <span m=\"121810\">the</span> <span m=\"121880\">reason</span> <span m=\"122130\">I'm</span> <span m=\"122230\">going</span> <span m=\"122400\">to</span> <span m=\"122470\">do</span> <span m=\"122610\">that</span> <span m=\"122860\">is</span> <span m=\"122970\">so</span> <span m=\"123090\">we're</span> <span m=\"123250\">not</span> <span m=\"123580\">too</span> <span m=\"123750\">nervous</span> <span m=\"124200\">about</span> <span m=\"124940\">how</span> <span m=\"125100\">we</span> <span m=\"125260\">solve</span> <span m=\"125560\">this</span> <span m=\"125700\">problem.</span> <span m=\"126630\">So</span> <span m=\"126850\">let's</span> <span m=\"127060\">just</span> <span m=\"128070\">assume</span> <span m=\"128500\">that.</span> <span m=\"128800\">So I'm</span> <span m=\"129000\">introducing</span> <span m=\"129490\">another</span> <span m=\"129760\">function</span> <span m=\"130110\">w,</span> <span m=\"130890\">which</span> <span m=\"131220\">is</span> <span m=\"131380\">the</span> <span m=\"131480\">first</span> <span m=\"131850\">derivative</span> <span m=\"132330\">of</span> <span m=\"134030\">y</span> <span m=\"134350\">with</span> <span m=\"134570\">respect</span> <span m=\"134930\">to x,</span> <span m=\"135230\">ultimately.</span> <span m=\"135980\">Because</span> <span m=\"136260\">its</span> <span m=\"136640\">derivative</span> <span m=\"137450\">is</span> <span m=\"137630\">the</span> <span m=\"137740\">second</span> <span m=\"138080\">derivative</span> <span m=\"138600\">of y with</span> <span m=\"139010\">respect</span> <span m=\"139370\">to x.</span></p> <p><span m=\"140130\">So</span> <span m=\"140350\">let's</span> <span m=\"140590\">see</span> <span m=\"140810\">how</span> <span m=\"141000\">to</span> <span m=\"141120\">solve</span> <span m=\"141620\">the</span> <span m=\"141890\">differential</span> <span m=\"142360\">equation</span> <span m=\"143730\">dw/dx</span> <span m=\"145420\">equals</span> <span m=\"145810\">6x.</span> <span m=\"147040\">Now</span> <span m=\"147320\">you</span> <span m=\"147500\">may</span> <span m=\"147720\">be</span> <span m=\"147830\">able</span> <span m=\"147960\">to</span> <span m=\"148060\">do</span> <span m=\"148160\">that</span> <span m=\"148340\">right</span> <span m=\"148520\">away.</span> <span m=\"148870\">You</span> <span m=\"149000\">may</span> <span m=\"149150\">see</span> <span m=\"149310\">what</span> <span m=\"149440\">this</span> <span m=\"149570\">is</span> <span m=\"149710\">right</span> <span m=\"149870\">away.</span> <span m=\"150100\">If</span> <span m=\"150180\">you're</span> <span m=\"150290\">a</span> <span m=\"150350\">little</span> <span m=\"150560\">nervous,</span> <span m=\"150970\">we</span> <span m=\"151080\">can</span> <span m=\"151210\">do</span> <span m=\"151310\">a</span> <span m=\"151380\">separation</span> <span m=\"151890\">of</span> <span m=\"151970\">variables.</span> <span m=\"153050\">So</span> <span m=\"153970\">right</span> <span m=\"154290\">away,</span> <span m=\"154900\">maybe</span> <span m=\"155310\">some</span> <span m=\"155490\">of</span> <span m=\"155600\">you</span> <span m=\"155740\">can</span> <span m=\"155910\">see</span> <span m=\"156240\">that</span> <span m=\"156420\">this</span> <span m=\"156590\">will</span> <span m=\"156730\">be 2x-- sorry--</span> <span m=\"158730\">3</span> <span m=\"159150\">x</span> <span m=\"159450\">squared.</span> <span m=\"160430\">But</span> <span m=\"160630\">let's</span> <span m=\"160830\">just</span> <span m=\"161070\">double-check.</span> <span m=\"162100\">So,</span> <span m=\"162290\">separation</span> <span m=\"162780\">of</span> <span m=\"162880\">variables,</span> <span m=\"163840\">on</span> <span m=\"164060\">this</span> <span m=\"164170\">side</span> <span m=\"164450\">we</span> <span m=\"164540\">get</span> <span m=\"164660\">the</span> <span m=\"164770\">integral</span> <span m=\"165100\">of</span> <span m=\"165200\">dw.</span> <span m=\"165810\">On</span> <span m=\"165940\">this</span> <span m=\"166030\">side</span> <span m=\"166270\">we</span> <span m=\"166370\">get</span> <span m=\"166500\">the</span> <span m=\"166640\">integral</span> <span m=\"167060\">of</span> <span m=\"167230\">6x</span> <span m=\"167870\">dx.</span> <span m=\"170590\">Here</span> <span m=\"170980\">we</span> <span m=\"171080\">get</span> <span m=\"171210\">a</span> <span m=\"171300\">w.</span> <span m=\"173480\">And</span> <span m=\"173700\">here,</span> <span m=\"174730\">again we get,</span> <span m=\"175110\">we</span> <span m=\"175840\">should</span> <span m=\"176010\">really</span> <span m=\"176290\">do</span> <span m=\"176490\">6</span> <span m=\"176960\">x</span> <span m=\"177390\">squared</span> <span m=\"178530\">over</span> <span m=\"178860\">2</span> <span m=\"180190\">plus</span> <span m=\"180540\">a</span> <span m=\"180620\">constant.</span> <span m=\"181740\">So</span> <span m=\"181970\">that's</span> <span m=\"183290\">3</span> <span m=\"183570\">x</span> <span m=\"183790\">squared</span> <span m=\"185200\">plus</span> <span m=\"185450\">a</span> <span m=\"185530\">constant.</span></p> <p><span m=\"187060\">I'm</span> <span m=\"187280\">going</span> <span m=\"187450\">to</span> <span m=\"187520\">write</span> <span m=\"187780\">c_1</span> <span m=\"188280\">here</span> <span m=\"188540\">because</span> <span m=\"188830\">we're</span> <span m=\"188940\">went</span> <span m=\"189160\">to</span> <span m=\"189250\">need</span> <span m=\"191360\">a</span> <span m=\"191410\">little</span> <span m=\"191620\">bit</span> <span m=\"192130\">of</span> <span m=\"192320\">information.</span> <span m=\"192990\">We're</span> <span m=\"193100\">going</span> <span m=\"193280\">to</span> <span m=\"193370\">need</span> <span m=\"193560\">another</span> <span m=\"193850\">constant</span> <span m=\"194480\">later.</span> <span m=\"195370\">So</span> <span m=\"195610\">we</span> <span m=\"195730\">actually</span> <span m=\"196060\">now</span> <span m=\"196550\">know</span> <span m=\"197410\">the</span> <span m=\"197680\">derivative</span> <span m=\"198840\">of</span> <span m=\"199110\">y</span> <span m=\"199370\">with</span> <span m=\"199560\">respect</span> <span m=\"199890\">to x.</span> <span m=\"200360\">What</span> <span m=\"200530\">we</span> <span m=\"200640\">found</span> <span m=\"200990\">here,</span> <span m=\"202790\">I'll</span> <span m=\"202910\">just</span> <span m=\"203100\">write</span> <span m=\"203300\">that</span> <span m=\"203510\">in,</span> <span m=\"205710\">is</span> <span m=\"206090\">dy/dx.</span> <span m=\"207360\">Again,</span> <span m=\"207640\">let</span> <span m=\"207740\">me</span> <span m=\"207820\">remind</span> <span m=\"208080\">you</span> <span m=\"208160\">why.</span> <span m=\"208550\">We</span> <span m=\"208995\">had--</span> <span m=\"210730\">we</span> <span m=\"210930\">were</span> <span m=\"211130\">saying</span> <span m=\"211510\">the</span> <span m=\"211600\">second</span> <span m=\"211960\">derivative</span> <span m=\"212080\">of</span> <span m=\"212320\">y</span> <span m=\"212540\">with</span> <span m=\"212670\">respect</span> <span m=\"212970\">to x</span> <span m=\"213330\">we're</span> <span m=\"213470\">going</span> <span m=\"213710\">to</span> <span m=\"213820\">call</span> <span m=\"214540\">dw/dx.</span> <span m=\"216170\">So</span> <span m=\"216390\">when</span> <span m=\"216540\">I</span> <span m=\"217210\">took</span> <span m=\"217410\">an</span> <span m=\"217500\">integral</span> <span m=\"218020\">of</span> <span m=\"219990\">dw/dx,</span> <span m=\"220620\">I</span> <span m=\"220950\">got</span> <span m=\"221140\">w.</span> <span m=\"222200\">So</span> <span m=\"222360\">that</span> <span m=\"222520\">means</span> <span m=\"222740\">I've</span> <span m=\"222850\">taken</span> <span m=\"223150\">one</span> <span m=\"223390\">antiderivative</span> <span m=\"224100\">here</span> <span m=\"224410\">and</span> <span m=\"224580\">so</span> <span m=\"224680\">now</span> <span m=\"224840\">I</span> <span m=\"224930\">have</span> <span m=\"225490\">dy/dx.</span> <span m=\"226120\">So</span> <span m=\"226290\">this</span> <span m=\"226460\">is</span> <span m=\"226670\">dy/dx.</span></p> <p><span m=\"228241\">I'm</span> <span m=\"228670\">going to</span> <span m=\"228860\">draw</span> <span m=\"229090\">a</span> <span m=\"229120\">line</span> <span m=\"229350\">and</span> <span m=\"229460\">now</span> <span m=\"229640\">we</span> <span m=\"229740\">want</span> <span m=\"229890\">to</span> <span m=\"229950\">find</span> <span m=\"230320\">y.</span> <span m=\"230830\">And</span> <span m=\"231180\">again</span> <span m=\"231540\">we</span> <span m=\"231630\">can</span> <span m=\"231780\">use</span> <span m=\"231900\">separation</span> <span m=\"232430\">of</span> <span m=\"232500\">variables.</span> <span m=\"233250\">Or</span> <span m=\"233510\">this</span> <span m=\"233730\">time</span> <span m=\"233950\">I'm</span> <span m=\"234120\">just</span> <span m=\"234340\">going</span> <span m=\"234610\">to</span> <span m=\"235110\">do</span> <span m=\"235350\">the</span> <span m=\"235450\">problem</span> <span m=\"236380\">without</span> <span m=\"236750\">separating</span> <span m=\"237150\">variables,</span> <span m=\"237610\">because</span> <span m=\"237860\">I</span> <span m=\"237920\">actually</span> <span m=\"238240\">know</span> <span m=\"239690\">what an</span> <span m=\"239990\">antiderivative</span> <span m=\"240750\">is</span> <span m=\"240920\">of</span> <span m=\"241020\">this,</span> <span m=\"241370\">what an antiderivative</span> <span m=\"241760\">is</span> <span m=\"242150\">of</span> <span m=\"242530\">this,</span> <span m=\"242780\">and</span> <span m=\"242970\">then</span> <span m=\"243410\">I</span> <span m=\"243520\">need</span> <span m=\"243660\">to</span> <span m=\"243740\">add</span> <span m=\"243910\">one</span> <span m=\"244060\">more</span> <span m=\"244210\">constant.</span></p> <p><span m=\"245150\">So</span> <span m=\"245410\">I</span> <span m=\"245500\">can</span> <span m=\"245700\">say</span> <span m=\"245990\">that</span> <span m=\"246610\">y</span> <span m=\"247090\">is</span> <span m=\"247240\">definitely</span> <span m=\"247740\">equal</span> <span m=\"248080\">to</span> <span m=\"248800\">x cubed</span> <span m=\"250340\">plus</span> <span m=\"250810\">c_1*x</span> <span m=\"252510\">plus</span> <span m=\"253550\">c_2.</span> <span m=\"254600\">And let me just again,</span> <span m=\"256290\">let's</span> <span m=\"256550\">see</span> <span m=\"256680\">why</span> <span m=\"256900\">that</span> <span m=\"257140\">is. Right?</span> <span m=\"258330\">This</span> <span m=\"259520\">antiderivative</span> <span m=\"260050\">of</span> <span m=\"260170\">this</span> <span m=\"260690\">is</span> <span m=\"261340\">x cubed.</span> <span m=\"262840\">Antiderivative</span> <span m=\"263760\">of</span> <span m=\"263960\">this</span> <span m=\"264260\">is--</span> <span m=\"265180\">it's</span> <span m=\"265450\">a</span> <span m=\"265530\">constant</span> <span m=\"266000\">so</span> <span m=\"266100\">its</span> <span m=\"266340\">antiderivative</span> <span m=\"266810\">is</span> <span m=\"267700\">c_1</span> <span m=\"268290\">times</span> <span m=\"268580\">x.</span> <span m=\"269130\">And</span> <span m=\"269400\">then</span> <span m=\"269520\">I</span> <span m=\"269570\">have</span> <span m=\"269730\">to</span> <span m=\"269820\">add</span> <span m=\"270020\">on</span> <span m=\"270160\">another</span> <span m=\"270450\">constant</span> <span m=\"270930\">because</span> <span m=\"271200\">I</span> <span m=\"271270\">have</span> <span m=\"271410\">a</span> <span m=\"271480\">whole</span> <span m=\"271680\">family</span> <span m=\"272660\">of</span> <span m=\"272780\">possible</span> <span m=\"273250\">solutions.</span></p> <p><span m=\"274510\">So</span> <span m=\"274700\">here</span> <span m=\"274960\">I</span> <span m=\"275010\">have</span> <span m=\"275360\">y.</span> <span m=\"275990\">And</span> <span m=\"276180\">now</span> <span m=\"276370\">I</span> <span m=\"276440\">need</span> <span m=\"276620\">to</span> <span m=\"276700\">figure</span> <span m=\"277010\">out</span> <span m=\"277200\">how</span> <span m=\"277340\">to</span> <span m=\"277430\">use</span> <span m=\"278570\">number</span> <span m=\"278850\">two.</span> <span m=\"279850\">Maybe</span> <span m=\"280230\">before</span> <span m=\"280510\">you</span> <span m=\"280630\">even</span> <span m=\"280850\">go</span> <span m=\"280980\">on,</span> <span m=\"281250\">you</span> <span m=\"281330\">want</span> <span m=\"281490\">to</span> <span m=\"281550\">check,</span> <span m=\"281860\">does</span> <span m=\"281950\">this</span> <span m=\"282110\">really</span> <span m=\"282360\">satisfy</span> <span m=\"283420\">number</span> <span m=\"283740\">one?</span> <span m=\"284700\">So</span> <span m=\"285080\">if</span> <span m=\"285270\">we</span> <span m=\"285360\">wanted</span> <span m=\"285610\">to</span> <span m=\"285700\">check</span> <span m=\"285910\">that,</span> <span m=\"286110\">we</span> <span m=\"286220\">just</span> <span m=\"286420\">take</span> <span m=\"286650\">two</span> <span m=\"286810\">derivatives</span> <span m=\"287300\">of</span> <span m=\"287400\">this</span> <span m=\"287560\">expression</span> <span m=\"288100\">on</span> <span m=\"288200\">the</span> <span m=\"288280\">right-hand</span> <span m=\"288610\">side.</span> <span m=\"289460\">Two</span> <span m=\"289750\">derivatives</span> <span m=\"289890\">of</span> <span m=\"290060\">this</span> <span m=\"290410\">is</span> <span m=\"290540\">0.</span> <span m=\"291570\">Two</span> <span m=\"291860\">derivative</span> <span m=\"292060\">of</span> <span m=\"292740\">this</span> <span m=\"292960\">is</span> <span m=\"293060\">0.</span> <span m=\"293370\">And two</span> <span m=\"293600\">derivatives</span> <span m=\"294080\">of</span> <span m=\"294200\">this</span> <span m=\"294550\">is</span> <span m=\"294680\">6x.</span> <span m=\"295240\">So</span> <span m=\"295570\">I</span> <span m=\"295660\">do</span> <span m=\"295860\">indeed</span> <span m=\"296830\">get</span> <span m=\"296990\">what</span> <span m=\"297120\">I</span> <span m=\"297180\">want.</span> <span m=\"297600\">So</span> <span m=\"297740\">now</span> <span m=\"297870\">we</span> <span m=\"298010\">definitely</span> <span m=\"298450\">can</span> <span m=\"298600\">go</span> <span m=\"298730\">on</span> <span m=\"298960\">to</span> <span m=\"299060\">number</span> <span m=\"299330\">2. OK?</span></p> <p><span m=\"301270\">So,</span> <span m=\"301500\">what</span> <span m=\"301620\">do</span> <span m=\"301680\">we</span> <span m=\"301770\">have?</span> <span m=\"301970\">Number</span> <span m=\"302210\">two,</span> <span m=\"302460\">it</span> <span m=\"302590\">says</span> <span m=\"303150\">we</span> <span m=\"303380\">have</span> <span m=\"303560\">some</span> <span m=\"303690\">initial</span> <span m=\"303990\">conditions</span> <span m=\"304390\">here.</span> <span m=\"304510\">The</span> <span m=\"304630\">graph</span> <span m=\"305010\">in</span> <span m=\"305080\">the</span> <span m=\"305300\">xy-plane</span> <span m=\"305800\">passes</span> <span m=\"306140\">through</span> <span m=\"306310\">the</span> <span m=\"306380\">point</span> <span m=\"306710\">(1, 1)</span> <span m=\"307510\">and</span> <span m=\"308170\">it</span> <span m=\"308240\">has</span> <span m=\"308390\">a</span> <span m=\"308430\">horizontal</span> <span m=\"308960\">tangent</span> <span m=\"309440\">there.</span> <span m=\"310550\">Now</span> <span m=\"310670\">what</span> <span m=\"310860\">does</span> <span m=\"310990\">that</span> <span m=\"311180\">actually</span> <span m=\"311570\">mean?</span> <span m=\"311960\">Let's</span> <span m=\"312180\">think</span> <span m=\"312380\">about</span> <span m=\"312640\">that.</span> <span m=\"312790\">That</span> <span m=\"312940\">actually</span> <span m=\"313260\">means</span> <span m=\"314320\">that</span> <span m=\"316430\">two</span> <span m=\"316780\">says</span> <span m=\"319040\">f</span> <span m=\"319440\">of</span> <span m=\"319650\">1</span> <span m=\"320530\">equals</span> <span m=\"320970\">1. Right?</span> <span m=\"322970\">y</span> <span m=\"323220\">is</span> <span m=\"323350\">equal</span> <span m=\"323570\">to</span> <span m=\"323820\">f</span> <span m=\"323920\">of x.</span> <span m=\"324410\">So we</span> <span m=\"324900\">can</span> <span m=\"325080\">write</span> <span m=\"325270\">this</span> <span m=\"325420\">also</span> <span m=\"325760\">as</span> <span m=\"325970\">f of x.</span> <span m=\"327060\">So</span> <span m=\"327520\">two,</span> <span m=\"327730\">the</span> <span m=\"327850\">first</span> <span m=\"328120\">part</span> <span m=\"328310\">says</span> <span m=\"328480\">that</span> <span m=\"328630\">f of</span> <span m=\"328720\">1</span> <span m=\"329010\">is</span> <span m=\"329150\">1.</span></p> <p><span m=\"330530\">And</span> <span m=\"330720\">what</span> <span m=\"330870\">does</span> <span m=\"331030\">this</span> <span m=\"331210\">second</span> <span m=\"331610\">condition?</span> <span m=\"331910\">Let's</span> <span m=\"332060\">check</span> <span m=\"332300\">this</span> <span m=\"332410\">second</span> <span m=\"332760\">condition.</span> <span m=\"333080\">It</span> <span m=\"333170\">says</span> <span m=\"333370\">it</span> <span m=\"333440\">has</span> <span m=\"333610\">a</span> <span m=\"333650\">horizontal</span> <span m=\"334420\">tangent</span> <span m=\"334890\">there.</span> <span m=\"335670\">Horizontal</span> <span m=\"336140\">tangent</span> <span m=\"337140\">means</span> <span m=\"337430\">that</span> <span m=\"337590\">its</span> <span m=\"337730\">derivative</span> <span m=\"338640\">at</span> <span m=\"338820\">that</span> <span m=\"339170\">x-value</span> <span m=\"339760\">is</span> <span m=\"339910\">0.</span> <span m=\"341040\">So</span> <span m=\"341230\">let</span> <span m=\"341370\">me</span> <span m=\"341480\">write</span> <span m=\"341710\">down</span> <span m=\"341910\">that</span> <span m=\"342230\">in</span> <span m=\"342360\">a</span> <span m=\"342430\">nice</span> <span m=\"342720\">form.</span> <span m=\"343790\">The</span> <span m=\"343880\">derivative</span> <span m=\"345150\">at</span> <span m=\"345330\">that</span> <span m=\"345730\">x-value</span> <span m=\"346240\">is</span> <span m=\"346430\">equal</span> <span m=\"346620\">to</span> <span m=\"346740\">0.</span></p> <p><span m=\"348190\">This</span> <span m=\"348370\">is</span> <span m=\"348440\">a</span> <span m=\"348520\">little</span> <span m=\"348740\">different,</span> <span m=\"349080\">maybe,</span> <span m=\"349320\">from</span> <span m=\"349490\">what</span> <span m=\"349600\">we've</span> <span m=\"349780\">seen</span> <span m=\"349970\">previously.</span> <span m=\"350610\">In</span> <span m=\"350700\">the</span> <span m=\"350780\">lecture</span> <span m=\"351160\">you</span> <span m=\"351340\">saw</span> <span m=\"352050\">examples,</span> <span m=\"352840\">at</span> <span m=\"353030\">least--</span> <span m=\"353550\">certainly,</span> <span m=\"353970\">where</span> <span m=\"354100\">you</span> <span m=\"354230\">had</span> <span m=\"354530\">one</span> <span m=\"354770\">initial</span> <span m=\"355080\">condition.</span> <span m=\"355760\">Here</span> <span m=\"356060\">we</span> <span m=\"356180\">need</span> <span m=\"356430\">two</span> <span m=\"356570\">initial</span> <span m=\"356880\">conditions.</span> <span m=\"357460\">And</span> <span m=\"357630\">you</span> <span m=\"357720\">see</span> <span m=\"357890\">why,</span> <span m=\"358300\">is</span> <span m=\"358480\">because</span> <span m=\"358740\">we</span> <span m=\"358840\">actually</span> <span m=\"359100\">have</span> <span m=\"359270\">two</span> <span m=\"359430\">constants.</span> <span m=\"360450\">Where</span> <span m=\"360730\">did</span> <span m=\"360890\">that</span> <span m=\"361100\">come</span> <span m=\"361300\">from?</span> <span m=\"361630\">It's</span> <span m=\"361760\">because</span> <span m=\"362040\">we</span> <span m=\"362170\">started</span> <span m=\"362530\">with</span> <span m=\"362660\">a</span> <span m=\"362730\">second</span> <span m=\"363160\">derivative</span> <span m=\"363610\">instead</span> <span m=\"363920\">of</span> <span m=\"364010\">just</span> <span m=\"364180\">the</span> <span m=\"364270\">first</span> <span m=\"364560\">derivative.</span> <span m=\"365370\">So</span> <span m=\"365580\">that's kind of, that's</span> <span m=\"366320\">why</span> <span m=\"366610\">you</span> <span m=\"366810\">see</span> <span m=\"367030\">more</span> <span m=\"367340\">initial</span> <span m=\"367650\">conditions</span> <span m=\"368260\">than</span> <span m=\"369060\">maybe</span> <span m=\"369380\">you've</span> <span m=\"369510\">seen</span> <span m=\"369710\">previously.</span></p> <p><span m=\"371330\">So,</span> <span m=\"371530\">let's</span> <span m=\"371740\">plug</span> <span m=\"371880\">these</span> <span m=\"372040\">in and</span> <span m=\"372450\">let's</span> <span m=\"372680\">see</span> <span m=\"372810\">what</span> <span m=\"372960\">we</span> <span m=\"373070\">get.</span> <span m=\"373570\">If</span> <span m=\"373760\">f</span> <span m=\"373960\">of</span> <span m=\"374070\">1 equals</span> <span m=\"374560\">1,</span> <span m=\"375410\">then</span> <span m=\"375590\">let's</span> <span m=\"376140\">evaluate</span> <span m=\"376550\">that.</span> <span m=\"377400\">f</span> <span m=\"377630\">of</span> <span m=\"377770\">1</span> <span m=\"378920\">is</span> <span m=\"379070\">equal</span> <span m=\"379330\">to</span> <span m=\"379460\">1</span> <span m=\"379730\">cubed</span> <span m=\"380970\">plus</span> <span m=\"381310\">1</span> <span m=\"381590\">times</span> <span m=\"381820\">c_1</span> <span m=\"383266\">plus</span> <span m=\"385310\">1</span> <span m=\"385610\">times--</span> <span m=\"386250\">or</span> <span m=\"386555\">just</span> <span m=\"386860\">1,</span> <span m=\"387080\">or</span> <span m=\"387300\">c_2</span> <span m=\"387740\">there,</span> <span m=\"388440\">sorry.</span> <span m=\"388910\">There's</span> <span m=\"389195\">no</span> <span m=\"389480\">x</span> <span m=\"389730\">there,</span> <span m=\"389870\">so</span> <span m=\"390090\">just</span> <span m=\"390250\">c_2.</span> <span m=\"390780\">And</span> <span m=\"391010\">that all</span> <span m=\"391270\">has</span> <span m=\"391440\">to</span> <span m=\"391540\">equal</span> <span m=\"391840\">1.</span> <span m=\"393810\">And</span> <span m=\"393990\">then</span> <span m=\"394130\">let's</span> <span m=\"394310\">look</span> <span m=\"394430\">at</span> <span m=\"394490\">what</span> <span m=\"394620\">the</span> <span m=\"394710\">derivative</span> <span m=\"395200\">is.</span> <span m=\"395370\">The</span> <span m=\"395460\">derivative</span> <span m=\"395930\">is</span> <span m=\"396040\">still</span> <span m=\"396310\">over</span> <span m=\"396530\">here.</span> <span m=\"398520\">So</span> <span m=\"398680\">f</span> <span m=\"399080\">prime</span> <span m=\"399250\">at</span> <span m=\"399360\">1</span> <span m=\"400790\">is</span> <span m=\"401150\">equal</span> <span m=\"401280\">to</span> <span m=\"401410\">3</span> <span m=\"401690\">times</span> <span m=\"401990\">1</span> <span m=\"402320\">squared,</span> <span m=\"402750\">so</span> <span m=\"403260\">3</span> <span m=\"403500\">times</span> <span m=\"403740\">1,</span> <span m=\"404600\">plus</span> <span m=\"404970\">c_1.</span> <span m=\"406880\">And</span> <span m=\"407020\">the</span> <span m=\"407080\">condition</span> <span m=\"407570\">says</span> <span m=\"407860\">that</span> <span m=\"408070\">equals</span> <span m=\"408830\">0, equals 0.</span></p> <p><span m=\"411410\">So</span> <span m=\"411620\">we</span> <span m=\"411750\">can</span> <span m=\"411920\">read</span> <span m=\"412130\">off.</span> <span m=\"412490\">The</span> <span m=\"412580\">nice</span> <span m=\"412810\">thing</span> <span m=\"412970\">is</span> <span m=\"413110\">this</span> <span m=\"413260\">is</span> <span m=\"413480\">system</span> <span m=\"413840\">of</span> <span m=\"413960\">equations</span> <span m=\"414590\">but</span> <span m=\"414750\">one</span> <span m=\"414900\">of</span> <span m=\"414990\">them is</span> <span m=\"415100\">very</span> <span m=\"415430\">easy</span> <span m=\"415700\">to</span> <span m=\"415810\">solve</span> <span m=\"416080\">initially,</span> <span m=\"416930\">then</span> <span m=\"417150\">we</span> <span m=\"417240\">can</span> <span m=\"417400\">substitute.</span> <span m=\"418460\">So</span> <span m=\"418700\">what</span> <span m=\"418850\">does</span> <span m=\"419010\">this</span> <span m=\"419190\">say?</span> <span m=\"419420\">Well</span> <span m=\"419710\">3</span> <span m=\"420130\">plus</span> <span m=\"420480\">c_1</span> <span m=\"420900\">equals</span> <span m=\"421060\">0.</span> <span m=\"421990\">So</span> <span m=\"422190\">c_1</span> <span m=\"423540\">is</span> <span m=\"423720\">equal</span> <span m=\"423960\">to</span> <span m=\"424100\">minus</span> <span m=\"424540\">3,</span> <span m=\"425280\">negative</span> <span m=\"425690\">3.</span> <span m=\"426660\">If</span> <span m=\"426840\">I</span> <span m=\"426910\">plug</span> <span m=\"427180\">in</span> <span m=\"427310\">negative</span> <span m=\"427690\">3</span> <span m=\"427950\">for</span> <span m=\"428100\">c_1,</span> <span m=\"430200\">in</span> <span m=\"430300\">this expression, in this</span> <span m=\"430450\">equation</span> <span m=\"430840\">up</span> <span m=\"430960\">here,</span> <span m=\"431930\">I</span> <span m=\"432040\">get</span> <span m=\"432220\">negative</span> <span m=\"432620\">3</span> <span m=\"433580\">plus</span> <span m=\"433870\">1</span> <span m=\"434240\">plus</span> <span m=\"434500\">c_2</span> <span m=\"435010\">has</span> <span m=\"435230\">to</span> <span m=\"435330\">equal</span> <span m=\"435600\">1.</span> <span m=\"436910\">If I</span> <span m=\"437180\">subtract</span> <span m=\"437610\">the</span> <span m=\"437680\">1's</span> <span m=\"437980\">from</span> <span m=\"438140\">both</span> <span m=\"438350\">sides</span> <span m=\"438640\">I</span> <span m=\"438720\">get</span> <span m=\"438870\">negative</span> <span m=\"439250\">3</span> <span m=\"439510\">plus</span> <span m=\"439820\">c_2</span> <span m=\"440020\">has</span> <span m=\"440220\">to</span> <span m=\"440430\">equal</span> <span m=\"440770\">0.</span> <span m=\"441580\">So</span> <span m=\"441770\">c_2</span> <span m=\"443040\">has to</span> <span m=\"443280\">actually</span> <span m=\"443730\">equal</span> <span m=\"443970\">3.</span></p> <p><span m=\"445610\">So</span> <span m=\"445780\">the</span> <span m=\"445900\">final,</span> <span m=\"446470\">final</span> <span m=\"446960\">answer</span> <span m=\"448150\">is</span> <span m=\"449240\">evaluating,</span> <span m=\"450076\">or</span> <span m=\"451710\">plugging</span> <span m=\"452140\">in</span> <span m=\"452340\">the</span> <span m=\"452430\">c1</span> <span m=\"452790\">and</span> <span m=\"452870\">the</span> <span m=\"452960\">c2</span> <span m=\"453980\">in</span> <span m=\"454250\">for</span> <span m=\"454370\">the</span> <span m=\"454470\">constants</span> <span m=\"454920\">there.</span> <span m=\"455150\">The</span> <span m=\"455260\">final,</span> <span m=\"455630\">final</span> <span m=\"455910\">answer</span> <span m=\"456380\">is x cubed</span> <span m=\"458690\">minus</span> <span m=\"459370\">3x</span> <span m=\"461960\">plus</span> <span m=\"462440\">3.</span> <span m=\"466270\">So</span> <span m=\"466440\">we</span> <span m=\"466570\">started</span> <span m=\"467040\">with</span> <span m=\"467240\">a</span> <span m=\"467320\">differential</span> <span m=\"467800\">equation</span> <span m=\"468690\">and</span> <span m=\"469090\">two</span> <span m=\"469290\">sets</span> <span m=\"469590\">of</span> <span m=\"469670\">initial</span> <span m=\"469970\">conditions.</span> <span m=\"470720\">And</span> <span m=\"471030\">we</span> <span m=\"471110\">came</span> <span m=\"471430\">up</span> <span m=\"471640\">with</span> <span m=\"471930\">one</span> <span m=\"472560\">solution</span> <span m=\"473060\">that</span> <span m=\"473200\">satisfies</span> <span m=\"473790\">that.</span> <span m=\"474690\">Now</span> <span m=\"474850\">you</span> <span m=\"475020\">can</span> <span m=\"475740\">look</span> <span m=\"476110\">at</span> <span m=\"476230\">this,</span> <span m=\"476490\">you</span> <span m=\"476590\">could</span> <span m=\"476730\">graph</span> <span m=\"477080\">this</span> <span m=\"477250\">on</span> <span m=\"477350\">a</span> <span m=\"477410\">calculator</span> <span m=\"477980\">or</span> <span m=\"478120\">computer</span> <span m=\"479020\">and</span> <span m=\"479240\">look</span> <span m=\"479450\">and</span> <span m=\"479570\">see</span> <span m=\"479800\">if</span> <span m=\"479940\">it</span> <span m=\"480050\">satisfies</span> <span m=\"480770\">that</span> <span m=\"481690\">it</span> <span m=\"482260\">actually</span> <span m=\"482710\">passes</span> <span m=\"483020\">through</span> <span m=\"483180\">the</span> <span m=\"483260\">point</span> <span m=\"483530\">(1, 1)</span> <span m=\"484260\">and</span> <span m=\"484660\">has</span> <span m=\"484780\">a</span> <span m=\"484850\">horizontal</span> <span m=\"485290\">tangent</span> <span m=\"485660\">there.</span> <span m=\"486250\">But</span> <span m=\"486500\">we</span> <span m=\"486670\">know,</span> <span m=\"487030\">based</span> <span m=\"487400\">on</span> <span m=\"487540\">our</span> <span m=\"487700\">work,</span> <span m=\"487970\">that</span> <span m=\"488100\">that</span> <span m=\"488270\">actually</span> <span m=\"488840\">should</span> <span m=\"489110\">happen.</span> <span m=\"490230\">So</span> <span m=\"491130\">I</span> <span m=\"491260\">think</span> <span m=\"491460\">that's</span> <span m=\"491620\">where</span> <span m=\"491740\">I'll</span> <span m=\"491890\">stop.</span></p>", 
    "_content_type_link_text": "text/plain", 
    "course_linking": [], 
    "_id": "y-6x-1", 
    "modification_date": "2016/09/25 01:19:06.575 GMT-4", 
    "media_index": [], 
    "always_publish": false, 
    "_owner": null, 
    "_permissions": {
        "Change portal events": {
            "acquire": false, 
            "roles": [
                "Editor", 
                "Manager", 
                "MetadataEditor", 
                "Owner"
            ]
        }, 
        "Modify portal content": {
            "acquire": false, 
            "roles": [
                "Manager", 
                "MetadataEditor"
            ]
        }, 
        "Access contents information": {
            "acquire": false, 
            "roles": [
                "Authenticated"
            ]
        }, 
        "List folder contents": {
            "acquire": false, 
            "roles": [
                "Editor", 
                "Manager", 
                "MetadataEditor", 
                "Owner"
            ]
        }, 
        "View": {
            "acquire": false, 
            "roles": [
                "Authenticated"
            ]
        }
    }, 
    "_properties": [
        [
            "title", 
            "y\"=6x", 
            "string"
        ]
    ], 
    "creators": [
        "Jcplayer"
    ], 
    "courselist_features": [], 
    "_path": "/Plone/courses/mathematics/18-01sc-single-variable-calculus-fall-2010/unit-2-applications-of-differentiation/part-c-mean-value-theorem-antiderivatives-and-differential-equations/session-40-separation-of-variables/y-6x-1"
}