{
    "text": "<p class=\"sc_nav\">&laquo; <a href=\"./resolveuid/4c201b00a0470284ebd6c546e0cc59ab\" class=\"sc_prev\">Previous</a> | <a href=\"./resolveuid/5170b79f5b62ed3a4d96b27fc3edc468\" class=\"sc_next\">Next</a> &raquo;</p> <p>&nbsp;</p> <p>The definite integral of a function describes the area between the graph of that function and the horizontal axis.  The First Fundamental Theorem of Calculus confirms that we can use what we learned about derivatives to quickly calculate this area.</p> <blockquote> <p>&raquo; <a href=\"./resolveuid/5170b79f5b62ed3a4d96b27fc3edc468\">Session 43: Definite Integrals</a><br /> &raquo; <a href=\"./resolveuid/9f42b86cbcb7812f84f2846c3d7ce9f5\">Session 44: Adding Areas of Rectangles</a><br /> &raquo; <a href=\"./resolveuid/4bffe5cc16196016e52210964dbeddc4\">Session 45: Some Easy Integrals</a><br /> &raquo; <a href=\"./resolveuid/d5e0c7a6f17252a3c694d627faf12123\">Session 46: Riemann Sums</a><br /> &raquo; <a href=\"./resolveuid/49d44d0cd4d7368fb65410f6924c7265\">Session 47: Introduction of the Fundamental Theorem of Calculus</a><br /> &raquo; <a href=\"./resolveuid/bdc58167f5508759dd279c33d7d08852\">Session 48: The Fundamental Theorem of Calculus</a><br /> &raquo; <a href=\"./resolveuid/bd925f6f8a78fde6be8c709ded2799e9\">Session 49: Applications of the Fundamental Theorem of Calculus</a><br /> &raquo; <a href=\"./resolveuid/40dfd7f7252455d1041a5ecfb183cd9f\">Session 50: Combining the Fundamental Theorem and the Mean Value Theorem</a><br /> &raquo; <a href=\"./resolveuid/bc72db410b84f2d1a10a6c5a9399e431\">Problem Set 6</a></p> </blockquote> <p>&nbsp;</p> <p class=\"sc_nav_bottom\">&laquo; <a href=\"./resolveuid/4c201b00a0470284ebd6c546e0cc59ab\" class=\"sc_prev\">Previous</a> | <a href=\"./resolveuid/5170b79f5b62ed3a4d96b27fc3edc468\" class=\"sc_next\">Next</a> &raquo;</p>", 
    "_content_type_license": "text/plain", 
    "_uid": "0b76caa8a52837fdba43c151842bb90a", 
    "title": "Part A: Definition of the Definite Integral and First Fundamental Theorem", 
    "_ac_local_roles": {
        "cc_akuma1": [
            "Owner"
        ]
    }, 
    "location": "", 
    "_content_type_course_identifier": "text/plain", 
    "_atbrefs": {
        "isReferencing": [
            "4c201b00a0470284ebd6c546e0cc59ab", 
            "5170b79f5b62ed3a4d96b27fc3edc468"
        ]
    }, 
    "constrainTypesMode": 0, 
    "_content_type_section_identifier": "text/plain", 
    "technical_location": "https://ocw.mit.edu/courses/mathematics/18-01sc-single-variable-calculus-fall-2010/unit-3-the-definite-integral-and-its-applications/part-a-definition-of-the-definite-integral-and-first-fundamental-theorem", 
    "software_requirements": [
        {
            "software_type_col": "Browser", 
            "minimum_version_col": "40.0", 
            "software_name_col": "Chrome", 
            "maximum_version_col": ""
        }, 
        {
            "software_type_col": "Browser", 
            "minimum_version_col": "8.0", 
            "software_name_col": "Safari", 
            "maximum_version_col": ""
        }, 
        {
            "software_type_col": "Browser", 
            "minimum_version_col": "38.0", 
            "software_name_col": "Mozilla Firefox", 
            "maximum_version_col": ""
        }, 
        {
            "software_type_col": "Browser", 
            "minimum_version_col": "9.0", 
            "software_name_col": "Internet Explorer", 
            "maximum_version_col": ""
        }, 
        {
            "software_type_col": "Browser", 
            "minimum_version_col": "13.1", 
            "software_name_col": "Edge", 
            "maximum_version_col": ""
        }
    ], 
    "_content_type_technical_location": "text/plain", 
    "_content_type_rights": "text/html", 
    "_directly_provided": [
        "Products.CMFEditions.interfaces.IVersioned"
    ], 
    "parent_uid": "4c201b00a0470284ebd6c546e0cc59ab", 
    "excludeFromNav": false, 
    "_content_type_unique_identifier": "text/plain", 
    "allowDiscussion": false, 
    "metadata_contributor_list": [], 
    "locallyAllowedTypes": [
        "OCWImage", 
        "CourseSection", 
        "OCWExtFile", 
        "OCWFile", 
        "MediaResource"
    ], 
    "_content_type_text": "text/html", 
    "ad_type": "HOUSE", 
    "creation_date": "2010/11/03 14:14:30.508 GMT-4", 
    "aggregationlevel": 3, 
    "duration": "", 
    "immediatelyAddableTypes": [
        "OCWImage", 
        "CourseSection", 
        "OCWExtFile", 
        "OCWFile", 
        "MediaResource"
    ], 
    "subject": [], 
    "_content_type_short_page_title": "text/plain", 
    "effectiveDate": "2010/11/03 14:31:38.325 GMT-4", 
    "parent_module": "bfe41979b9593362793fd930b36efa01", 
    "is_mathml_document": false, 
    "bottomtext": "", 
    "short_page_title": "Part A: Definition of the Definite Integral and First Fundamental", 
    "section_identifier": "https://ocw.mit.edu/courses/mathematics/18-01sc-single-variable-calculus-fall-2010/unit-3-the-definite-integral-and-its-applications", 
    "related_mit_links": "", 
    "_content_type_ad_type": "text/plain", 
    "_layout": "custom_view", 
    "_workflow_history": {
        "page_workflow": [
            {
                "action": null, 
                "review_state": "waiting_for_authoring", 
                "comments": "", 
                "actor": "Kcanavan", 
                "time": "2010/11/03 14:14:30.514 GMT-4"
            }, 
            {
                "action": "approve_to_staging", 
                "review_state": "ready_for_staging", 
                "actor": "Kcanavan", 
                "comments": "", 
                "time": "2010/11/03 14:31:38.348 GMT-4"
            }, 
            {
                "action": "decline_to_qa", 
                "review_state": "waiting_for_qa", 
                "comments": "", 
                "actor": "Kcanavan", 
                "time": "2010/11/04 13:01:23.333 GMT-4"
            }, 
            {
                "action": "approve_to_staging", 
                "review_state": "ready_for_staging", 
                "actor": "Kcanavan", 
                "comments": "", 
                "time": "2010/11/04 13:02:08.423 GMT-4"
            }, 
            {
                "action": "decline_to_qa", 
                "review_state": "waiting_for_qa", 
                "comments": "", 
                "actor": "Kcanavan", 
                "time": "2010/11/17 14:36:01.894 US/Eastern"
            }, 
            {
                "action": "approve_to_staging", 
                "review_state": "ready_for_staging", 
                "comments": "", 
                "actor": "Kcanavan", 
                "time": "2010/11/18 11:40:24.751 US/Eastern"
            }, 
            {
                "action": "decline", 
                "review_state": "waiting_for_authoring", 
                "actor": "cc_gegrov", 
                "comments": "", 
                "time": "2010/12/23 01:44:54.321 US/Eastern"
            }, 
            {
                "action": "approve_to_staging", 
                "review_state": "ready_for_staging", 
                "comments": "", 
                "actor": "cc_gegrov", 
                "time": "2010/12/23 06:47:37.813 US/Eastern"
            }, 
            {
                "action": "decline_to_qa", 
                "review_state": "waiting_for_qa", 
                "actor": "Kcanavan", 
                "comments": "", 
                "time": "2011/01/06 11:08:21.063 US/Eastern"
            }, 
            {
                "action": "approve_to_staging", 
                "review_state": "ready_for_staging", 
                "actor": "Kcanavan", 
                "comments": "", 
                "time": "2011/01/07 12:51:58.729 US/Eastern"
            }, 
            {
                "action": "decline_to_qa", 
                "review_state": "waiting_for_qa", 
                "comments": "", 
                "actor": "Kcanavan", 
                "time": "2011/01/07 22:21:37.662 US/Eastern"
            }, 
            {
                "action": "approve_to_staging", 
                "review_state": "ready_for_staging", 
                "actor": "Kcanavan", 
                "comments": "", 
                "time": "2011/01/07 22:23:06.146 US/Eastern"
            }, 
            {
                "action": "decline_to_qa", 
                "review_state": "waiting_for_qa", 
                "comments": "", 
                "actor": "Kcanavan", 
                "time": "2011/01/08 23:14:19.834 US/Eastern"
            }, 
            {
                "action": "approve_to_staging", 
                "review_state": "ready_for_staging", 
                "actor": "Kcanavan", 
                "comments": "", 
                "time": "2011/01/09 00:21:41.447 US/Eastern"
            }, 
            {
                "action": null, 
                "review_state": "waiting_for_authoring", 
                "actor": "cc_akuma1", 
                "comments": "", 
                "time": "2012/11/08 01:02:05.044 US/Eastern"
            }, 
            {
                "action": "approve_to_staging", 
                "review_state": "ready_for_staging", 
                "comments": "", 
                "actor": "ndhamija", 
                "time": "2012/11/09 03:16:59.928 US/Eastern"
            }, 
            {
                "action": "decline", 
                "review_state": "waiting_for_authoring", 
                "actor": "asingh124", 
                "comments": "", 
                "time": "2012/11/23 06:14:03.683 US/Eastern"
            }, 
            {
                "action": "approve_to_staging", 
                "review_state": "ready_for_staging", 
                "actor": "abohra", 
                "comments": "", 
                "time": "2012/11/23 06:47:07.108 US/Eastern"
            }
        ]
    }, 
    "_classname": "CourseSection", 
    "_content_type_materialtype": "text/plain", 
    "_userdefined_roles": [], 
    "publisher": "MIT OpenCourseWare", 
    "nextPreviousEnabled": false, 
    "language": "", 
    "url_rewrite_patterns": [], 
    "widgets_features": [], 
    "category_features": [], 
    "firstTimeEdit": true, 
    "feature_requirements": [], 
    "list_in_left_nav": true, 
    "short_name_tlp": "Part A: Definition of the Definite Integral and First Fundamental", 
    "expirationDate": "None", 
    "_content_type_id": "text/plain", 
    "contributor_list": [
        {}
    ], 
    "is_media_gallery": false, 
    "contributors": [], 
    "_gopip": 0, 
    "_content_type_title": "text/plain", 
    "course_linking": [], 
    "_atrefs": {
        "BelongsTo": [
            "bfe41979b9593362793fd930b36efa01"
        ], 
        "isReferencing": [
            "d5e0c7a6f17252a3c694d627faf12123", 
            "bdc58167f5508759dd279c33d7d08852", 
            "40dfd7f7252455d1041a5ecfb183cd9f", 
            "49d44d0cd4d7368fb65410f6924c7265", 
            "bd925f6f8a78fde6be8c709ded2799e9", 
            "5170b79f5b62ed3a4d96b27fc3edc468", 
            "9f42b86cbcb7812f84f2846c3d7ce9f5", 
            "bc72db410b84f2d1a10a6c5a9399e431", 
            "4bffe5cc16196016e52210964dbeddc4", 
            "4c201b00a0470284ebd6c546e0cc59ab"
        ]
    }, 
    "other_platform_requirements": "", 
    "license": "http://creativecommons.org/licenses/by-nc-sa/3.0/us/", 
    "rights": "This site (c) Massachusetts Institute of Technology 2010.  Content within individual courses is (c) by the individual authors unless otherwise noted. The Massachusetts Institute of Technology is providing this Work (as defined below) under the terms of this Creative Commons public license (\"CCPL\" or \"license\") unless otherwise noted. The Work is protected by copyright and/or other applicable law. Any use of the work other than as authorized under this license is prohibited. By exercising any of the rights to the Work provided here, You (as defined below) accept and agree to be bound by the terms of this license. The Licensor, the Massachusetts Institute of Technology, grants You the rights contained here in consideration of Your acceptance of such terms and conditions.", 
    "hide_Page_title": null, 
    "_defaultpage": "", 
    "tcATmit_subject_tags": [], 
    "features_tracking": [], 
    "ad_champion_text": "", 
    "has_inline_embed": false, 
    "unique_identifier": "https://ocw.mit.edu/courses/mathematics/18-01sc-single-variable-calculus-fall-2010/unit-3-the-definite-integral-and-its-applications/part-a-definition-of-the-definite-integral-and-first-fundamental-theorem", 
    "is_image_gallery": false, 
    "id": "part-a-definition-of-the-definite-integral-and-first-fundamental-theorem", 
    "materialtype": "Other", 
    "_type": "CourseSection", 
    "description": "This section includes lectures on the definite integral and the first fundamental theorem of calculus.", 
    "course_identifier": "https://ocw.mit.edu/courses/mathematics/18-01sc-single-variable-calculus-fall-2010", 
    "_content_type_publisher": "text/plain", 
    "tcATmit_instructional_tags": [], 
    "_content_type": "text/html", 
    "creators": [
        "Kcanavan"
    ], 
    "modification_date": "2016/09/24 07:48:56.830 GMT-4", 
    "always_publish": false, 
    "_content_type_description": "text/plain", 
    "_owner": null, 
    "_permissions": {
        "Change portal events": {
            "acquire": false, 
            "roles": [
                "Editor", 
                "Manager", 
                "MetadataEditor", 
                "Owner"
            ]
        }, 
        "Modify portal content": {
            "acquire": false, 
            "roles": [
                "Manager", 
                "MetadataEditor"
            ]
        }, 
        "Access contents information": {
            "acquire": false, 
            "roles": [
                "Authenticated"
            ]
        }, 
        "List folder contents": {
            "acquire": false, 
            "roles": [
                "Editor", 
                "Manager", 
                "MetadataEditor", 
                "Owner"
            ]
        }, 
        "View": {
            "acquire": false, 
            "roles": [
                "Authenticated"
            ]
        }
    }, 
    "_properties": [
        [
            "title", 
            "Part A: Definition of the Definite Integral and First Fundamental Theorem", 
            "string"
        ]
    ], 
    "_id": "part-a-definition-of-the-definite-integral-and-first-fundamental-theorem", 
    "courselist_features": [], 
    "_content_type_short_name_tlp": "text/plain", 
    "_path": "/Plone/courses/mathematics/18-01sc-single-variable-calculus-fall-2010/unit-3-the-definite-integral-and-its-applications/part-a-definition-of-the-definite-integral-and-first-fundamental-theorem"
}