{
    "text": "<p class=\"sc_nav\">&laquo; <a href=\"./resolveuid/0b76caa8a52837fdba43c151842bb90a\" class=\"sc_prev\">Previous</a> | <a href=\"./resolveuid/9f42b86cbcb7812f84f2846c3d7ce9f5\" class=\"sc_next\">Next</a> &raquo;</p> <p>&nbsp;</p> <h2 class=\"subhead\">Overview</h2> <p>We can use antiderivatives to find the area bounded by some vertical line x=a, the graph of a function, the line x=b, and the x-axis.  We can prove that this works by dividing that area up into infinitesimally thin rectangles.</p> <h2 class=\"subhead\">Lecture Video and Notes</h2> <h3 class=\"subsubhead\">Video Excerpts</h3> <div class=\"embedbg\"><div class=\"medialisting\"><p>44403265clip1:introductiontodefiniteintegrals57933756</p></div> <div class=\"medialisting\"><p>6164943clip2:definitionofdefiniteintegrals93706583</p></div></div> <h2 class=\"subhead\">Worked Example</h2> <p>&nbsp;</p> <p>Integration Intuition</p> <ul>     <li><a href=\"./resolveuid/e39753c48220e844b2fbf59a6ca3c284\" target=\"_blank\" title=\"Open in a new window.\">Problem (PDF)</a></li>     <li><a href=\"./resolveuid/e0806c4ce8d4908951eaf15d0f7832cf\" target=\"_blank\" title=\"Open in a new window.\">Solution (PDF)</a></li> </ul> <p>&nbsp;</p> <p class=\"sc_nav_bottom\">&laquo; <a href=\"./resolveuid/0b76caa8a52837fdba43c151842bb90a\" class=\"sc_prev\">Previous</a> | <a href=\"./resolveuid/9f42b86cbcb7812f84f2846c3d7ce9f5\" class=\"sc_next\">Next</a> &raquo;</p>", 
    "_content_type_license": "text/plain", 
    "_uid": "5170b79f5b62ed3a4d96b27fc3edc468", 
    "title": "Session 43: Definite Integrals", 
    "_ac_local_roles": {
        "cc_akuma1": [
            "Owner"
        ]
    }, 
    "location": "", 
    "_content_type_course_identifier": "text/plain", 
    "_atbrefs": {
        "isReferencing": [
            "4c201b00a0470284ebd6c546e0cc59ab", 
            "0b76caa8a52837fdba43c151842bb90a", 
            "9f42b86cbcb7812f84f2846c3d7ce9f5"
        ]
    }, 
    "constrainTypesMode": -1, 
    "_content_type_section_identifier": "text/plain", 
    "technical_location": "https://ocw.mit.edu/courses/mathematics/18-01sc-single-variable-calculus-fall-2010/unit-3-the-definite-integral-and-its-applications/part-a-definition-of-the-definite-integral-and-first-fundamental-theorem/session-43-definite-integrals", 
    "software_requirements": [
        {
            "software_type_col": "Browser", 
            "minimum_version_col": "40.0", 
            "software_name_col": "Chrome", 
            "maximum_version_col": ""
        }, 
        {
            "software_type_col": "Browser", 
            "minimum_version_col": "8.0", 
            "software_name_col": "Safari", 
            "maximum_version_col": ""
        }, 
        {
            "software_type_col": "Browser", 
            "minimum_version_col": "38.0", 
            "software_name_col": "Mozilla Firefox", 
            "maximum_version_col": ""
        }, 
        {
            "software_type_col": "Browser", 
            "minimum_version_col": "9.0", 
            "software_name_col": "Internet Explorer", 
            "maximum_version_col": ""
        }, 
        {
            "software_type_col": "Browser", 
            "minimum_version_col": "13.1", 
            "software_name_col": "Edge", 
            "maximum_version_col": ""
        }
    ], 
    "_content_type_technical_location": "text/plain", 
    "_content_type_rights": "text/html", 
    "_directly_provided": [
        "Products.CMFEditions.interfaces.IVersioned"
    ], 
    "parent_uid": "0b76caa8a52837fdba43c151842bb90a", 
    "excludeFromNav": false, 
    "_content_type_unique_identifier": "text/plain", 
    "allowDiscussion": false, 
    "metadata_contributor_list": [], 
    "locallyAllowedTypes": [
        "OCWImage", 
        "CourseSection", 
        "OCWExtFile", 
        "OCWFile", 
        "MediaResource"
    ], 
    "_content_type_text": "text/html", 
    "ad_type": "HOUSE", 
    "creation_date": "2010/11/17 14:36:40.973 US/Eastern", 
    "aggregationlevel": 3, 
    "duration": "", 
    "immediatelyAddableTypes": [
        "OCWImage", 
        "CourseSection", 
        "OCWExtFile", 
        "OCWFile", 
        "MediaResource"
    ], 
    "subject": [], 
    "_content_type_short_page_title": "text/plain", 
    "effectiveDate": "2010/11/17 14:36:55.195 US/Eastern", 
    "parent_module": "bfe41979b9593362793fd930b36efa01", 
    "is_mathml_document": false, 
    "bottomtext": "", 
    "short_page_title": "Session 43: Definite Integrals", 
    "section_identifier": "https://ocw.mit.edu/courses/mathematics/18-01sc-single-variable-calculus-fall-2010/unit-3-the-definite-integral-and-its-applications", 
    "related_mit_links": "", 
    "_content_type_ad_type": "text/plain", 
    "_layout": "custom_view", 
    "_workflow_history": {
        "page_workflow": [
            {
                "action": null, 
                "review_state": "waiting_for_authoring", 
                "comments": "", 
                "actor": "Kcanavan", 
                "time": "2010/11/17 14:36:40.983 US/Eastern"
            }, 
            {
                "action": "approve_to_staging", 
                "review_state": "ready_for_staging", 
                "comments": "", 
                "actor": "Kcanavan", 
                "time": "2010/11/17 14:36:55.218 US/Eastern"
            }, 
            {
                "action": "decline", 
                "review_state": "waiting_for_authoring", 
                "actor": "cc_gegrov", 
                "comments": "", 
                "time": "2010/12/23 01:45:54.272 US/Eastern"
            }, 
            {
                "action": "approve_to_staging", 
                "review_state": "ready_for_staging", 
                "actor": "cc_gegrov", 
                "comments": "", 
                "time": "2010/12/23 06:48:10.560 US/Eastern"
            }, 
            {
                "action": "decline", 
                "review_state": "waiting_for_authoring", 
                "comments": "", 
                "actor": "Carchidi", 
                "time": "2010/12/23 13:34:20.784 US/Eastern"
            }, 
            {
                "action": "approve_to_staging", 
                "review_state": "ready_for_staging", 
                "comments": "", 
                "actor": "Carchidi", 
                "time": "2010/12/23 13:35:01.923 US/Eastern"
            }, 
            {
                "action": "decline_to_qa", 
                "review_state": "waiting_for_qa", 
                "actor": "Kcanavan", 
                "comments": "", 
                "time": "2011/01/06 17:15:21.398 US/Eastern"
            }, 
            {
                "action": "approve_to_staging", 
                "review_state": "ready_for_staging", 
                "comments": "", 
                "actor": "Kcanavan", 
                "time": "2011/01/07 12:02:36.682 US/Eastern"
            }, 
            {
                "action": null, 
                "review_state": "waiting_for_authoring", 
                "comments": "", 
                "actor": "cc_akuma1", 
                "time": "2012/11/08 01:02:03.982 US/Eastern"
            }, 
            {
                "action": "approve_to_staging", 
                "review_state": "ready_for_staging", 
                "actor": "ndhamija", 
                "comments": "", 
                "time": "2012/11/09 03:33:15.002 US/Eastern"
            }, 
            {
                "action": "decline", 
                "review_state": "waiting_for_authoring", 
                "actor": "abohra", 
                "comments": "", 
                "time": "2012/11/22 22:51:01.922 US/Eastern"
            }, 
            {
                "action": "approve_to_staging", 
                "review_state": "ready_for_staging", 
                "actor": "abohra", 
                "comments": "", 
                "time": "2012/11/23 06:47:36.328 US/Eastern"
            }, 
            {
                "action": "decline_to_qa", 
                "review_state": "waiting_for_qa", 
                "actor": "shellyu", 
                "comments": "", 
                "time": "2012/11/28 17:25:16.396 US/Eastern"
            }, 
            {
                "action": "approve_to_staging", 
                "review_state": "ready_for_staging", 
                "comments": "", 
                "actor": "shellyu", 
                "time": "2012/11/28 17:27:26.083 US/Eastern"
            }, 
            {
                "action": "decline_to_qa", 
                "review_state": "waiting_for_qa", 
                "actor": "kqli", 
                "comments": "", 
                "time": "2012/12/28 16:16:07.976 US/Eastern"
            }, 
            {
                "action": "approve_to_staging", 
                "review_state": "ready_for_staging", 
                "comments": "", 
                "actor": "kqli", 
                "time": "2013/01/02 12:18:07.841 US/Eastern"
            }, 
            {
                "action": "decline_to_qa", 
                "review_state": "waiting_for_qa", 
                "actor": "Jcplayer", 
                "comments": "", 
                "time": "2013/08/21 16:55:56.591 GMT-4"
            }, 
            {
                "action": "approve_to_staging", 
                "review_state": "ready_for_staging", 
                "comments": "", 
                "actor": "Jcplayer", 
                "time": "2013/08/21 17:02:46.105 GMT-4"
            }, 
            {
                "action": "decline", 
                "review_state": "waiting_for_authoring", 
                "actor": "pgandhi3", 
                "comments": "", 
                "time": "2014/09/05 05:18:59.409 GMT-4"
            }, 
            {
                "action": "approve_to_staging", 
                "review_state": "ready_for_staging", 
                "comments": "", 
                "actor": "pgandhi3", 
                "time": "2014/09/05 05:26:37.552 GMT-4"
            }, 
            {
                "action": "decline", 
                "review_state": "waiting_for_authoring", 
                "comments": "", 
                "actor": "pgandhi3", 
                "time": "2014/09/05 05:30:19.441 GMT-4"
            }, 
            {
                "action": "approve_to_staging", 
                "review_state": "ready_for_staging", 
                "actor": "pgandhi3", 
                "comments": "", 
                "time": "2014/09/05 05:35:35.718 GMT-4"
            }, 
            {
                "action": "decline", 
                "review_state": "waiting_for_authoring", 
                "comments": "", 
                "actor": "sbabbar", 
                "time": "2015/12/22 05:18:33.763 US/Eastern"
            }, 
            {
                "action": "approve_to_staging", 
                "review_state": "ready_for_staging", 
                "actor": "sbabbar", 
                "comments": "", 
                "time": "2015/12/29 03:23:18.818 US/Eastern"
            }, 
            {
                "action": "decline", 
                "review_state": "waiting_for_authoring", 
                "comments": "", 
                "actor": "rsharma20", 
                "time": "2016/01/05 14:38:17.449 US/Eastern"
            }, 
            {
                "action": "approve_to_staging", 
                "review_state": "ready_for_staging", 
                "actor": "rsharma20", 
                "comments": "", 
                "time": "2016/01/05 14:40:35.326 US/Eastern"
            }
        ]
    }, 
    "_classname": "CourseSection", 
    "_content_type_materialtype": "text/plain", 
    "_userdefined_roles": [], 
    "publisher": "MIT OpenCourseWare", 
    "nextPreviousEnabled": false, 
    "language": "", 
    "url_rewrite_patterns": [], 
    "widgets_features": [], 
    "category_features": [], 
    "firstTimeEdit": true, 
    "feature_requirements": [], 
    "list_in_left_nav": false, 
    "short_name_tlp": "Session 43: Definite Integrals", 
    "expirationDate": "None", 
    "_content_type_id": "text/plain", 
    "contributor_list": [
        {}
    ], 
    "is_media_gallery": false, 
    "contributors": [], 
    "_gopip": 0, 
    "_content_type_title": "text/plain", 
    "course_linking": [], 
    "_atrefs": {
        "BelongsTo": [
            "bfe41979b9593362793fd930b36efa01"
        ], 
        "isReferencing": [
            "9f42b86cbcb7812f84f2846c3d7ce9f5", 
            "0b76caa8a52837fdba43c151842bb90a", 
            "e39753c48220e844b2fbf59a6ca3c284", 
            "e0806c4ce8d4908951eaf15d0f7832cf"
        ]
    }, 
    "other_platform_requirements": "", 
    "license": "http://creativecommons.org/licenses/by-nc-sa/3.0/us/", 
    "rights": "This site (c) Massachusetts Institute of Technology 2010.  Content within individual courses is (c) by the individual authors unless otherwise noted. The Massachusetts Institute of Technology is providing this Work (as defined below) under the terms of this Creative Commons public license (\"CCPL\" or \"license\") unless otherwise noted. The Work is protected by copyright and/or other applicable law. Any use of the work other than as authorized under this license is prohibited. By exercising any of the rights to the Work provided here, You (as defined below) accept and agree to be bound by the terms of this license. The Licensor, the Massachusetts Institute of Technology, grants You the rights contained here in consideration of Your acceptance of such terms and conditions.", 
    "hide_Page_title": null, 
    "_defaultpage": "", 
    "tcATmit_subject_tags": [], 
    "features_tracking": [], 
    "ad_champion_text": "", 
    "has_inline_embed": true, 
    "unique_identifier": "https://ocw.mit.edu/courses/mathematics/18-01sc-single-variable-calculus-fall-2010/unit-3-the-definite-integral-and-its-applications/part-a-definition-of-the-definite-integral-and-first-fundamental-theorem/session-43-definite-integrals", 
    "is_image_gallery": false, 
    "id": "session-43-definite-integrals", 
    "materialtype": "Other", 
    "_type": "CourseSection", 
    "description": "This section contains lecture video excerpts, lecture notes, and a worked example on definite integrals.", 
    "course_identifier": "https://ocw.mit.edu/courses/mathematics/18-01sc-single-variable-calculus-fall-2010", 
    "_content_type_publisher": "text/plain", 
    "tcATmit_instructional_tags": [], 
    "_content_type": "text/html", 
    "creators": [
        "Kcanavan"
    ], 
    "modification_date": "2016/09/24 07:48:54.295 GMT-4", 
    "always_publish": true, 
    "_content_type_description": "text/plain", 
    "_owner": null, 
    "_permissions": {
        "Change portal events": {
            "acquire": false, 
            "roles": [
                "Editor", 
                "Manager", 
                "MetadataEditor", 
                "Owner"
            ]
        }, 
        "Modify portal content": {
            "acquire": false, 
            "roles": [
                "Manager", 
                "MetadataEditor"
            ]
        }, 
        "Access contents information": {
            "acquire": false, 
            "roles": [
                "Authenticated"
            ]
        }, 
        "List folder contents": {
            "acquire": false, 
            "roles": [
                "Editor", 
                "Manager", 
                "MetadataEditor", 
                "Owner"
            ]
        }, 
        "View": {
            "acquire": false, 
            "roles": [
                "Authenticated"
            ]
        }
    }, 
    "_properties": [
        [
            "title", 
            "Session 43: Definite Integrals", 
            "string"
        ]
    ], 
    "_id": "session-43-definite-integrals", 
    "courselist_features": [], 
    "_content_type_short_name_tlp": "text/plain", 
    "_path": "/Plone/courses/mathematics/18-01sc-single-variable-calculus-fall-2010/unit-3-the-definite-integral-and-its-applications/part-a-definition-of-the-definite-integral-and-first-fundamental-theorem/session-43-definite-integrals"
}