{
    "rsi_top_html_area": "", 
    "text": "", 
    "_content_type_license": "text/plain", 
    "_uid": "06d5e5b264f607dcea9924a7727c880a", 
    "title": "Integration by Completing the Square", 
    "_ac_local_roles": {
        "sbabbar": [
            "Owner"
        ]
    }, 
    "template_type": "Embed", 
    "location": "", 
    "_content_type_course_identifier": "text/plain", 
    "_atbrefs": {}, 
    "constrainTypesMode": 0, 
    "_content_type_section_identifier": "text/plain", 
    "technical_location": "https://ocw.mit.edu/courses/mathematics/18-01sc-single-variable-calculus-fall-2010/unit-4-techniques-of-integration/part-a-trigonometric-powers-trigonometric-substitution-and-completing-the-square/session-73-completing-the-square/integration-by-completing-the-square", 
    "software_requirements": [
        {
            "software_type_col": "Browser", 
            "minimum_version_col": "40.0", 
            "software_name_col": "Chrome", 
            "maximum_version_col": ""
        }, 
        {
            "software_type_col": "Browser", 
            "minimum_version_col": "8.0", 
            "software_name_col": "Safari", 
            "maximum_version_col": ""
        }, 
        {
            "software_type_col": "Browser", 
            "minimum_version_col": "38.0", 
            "software_name_col": "Mozilla Firefox", 
            "maximum_version_col": ""
        }, 
        {
            "software_type_col": "Browser", 
            "minimum_version_col": "9.0", 
            "software_name_col": "Internet Explorer", 
            "maximum_version_col": ""
        }, 
        {
            "software_type_col": "Browser", 
            "minimum_version_col": "13.1", 
            "software_name_col": "Edge", 
            "maximum_version_col": ""
        }
    ], 
    "_content_type_technical_location": "text/plain", 
    "start_time": "", 
    "_content_type_rights": "text/html", 
    "_directly_provided": [
        "Products.CMFEditions.interfaces.IVersioned"
    ], 
    "media_rights": "(CC BY-NC-SA)", 
    "parent_uid": "3d81cd65aedbbd557617501fb6a0b493", 
    "excludeFromNav": false, 
    "about_this_resource_text": "", 
    "_content_type_unique_identifier": "text/plain", 
    "end_time": "", 
    "allowDiscussion": false, 
    "_content_type_materialtype": "text/plain", 
    "locallyAllowedTypes": [
        "OCWImage", 
        "OCWFile", 
        "OCWMediaAsset"
    ], 
    "optional_tab_title": "", 
    "ad_type": "HOUSE", 
    "creation_date": "2015/12/24 01:45:52.418 US/Eastern", 
    "aggregationlevel": 2, 
    "bottom_html_area": "", 
    "duration": "", 
    "immediatelyAddableTypes": [
        "OCWImage", 
        "OCWFile", 
        "OCWMediaAsset"
    ], 
    "_content_type_template_type": "text/plain", 
    "subject": [], 
    "_content_type_short_page_title": "text/plain", 
    "effectiveDate": "2015/12/29 04:54:44.273 US/Eastern", 
    "parent_module": "bfe41979b9593362793fd930b36efa01", 
    "is_mathml_document": false, 
    "bottomtext": "", 
    "short_page_title": "Integration by Completing the Square", 
    "section_identifier": "https://ocw.mit.edu/courses/mathematics/18-01sc-single-variable-calculus-fall-2010/unit-4-techniques-of-integration", 
    "show_captions_outside_player": false, 
    "related_mit_links": "", 
    "_content_type_ad_type": "text/plain", 
    "_layout": "custom_view", 
    "_workflow_history": {
        "page_workflow": [
            {
                "action": null, 
                "review_state": "waiting_for_authoring", 
                "actor": "sbabbar", 
                "comments": "", 
                "time": "2015/12/24 01:45:52.432 US/Eastern"
            }, 
            {
                "action": "approve_to_staging", 
                "review_state": "ready_for_staging", 
                "actor": "sbabbar", 
                "comments": "", 
                "time": "2015/12/29 04:54:44.302 US/Eastern"
            }
        ]
    }, 
    "_content_type_transcript": "text/html", 
    "metadata_contributor_list": [], 
    "_userdefined_roles": [], 
    "_content_type_inline_embed_id": "text/plain", 
    "publisher": "MIT OpenCourseWare", 
    "nextPreviousEnabled": false, 
    "_gopip": 6, 
    "license": "http://creativecommons.org/licenses/by-nc-sa/3.0/us/", 
    "url_rewrite_patterns": [], 
    "widgets_features": [], 
    "category_features": [], 
    "resource_contributor_list": [
        {
            "res_contributor_entity": "Jerison, David", 
            "res_contributor_uid": "b28f05bbf3c3b44d28bc8f11fc7834cd", 
            "res_contributor_role": "Performer"
        }
    ], 
    "show_jump_back_5_seconds_button": false, 
    "firstTimeEdit": false, 
    "_content_type_media_rights": "text/plain", 
    "feature_requirements": [], 
    "list_in_left_nav": false, 
    "inline_embed_id": "83473187integrationbycompletingthesquare37469798", 
    "_classname": "MediaResource", 
    "short_name_tlp": "", 
    "expirationDate": "None", 
    "_content_type_id": "text/plain", 
    "contributor_list": [
        {}
    ], 
    "is_media_gallery": false, 
    "contributors": [], 
    "media_locations": [
        {}
    ], 
    "_content_type_media_resource_type": "text/plain", 
    "_content_type_title": "text/plain", 
    "subtitle_exemption": "None", 
    "_content_type": "text/html", 
    "resource_index_text": "", 
    "_atrefs": {
        "BelongsTo": [
            "bfe41979b9593362793fd930b36efa01"
        ]
    }, 
    "media_slides": [], 
    "other_platform_requirements": "", 
    "language": "", 
    "rights": "This site (c) Massachusetts Institute of Technology 2015.  Content within individual courses is (c) by the individual authors unless otherwise noted. The Massachusetts Institute of Technology is providing this Work (as defined below) under the terms of this Creative Commons public license (\"CCPL\" or \"license\") unless otherwise noted. The Work is protected by copyright and/or other applicable law. Any use of the work other than as authorized under this license is prohibited. By exercising any of the rights to the Work provided here, You (as defined below) accept and agree to be bound by the terms of this license. The Licensor, the Massachusetts Institute of Technology, grants You the rights contained here in consideration of Your acceptance of such terms and conditions.", 
    "hide_Page_title": false, 
    "_defaultpage": "", 
    "related_resources_text": "", 
    "tcATmit_subject_tags": [], 
    "features_tracking": [], 
    "ad_champion_text": "", 
    "has_inline_embed": false, 
    "unique_identifier": "https://ocw.mit.edu/courses/mathematics/18-01sc-single-variable-calculus-fall-2010/unit-4-techniques-of-integration/part-a-trigonometric-powers-trigonometric-substitution-and-completing-the-square/session-73-completing-the-square/integration-by-completing-the-square", 
    "link_text": "Integration by Completing the Square", 
    "is_image_gallery": false, 
    "id": "integration-by-completing-the-square", 
    "_content_type_subtitle_exemption": "text/plain", 
    "materialtype": "Other", 
    "optional_text": "", 
    "_type": "MediaResource", 
    "description": "", 
    "media_resource_type": "Video", 
    "course_identifier": "https://ocw.mit.edu/courses/mathematics/18-01sc-single-variable-calculus-fall-2010", 
    "_content_type_publisher": "text/plain", 
    "tcATmit_instructional_tags": [], 
    "transcript": "<p><span m='6910'>Welcome</span> <span m='7320'>back</span> <span m='7500'>to</span> <span m='7590'>recitation.</span> <span m='8380'>In</span> <span m='8750'>this</span> <span m='9020'>video,</span> <span m='9560'>I'd</span> <span m='9770'>like</span> <span m='9960'>us</span> <span m='10080'>to</span> <span m='10180'>find</span> <span m='10460'>an</span> <span m='10530'>antiderivative</span> <span m='11390'>of</span> <span m='11500'>the</span> <span m='11610'>function</span> <span m='11990'>1</span> <span m='12270'>over</span> <span m='13190'>x</span> <span m='13410'>squared</span> <span m='13680'>minus</span> <span m='14000'>8x</span> <span m='14650'>plus</span> <span m='14960'>1.</span> <span m='16140'>So I'll</span> <span m='16320'>give</span> <span m='16450'>you</span> <span m='16510'>a</span> <span m='16560'>while to</span> <span m='16770'>work</span> <span m='16950'>on</span> <span m='17090'>it,</span> <span m='17540'>and</span> <span m='17790'>then</span> <span m='17950'>I'll</span> <span m='18070'>come</span> <span m='18250'>back,</span> <span m='18550'>and</span> <span m='18660'>I'll</span> <span m='18740'>show you</span> <span m='18960'>how</span> <span m='19070'>I</span> <span m='19130'>started.</span> </p><p><span m='27710'>So</span> <span m='27930'>welcome</span> <span m='28230'>back.</span> <span m='28890'>Well,</span> <span m='29220'>what</span> <span m='29370'>we'd</span> <span m='29530'>like</span> <span m='29720'>to</span> <span m='29860'>do</span> <span m='30260'>is,</span> <span m='30660'>find an</span> <span m='31250'>antiderivative</span> <span m='31810'>to</span> <span m='32300'>1</span> <span m='32570'>over</span> <span m='32960'>x squared</span> <span m='33200'>minus</span> <span m='33500'>8x</span> <span m='33900'>plus</span> <span m='34090'>1.</span> <span m='34860'>And</span> <span m='35110'>how</span> <span m='35250'>we're</span> <span m='35310'>going</span> <span m='35480'>to</span> <span m='35560'>do</span> <span m='35710'>that,</span> <span m='36040'>is</span> <span m='36230'>we're</span> <span m='36330'>going</span> <span m='36480'>to</span> <span m='36540'>use</span> <span m='36740'>the</span> <span m='36830'>technique</span> <span m='37220'>completing</span> <span m='37650'>the</span> <span m='37760'>square.</span> <span m='38760'>And</span> <span m='38930'>I'm</span> <span m='39010'>going to</span> <span m='39240'>set</span> <span m='39450'>up</span> <span m='39560'>the</span> <span m='39660'>problem,</span> <span m='40200'>I'm</span> <span m='40270'>going to</span> <span m='40410'>get</span> <span m='40530'>it</span> <span m='40600'>to</span> <span m='40700'>a</span> <span m='40760'>certain</span> <span m='40990'>place,</span> <span m='41350'>and</span> <span m='41510'>then</span> <span m='41600'>I'm</span> <span m='41660'>going to</span> <span m='41860'>let</span> <span m='42030'>you</span> <span m='42160'>finish</span> <span m='42560'>it.</span> <span m='43070'>And</span> <span m='43540'>how</span> <span m='43670'>do</span> <span m='43760'>you</span> <span m='43860'>know</span> <span m='44000'>if you</span> <span m='44150'>got</span> <span m='44310'>the</span> <span m='44380'>right</span> <span m='44580'>answer?</span> <span m='45010'>Well,</span> <span m='45240'>you</span> <span m='45350'>actually</span> <span m='45710'>take</span> <span m='46000'>a</span> <span m='46060'>derivative</span> <span m='46590'>of</span> <span m='46680'>your</span> <span m='46830'>answer,</span> <span m='47200'>and</span> <span m='47370'>see</span> <span m='47520'>if</span> <span m='47620'>it</span> <span m='47700'>gives</span> <span m='47860'>you</span> <span m='47950'>back</span> <span m='48530'>1</span> <span m='48900'>over</span> <span m='49020'>x</span> <span m='49120'>squared</span> <span m='49530'>minus</span> <span m='49830'>8x</span> <span m='50360'>plus</span> <span m='50560'>1.</span> <span m='51180'>That's</span> <span m='51390'>how</span> <span m='51470'>you</span> <span m='51560'>can</span> <span m='51700'>check.</span> </p><p><span m='52430'>So</span> <span m='52630'>let's</span> <span m='52850'>start</span> <span m='53120'>off.</span> <span m='53420'>If</span> <span m='53510'>I</span> <span m='53590'>want</span> <span m='53740'>to</span> <span m='53800'>complete</span> <span m='54130'>the</span> <span m='54230'>square,</span> <span m='55080'>let's</span> <span m='55260'>just</span> <span m='55450'>remind</span> <span m='55760'>ourselves</span> <span m='60600'>how</span> <span m='60780'>to</span> <span m='60890'>complete</span> <span m='61230'>the</span> <span m='61320'>square</span> <span m='61700'>on</span> <span m='61880'>this</span> <span m='64340'>quadratic.</span> <span m='68480'>So</span> <span m='68620'>I'd</span> <span m='68760'>like</span> <span m='68980'>something</span> <span m='72210'>right</span> <span m='72430'>here</span> <span m='73340'>that</span> <span m='73490'>makes</span> <span m='73840'>this</span> <span m='74020'>a</span> <span m='74090'>perfect</span> <span m='74420'>square.</span> <span m='75470'>Right?</span> <span m='75750'>Well,</span> <span m='76310'>the</span> <span m='76530'>8</span> <span m='76860'>here</span> <span m='77040'>in</span> <span m='77120'>the</span> <span m='77200'>middle,</span> <span m='77530'>if</span> <span m='77640'>I</span> <span m='77720'>want a</span> <span m='77920'>perfect</span> <span m='78230'>square,</span> <span m='78570'>if</span> <span m='78670'>you</span> <span m='78760'>think</span> <span m='78930'>about</span> <span m='79160'>this,</span> <span m='79940'>I'm going to</span> <span m='80060'>have an x</span> <span m='80510'>minus--</span> <span m='81130'>I</span> <span m='81250'>need</span> <span m='81440'>a</span> <span m='81480'>number</span> <span m='81740'>here</span> <span m='82020'>that</span> <span m='82150'>when</span> <span m='82310'>I</span> <span m='82460'>multiply it</span> <span m='82910'>by</span> <span m='83130'>2,</span> <span m='83460'>that's</span> <span m='83680'>where</span> <span m='83810'>this</span> <span m='84090'>8</span> <span m='84320'>comes</span> <span m='84550'>from,</span> <span m='84845'>it</span> <span m='85140'>gives</span> <span m='85300'>me</span> <span m='85460'>8.</span> <span m='86210'>So</span> <span m='86450'>obviously</span> <span m='86900'>I</span> <span m='86960'>need</span> <span m='87130'>this</span> <span m='87290'>number</span> <span m='87490'>to</span> <span m='87590'>be</span> <span m='87700'>a</span> <span m='87750'>4.</span> <span m='89090'>Right?</span> <span m='89370'>Which</span> <span m='89580'>puts</span> <span m='89840'>what</span> <span m='90090'>here?</span> <span m='91460'>Puts</span> <span m='91620'>a</span> <span m='91720'>16</span> <span m='92200'>here,</span> <span m='92440'>right?</span> </p><p><span m='94450'>So</span> <span m='95250'>just</span> <span m='95710'>to</span> <span m='95850'>double</span> <span m='96200'>check,</span> <span m='96560'>what</span> <span m='96730'>I'm</span> <span m='96830'>looking</span> <span m='97090'>for</span> <span m='97290'>is</span> <span m='97390'>a</span> <span m='97450'>number</span> <span m='97750'>here--</span> <span m='98830'>I</span> <span m='98920'>need</span> <span m='99090'>a</span> <span m='99130'>number</span> <span m='99370'>right</span> <span m='99550'>here</span> <span m='99710'>that</span> <span m='99810'>when</span> <span m='99930'>I</span> <span m='99970'>multiply</span> <span m='100590'>by</span> <span m='100870'>2,</span> <span m='101110'>gives</span> <span m='101300'>me</span> <span m='101400'>negative</span> <span m='101710'>8,</span> <span m='102210'>and</span> <span m='102490'>then</span> <span m='102620'>I</span> <span m='102670'>need</span> <span m='103220'>to</span> <span m='103350'>figure</span> <span m='103630'>out</span> <span m='103740'>what it</span> <span m='103940'>squares</span> <span m='104350'>to.</span> <span m='105090'>So</span> <span m='105270'>that</span> <span m='105420'>number is</span> <span m='105660'>negative</span> <span m='105930'>4,</span> <span m='106190'>and it</span> <span m='106350'>squares to</span> <span m='106610'>16.</span> <span m='107630'>But</span> <span m='107870'>obviously</span> <span m='108170'>this</span> <span m='108320'>isn't</span> <span m='108470'>what</span> <span m='108630'>I</span> <span m='108690'>have,</span> <span m='109470'>right?</span> <span m='109660'>I</span> <span m='109710'>have</span> <span m='109960'>plus</span> <span m='110240'>1.</span> <span m='111020'>So</span> <span m='111210'>what</span> <span m='111350'>have</span> <span m='111430'>I</span> <span m='111520'>had</span> <span m='111730'>to</span> <span m='111830'>do</span> <span m='112130'>to</span> <span m='112250'>get</span> <span m='112440'>from</span> <span m='112610'>here</span> <span m='112830'>to</span> <span m='112960'>here?</span> <span m='114090'>Well,</span> <span m='114460'>I</span> <span m='114530'>had</span> <span m='114880'>plus</span> <span m='115120'>1</span> <span m='115560'>and</span> <span m='115700'>now</span> <span m='115790'>I</span> <span m='115840'>have</span> <span m='116030'>plus</span> <span m='116270'>16,</span> <span m='116710'>so</span> <span m='116830'>obviously</span> <span m='117150'>I've added</span> <span m='117530'>15.</span> <span m='118460'>So</span> <span m='118610'>I</span> <span m='118650'>have</span> <span m='118800'>to subtract</span> <span m='119410'>15</span> <span m='121570'>to</span> <span m='121730'>keep this, to keep</span> <span m='122940'>these</span> <span m='123190'>three</span> <span m='123510'>lines</span> <span m='123920'>all</span> <span m='124090'>equal</span> <span m='124330'>to</span> <span m='124480'>each</span> <span m='124650'>other.</span> </p><p><span m='125560'>So</span> <span m='125770'>to</span> <span m='125840'>understand</span> <span m='126210'>where</span> <span m='126300'>that</span> <span m='126470'>comes</span> <span m='126750'>from,</span> <span m='127840'>let</span> <span m='127930'>me</span> <span m='128010'>just</span> <span m='128160'>remind</span> <span m='128470'>you,</span> <span m='129450'>my</span> <span m='129600'>denominator</span> <span m='130090'>was</span> <span m='130240'>looking</span> <span m='130550'>like</span> <span m='130730'>this.</span> <span m='131040'>I'd</span> <span m='131270'>like</span> <span m='131500'>it</span> <span m='131620'>to</span> <span m='131720'>have</span> <span m='132520'>a</span> <span m='132640'>perfect</span> <span m='132960'>square,</span> <span m='133540'>and</span> <span m='133730'>then</span> <span m='135400'>subtract</span> <span m='135760'>a</span> <span m='135830'>constant,</span> <span m='136450'>or</span> <span m='136630'>add</span> <span m='136820'>a</span> <span m='136860'>constant.</span> <span m='138170'>Right</span> <span m='138410'>now</span> <span m='138650'>I</span> <span m='138740'>have</span> <span m='139010'>something</span> <span m='139370'>that--</span> <span m='139630'>I</span> <span m='140070'>don't</span> <span m='140300'>have</span> <span m='140400'>a</span> <span m='140470'>perfect</span> <span m='140770'>square</span> <span m='141090'>in</span> <span m='141180'>here.</span> <span m='141380'>I</span> <span m='141450'>can't</span> <span m='142210'>make</span> <span m='142390'>this</span> <span m='142530'>into</span> <span m='142680'>a</span> <span m='142730'>perfect</span> <span m='143000'>square</span> <span m='143330'>unless</span> <span m='143470'>I add</span> <span m='143920'>a</span> <span m='143990'>certain</span> <span m='144240'>amount</span> <span m='145000'>to</span> <span m='145160'>the</span> <span m='145240'>constant</span> <span m='145670'>right</span> <span m='145810'>here.</span> </p><p><span m='146480'>So</span> <span m='146620'>I</span> <span m='146650'>had</span> <span m='146760'>to</span> <span m='146830'>add a</span> <span m='147180'>15</span> <span m='147680'>to</span> <span m='147770'>the</span> <span m='147850'>constant</span> <span m='148240'>here.</span> <span m='148840'>Notice</span> <span m='149140'>16</span> <span m='149480'>minus</span> <span m='149790'>15</span> <span m='150120'>is</span> <span m='150250'>1.</span> <span m='150560'>That's</span> <span m='150770'>my</span> <span m='150910'>check,</span> <span m='151250'>also,</span> <span m='151555'>that</span> <span m='151860'>the</span> <span m='152050'>lines</span> <span m='152380'>are</span> <span m='152520'>equal.</span> <span m='153500'>And so</span> <span m='153730'>what</span> <span m='153890'>I've</span> <span m='154030'>done,</span> <span m='154310'>is</span> <span m='154440'>I've</span> <span m='154990'>added</span> <span m='155430'>15</span> <span m='155840'>and</span> <span m='156140'>subtracted</span> <span m='156620'>15,</span> <span m='157430'>and</span> <span m='157870'>then</span> <span m='157980'>I</span> <span m='158050'>put</span> <span m='158470'>this</span> <span m='158860'>plus</span> <span m='159160'>16</span> <span m='159700'>into</span> <span m='160030'>here.</span> <span m='160450'>x</span> <span m='160870'>minus</span> <span m='161040'>4</span> <span m='161150'>quantity</span> <span m='161680'>squared</span> <span m='162070'>is</span> <span m='162150'>exactly</span> <span m='163030'>these</span> <span m='163150'>first</span> <span m='163570'>three</span> <span m='163750'>terms.</span> <span m='165050'>And</span> <span m='165250'>then</span> <span m='165350'>I</span> <span m='165400'>keep</span> <span m='165600'>the</span> <span m='165690'>minus</span> <span m='165970'>15.</span> </p><p><span m='166950'>Now,</span> <span m='167200'>you</span> <span m='167320'>might</span> <span m='167540'>say,</span> <span m='167690'>why</span> <span m='169240'>did</span> <span m='169420'>you</span> <span m='169510'>do</span> <span m='169750'>this?</span> <span m='170450'>So</span> <span m='170740'>let's</span> <span m='170990'>make</span> <span m='171180'>sure</span> <span m='171380'>we</span> <span m='171490'>understand</span> <span m='172290'>why</span> <span m='172710'>we're</span> <span m='172870'>completing</span> <span m='173145'>the</span> <span m='173420'>square</span> <span m='173870'>on</span> <span m='174010'>this.</span> <span m='174345'>If</span> <span m='174680'>we</span> <span m='174810'>come</span> <span m='175020'>back,</span> <span m='176700'>I'm</span> <span m='176840'>going to</span> <span m='176990'>put</span> <span m='177240'>this</span> <span m='177450'>line</span> <span m='178030'>in</span> <span m='178180'>place</span> <span m='178460'>of</span> <span m='178540'>what's</span> <span m='178720'>in</span> <span m='178810'>the</span> <span m='178910'>denominator</span> <span m='179440'>there,</span> <span m='179900'>because</span> <span m='180180'>these</span> <span m='180340'>three</span> <span m='180630'>things</span> <span m='180890'>are</span> <span m='180990'>all</span> <span m='181120'>equal.</span> <span m='182090'>So</span> <span m='182290'>this</span> <span m='182460'>is</span> <span m='182570'>actually</span> <span m='183302'>the</span> <span m='183670'>integral</span> <span m='183940'>of </span> <span m='184210'>dx</span> <span m='185780'>over</span> <span m='186780'>x</span> <span m='187280'>minus</span> <span m='187680'>4</span> <span m='188030'>quantity</span> <span m='189520'>squared</span> <span m='190410'>minus</span> <span m='190780'>15.</span> </p><p><span m='192970'>Now</span> <span m='193100'>you</span> <span m='193230'>might</span> <span m='193450'>say,</span> <span m='193590'>Christine,</span> <span m='193940'>this</span> <span m='194070'>looks</span> <span m='194250'>no</span> <span m='194550'>easier.</span> <span m='195230'>I</span> <span m='195320'>don't</span> <span m='195510'>know</span> <span m='195610'>why</span> <span m='196090'>you</span> <span m='196330'>did</span> <span m='196560'>this.</span> <span m='197250'>But</span> <span m='198260'>it</span> <span m='198430'>actually</span> <span m='199080'>is</span> <span m='199260'>one</span> <span m='199470'>of</span> <span m='199580'>our</span> <span m='199800'>favorite,</span> <span m='200330'>or</span> <span m='200490'>least</span> <span m='200760'>favorite,</span> <span m='201100'>depending</span> <span m='201450'>on</span> <span m='201560'>how</span> <span m='201670'>you</span> <span m='201810'>feel</span> <span m='202090'>about</span> <span m='202400'>it,</span> <span m='203260'>types</span> <span m='204260'>of</span> <span m='204360'>tricks</span> <span m='204670'>we</span> <span m='204790'>use</span> <span m='205000'>now,</span> <span m='205230'>which</span> <span m='205410'>is</span> <span m='205550'>the</span> <span m='205640'>trig</span> <span m='205950'>substitution.</span> <span m='207020'>So</span> <span m='207200'>some</span> <span m='207420'>people</span> <span m='207720'>love</span> <span m='207940'>this</span> <span m='208150'>because</span> <span m='208410'>they</span> <span m='208500'>just</span> <span m='208730'>have</span> <span m='208850'>to</span> <span m='208950'>memorize</span> <span m='209370'>a</span> <span m='209420'>little</span> <span m='209630'>formula,</span> <span m='210090'>and</span> <span m='210230'>some</span> <span m='210400'>people</span> <span m='210660'>love</span> <span m='210850'>it</span> <span m='210970'>because</span> <span m='211140'>they</span> <span m='211230'>can</span> <span m='211370'>draw a</span> <span m='211610'>triangle</span> <span m='212210'>and</span> <span m='212620'>understand</span> <span m='213210'>what</span> <span m='213360'>they</span> <span m='213490'>choose.</span> </p><p><span m='214780'>I'm</span> <span m='214970'>going to</span> <span m='215520'>show</span> <span m='215860'>you,</span> <span m='216040'>remind you</span> <span m='216460'>what</span> <span m='216570'>the</span> <span m='216650'>formula</span> <span m='216970'>was</span> <span m='217140'>you</span> <span m='217250'>saw</span> <span m='217610'>in</span> <span m='217700'>class.</span> <span m='219310'>I</span> <span m='219480'>believe</span> <span m='219830'>Professor</span> <span m='220180'>Jerison</span> <span m='220640'>said</span> <span m='221390'>something</span> <span m='221770'>like</span> <span m='222000'>this.</span> <span m='222930'>If</span> <span m='223190'>the</span> <span m='223300'>denominator</span> <span m='224010'>is</span> <span m='224180'>in</span> <span m='224310'>the</span> <span m='224410'>form</span> <span m='225410'>u</span> <span m='225580'>squared</span> <span m='226040'>minus</span> <span m='226440'>a</span> <span m='226830'>squared,</span> <span m='227900'>this</span> <span m='228110'>implies</span> <span m='228930'>that</span> <span m='229120'>you</span> <span m='229230'>make</span> <span m='229830'>u</span> <span m='230230'>equal</span> <span m='230550'>to</span> <span m='230700'>a</span> <span m='231700'>secant</span> <span m='232440'>theta.</span> </p><p><span m='234570'>Now,</span> <span m='234720'>he</span> <span m='234890'>probably</span> <span m='235240'>wrote</span> <span m='235450'>it</span> <span m='235530'>as</span> <span m='235700'>x,</span> <span m='237060'>but</span> <span m='237310'>I</span> <span m='237380'>wrote</span> <span m='237600'>it</span> <span m='237700'>as</span> <span m='237830'>u</span> <span m='238080'>for</span> <span m='238270'>a</span> <span m='238340'>very</span> <span m='238560'>specific</span> <span m='239030'>reason.</span> <span m='240300'>Because</span> <span m='240670'>here</span> <span m='240930'>I</span> <span m='241030'>have</span> <span m='241736'>x</span> <span m='242090'>minus</span> <span m='242480'>4.</span> <span m='243690'>I have</span> <span m='243930'>x</span> <span m='244230'>minus</span> <span m='244540'>4</span> <span m='244830'>quantity</span> <span m='245150'>squared.</span> <span m='246150'>Now,</span> <span m='246430'>this</span> <span m='246650'>is</span> <span m='246770'>where</span> <span m='246930'>it</span> <span m='247010'>gets</span> <span m='247180'>a</span> <span m='247260'>little</span> <span m='247490'>rough,</span> <span m='247870'>right?</span> <span m='248400'>This</span> <span m='248590'>is</span> <span m='248700'>not</span> <span m='248930'>a</span> <span m='248980'>perfect</span> <span m='249320'>square,</span> <span m='250440'>but</span> <span m='251380'>it</span> <span m='251560'>is</span> <span m='252960'>the</span> <span m='253050'>perfect</span> <span m='253430'>square--</span> <span m='253750'>it</span> <span m='253960'>is</span> <span m='254110'>the</span> <span m='254340'>square of</span> <span m='254610'>the</span> <span m='254760'>square root</span> <span m='255190'>of</span> <span m='255290'>15.</span> <span m='256800'>So</span> <span m='256990'>I</span> <span m='257070'>can</span> <span m='257270'>write</span> <span m='257480'>the</span> <span m='257570'>denominator</span> <span m='258210'>in</span> <span m='258320'>the</span> <span m='258400'>form,</span> <span m='259410'>something</span> <span m='259920'>squared</span> <span m='260810'>minus</span> <span m='261260'>something</span> <span m='261580'>else</span> <span m='261780'>squared.</span> </p><p><span m='263110'>And</span> <span m='263260'>again,</span> <span m='263460'>you</span> <span m='263570'>might</span> <span m='263790'>say,</span> <span m='263930'>why</span> <span m='264310'>is</span> <span m='264450'>this</span> <span m='264650'>good?</span> <span m='264860'>Well,</span> <span m='265040'>what</span> <span m='265190'>we're</span> <span m='265290'>going</span> <span m='265420'>to</span> <span m='265480'>be</span> <span m='265570'>able</span> <span m='265740'>to</span> <span m='265860'>do,</span> <span m='266600'>is</span> <span m='266780'>we're</span> <span m='266870'>going to</span> <span m='267040'>be</span> <span m='267130'>able</span> <span m='267320'>to</span> <span m='267460'>rewrite</span> <span m='268070'>this</span> <span m='268390'>in</span> <span m='268560'>terms</span> <span m='268880'>of</span> <span m='268980'>trigonometric</span> <span m='269580'>functions,</span> <span m='270250'>which</span> <span m='270430'>will</span> <span m='270540'>make</span> <span m='270700'>it</span> <span m='270790'>much</span> <span m='271010'>simpler</span> <span m='271330'>to</span> <span m='271470'>solve.</span> </p><p><span m='272660'>So</span> <span m='272870'>let's</span> <span m='273060'>use</span> <span m='273490'>what</span> <span m='274150'>Professor</span> <span m='274480'>Jerison</span> <span m='274870'>gave</span> <span m='275100'>us.</span> <span m='275870'>And</span> <span m='276060'>so</span> <span m='276170'>what</span> <span m='276290'>we</span> <span m='276420'>see,</span> <span m='276790'>is</span> <span m='277010'>that</span> <span m='277250'>this</span> <span m='277430'>is</span> <span m='277560'>u</span> <span m='279140'>and</span> <span m='279320'>this</span> <span m='279480'>is</span> <span m='279580'>a.</span> <span m='281220'>Right?</span> <span m='281530'>So</span> <span m='281700'>I</span> <span m='281790'>get</span> <span m='283360'>x</span> <span m='283740'>minus</span> <span m='284270'>4</span> <span m='285330'>is</span> <span m='285470'>equal</span> <span m='285770'>to</span> <span m='286490'>square</span> <span m='287010'>root of</span> <span m='287280'>15</span> <span m='289080'>secant</span> <span m='289780'>theta.</span> </p><p><span m='291220'>Now,</span> <span m='291350'>you</span> <span m='291430'>might</span> <span m='291590'>not</span> <span m='291740'>like</span> <span m='291890'>this</span> <span m='292050'>square root</span> <span m='292230'>of</span> <span m='292320'>15,</span> <span m='292740'>but</span> <span m='292870'>it's</span> <span m='293000'>just</span> <span m='293270'>hanging</span> <span m='293580'>out.</span> <span m='293750'>It's</span> <span m='293850'>not</span> <span m='294040'>causing</span> <span m='294350'>any</span> <span m='294500'>problems.</span> <span m='294970'>It's</span> <span m='295080'>just</span> <span m='295280'>a</span> <span m='295350'>number</span> <span m='295640'>there,</span> <span m='295850'>so</span> <span m='295990'>we'll</span> <span m='296090'>keep</span> <span m='296330'>it</span> <span m='296420'>a</span> <span m='296480'>square root</span> <span m='296800'>of</span> <span m='296900'>15.</span> <span m='297390'>So</span> <span m='297880'>you</span> <span m='297990'>don't</span> <span m='298150'>have</span> <span m='298240'>to</span> <span m='298340'>worry</span> <span m='298570'>about</span> <span m='298830'>it.</span> </p><p><span m='299520'>Now</span> <span m='299650'>what's</span> <span m='299860'>the</span> <span m='299980'>point</span> <span m='300230'>again?</span> <span m='300550'>Let</span> <span m='300650'>me</span> <span m='300730'>just</span> <span m='300920'>remind</span> <span m='301260'>you,</span> <span m='301360'>the</span> <span m='301470'>object</span> <span m='301890'>is</span> <span m='301980'>to</span> <span m='302080'>get</span> <span m='302300'>this</span> <span m='303120'>in</span> <span m='303260'>terms</span> <span m='303520'>of</span> <span m='303610'>the</span> <span m='303700'>trig</span> <span m='303920'>functions.</span> <span m='305250'>So</span> <span m='305440'>we</span> <span m='305620'>should</span> <span m='305790'>anticipate</span> <span m='306950'>that</span> <span m='307060'>probably</span> <span m='307710'>we'll</span> <span m='307850'>have</span> <span m='308090'>some</span> <span m='308920'>tangent</span> <span m='309410'>functions</span> <span m='309890'>to</span> <span m='310000'>go</span> <span m='310170'>with</span> <span m='310410'>this.</span> <span m='311090'>And</span> <span m='311240'>there are</span> <span m='311390'>two</span> <span m='311560'>reasons</span> <span m='311990'>to</span> <span m='312500'>think</span> <span m='312770'>that.</span> <span m='313520'>The</span> <span m='313640'>first</span> <span m='313970'>reason</span> <span m='314210'>to</span> <span m='314300'>think</span> <span m='314510'>that</span> <span m='314770'>is</span> <span m='314890'> at</span> <span m='315010'>some</span> <span m='315230'>point,</span> <span m='315590'>I</span> <span m='315660'>have</span> <span m='315850'>to</span> <span m='315950'>find</span> <span m='316280'>dx.</span> <span m='317550'>Well,</span> <span m='317790'>the</span> <span m='317880'>derivative</span> <span m='318570'>of</span> <span m='318710'>secant</span> <span m='319700'>involves</span> <span m='320240'>secant and</span> <span m='320640'>tangent,</span> <span m='321120'>right?</span> <span m='321390'>So</span> <span m='321480'>that's</span> <span m='321700'>going to</span> <span m='321880'>pull</span> <span m='322070'>in a</span> <span m='322200'>tangent</span> <span m='322630'>function</span> <span m='322950'>somewhere.</span> </p><p><span m='323910'>I'm</span> <span m='324140'>also</span> <span m='324410'>going to</span> <span m='324530'>have</span> <span m='324630'>a tangent</span> <span m='325010'>function</span> <span m='325330'>show</span> <span m='325510'>up</span> <span m='325660'>somewhere</span> <span m='325980'>else.</span> <span m='326890'>And</span> <span m='327050'>where</span> <span m='327170'>that's</span> <span m='327430'>going</span> <span m='327570'>to</span> <span m='327640'>be,</span> <span m='327920'>is</span> <span m='328080'>coming</span> <span m='328350'>from</span> <span m='328600'>this</span> <span m='328790'>denominator,</span> <span m='329470'>this</span> <span m='329650'>expression</span> <span m='330180'>in</span> <span m='330270'>the</span> <span m='330350'>denominator.</span> <span m='331680'>Because</span> <span m='332010'>there's</span> <span m='332190'>a</span> <span m='332250'>certain</span> <span m='332500'>trig</span> <span m='332700'>identity</span> <span m='333190'>that</span> <span m='333350'>we</span> <span m='333970'>should</span> <span m='334240'>have</span> <span m='334420'>memorized,</span> <span m='335400'>but</span> <span m='335610'>I'll</span> <span m='335690'>just</span> <span m='335910'>remind</span> <span m='336330'>you.</span> <span m='336980'>I'll write</span> <span m='337310'>it</span> <span m='337390'>here</span> <span m='337550'>and</span> <span m='337640'>put</span> <span m='337760'>a</span> <span m='337810'>star</span> <span m='338130'>next</span> <span m='338410'>to</span> <span m='338520'>it.</span> <span m='339490'>It's</span> <span m='339810'>1</span> <span m='340110'>plus</span> <span m='341100'>tangent</span> <span m='341770'>squared</span> <span m='342010'>theta</span> <span m='342970'>is equal</span> <span m='343120'>to</span> <span m='343470'>secant</span> <span m='343870'>squared</span> <span m='344190'>theta.</span> <span m='346290'>So</span> <span m='346460'>this</span> <span m='346620'>is</span> <span m='346780'>a--</span> <span m='346940'>I'll</span> <span m='347050'>even</span> <span m='347200'>put</span> <span m='347320'>a</span> <span m='347380'>star</span> <span m='347590'>on</span> <span m='347680'>the</span> <span m='347750'>other</span> <span m='347910'>side.</span> <span m='348345'>So</span> <span m='348780'>we</span> <span m='348940'>should</span> <span m='349080'>really</span> <span m='349350'>remember</span> <span m='349680'>this.</span> <span m='349870'>Now,</span> <span m='350060'>where</span> <span m='350220'>does</span> <span m='350360'>it</span> <span m='350450'>come</span> <span m='350680'>from?</span> <span m='351115'>It</span> <span m='351550'>comes</span> <span m='351830'>from</span> <span m='352030'>the</span> <span m='352110'>cosine</span> <span m='352510'>squared</span> <span m='352710'>theta</span> <span m='353000'>plus</span> <span m='353220'>sine</span> <span m='353460'>squared</span> <span m='353690'>theta</span> <span m='354120'>equals</span> <span m='354540'>1</span> <span m='355020'>identity.</span> <span m='356010'>You</span> <span m='356190'>can</span> <span m='356330'>divide</span> <span m='356740'>everything</span> <span m='357190'>by</span> <span m='357430'>cosine</span> <span m='357980'>squared</span> <span m='358380'>theta</span> <span m='358850'>and</span> <span m='359110'>get</span> <span m='359410'>this</span> <span m='359600'>one.</span> </p><p><span m='360640'>So</span> <span m='360860'>we</span> <span m='360940'>have</span> <span m='361130'>this</span> <span m='361310'>identity,</span> <span m='362440'>and</span> <span m='362620'>so</span> <span m='362780'>if</span> <span m='362890'>you</span> <span m='363010'>notice,</span> <span m='363630'>we're</span> <span m='363810'>going to</span> <span m='363970'>be</span> <span m='364050'>able</span> <span m='364190'>to</span> <span m='364260'>manipulate</span> <span m='367170'>the</span> <span m='367500'>expression</span> <span m='368020'>right</span> <span m='368200'>here,</span> <span m='369220'>and</span> <span m='369550'>get</span> <span m='369730'>the</span> <span m='369820'>denominator</span> <span m='370460'>to</span> <span m='370610'>look</span> <span m='370750'>like</span> <span m='370970'>tangent</span> <span m='371260'>squared</span> <span m='371500'>theta.</span> <span m='371830'>So</span> <span m='372000'>let's</span> <span m='372220'>do</span> <span m='372400'>some</span> <span m='372610'>of</span> <span m='372700'>that</span> <span m='372910'>work</span> <span m='374000'>off</span> <span m='374220'>to</span> <span m='374340'>the</span> <span m='374460'>right</span> <span m='374730'>here.</span> </p><p><span m='376580'>So</span> <span m='376740'>what</span> <span m='376860'>did</span> <span m='376980'>I</span> <span m='377070'>say</span> <span m='377240'>we</span> <span m='377380'>needed?</span> <span m='377660'>We</span> <span m='377750'>have</span> <span m='378000'>this</span> <span m='378220'>expression.</span> <span m='378630'>We</span> <span m='378740'>need</span> <span m='379000'>dx,</span> <span m='379750'>so</span> <span m='379930'>let's</span> <span m='380040'>find--</span> <span m='380840'>actually,</span> <span m='381160'>no.</span> <span m='381310'>Let's</span> <span m='381540'>find</span> <span m='381790'>the</span> <span m='381880'>denominator</span> <span m='382390'>first,</span> <span m='382770'>because</span> <span m='382890'>I</span> <span m='382950'>was</span> <span m='383090'>just</span> <span m='383290'>talking</span> <span m='383580'>about</span> <span m='383840'>it.</span> </p><p><span m='384940'>So</span> <span m='385130'>if</span> <span m='385200'>I</span> <span m='385380'>look</span> <span m='385600'>at</span> <span m='385680'>what x</span> <span m='386020'>minus</span> <span m='386380'>4</span> <span m='386680'>squared</span> <span m='387240'>is,</span> <span m='387640'>I'm</span> <span m='387780'>going to</span> <span m='387960'>substitute</span> <span m='388500'>in</span> <span m='388640'>this</span> <span m='388790'>expression.</span> <span m='390190'>So x</span> <span m='390680'>minus</span> <span m='391060'>4</span> <span m='393240'>squared</span> <span m='393990'>minus</span> <span m='394310'>15</span> <span m='395160'>is</span> <span m='395360'>the</span> <span m='395450'>same</span> <span m='395850'>as,</span> <span m='396220'>based</span> <span m='396580'>on</span> <span m='396720'>this</span> <span m='396830'>substitution,</span> <span m='398280'>square</span> <span m='398670'>root</span> <span m='398770'>15</span> <span m='400200'>secant</span> <span m='400470'>theta</span> <span m='402670'>squared</span> <span m='403610'>minus</span> <span m='403980'>15,</span> <span m='404970'>which is</span> <span m='406640'>15</span> <span m='407130'>secant</span> <span m='407610'>squared</span> <span m='408020'>theta</span> <span m='409240'>minus</span> <span m='409740'>15,</span> <span m='410830'>which,</span> <span m='411280'>just</span> <span m='411640'>to</span> <span m='412130'>hammer</span> <span m='412520'>home</span> <span m='412820'>the</span> <span m='412910'>point,</span> <span m='413970'>is</span> <span m='414200'>15</span> <span m='414700'>times</span> <span m='414970'>the</span> <span m='415040'>quantity</span> <span m='416150'>secant</span> <span m='416560'>squared</span> <span m='416830'>theta</span> <span m='417790'>minus</span> <span m='418170'>1.</span> </p><p><span m='419660'>OK?</span> <span m='420030'>Everybody</span> <span m='420420'>follows,</span> <span m='420800'>hopefully.</span> <span m='421480'>All</span> <span m='421840'>I've</span> <span m='421990'>done</span> <span m='422640'>is</span> <span m='422950'>the</span> <span m='423040'>substitution</span> <span m='423720'>I</span> <span m='423830'>made,</span> <span m='425110'>and</span> <span m='425310'>then</span> <span m='425480'>I</span> <span m='425600'>started</span> <span m='426880'>expanding,</span> <span m='427640'>or</span> <span m='427740'>I</span> <span m='427820'>squared</span> <span m='428270'>this</span> <span m='428460'>term,</span> <span m='428880'>and</span> <span m='429010'>I</span> <span m='429100'>factored</span> <span m='429870'>out</span> <span m='430080'>the</span> <span m='430160'>15.</span> </p><p><span m='431050'>And</span> <span m='431270'>now</span> <span m='431430'>let's</span> <span m='431580'>go</span> <span m='431730'>back</span> <span m='431960'>to</span> <span m='432050'>my</span> <span m='432180'>start</span> <span m='432540'>expression.</span> <span m='433460'>What</span> <span m='433920'>is</span> <span m='434110'>secant</span> <span m='434510'>squared</span> <span m='434720'>theta</span> <span m='435530'>minus</span> <span m='435950'>1?</span> <span m='437290'>It's tangent</span> <span m='437730'>squared</span> <span m='437950'>theta.</span> <span m='439170'>So</span> <span m='439390'>we</span> <span m='439530'>get</span> <span m='440390'>15</span> <span m='441980'>tangent</span> <span m='442380'>squared</span> <span m='442660'>theta.</span> </p><p><span m='444200'>So</span> <span m='444390'>that</span> <span m='444660'>is</span> <span m='444760'>actually</span> <span m='445800'>what</span> <span m='446130'>the</span> <span m='446220'>denominator</span> <span m='447620'>of</span> <span m='447940'>our</span> <span m='448580'>integral</span> <span m='448940'>is</span> <span m='449050'>going</span> <span m='449270'>to</span> <span m='449350'>be</span> <span m='449500'>over</span> <span m='449690'>there.</span> <span m='450480'>So</span> <span m='450640'>I'm</span> <span m='450700'>going to</span> <span m='450850'>come</span> <span m='451100'>in</span> <span m='451250'>and</span> <span m='451690'>put</span> <span m='451890'>that</span> <span m='452880'>part--</span> <span m='454410'>actually,</span> <span m='454610'>let me</span> <span m='454740'>even</span> <span m='455940'>put this</span> <span m='456220'>here,</span> <span m='456490'>too.</span> <span m='456990'>So</span> <span m='457380'>right</span> <span m='457610'>now,</span> <span m='457750'>our</span> <span m='457880'>denominator</span> <span m='460280'>is</span> <span m='461660'>15</span> <span m='463040'>tangent</span> <span m='463830'>squared</span> <span m='464740'>theta.</span> </p><p><span m='466170'>So</span> <span m='466430'>far,</span> <span m='466700'>so</span> <span m='466880'>good.</span> <span m='467920'>But</span> <span m='468070'>of</span> <span m='468160'>course,</span> <span m='468450'>if</span> <span m='468550'>I</span> <span m='468620'>put</span> <span m='468850'>a</span> <span m='468920'>dx</span> <span m='469500'>up</span> <span m='469660'>here,</span> <span m='469900'>I'm</span> <span m='470020'>in</span> <span m='470120'>trouble.</span> <span m='470610'>Because I have,</span> <span m='471720'>it's a</span> <span m='471910'>function</span> <span m='472260'>of</span> <span m='472370'>theta</span> <span m='472760'>now.</span> <span m='473270'>So</span> <span m='473450'>I</span> <span m='473510'>need</span> <span m='473730'>to</span> <span m='473880'>write</span> <span m='474570'>this--</span> <span m='475020'>I</span> <span m='475160'>shouldn't</span> <span m='475480'>write</span> <span m='475700'>in</span> <span m='475800'>terms</span> <span m='476050'>of</span> <span m='476120'>x.</span> <span m='476470'>I</span> <span m='476560'>need</span> <span m='476710'>to</span> <span m='476780'>figure</span> <span m='477040'>out</span> <span m='477180'>what</span> <span m='477330'>it</span> <span m='477440'>is</span> <span m='477560'>in</span> <span m='477660'>terms</span> <span m='477910'>of</span> <span m='478030'>theta.</span> <span m='478870'>And</span> <span m='479090'>to</span> <span m='479180'>do</span> <span m='479310'>that,</span> <span m='479610'>we</span> <span m='479780'>again</span> <span m='480200'>use</span> <span m='480540'>the</span> <span m='481240'>substitution</span> <span m='482050'>that</span> <span m='482210'>we</span> <span m='482600'>made.</span> <span m='483310'>Which</span> <span m='483620'>is</span> <span m='483890'>just</span> <span m='484150'>above</span> <span m='484430'>the</span> <span m='484500'>starred</span> <span m='484800'>expression.</span> <span m='485620'>It</span> <span m='485870'>was</span> <span m='486090'>that</span> <span m='486170'>x</span> <span m='486410'>minus</span> <span m='486670'>4</span> <span m='487020'>equals</span> <span m='487320'>square</span> <span m='487640'>root</span> <span m='488420'>15</span> <span m='489340'>secant</span> <span m='489640'>theta.</span> <span m='490650'>This</span> <span m='490890'>is</span> <span m='491000'>going</span> <span m='491190'>to</span> <span m='491260'>allow</span> <span m='491540'>us</span> <span m='492020'>to</span> <span m='492200'>find</span> <span m='492670'>what</span> <span m='492950'>d</span> <span m='493310'>theta</span> <span m='493640'>is</span> <span m='493840'>in</span> <span m='493950'>terms</span> <span m='494220'>of</span> <span m='494330'>dx.</span> <span m='495950'>OK?</span> <span m='496750'>So</span> <span m='496940'>let's</span> <span m='497170'>do</span> <span m='497350'>that.</span> </p><p><span m='499530'>So I'm</span> <span m='499680'>not</span> <span m='499950'>done,</span> <span m='500290'>by</span> <span m='500440'>the</span> <span m='500550'>way,</span> <span m='500700'>over</span> <span m='500890'>here.</span> <span m='501130'>I'm</span> <span m='501200'>not</span> <span m='501360'>done</span> <span m='501710'>I've</span> <span m='501870'>got</span> <span m='502020'>a</span> <span m='502510'>little</span> <span m='502760'>gap</span> <span m='503070'>I've</span> <span m='503160'>got to</span> <span m='503330'>fill</span> <span m='503570'>in</span> <span m='503780'>the</span> <span m='503860'>numerator.</span> </p><p><span m='505270'>So let's</span> <span m='505680'>come</span> <span m='505830'>back</span> <span m='506020'>over</span> <span m='506220'>here.</span> <span m='507480'>So</span> <span m='507640'>now</span> <span m='507820'>we</span> <span m='508020'>have</span> <span m='508992'>x</span> <span m='509480'>minus</span> <span m='509820'>4--</span> <span m='510160'>let</span> <span m='510270'>me</span> <span m='510340'>just</span> <span m='510550'>write</span> <span m='510710'>that</span> <span m='510860'>one</span> <span m='511020'>more</span> <span m='511160'>time.</span> <span m='516500'>So</span> <span m='516700'>we</span> <span m='516850'>get</span> <span m='517130'>dx</span> <span m='518520'>is equal</span> <span m='518660'>to</span> <span m='518890'>the</span> <span m='519020'>square</span> <span m='519284'>root</span> <span m='519550'>of</span> <span m='519690'>15.</span> <span m='519979'>Well,</span> <span m='520270'>what's</span> <span m='520580'>the</span> <span m='520680'>derivative</span> <span m='521100'>of</span> <span m='521220'>secant</span> <span m='521730'>theta?</span> <span m='522630'>It's</span> <span m='522860'>secant</span> <span m='523340'>theta</span> <span m='525410'>tangent</span> <span m='525930'>theta</span> <span m='527406'>d</span> <span m='527800'>theta.</span> </p><p><span m='529120'>So</span> <span m='529330'>now</span> <span m='529460'>I</span> <span m='529520'>have</span> <span m='529690'>all</span> <span m='529820'>the</span> <span m='529910'>pieces</span> <span m='530320'>I</span> <span m='530420'>need.</span> <span m='531480'>And</span> <span m='531630'>I'm</span> <span m='531720'>actually</span> <span m='532010'>going to</span> <span m='532200'>rewrite</span> <span m='532870'>the</span> <span m='533050'>whole</span> <span m='533370'>thing</span> <span m='533690'>over</span> <span m='534500'>here</span> <span m='534870'>underneath,</span> <span m='535640'>so</span> <span m='535840'>that</span> <span m='535940'>I</span> <span m='535990'>can</span> <span m='536150'>work</span> <span m='536370'>with</span> <span m='536520'>it</span> <span m='536590'>a</span> <span m='536650'>little</span> <span m='536990'>bit</span> <span m='537130'>more.</span> <span m='537990'>So</span> <span m='538270'>the</span> <span m='538400'>dx</span> <span m='538860'>is</span> <span m='538970'>in</span> <span m='539070'>the</span> <span m='539150'>numerator.</span> <span m='541000'>Square</span> <span m='541280'>root</span> <span m='541440'>15</span> <span m='543280'>secant</span> <span m='543690'>theta</span> <span m='545210'>tan</span> <span m='545690'>theta</span> <span m='547060'>d</span> <span m='547370'>theta,</span> <span m='548860'>all</span> <span m='549220'>over</span> <span m='549520'>15</span> <span m='551300'>tan</span> <span m='551720'>squared</span> <span m='551950'>theta.</span> </p><p><span m='553840'>Now, this</span> <span m='554120'>might</span> <span m='554280'>still</span> <span m='554600'>look</span> <span m='554680'>a</span> <span m='554760'>little</span> <span m='554950'>messy,</span> <span m='555300'>but</span> <span m='555470'>we</span> <span m='555580'>can</span> <span m='555720'>simplify it</span> <span m='556280'>some</span> <span m='556420'>more.</span> <span m='558590'>We</span> <span m='558800'>divide</span> <span m='559210'>out</span> <span m='559440'>by</span> <span m='559570'>one</span> <span m='559820'>tangent,</span> <span m='560870'>we'll</span> <span m='561100'>pull</span> <span m='561370'>this</span> <span m='561590'>out</span> <span m='561810'>in</span> <span m='561900'>front.</span> <span m='562920'>And</span> <span m='563160'>notice,</span> <span m='563440'>what's</span> <span m='563780'>secant?</span> <span m='564620'>Secant</span> <span m='565230'>theta</span> <span m='565750'>is</span> <span m='566120'>1</span> <span m='566420'>over</span> <span m='566650'>cosine</span> <span m='567160'>theta,</span> <span m='568060'>and tangent</span> <span m='568650'>theta</span> <span m='568960'>is</span> <span m='569100'>sine</span> <span m='569410'>theta</span> <span m='569690'>over</span> <span m='569930'>cosine theta.</span> <span m='570620'>So</span> <span m='570820'>let's</span> <span m='571010'>write</span> <span m='571450'>that</span> <span m='571700'>down.</span> <span m='572460'>So</span> <span m='572700'>this</span> <span m='572970'>becomes</span> <span m='574930'>square root</span> <span m='575350'>15</span> <span m='575790'>over</span> <span m='575970'>15.</span> <span m='576510'>We'll</span> <span m='576610'>just</span> <span m='576810'>leave</span> <span m='577020'>it</span> <span m='577110'>out</span> <span m='577320'>there.</span> <span m='578790'>It's</span> <span m='578870'>not</span> <span m='579110'>hurting</span> <span m='579430'>anyone.</span> </p><p><span m='581130'>So</span> <span m='581300'>we</span> <span m='581410'>get</span> <span m='581540'>a</span> <span m='581600'>1</span> <span m='581810'>over</span> <span m='582020'>cosine</span> <span m='582530'>theta</span> <span m='584090'>times--</span> <span m='584650'>well,</span> <span m='584810'>tangent</span> <span m='585080'>theta,</span> <span m='585630'>1</span> <span m='586000'>over</span> <span m='586170'>tangent theta</span> <span m='586680'>is</span> <span m='586880'>cotangent</span> <span m='587500'>theta</span> <span m='587680'>also.</span> <span m='588090'>There's</span> <span m='588220'>another</span> <span m='588510'>way</span> <span m='588600'>to</span> <span m='588690'>think</span> <span m='588870'>about</span> <span m='589100'>it.</span> <span m='589680'>So it's</span> <span m='589930'>cosine</span> <span m='590340'>theta</span> <span m='590590'>over</span> <span m='590830'>sine</span> <span m='591170'>theta</span> <span m='594890'>d</span> <span m='595120'>theta.</span> <span m='596820'>So</span> <span m='597000'>these</span> <span m='597270'>divide</span> <span m='597610'>out.</span> </p><p><span m='598200'>And</span> <span m='598410'>I'm</span> <span m='598550'>left</span> <span m='598840'>with,</span> <span m='599070'>I'm</span> <span m='599230'>taking</span> <span m='599580'>now an</span> <span m='600050'>antiderivative</span> <span m='600560'>of</span> <span m='600840'>1</span> <span m='601170'>over</span> <span m='601380'>sine</span> <span m='601740'>theta,</span> <span m='602660'>which</span> <span m='603110'>is</span> <span m='603680'>cosecant</span> <span m='604470'>theta.</span> <span m='605000'>So</span> <span m='605220'>I</span> <span m='605300'>have</span> <span m='605480'>to</span> <span m='605580'>find</span> <span m='605900'>an antiderivative</span> <span m='606550'>of</span> <span m='606670'>cosecant</span> <span m='607320'>theta.</span> <span m='607980'>Well,</span> <span m='608230'>you</span> <span m='608320'>can</span> <span m='608470'>find</span> <span m='608790'>that</span> <span m='609420'>with</span> <span m='609620'>the</span> <span m='609720'>exact</span> <span m='610090'>same</span> <span m='610300'>strategy</span> <span m='610620'>you</span> <span m='610940'>found,</span> <span m='611550'>or</span> <span m='612020'>I</span> <span m='612160'>should</span> <span m='612370'>say,</span> <span m='612530'>that</span> <span m='612770'>Professor</span> <span m='613110'>Jerison</span> <span m='613500'>used</span> <span m='614140'>in</span> <span m='614330'>class--</span> <span m='614960'>or</span> <span m='615320'>maybe</span> <span m='615580'>it</span> <span m='615650'>was</span> <span m='615770'>actually</span> <span m='616080'>Professor</span> <span m='616450'>Miller</span> <span m='616790'>in</span> <span m='617150'>that</span> <span m='617350'>lecture--</span> <span m='618130'>to</span> <span m='618280'>find</span> <span m='619270'>an</span> <span m='619400'>antiderivative</span> <span m='620630'>of</span> <span m='620930'>secant</span> <span m='621300'>theta.</span> <span m='621840'>So</span> <span m='622110'>you</span> <span m='622230'>can</span> <span m='622360'>do</span> <span m='622450'>the</span> <span m='622560'>same</span> <span m='622790'>kind</span> <span m='623000'>of</span> <span m='623080'>thing</span> <span m='623330'>with</span> <span m='623450'>cosecant</span> <span m='624010'>theta,</span> <span m='624250'>because</span> <span m='624500'>they</span> <span m='624570'>have</span> <span m='624720'>the</span> <span m='624810'>same</span> <span m='625020'>kind</span> <span m='625280'>of</span> <span m='625410'>derivatives.</span> <span m='626030'>Cosecant</span> <span m='626360'>and</span> <span m='626540'>cotangent</span> <span m='627520'>have</span> <span m='627670'>very</span> <span m='627900'>similar-looking</span> <span m='628600'>derivatives</span> <span m='629610'>to</span> <span m='629760'>tangent</span> <span m='630320'>and</span> <span m='630540'>secant.</span> <span m='631090'>Same</span> <span m='631420'>kinds</span> <span m='631730'>of</span> <span m='631820'>relationships.</span> <span m='633090'>So</span> <span m='633240'>you</span> <span m='633310'>can</span> <span m='633420'>actually</span> <span m='633690'>find</span> <span m='633980'>that</span> <span m='634130'>antiderivative.</span> <span m='635190'>So</span> <span m='635390'>this</span> <span m='635550'>is</span> <span m='635650'>some</span> <span m='635810'>constant</span> <span m='636440'>we</span> <span m='636530'>don't</span> <span m='636700'>care</span> <span m='636880'>about.</span> <span m='643150'>And once</span> <span m='643480'>you</span> <span m='643620'>find</span> <span m='643980'>that,</span> <span m='644610'>this</span> <span m='644850'>will</span> <span m='644980'>be</span> <span m='645110'>in</span> <span m='645240'>terms</span> <span m='645540'>of</span> <span m='645640'>theta.</span> <span m='646810'>Your</span> <span m='646960'>final</span> <span m='647290'>answer</span> <span m='647580'>needs</span> <span m='647830'>to</span> <span m='647920'>be</span> <span m='648030'>in</span> <span m='648160'>terms</span> <span m='648450'>of</span> <span m='648550'>x,</span> <span m='649400'>but</span> <span m='649590'>you</span> <span m='649750'>saw</span> <span m='650050'>how</span> <span m='650230'>to</span> <span m='650340'>do</span> <span m='650570'>that,</span> <span m='651250'>actually.</span> <span m='651760'>You</span> <span m='651880'>just</span> <span m='652080'>need</span> <span m='652270'>to</span> <span m='652370'>make</span> <span m='652600'>a</span> <span m='652680'>triangle</span> <span m='653870'>that</span> <span m='654040'>represents</span> <span m='654610'>the</span> <span m='654710'>relationship</span> <span m='655960'>between</span> <span m='657500'>x</span> <span m='657765'>and</span> <span m='658030'>theta.</span> <span m='658690'>So</span> <span m='658870'>I'll</span> <span m='658980'>draw</span> <span m='659210'>a</span> <span m='659270'>picture</span> <span m='659630'>of</span> <span m='659720'>that</span> <span m='659900'>triangle,</span> <span m='660860'>then</span> <span m='661040'>I'll</span> <span m='661510'>give</span> <span m='661690'>a</span> <span m='661740'>little</span> <span m='661940'>summary of</span> <span m='662310'>what</span> <span m='662440'>we</span> <span m='662550'>did,</span> <span m='662790'>and</span> <span m='662890'>then</span> <span m='663030'>we'll</span> <span m='663130'>stop.</span> </p><p><span m='663975'>So</span> <span m='664330'>let</span> <span m='664510'>me</span> <span m='664630'>draw a</span> <span m='664890'>picture of</span> <span m='665280'>that</span> <span m='665450'>triangle.</span> <span m='666100'>So</span> <span m='666450'>from</span> <span m='666660'>here,</span> <span m='666900'>all</span> <span m='667000'>you</span> <span m='667120'>would</span> <span m='667250'>do</span> <span m='667430'>is</span> <span m='667590'>actually</span> <span m='667900'>find this</span> <span m='668300'>antiderivative,</span> <span m='669840'>and</span> <span m='670080'>then</span> <span m='670210'>you</span> <span m='670310'>would</span> <span m='670430'>have</span> <span m='670560'>to</span> <span m='670650'>make</span> <span m='670830'>the</span> <span m='670910'>right</span> <span m='671110'>kind</span> <span m='671280'>of</span> <span m='671360'>substitution</span> <span m='672000'>in</span> <span m='672090'>terms</span> <span m='672290'>of</span> <span m='672380'>theta.</span> <span m='672850'>We</span> <span m='672990'>want</span> <span m='673150'>to</span> <span m='673220'>know,</span> <span m='673320'>how</span> <span m='673520'>do</span> <span m='673590'>we find that,</span> <span m='674140'>do</span> <span m='674260'>that</span> <span m='674450'>substitution.</span> </p><p><span m='676330'>So</span> <span m='676610'>the</span> <span m='676710'>triangle</span> <span m='677270'>is</span> <span m='677410'>going</span> <span m='677580'>to</span> <span m='677650'>come</span> <span m='677850'>from</span> <span m='678020'>the</span> <span m='678100'>following</span> <span m='678670'>thing.</span> <span m='679690'>We know</span> <span m='679760'>x</span> <span m='680230'>minus</span> <span m='680600'>4,</span> <span m='681040'>again,</span> <span m='681395'>is</span> <span m='681750'>square root</span> <span m='682065'>of</span> <span m='682380'>15</span> <span m='684000'>secant</span> <span m='684410'>theta.</span> <span m='686630'>So I'm going to</span> <span m='686960'>make</span> <span m='687150'>this</span> <span m='687380'>theta.</span> <span m='688840'>Secant</span> <span m='689390'>theta,</span> <span m='689940'>well, it's</span> <span m='690200'>1</span> <span m='690400'>over</span> <span m='690580'>cosine</span> <span m='691090'>theta,</span> <span m='691700'>cosine</span> <span m='692310'>is</span> <span m='692420'>adjacent</span> <span m='692900'>over</span> <span m='693070'>hypotenuse,</span> <span m='693930'>so</span> <span m='694130'>secant</span> <span m='694400'>is</span> <span m='695000'>hypotenuse</span> <span m='695720'>over</span> <span m='696060'>adjacent.</span> <span m='697430'>Right?</span> <span m='698010'>That's</span> <span m='698250'>the</span> <span m='698350'>relationship.</span> <span m='699700'>So</span> <span m='699860'>x minus</span> <span m='700380'>4</span> <span m='700750'>over</span> <span m='701080'>15</span> <span m='702370'>is equal</span> <span m='702760'>to the</span> <span m='702850'>hypotenuse</span> <span m='703740'>over</span> <span m='704030'>the</span> <span m='704200'>adjacent.</span> <span m='706030'>Did</span> <span m='706200'>I</span> <span m='706370'>square</span> <span m='706810'>root?</span> <span m='707130'>Sorry.</span> <span m='708230'>Square root.</span> </p><p><span m='709450'>So</span> <span m='709630'>the</span> <span m='709730'>hypotenuse</span> <span m='710090'>is</span> <span m='710385'>x</span> <span m='710680'>minus</span> <span m='711050'>4,</span> <span m='712450'>the</span> <span m='712870'>adjacent</span> <span m='713510'>is</span> <span m='713610'>square</span> <span m='714020'>root of</span> <span m='714140'>15,</span> <span m='715350'>and</span> <span m='715580'>then</span> <span m='715720'>now</span> <span m='715940'>I</span> <span m='716010'>can</span> <span m='716190'>fill</span> <span m='716390'>in</span> <span m='716470'>the</span> <span m='716550'>opposite</span> <span m='717050'>by</span> <span m='717270'>Pythagorean</span> <span m='717660'>theorem.</span> <span m='718560'>Right?</span> <span m='718770'>I</span> <span m='718830'>just</span> <span m='719450'>take</span> <span m='719930'>this</span> <span m='720260'>squared,</span> <span m='721300'>and</span> <span m='721510'>I</span> <span m='721570'>subtract</span> <span m='721960'>this</span> <span m='722130'>squared,</span> <span m='722830'>and</span> <span m='722990'>then</span> <span m='723100'>I</span> <span m='723150'>take</span> <span m='723320'>the</span> <span m='723390'>square</span> <span m='723640'>root.</span> <span m='724440'>So</span> <span m='724600'>I</span> <span m='724630'>get</span> <span m='724780'>the</span> <span m='724850'>square</span> <span m='725180'>root</span> <span m='726580'>of</span> <span m='726730'>x</span> <span m='726910'>minus</span> <span m='727220'>4</span> <span m='728410'>squared</span> <span m='729600'>minus</span> <span m='730010'>15.</span> </p><p><span m='731870'>So</span> <span m='732050'>whatever</span> <span m='732430'>I</span> <span m='732530'>have</span> <span m='732820'>in</span> <span m='732910'>terms</span> <span m='733160'>of</span> <span m='733240'>theta,</span> <span m='733660'>I</span> <span m='733830'>just</span> <span m='734030'>look</span> <span m='734210'>at</span> <span m='734300'>this</span> <span m='734510'>triangle.</span> <span m='735460'>If</span> <span m='735760'>I</span> <span m='735910'>had</span> <span m='736310'>in</span> <span m='736390'>my</span> <span m='736580'>answer</span> <span m='737520'>sine</span> <span m='737980'>theta,</span> <span m='738910'>I</span> <span m='739200'>would</span> <span m='739380'>replace</span> <span m='739780'>sine</span> <span m='740130'>theta</span> <span m='740980'>by</span> <span m='741810'>this</span> <span m='742180'>square</span> <span m='742510'>root</span> <span m='742840'>divided</span> <span m='743250'>by x</span> <span m='743600'>minus</span> <span m='743860'>4.</span> <span m='744300'>Because</span> <span m='744560'>that's</span> <span m='744740'>what</span> <span m='744870'>sine theta</span> <span m='745240'>is.</span> <span m='746020'>And</span> <span m='746190'>so from--</span> <span m='746510'>that's</span> <span m='746720'>how</span> <span m='746840'>I</span> <span m='746930'>finish</span> <span m='747260'>this</span> <span m='747400'>type</span> <span m='747620'>of</span> <span m='747690'>problem,</span> <span m='748090'>always.</span> <span m='748370'>I</span> <span m='748440'>want to</span> <span m='748630'>have</span> <span m='748780'>a</span> <span m='748830'>picture</span> <span m='749150'>of</span> <span m='749240'>this</span> <span m='749430'>triangle,</span> <span m='750500'>label</span> <span m='750830'>a theta,</span> <span m='751590'>use</span> <span m='751930'>my</span> <span m='752090'>substitution</span> <span m='752980'>to</span> <span m='753090'>give</span> <span m='753270'>me</span> <span m='753370'>what</span> <span m='753710'>two</span> <span m='754030'>of</span> <span m='754150'>the</span> <span m='754260'>sides</span> <span m='754590'>are,</span> <span m='754800'>use</span> <span m='754960'>the</span> <span m='755070'>Pythagorean</span> <span m='755660'>theorem</span> <span m='755900'>to</span> <span m='755980'>get</span> <span m='756130'>the</span> <span m='756240'>third</span> <span m='756490'>side.</span> <span m='757200'>So</span> <span m='757400'>that's</span> <span m='757620'>the</span> <span m='757720'>strategy.</span> </p><p><span m='758406'>So</span> <span m='758750'>let's</span> <span m='758930'>go</span> <span m='759030'>back</span> <span m='759290'>and</span> <span m='759380'>just</span> <span m='759500'>remind</span> <span m='759740'>ourselves</span> <span m='760060'>where</span> <span m='760170'>we</span> <span m='760270'>came</span> <span m='760490'>from.</span> <span m='760820'>We're</span> <span m='760910'>going to</span> <span m='761050'>go</span> <span m='761160'>all</span> <span m='761430'>the</span> <span m='761500'>way</span> <span m='761620'>to</span> <span m='761680'>the</span> <span m='761760'>other</span> <span m='761930'>side.</span> <span m='762620'>This</span> <span m='762760'>was</span> <span m='762870'>a</span> <span m='762950'>long,</span> <span m='763410'>long</span> <span m='763790'>problem.</span> </p><p><span m='765480'>So</span> <span m='765690'>what</span> <span m='765850'>did</span> <span m='765940'>we</span> <span m='766040'>do in</span> <span m='766280'>this</span> <span m='766410'>problem?</span> <span m='767260'>I</span> <span m='767480'>wanted</span> <span m='767720'>us</span> <span m='767880'>to</span> <span m='767970'>find an</span> <span m='768410'>antiderivative</span> <span m='768820'>of</span> <span m='769060'>something.</span> <span m='770420'>And</span> <span m='770960'>right</span> <span m='771210'>away,</span> <span m='771490'>we</span> <span m='771630'>can't</span> <span m='771960'>use</span> <span m='773790'>partial</span> <span m='774110'>fractions,</span> <span m='774720'>because</span> <span m='774840'>we</span> <span m='774940'>can't</span> <span m='775180'>factor</span> <span m='775710'>out</span> <span m='775890'>an</span> <span m='775970'>x</span> <span m='776310'>here.</span> <span m='777110'>So</span> <span m='777420'>I'm</span> <span m='777600'>forced</span> <span m='778090'>to</span> <span m='778210'>use</span> <span m='779090'>completing</span> <span m='779540'>the</span> <span m='779630'>square.</span> </p><p><span m='780540'>So</span> <span m='780980'>I</span> <span m='781340'>completed</span> <span m='781800'>the</span> <span m='781880'>square</span> <span m='782170'>first.</span> <span m='782560'>That</span> <span m='782690'>was</span> <span m='782810'>the</span> <span m='782870'>little</span> <span m='783050'>algebra</span> <span m='783720'>that</span> <span m='783840'>I</span> <span m='783890'>had</span> <span m='784060'>to</span> <span m='784140'>do</span> <span m='784230'>first.</span> <span m='785660'>Then</span> <span m='785880'>once</span> <span m='786110'>I</span> <span m='786200'>have</span> <span m='786430'>that</span> <span m='786560'>little</span> <span m='786750'>bit</span> <span m='786850'>of</span> <span m='786940'>algebra,</span> <span m='787500'>I</span> <span m='787560'>get</span> <span m='787760'>into</span> <span m='787930'>a</span> <span m='787990'>situation</span> <span m='789050'>where</span> <span m='789330'>I'm</span> <span m='789440'>set</span> <span m='789700'>up</span> <span m='789830'>for a</span> <span m='789970'>trig</span> <span m='790430'>substitution.</span> <span m='791910'>So</span> <span m='792110'>then</span> <span m='792310'>I</span> <span m='792380'>had</span> <span m='792570'>to</span> <span m='792660'>start</span> <span m='792970'>off</span> <span m='793240'>and</span> <span m='793360'>do</span> <span m='793450'>some</span> <span m='793630'>trig</span> <span m='793880'>substituting.</span> <span m='795070'>And</span> <span m='795360'>the</span> <span m='795430'>things</span> <span m='795690'>you</span> <span m='795760'>have</span> <span m='795870'>to</span> <span m='795980'>do</span> <span m='796410'>to</span> <span m='796560'>make</span> <span m='796750'>a</span> <span m='796790'>trig</span> <span m='797080'>substitution</span> <span m='797570'>work</span> <span m='798200'>are,</span> <span m='798770'>pick</span> <span m='798980'>the</span> <span m='799590'>right</span> <span m='799960'>substitution</span> <span m='800620'>that</span> <span m='800710'>makes</span> <span m='800930'>sense,</span> <span m='801330'>which</span> <span m='801540'>you</span> <span m='801620'>were</span> <span m='801720'>given</span> <span m='802000'>that</span> <span m='802180'>in</span> <span m='802260'>class.</span> <span m='802650'>You</span> <span m='802720'>can</span> <span m='802850'>also</span> <span m='803090'>figure</span> <span m='803370'>it</span> <span m='803430'>out</span> <span m='803650'>from</span> <span m='803840'>a</span> <span m='804380'>triangle</span> <span m='804810'>picture,</span> <span m='805210'>if</span> <span m='805320'>you</span> <span m='805420'>wanted</span> <span m='805680'>to.</span> <span m='806530'>And</span> <span m='806840'>then</span> <span m='806940'>you</span> <span m='807010'>have</span> <span m='807140'>to</span> <span m='807220'>make</span> <span m='807380'>sure</span> <span m='807520'>you</span> <span m='807680'>substitute</span> <span m='808120'>not</span> <span m='808480'>just</span> <span m='808780'>for</span> <span m='808990'>the</span> <span m='809090'>expression,</span> <span m='809710'>the</span> <span m='809810'>function</span> <span m='810170'>of</span> <span m='810490'>x, but</span> <span m='810610'>also</span> <span m='810860'>the</span> <span m='811160'>dx.</span> </p><p><span m='812130'>So</span> <span m='812280'>we</span> <span m='812390'>did</span> <span m='812540'>all</span> <span m='812700'>that,</span> <span m='812930'>and</span> <span m='813020'>then</span> <span m='813110'>we</span> <span m='813220'>came</span> <span m='813740'>over,</span> <span m='814890'>further,</span> <span m='815310'>further,</span> <span m='815690'>further,</span> <span m='816060'>further,</span> <span m='816460'>further,</span> <span m='816880'>here.</span> <span m='817350'>And</span> <span m='817820'>we</span> <span m='818000'>had</span> <span m='818180'>everything</span> <span m='818510'>in</span> <span m='818610'>terms</span> <span m='818850'>of</span> <span m='818960'>theta.</span> <span m='819920'>So</span> <span m='820170'>then</span> <span m='820340'>we</span> <span m='820440'>had</span> <span m='820610'>to</span> <span m='820680'>look</span> <span m='820890'>at--</span> <span m='821790'>we</span> <span m='821910'>had</span> <span m='822080'>all</span> <span m='822190'>these</span> <span m='822530'>trigonometric</span> <span m='823140'>functions</span> <span m='823520'>of</span> <span m='823650'>theta.</span> <span m='824320'>We</span> <span m='824520'>simplified</span> <span m='825050'>that</span> <span m='825240'>as</span> <span m='825350'>far</span> <span m='825560'>as</span> <span m='825640'>we</span> <span m='825770'>could.</span> <span m='826730'>We</span> <span m='826840'>got</span> <span m='827070'>one</span> <span m='827220'>we</span> <span m='827320'>could</span> <span m='827470'>find.</span> <span m='828520'>Then we</span> <span m='828820'>finally,</span> <span m='829260'>we</span> <span m='829430'>take the</span> <span m='829630'>antiderivative</span> <span m='830310'>there,</span> <span m='831140'>and</span> <span m='831320'>then</span> <span m='831470'>in</span> <span m='831560'>the</span> <span m='831630'>very</span> <span m='831970'>end,</span> <span m='832140'>we're</span> <span m='832240'>going to</span> <span m='832570'>substitute in</span> <span m='833440'>for</span> <span m='833620'>theta,</span> <span m='834320'>using</span> <span m='834810'>the</span> <span m='834900'>triangle</span> <span m='835340'>we've</span> <span m='835500'>drawn</span> <span m='835750'>up</span> <span m='835880'>here.</span> </p><p><span m='837810'>So!</span> <span m='838800'>I</span> <span m='838970'>think</span> <span m='839120'>that's</span> <span m='839320'>where</span> <span m='839440'>I'm</span> <span m='839530'>going</span> <span m='839650'>to</span> <span m='839720'>stop</span> <span m='840020'>this</span> <span m='840200'>one.</span> <span m='840950'>Also,</span> <span m='841320'>I</span> <span m='841360'>ran</span> <span m='841600'>out</span> <span m='841690'>of</span> <span m='841770'>board</span> <span m='842000'>space,</span> <span m='842430'>so I</span> <span m='842530'>have</span> <span m='842770'>to</span> <span m='842860'>stop.</span> </p>", 
    "_content_type_link_text": "text/plain", 
    "course_linking": [], 
    "_id": "integration-by-completing-the-square", 
    "modification_date": "2016/09/25 01:19:45.846 GMT-4", 
    "media_index": [], 
    "always_publish": false, 
    "_owner": null, 
    "_permissions": {
        "Change portal events": {
            "acquire": false, 
            "roles": [
                "Editor", 
                "Manager", 
                "MetadataEditor", 
                "Owner"
            ]
        }, 
        "Modify portal content": {
            "acquire": false, 
            "roles": [
                "Manager", 
                "MetadataEditor"
            ]
        }, 
        "Access contents information": {
            "acquire": false, 
            "roles": [
                "Authenticated"
            ]
        }, 
        "List folder contents": {
            "acquire": false, 
            "roles": [
                "Editor", 
                "Manager", 
                "MetadataEditor", 
                "Owner"
            ]
        }, 
        "View": {
            "acquire": false, 
            "roles": [
                "Authenticated"
            ]
        }
    }, 
    "_properties": [
        [
            "title", 
            "Integration by Completing the Square", 
            "string"
        ]
    ], 
    "creators": [
        "sbabbar"
    ], 
    "courselist_features": [], 
    "_path": "/Plone/courses/mathematics/18-01sc-single-variable-calculus-fall-2010/unit-4-techniques-of-integration/part-a-trigonometric-powers-trigonometric-substitution-and-completing-the-square/session-73-completing-the-square/integration-by-completing-the-square"
}