{
    "text": "<p class=\"sc_nav\">&laquo; <a href=\"./resolveuid/be9d889d28b57df1a77bbd83f2f4f214\" class=\"sc_prev\">Previous</a> | <a href=\"./resolveuid/b2d9964453e89357525c798ec9a77daf\" class=\"sc_next\">Next</a> &raquo;</p> <p>&nbsp;</p> <h2 class=\"subhead\">Overview</h2> <p>If guessing and substitution don't work, we can use the method of partial fractions to integrate rational functions.  This session presents the time saving &quot;cover-up method&quot; for performing partial fractions decompositions.</p> <h2 class=\"subhead\">Lecture Video and Notes</h2> <h3 class=\"subsubhead\">Video Excerpts</h3> <div class=\"embedbg\"><div class=\"medialisting\"><p>95617800clip1:partialfractionsi87211734</p></div> <div class=\"medialisting\"><p>17580715clip2:introductiontothecover-upmethod8249582</p></div> <div class=\"medialisting\"><p>58373623clip3:thecover-upmethod92892036</p></div></div> <h2 class=\"subhead\">Worked Example</h2> <p>&nbsp;</p> <p>Integrate by Partial Fractions</p> <ul>     <li><a target=\"_blank\" title=\"Open in a new window.\" href=\"./resolveuid/160495eb552e15d3a310fb9a4d8844ef\">Problem (PDF)</a></li>     <li><a target=\"_blank\" title=\"Open in a new window.\" href=\"./resolveuid/b1dc48ac3e5767fc71ca4d887ae9cbbc\">Solution (PDF)</a></li> </ul> <p>&nbsp;</p> <p class=\"sc_nav_bottom\">&laquo; <a href=\"./resolveuid/be9d889d28b57df1a77bbd83f2f4f214\" class=\"sc_prev\">Previous</a> | <a href=\"./resolveuid/b2d9964453e89357525c798ec9a77daf\" class=\"sc_next\">Next</a> &raquo;</p>", 
    "_content_type_license": "text/plain", 
    "_uid": "bffb54f0e2e1cf685033820b5512e4e6", 
    "title": "Session 74: Integration by Partial Fractions", 
    "_ac_local_roles": {
        "cc_akuma1": [
            "Owner"
        ]
    }, 
    "location": "", 
    "_content_type_course_identifier": "text/plain", 
    "_atbrefs": {
        "isReferencing": [
            "4da2f4d47b887d3f0da6a5405ecfef83", 
            "be9d889d28b57df1a77bbd83f2f4f214", 
            "b2d9964453e89357525c798ec9a77daf"
        ]
    }, 
    "constrainTypesMode": -1, 
    "_content_type_section_identifier": "text/plain", 
    "technical_location": "https://ocw.mit.edu/courses/mathematics/18-01sc-single-variable-calculus-fall-2010/unit-4-techniques-of-integration/part-b-partial-fractions-integration-by-parts-arc-length-and-surface-area/session-74-integration-by-partial-fractions", 
    "software_requirements": [
        {
            "software_type_col": "Browser", 
            "minimum_version_col": "40.0", 
            "software_name_col": "Chrome", 
            "maximum_version_col": ""
        }, 
        {
            "software_type_col": "Browser", 
            "minimum_version_col": "8.0", 
            "software_name_col": "Safari", 
            "maximum_version_col": ""
        }, 
        {
            "software_type_col": "Browser", 
            "minimum_version_col": "38.0", 
            "software_name_col": "Mozilla Firefox", 
            "maximum_version_col": ""
        }, 
        {
            "software_type_col": "Browser", 
            "minimum_version_col": "9.0", 
            "software_name_col": "Internet Explorer", 
            "maximum_version_col": ""
        }, 
        {
            "software_type_col": "Browser", 
            "minimum_version_col": "13.1", 
            "software_name_col": "Edge", 
            "maximum_version_col": ""
        }
    ], 
    "_content_type_technical_location": "text/plain", 
    "_content_type_rights": "text/html", 
    "_directly_provided": [
        "Products.CMFEditions.interfaces.IVersioned"
    ], 
    "parent_uid": "be9d889d28b57df1a77bbd83f2f4f214", 
    "excludeFromNav": false, 
    "_content_type_unique_identifier": "text/plain", 
    "allowDiscussion": false, 
    "metadata_contributor_list": [], 
    "locallyAllowedTypes": [
        "OCWImage", 
        "CourseSection", 
        "OCWExtFile", 
        "OCWFile", 
        "MediaResource"
    ], 
    "_content_type_text": "text/html", 
    "ad_type": "HOUSE", 
    "creation_date": "2010/11/17 15:51:41.286 US/Eastern", 
    "aggregationlevel": 3, 
    "duration": "", 
    "immediatelyAddableTypes": [
        "OCWImage", 
        "CourseSection", 
        "OCWExtFile", 
        "OCWFile", 
        "MediaResource"
    ], 
    "subject": [], 
    "_content_type_short_page_title": "text/plain", 
    "effectiveDate": "2010/11/17 15:52:03.022 US/Eastern", 
    "parent_module": "bfe41979b9593362793fd930b36efa01", 
    "is_mathml_document": false, 
    "bottomtext": "", 
    "short_page_title": "Session 74: Integration by Partial Fractions", 
    "section_identifier": "https://ocw.mit.edu/courses/mathematics/18-01sc-single-variable-calculus-fall-2010/unit-4-techniques-of-integration", 
    "related_mit_links": "", 
    "_content_type_ad_type": "text/plain", 
    "_layout": "custom_view", 
    "_workflow_history": {
        "page_workflow": [
            {
                "action": null, 
                "review_state": "waiting_for_authoring", 
                "comments": "", 
                "actor": "Kcanavan", 
                "time": "2010/11/17 15:51:41.295 US/Eastern"
            }, 
            {
                "action": "approve_to_staging", 
                "review_state": "ready_for_staging", 
                "comments": "", 
                "actor": "Kcanavan", 
                "time": "2010/11/17 15:52:03.045 US/Eastern"
            }, 
            {
                "action": "decline", 
                "review_state": "waiting_for_authoring", 
                "actor": "cc_gegrov", 
                "comments": "", 
                "time": "2010/12/23 02:24:14.813 US/Eastern"
            }, 
            {
                "action": "approve_to_staging", 
                "review_state": "ready_for_staging", 
                "comments": "", 
                "actor": "cc_gegrov", 
                "time": "2010/12/23 06:54:53.032 US/Eastern"
            }, 
            {
                "action": "decline", 
                "review_state": "waiting_for_authoring", 
                "comments": "", 
                "actor": "Carchidi", 
                "time": "2010/12/23 14:24:18.293 US/Eastern"
            }, 
            {
                "action": "approve_to_staging", 
                "review_state": "ready_for_staging", 
                "comments": "", 
                "actor": "Carchidi", 
                "time": "2010/12/23 14:33:02.457 US/Eastern"
            }, 
            {
                "action": "decline_to_qa", 
                "review_state": "waiting_for_qa", 
                "actor": "Kcanavan", 
                "comments": "", 
                "time": "2011/01/07 15:58:03.503 US/Eastern"
            }, 
            {
                "action": "approve_to_staging", 
                "review_state": "ready_for_staging", 
                "actor": "Kcanavan", 
                "comments": "", 
                "time": "2011/01/07 20:50:07.324 US/Eastern"
            }, 
            {
                "action": "decline_to_qa", 
                "review_state": "waiting_for_qa", 
                "comments": "", 
                "actor": "Kcanavan", 
                "time": "2011/01/09 15:38:43.277 US/Eastern"
            }, 
            {
                "action": "approve_to_staging", 
                "review_state": "ready_for_staging", 
                "actor": "Kcanavan", 
                "comments": "", 
                "time": "2011/01/09 15:43:34.446 US/Eastern"
            }, 
            {
                "action": "decline_to_qa", 
                "review_state": "waiting_for_qa", 
                "comments": "", 
                "actor": "Csiegel", 
                "time": "2011/01/10 12:20:35.259 US/Eastern"
            }, 
            {
                "action": "approve_to_staging", 
                "review_state": "ready_for_staging", 
                "actor": "Kcanavan", 
                "comments": "", 
                "time": "2011/01/10 14:08:23.175 US/Eastern"
            }, 
            {
                "action": null, 
                "review_state": "waiting_for_authoring", 
                "actor": "cc_akuma1", 
                "comments": "", 
                "time": "2012/11/08 01:48:04.828 US/Eastern"
            }, 
            {
                "action": "approve_to_staging", 
                "review_state": "ready_for_staging", 
                "comments": "", 
                "actor": "ndhamija", 
                "time": "2012/11/09 03:41:57.049 US/Eastern"
            }, 
            {
                "action": "decline", 
                "review_state": "waiting_for_authoring", 
                "actor": "abohra", 
                "comments": "", 
                "time": "2012/11/23 01:54:49.052 US/Eastern"
            }, 
            {
                "action": "approve_to_staging", 
                "review_state": "ready_for_staging", 
                "actor": "asingh124", 
                "comments": "", 
                "time": "2012/11/23 06:58:18.285 US/Eastern"
            }, 
            {
                "action": "decline_to_qa", 
                "review_state": "waiting_for_qa", 
                "actor": "kqli", 
                "comments": "", 
                "time": "2013/01/02 12:54:11.376 US/Eastern"
            }, 
            {
                "action": "approve_to_staging", 
                "review_state": "ready_for_staging", 
                "comments": "", 
                "actor": "kqli", 
                "time": "2013/01/02 12:55:24.883 US/Eastern"
            }, 
            {
                "action": "decline_to_qa", 
                "review_state": "waiting_for_qa", 
                "actor": "Jcplayer", 
                "comments": "", 
                "time": "2013/08/22 11:02:46.428 GMT-4"
            }, 
            {
                "action": "approve_to_staging", 
                "review_state": "ready_for_staging", 
                "comments": "", 
                "actor": "Jcplayer", 
                "time": "2013/08/22 11:03:44.520 GMT-4"
            }, 
            {
                "action": "decline", 
                "review_state": "waiting_for_authoring", 
                "actor": "pgandhi3", 
                "comments": "", 
                "time": "2014/09/05 05:57:13.164 GMT-4"
            }, 
            {
                "action": "approve_to_staging", 
                "review_state": "ready_for_staging", 
                "comments": "", 
                "actor": "pgandhi3", 
                "time": "2014/09/05 05:59:02.985 GMT-4"
            }, 
            {
                "action": "decline", 
                "review_state": "waiting_for_authoring", 
                "actor": "sbabbar", 
                "comments": "", 
                "time": "2015/12/24 01:55:19.854 US/Eastern"
            }, 
            {
                "action": "approve_to_staging", 
                "review_state": "ready_for_staging", 
                "actor": "sbabbar", 
                "comments": "", 
                "time": "2015/12/29 04:59:34.539 US/Eastern"
            }, 
            {
                "action": "decline", 
                "review_state": "waiting_for_authoring", 
                "comments": "", 
                "actor": "rsharma20", 
                "time": "2016/01/05 19:23:16.511 US/Eastern"
            }, 
            {
                "action": "approve_to_staging", 
                "review_state": "ready_for_staging", 
                "actor": "rsharma20", 
                "comments": "", 
                "time": "2016/01/05 19:25:55.867 US/Eastern"
            }
        ]
    }, 
    "_classname": "CourseSection", 
    "_content_type_materialtype": "text/plain", 
    "_userdefined_roles": [], 
    "publisher": "MIT OpenCourseWare", 
    "nextPreviousEnabled": false, 
    "language": "", 
    "url_rewrite_patterns": [], 
    "widgets_features": [], 
    "category_features": [], 
    "firstTimeEdit": true, 
    "feature_requirements": [], 
    "list_in_left_nav": false, 
    "short_name_tlp": "Session 74: Integration by Partial Fractions", 
    "expirationDate": "None", 
    "_content_type_id": "text/plain", 
    "contributor_list": [
        {}
    ], 
    "is_media_gallery": false, 
    "contributors": [], 
    "_gopip": 0, 
    "_content_type_title": "text/plain", 
    "course_linking": [], 
    "_atrefs": {
        "BelongsTo": [
            "bfe41979b9593362793fd930b36efa01"
        ], 
        "isReferencing": [
            "b2d9964453e89357525c798ec9a77daf", 
            "be9d889d28b57df1a77bbd83f2f4f214", 
            "160495eb552e15d3a310fb9a4d8844ef", 
            "b1dc48ac3e5767fc71ca4d887ae9cbbc"
        ]
    }, 
    "other_platform_requirements": "", 
    "license": "http://creativecommons.org/licenses/by-nc-sa/3.0/us/", 
    "rights": "This site (c) Massachusetts Institute of Technology 2010.  Content within individual courses is (c) by the individual authors unless otherwise noted. The Massachusetts Institute of Technology is providing this Work (as defined below) under the terms of this Creative Commons public license (\"CCPL\" or \"license\") unless otherwise noted. The Work is protected by copyright and/or other applicable law. Any use of the work other than as authorized under this license is prohibited. By exercising any of the rights to the Work provided here, You (as defined below) accept and agree to be bound by the terms of this license. The Licensor, the Massachusetts Institute of Technology, grants You the rights contained here in consideration of Your acceptance of such terms and conditions.", 
    "hide_Page_title": null, 
    "_defaultpage": "", 
    "tcATmit_subject_tags": [], 
    "features_tracking": [], 
    "ad_champion_text": "", 
    "has_inline_embed": true, 
    "unique_identifier": "https://ocw.mit.edu/courses/mathematics/18-01sc-single-variable-calculus-fall-2010/unit-4-techniques-of-integration/part-b-partial-fractions-integration-by-parts-arc-length-and-surface-area/session-74-integration-by-partial-fractions", 
    "is_image_gallery": false, 
    "id": "session-74-integration-by-partial-fractions", 
    "materialtype": "Other", 
    "_type": "CourseSection", 
    "description": "This section contains lecture video excerpts, lecture notes, a problem solving video, and a worked example on integration by partial fractions.", 
    "course_identifier": "https://ocw.mit.edu/courses/mathematics/18-01sc-single-variable-calculus-fall-2010", 
    "_content_type_publisher": "text/plain", 
    "tcATmit_instructional_tags": [], 
    "_content_type": "text/html", 
    "creators": [
        "Kcanavan"
    ], 
    "modification_date": "2016/09/24 07:49:04.927 GMT-4", 
    "always_publish": true, 
    "_content_type_description": "text/plain", 
    "_owner": null, 
    "_permissions": {
        "Change portal events": {
            "acquire": false, 
            "roles": [
                "Editor", 
                "Manager", 
                "MetadataEditor", 
                "Owner"
            ]
        }, 
        "Modify portal content": {
            "acquire": false, 
            "roles": [
                "Manager", 
                "MetadataEditor"
            ]
        }, 
        "Access contents information": {
            "acquire": false, 
            "roles": [
                "Authenticated"
            ]
        }, 
        "List folder contents": {
            "acquire": false, 
            "roles": [
                "Editor", 
                "Manager", 
                "MetadataEditor", 
                "Owner"
            ]
        }, 
        "View": {
            "acquire": false, 
            "roles": [
                "Authenticated"
            ]
        }
    }, 
    "_properties": [
        [
            "title", 
            "Session 74: Integration by Partial Fractions", 
            "string"
        ]
    ], 
    "_id": "session-74-integration-by-partial-fractions", 
    "courselist_features": [], 
    "_content_type_short_name_tlp": "text/plain", 
    "_path": "/Plone/courses/mathematics/18-01sc-single-variable-calculus-fall-2010/unit-4-techniques-of-integration/part-b-partial-fractions-integration-by-parts-arc-length-and-surface-area/session-74-integration-by-partial-fractions"
}