{
    "rsi_top_html_area": "", 
    "text": "", 
    "_content_type_license": "text/plain", 
    "_uid": "c709e77103e047fb439c99e9b2bbcc87", 
    "title": "Integrating sinn(x) Using Reduction", 
    "_ac_local_roles": {
        "sbabbar": [
            "Owner"
        ]
    }, 
    "template_type": "Embed", 
    "location": "", 
    "_content_type_course_identifier": "text/plain", 
    "_atbrefs": {}, 
    "constrainTypesMode": 0, 
    "_content_type_section_identifier": "text/plain", 
    "technical_location": "https://ocw.mit.edu/courses/mathematics/18-01sc-single-variable-calculus-fall-2010/unit-4-techniques-of-integration/part-b-partial-fractions-integration-by-parts-arc-length-and-surface-area/session-76-integration-by-parts/integrating-sinn-x-using-reduction", 
    "software_requirements": [
        {
            "software_type_col": "Browser", 
            "minimum_version_col": "40.0", 
            "software_name_col": "Chrome", 
            "maximum_version_col": ""
        }, 
        {
            "software_type_col": "Browser", 
            "minimum_version_col": "8.0", 
            "software_name_col": "Safari", 
            "maximum_version_col": ""
        }, 
        {
            "software_type_col": "Browser", 
            "minimum_version_col": "38.0", 
            "software_name_col": "Mozilla Firefox", 
            "maximum_version_col": ""
        }, 
        {
            "software_type_col": "Browser", 
            "minimum_version_col": "9.0", 
            "software_name_col": "Internet Explorer", 
            "maximum_version_col": ""
        }, 
        {
            "software_type_col": "Browser", 
            "minimum_version_col": "13.1", 
            "software_name_col": "Edge", 
            "maximum_version_col": ""
        }
    ], 
    "_content_type_technical_location": "text/plain", 
    "start_time": "", 
    "_content_type_rights": "text/html", 
    "_directly_provided": [
        "Products.CMFEditions.interfaces.IVersioned"
    ], 
    "media_rights": "(CC BY-NC-SA)", 
    "parent_uid": "b196b3d2413fa8015d43695883cc671a", 
    "excludeFromNav": false, 
    "about_this_resource_text": "", 
    "_content_type_unique_identifier": "text/plain", 
    "end_time": "", 
    "allowDiscussion": false, 
    "_content_type_materialtype": "text/plain", 
    "locallyAllowedTypes": [
        "OCWImage", 
        "OCWFile", 
        "OCWMediaAsset"
    ], 
    "optional_tab_title": "", 
    "ad_type": "HOUSE", 
    "creation_date": "2015/12/24 03:38:17.053 US/Eastern", 
    "aggregationlevel": 2, 
    "bottom_html_area": "", 
    "duration": "", 
    "immediatelyAddableTypes": [
        "OCWImage", 
        "OCWFile", 
        "OCWMediaAsset"
    ], 
    "_content_type_template_type": "text/plain", 
    "subject": [], 
    "_content_type_short_page_title": "text/plain", 
    "effectiveDate": "2015/12/30 08:01:14.265 US/Eastern", 
    "parent_module": "bfe41979b9593362793fd930b36efa01", 
    "is_mathml_document": false, 
    "bottomtext": "", 
    "short_page_title": "Integrating sinn(x) Using Reduction", 
    "section_identifier": "https://ocw.mit.edu/courses/mathematics/18-01sc-single-variable-calculus-fall-2010/unit-4-techniques-of-integration", 
    "show_captions_outside_player": false, 
    "related_mit_links": "", 
    "_content_type_ad_type": "text/plain", 
    "_layout": "custom_view", 
    "_workflow_history": {
        "page_workflow": [
            {
                "action": null, 
                "review_state": "waiting_for_authoring", 
                "comments": "", 
                "actor": "sbabbar", 
                "time": "2015/12/24 03:38:17.067 US/Eastern"
            }, 
            {
                "action": "approve_to_staging", 
                "review_state": "ready_for_staging", 
                "actor": "asingh33", 
                "comments": "", 
                "time": "2015/12/30 08:01:18.211 US/Eastern"
            }
        ]
    }, 
    "_content_type_transcript": "text/html", 
    "metadata_contributor_list": [], 
    "_userdefined_roles": [], 
    "_content_type_inline_embed_id": "text/plain", 
    "publisher": "MIT OpenCourseWare", 
    "nextPreviousEnabled": false, 
    "_gopip": 16, 
    "license": "http://creativecommons.org/licenses/by-nc-sa/3.0/us/", 
    "url_rewrite_patterns": [], 
    "widgets_features": [], 
    "category_features": [], 
    "resource_contributor_list": [
        {
            "res_contributor_entity": "Jerison, David", 
            "res_contributor_uid": "b28f05bbf3c3b44d28bc8f11fc7834cd", 
            "res_contributor_role": "Performer"
        }
    ], 
    "show_jump_back_5_seconds_button": false, 
    "firstTimeEdit": false, 
    "_content_type_media_rights": "text/plain", 
    "feature_requirements": [], 
    "list_in_left_nav": false, 
    "inline_embed_id": "30694188integratingsinn(x)usingreduction4959144", 
    "_classname": "MediaResource", 
    "short_name_tlp": "", 
    "expirationDate": "None", 
    "_content_type_id": "text/plain", 
    "contributor_list": [
        {}
    ], 
    "is_media_gallery": false, 
    "contributors": [], 
    "media_locations": [
        {}
    ], 
    "_content_type_media_resource_type": "text/plain", 
    "_content_type_title": "text/plain", 
    "subtitle_exemption": "None", 
    "_content_type": "text/html", 
    "resource_index_text": "", 
    "_atrefs": {
        "BelongsTo": [
            "bfe41979b9593362793fd930b36efa01"
        ]
    }, 
    "media_slides": [], 
    "other_platform_requirements": "", 
    "language": "", 
    "rights": "This site (c) Massachusetts Institute of Technology 2015.  Content within individual courses is (c) by the individual authors unless otherwise noted. The Massachusetts Institute of Technology is providing this Work (as defined below) under the terms of this Creative Commons public license (\"CCPL\" or \"license\") unless otherwise noted. The Work is protected by copyright and/or other applicable law. Any use of the work other than as authorized under this license is prohibited. By exercising any of the rights to the Work provided here, You (as defined below) accept and agree to be bound by the terms of this license. The Licensor, the Massachusetts Institute of Technology, grants You the rights contained here in consideration of Your acceptance of such terms and conditions.", 
    "hide_Page_title": false, 
    "_defaultpage": "", 
    "related_resources_text": "", 
    "tcATmit_subject_tags": [], 
    "features_tracking": [], 
    "ad_champion_text": "", 
    "has_inline_embed": false, 
    "unique_identifier": "https://ocw.mit.edu/courses/mathematics/18-01sc-single-variable-calculus-fall-2010/unit-4-techniques-of-integration/part-b-partial-fractions-integration-by-parts-arc-length-and-surface-area/session-76-integration-by-parts/integrating-sinn-x-using-reduction", 
    "link_text": "Integrating sinn(x) Using Reduction", 
    "is_image_gallery": false, 
    "id": "integrating-sinn-x-using-reduction", 
    "_content_type_subtitle_exemption": "text/plain", 
    "materialtype": "Other", 
    "optional_text": "", 
    "_type": "MediaResource", 
    "description": "", 
    "media_resource_type": "Video", 
    "course_identifier": "https://ocw.mit.edu/courses/mathematics/18-01sc-single-variable-calculus-fall-2010", 
    "_content_type_publisher": "text/plain", 
    "tcATmit_instructional_tags": [], 
    "transcript": "<p><span m='6850'>Welcome</span> <span m='7210'>back</span> <span m='7360'>to</span> <span m='7430'>recitation.</span> <span m='8610'>In</span> <span m='8850'>this</span> <span m='8970'>video,</span> <span m='9330'>I'd</span> <span m='9530'>like</span> <span m='9730'>us</span> <span m='9950'>to</span> <span m='10450'>work</span> <span m='10640'>on an</span> <span m='10810'>example</span> <span m='11270'>of</span> <span m='12050'>something</span> <span m='12390'>you</span> <span m='12500'>actually</span> <span m='12810'>saw</span> <span m='13140'>in</span> <span m='13240'>one</span> <span m='13380'>of</span> <span m='13460'>the</span> <span m='13550'>lecture</span> <span m='13970'>videos,</span> <span m='14840'>and</span> <span m='15080'>that's</span> <span m='15300'>about</span> <span m='15640'>reduction</span> <span m='16040'>formulas.</span> <span m='16790'>So</span> <span m='17010'>what</span> <span m='17190'>I'd</span> <span m='17310'>like</span> <span m='17520'>us</span> <span m='17780'>to</span> <span m='17930'>do</span> <span m='19140'>is</span> <span m='19360'>to</span> <span m='19440'>find</span> <span m='19650'>a</span> <span m='19680'>reduction</span> <span m='20070'>formula</span> <span m='21010'>for</span> <span m='21590'>the integral</span> <span m='21760'>of</span> <span m='22110'>sine</span> <span m='22360'>to</span> <span m='22420'>the</span> <span m='22510'>n</span> <span m='22700'>x</span> <span m='23030'>dx,</span> <span m='24000'>which</span> <span m='24290'>I'm</span> <span m='24430'>denoting</span> <span m='24930'>by</span> <span m='25180'>F</span> <span m='25510'>sub</span> <span m='25820'>n</span> <span m='26820'>of</span> <span m='26970'>x.</span> <span m='28270'>That's</span> <span m='28460'>actually,</span> <span m='28850'>F</span> <span m='29010'>sub</span> <span m='29120'>n</span> <span m='29300'>of</span> <span m='29400'>x</span> <span m='29730'>denotes</span> <span m='30080'>the</span> <span m='30210'>integral</span> <span m='31050'>of</span> <span m='31200'>sine</span> <span m='31450'>x</span> <span m='31640'>raised</span> <span m='31880'>to</span> <span m='31980'>the</span> <span m='32080'>n</span> <span m='32580'>dx.</span> </p><p><span m='33620'>So</span> <span m='33820'>the</span> <span m='33970'>object</span> <span m='34450'>here,</span> <span m='34740'>just to</span> <span m='34990'>remind</span> <span m='35420'>you</span> <span m='35640'>of</span> <span m='35740'>what</span> <span m='35870'>we'd</span> <span m='36010'>like</span> <span m='36190'>to</span> <span m='36290'>do,</span> <span m='37380'>is</span> <span m='37550'>to</span> <span m='37650'>be</span> <span m='37770'>able</span> <span m='37960'>to</span> <span m='38100'>write</span> <span m='38960'>F sub n</span> <span m='39310'>of</span> <span m='39480'>x</span> <span m='39980'>in</span> <span m='40190'>a</span> <span m='40260'>form</span> <span m='40620'>where</span> <span m='41490'>maybe</span> <span m='41760'>it</span> <span m='41830'>involves</span> <span m='42310'>some</span> <span m='42460'>functions,</span> <span m='43590'>but</span> <span m='43810'>any</span> <span m='44090'>integral</span> <span m='44580'>that it</span> <span m='44820'>involves</span> <span m='45760'>is</span> <span m='45940'>an</span> <span m='46030'>integral</span> <span m='46580'>of</span> <span m='47200'>sine</span> <span m='47870'>to</span> <span m='48120'>a</span> <span m='48190'>lower</span> <span m='48520'>power</span> <span m='48870'>than</span> <span m='49070'>n.</span> <span m='50040'>So</span> <span m='50420'>an</span> <span m='50650'>integral of</span> <span m='51030'>sine x</span> <span m='51450'>to</span> <span m='51540'>a</span> <span m='51590'>lower</span> <span m='51820'>power than</span> <span m='52200'>n.</span> <span m='53040'>So</span> <span m='53240'>that's</span> <span m='53490'>the</span> <span m='53620'>object.</span> <span m='54030'>The</span> <span m='54110'>object</span> <span m='54450'>is</span> <span m='54580'>to</span> <span m='55620'>write</span> <span m='55890'>this</span> <span m='56110'>down</span> <span m='56430'>in</span> <span m='56530'>such</span> <span m='56730'>a</span> <span m='56780'>way</span> <span m='57020'>that</span> <span m='57170'>this</span> <span m='57360'>integral</span> <span m='58210'>is</span> <span m='58380'>equal</span> <span m='58630'>to</span> <span m='58730'>some</span> <span m='59470'>functions</span> <span m='59900'>maybe,</span> <span m='61210'>product</span> <span m='61550'>of</span> <span m='61620'>some</span> <span m='61800'>functions,</span> <span m='62170'>added</span> <span m='63050'>to</span> <span m='64200'>another</span> <span m='65170'>function</span> <span m='65610'>that's</span> <span m='66040'>like</span> <span m='66630'>F,</span> <span m='67000'>but</span> <span m='67130'>with</span> <span m='67260'>a</span> <span m='67330'>lower</span> <span m='67630'>subscript.</span> </p><p><span m='69190'>So I'm going</span> <span m='69460'>to</span> <span m='69530'>give</span> <span m='69630'>you</span> <span m='69700'>a</span> <span m='69740'>little</span> <span m='69940'>time</span> <span m='70150'>to</span> <span m='70220'>work</span> <span m='70440'>on</span> <span m='70590'>it.</span> <span m='70680'>Why don't you</span> <span m='70970'>pause the</span> <span m='71225'>video,</span> <span m='72110'>take</span> <span m='72310'>some</span> <span m='72430'>time</span> <span m='72640'>to</span> <span m='72710'>work</span> <span m='72930'>on</span> <span m='73100'>it,</span> <span m='73330'>and</span> <span m='73650'>when</span> <span m='73790'>I</span> <span m='73850'>come</span> <span m='74070'>back,</span> <span m='74540'>I'll</span> <span m='74780'>show you</span> <span m='75020'>how</span> <span m='75130'>I</span> <span m='75210'>do</span> <span m='75320'>it.</span> </p><p><span m='84670'>OK.</span> <span m='85030'>Welcome</span> <span m='85330'>back.</span> <span m='85890'>Well,</span> <span m='86160'>hopefully</span> <span m='86520'>you</span> <span m='86610'>were</span> <span m='86730'>able</span> <span m='86880'>to</span> <span m='86940'>make</span> <span m='87110'>some</span> <span m='87240'>headway</span> <span m='87530'>on</span> <span m='87650'>this</span> <span m='87790'>problem.</span> <span m='88260'>So</span> <span m='89090'>let's</span> <span m='89400'>take</span> <span m='89570'>a</span> <span m='89640'>look</span> <span m='89840'>again</span> <span m='90160'>at</span> <span m='90260'>what</span> <span m='90390'>we</span> <span m='90500'>want</span> <span m='90680'>to</span> <span m='90790'>do,</span> <span m='91150'>what</span> <span m='91330'>the</span> <span m='91400'>goal</span> <span m='91690'>is,</span> <span m='91950'>and</span> <span m='92130'>then</span> <span m='92270'>we'll</span> <span m='92850'>figure</span> <span m='93150'>out</span> <span m='93250'>a</span> <span m='93290'>good</span> <span m='93440'>strategy</span> <span m='93920'>to</span> <span m='94070'>do</span> <span m='94210'>that.</span> </p><p><span m='94940'>So</span> <span m='95050'>the</span> <span m='95150'>goal</span> <span m='95480'>is</span> <span m='95690'>to</span> <span m='95780'>be</span> <span m='95860'>able</span> <span m='95990'>to</span> <span m='96070'>write</span> <span m='96380'>F sub n</span> <span m='96680'>of</span> <span m='96840'>x</span> <span m='97930'>as</span> <span m='98450'>something</span> <span m='98860'>that</span> <span m='99020'>involves</span> <span m='100670'>a</span> <span m='100800'>lower</span> <span m='101110'>numbered</span> <span m='101490'>subscript</span> <span m='102010'>than</span> <span m='102110'>n.</span> <span m='102730'>Right?</span> <span m='103000'>So</span> <span m='103090'>we'd</span> <span m='103230'>like</span> <span m='103460'>to</span> <span m='103570'>be</span> <span m='103710'>able</span> <span m='103890'>to</span> <span m='103990'>take</span> <span m='104710'>this</span> <span m='104910'>integral,</span> <span m='105330'>that's a</span> <span m='105570'>power</span> <span m='106010'>of</span> <span m='106130'>sine</span> <span m='106440'>x,</span> <span m='107290'>and</span> <span m='107610'>reduce</span> <span m='107990'>the</span> <span m='108100'>number</span> <span m='108390'>of</span> <span m='108500'>powers.</span> <span m='109520'>You</span> <span m='109640'>know, it</span> <span m='109720'>would</span> <span m='109850'>be</span> <span m='109960'>great</span> <span m='110310'>if</span> <span m='110420'>we</span> <span m='110530'>could</span> <span m='110660'>just</span> <span m='110900'>write</span> <span m='111120'>down</span> <span m='111370'>a</span> <span m='111420'>final</span> <span m='111760'>formula,</span> <span m='112640'>but</span> <span m='113000'>if</span> <span m='113130'>we're</span> <span m='113310'>able</span> <span m='113610'>to</span> <span m='114080'>reduce</span> <span m='114550'>the</span> <span m='114650'>power</span> <span m='115070'>of</span> <span m='115200'>sine</span> <span m='115490'>x,</span> <span m='116180'>then</span> <span m='116340'>we're</span> <span m='116480'>able</span> <span m='116680'>to</span> <span m='116760'>head</span> <span m='117050'>in</span> <span m='117190'>a</span> <span m='117260'>direction</span> <span m='117680'>where</span> <span m='117840'>we</span> <span m='118010'>could</span> <span m='118650'>start</span> <span m='119010'>to</span> <span m='119110'>write</span> <span m='119340'>down,</span> <span m='120070'>start</span> <span m='120345'>to</span> <span m='120620'>write</span> <span m='120940'>this</span> <span m='121160'>down</span> <span m='121980'>as</span> <span m='122740'>functions</span> <span m='123320'>that</span> <span m='123510'>don't</span> <span m='123760'>involve</span> <span m='124100'>integrals.</span> </p><p><span m='124710'>So</span> <span m='124870'>the</span> <span m='125270'>first</span> <span m='125630'>step</span> <span m='126330'>in</span> <span m='126600'>these</span> <span m='126770'>kinds</span> <span m='126970'>of</span> <span m='127060'>things</span> <span m='127350'>is</span> <span m='127480'>finding</span> <span m='127850'>a</span> <span m='127900'>reduction</span> <span m='128340'>formula.</span> <span m='129450'>So</span> <span m='129710'>a</span> <span m='129780'>couple</span> <span m='130010'>of</span> <span m='130090'>things</span> <span m='130460'>I</span> <span m='130560'>want</span> <span m='130780'>to</span> <span m='130840'>remind</span> <span m='131290'>us.</span> <span m='132480'>We're</span> <span m='132650'>going to</span> <span m='132830'>make</span> <span m='133230'>the</span> <span m='133410'>common</span> <span m='133870'>substitution</span> <span m='134610'>that</span> <span m='135340'>we</span> <span m='135480'>make</span> <span m='136830'>for</span> <span m='138310'>powers</span> <span m='138840'>of</span> <span m='138950'>sine or</span> <span m='139350'>powers</span> <span m='139640'>of</span> <span m='139720'>cosine</span> <span m='140160'>that</span> <span m='140260'>we</span> <span m='140360'>see</span> <span m='140500'>a</span> <span m='140590'>lot.</span> <span m='142420'>Well,</span> <span m='142580'>I</span> <span m='142630'>guess,</span> <span m='142910'>actually</span> <span m='143270'>there's</span> <span m='143510'>two.</span> <span m='143790'>When</span> <span m='143920'>you</span> <span m='144010'>just</span> <span m='144200'>see</span> <span m='144310'>a</span> <span m='144430'>sine</span> <span m='144660'>squared,</span> <span m='145020'>sometimes</span> <span m='145420'>you</span> <span m='145510'>do</span> <span m='145650'>this</span> <span m='146250'>half</span> <span m='146510'>angle</span> <span m='146770'>formula,</span> <span m='146930'>or</span> <span m='147230'>double</span> <span m='147670'>angle</span> <span m='147750'>formula,</span> <span m='148210'>that</span> <span m='149120'>Joel</span> <span m='149390'>has</span> <span m='149530'>mentioned</span> <span m='149850'>in</span> <span m='149970'>some</span> <span m='150110'>videos.</span> </p><p><span m='150560'>But</span> <span m='150700'>in</span> <span m='150790'>this</span> <span m='150980'>one,</span> <span m='151180'>we're</span> <span m='151300'>more</span> <span m='151520'>interested</span> <span m='151980'>in</span> <span m='152890'>manipulating</span> <span m='153620'>the</span> <span m='153720'>identity</span> <span m='157900'>sine</span> <span m='158300'>squared</span> <span m='158595'>x</span> <span m='158890'>plus</span> <span m='159130'>cosine</span> <span m='159270'>squared x</span> <span m='159810'>equals</span> <span m='160050'>one.</span> <span m='160780'>In</span> <span m='160940'>particular,</span> <span m='161660'>we're</span> <span m='161790'>going</span> <span m='161990'>to</span> <span m='162100'>replace</span> <span m='163340'>one</span> <span m='163570'>of</span> <span m='163660'>the</span> <span m='163770'>sine</span> <span m='164080'>squared</span> <span m='164490'>x's,</span> <span m='164990'>or</span> <span m='165180'>we're</span> <span m='165300'>going</span> <span m='165490'>to</span> <span m='165560'>replace</span> <span m='166600'>two</span> <span m='167330'>of</span> <span m='167550'>the</span> <span m='167650'>sines</span> <span m='168810'>by</span> <span m='169630'>1</span> <span m='169810'>minus</span> <span m='170150'>cosine</span> <span m='170630'>squared x.</span> <span m='172170'>So</span> <span m='172290'>that'll</span> <span m='172530'>be</span> <span m='172640'>our</span> <span m='172790'>first</span> <span m='173080'>step.</span> </p><p><span m='174490'>So</span> <span m='174640'>we're</span> <span m='174730'>going</span> <span m='174850'>to</span> <span m='174930'>do</span> <span m='175030'>that</span> <span m='175250'>substitution.</span> <span m='175980'>We'll</span> <span m='176150'>break</span> <span m='176380'>it</span> <span m='176480'>into</span> <span m='176670'>some</span> <span m='176840'>pieces,</span> <span m='177340'>we'll</span> <span m='177470'>see</span> <span m='177650'>where</span> <span m='177840'>we</span> <span m='177940'>get.</span> <span m='178600'>OK?</span> <span m='178870'>So</span> <span m='179070'>let</span> <span m='179240'>me</span> <span m='179470'>come</span> <span m='179620'>over</span> <span m='179890'>here,</span> <span m='180930'>and</span> <span m='181090'>I</span> <span m='181170'>will</span> <span m='181310'>start</span> <span m='181590'>the</span> <span m='181670'>problem.</span> <span m='182150'>So</span> <span m='182320'>I'm</span> <span m='182480'>starting</span> <span m='182990'>with</span> <span m='184400'>f sub</span> <span m='184660'>n</span> <span m='184840'>of</span> <span m='184900'>x,</span> <span m='186060'>and</span> <span m='186160'>I'm</span> <span m='186220'>going</span> <span m='186390'>to</span> <span m='186460'>rewrite</span> <span m='186980'>it</span> <span m='187070'>as</span> <span m='187400'>the</span> <span m='187530'>integral</span> <span m='188600'>of</span> <span m='188770'>sine</span> <span m='189860'>to</span> <span m='189960'>the</span> <span m='190070'>n</span> <span m='190250'>minus</span> <span m='190760'>2</span> <span m='191586'>x</span> <span m='193520'>quantity</span> <span m='193940'>1</span> <span m='194180'>minus</span> <span m='194520'>cosine</span> <span m='195040'>squared</span> <span m='195120'>x</span> <span m='197980'>dx.</span> </p><p><span m='198600'>So let</span> <span m='198750'>me</span> <span m='198830'>take</span> <span m='199010'>a</span> <span m='199080'>step</span> <span m='199340'>back.</span> <span m='200740'>So</span> <span m='200960'>what</span> <span m='201110'>did</span> <span m='201210'>we</span> <span m='201330'>do</span> <span m='201470'>here?</span> <span m='201730'>We</span> <span m='201840'>took</span> <span m='202170'>two</span> <span m='202350'>powers</span> <span m='202780'>of</span> <span m='202900'>sine,</span> <span m='203780'>and we</span> <span m='203990'>replaced</span> <span m='204530'>them</span> <span m='204670'>by</span> <span m='204790'>what</span> <span m='204980'>I</span> <span m='205050'>said</span> <span m='205290'>earlier.</span> <span m='205680'>We</span> <span m='205820'>replaced</span> <span m='205950'>them</span> <span m='206360'>by</span> <span m='206510'>1</span> <span m='206730'>minus</span> <span m='207030'>cosine</span> <span m='207500'>squared</span> <span m='207730'>x.</span> <span m='209250'>Right?</span> <span m='209640'>So</span> <span m='210290'>this</span> <span m='210650'>is</span> <span m='210790'>a</span> <span m='210890'>sine</span> <span m='211230'>squared</span> <span m='211540'>x.</span> <span m='212270'>Here</span> <span m='212580'>I</span> <span m='212680'>have</span> <span m='212910'>sine</span> <span m='213170'>x</span> <span m='213510'>to</span> <span m='213610'>the</span> <span m='213730'>n</span> <span m='213860'>minus</span> <span m='214200'>2.</span> <span m='214490'>When</span> <span m='214680'>multiply</span> <span m='215050'>those</span> <span m='215290'>together,</span> <span m='215870'>I</span> <span m='215970'>get</span> <span m='216270'>sine</span> <span m='216540'>x</span> <span m='216790'>to</span> <span m='216890'>the</span> <span m='217010'>n.</span> <span m='217270'>So</span> <span m='218000'>everything's</span> <span m='218490'>still</span> <span m='218700'>working</span> <span m='219090'>out</span> <span m='219310'>so</span> <span m='219450'>far.</span> </p><p><span m='220440'>Why</span> <span m='220760'>is</span> <span m='220900'>this</span> <span m='221090'>good?</span> <span m='222510'>Well,</span> <span m='222660'>notice</span> <span m='223080'>the</span> <span m='223340'>terms</span> <span m='223730'>we</span> <span m='223900'>have.</span> <span m='225480'>Sine to</span> <span m='225790'>the n</span> <span m='226080'>minus</span> <span m='226260'>2</span> <span m='227540'>x</span> <span m='227850'>dx</span> <span m='229660'>minus</span> <span m='230580'>the</span> <span m='230730'>integral</span> <span m='232350'>of</span> <span m='232580'>sine</span> <span m='232940'>to</span> <span m='233060'>the</span> <span m='233160'>n</span> <span m='233330'>minus</span> <span m='233780'>2</span> <span m='234697'>x</span> <span m='236100'>cosine</span> <span m='236800'>squared</span> <span m='237340'>x</span> <span m='237800'>dx.</span> </p><p><span m='239640'>OK.</span> <span m='241830'>This</span> <span m='242200'>we</span> <span m='242350'>like.</span> <span m='242970'>Why</span> <span m='243300'>do</span> <span m='243630'>we</span> <span m='243780'>like</span> <span m='243990'>this?</span> <span m='244860'>Because</span> <span m='245180'>it's</span> <span m='245360'>actually</span> <span m='247006'>is</span> <span m='247390'>just</span> <span m='247940'>like</span> <span m='248210'>the</span> <span m='248350'>F</span> <span m='248590'>sub n of</span> <span m='249010'>x,</span> <span m='249380'>except</span> <span m='250300'>it</span> <span m='250550'>has</span> <span m='250740'>a</span> <span m='250820'>lower</span> <span m='251120'>power.</span> <span m='251930'>So</span> <span m='252180'>this</span> <span m='252510'>piece</span> <span m='254180'>is</span> <span m='254340'>actually</span> <span m='254830'>F</span> <span m='254990'>sub</span> <span m='255320'>n</span> <span m='255610'>minus</span> <span m='256040'>2</span> <span m='257010'>of x.</span> <span m='258590'>So</span> <span m='258780'>that's</span> <span m='259020'>something</span> <span m='259350'>we</span> <span m='259460'>like.</span> <span m='259820'>Because</span> <span m='260080'>it's</span> <span m='260200'>already</span> <span m='260490'>reduced</span> <span m='261790'>the</span> <span m='261920'>power</span> <span m='262310'>of</span> <span m='262440'>sine</span> <span m='262700'>x</span> <span m='262960'>by</span> <span m='263150'>2.</span> <span m='264220'>So</span> <span m='264370'>that's</span> <span m='264600'>good.</span> <span m='264820'>That's</span> <span m='265120'>part</span> <span m='265380'>of</span> <span m='265480'>the</span> <span m='265580'>reduction</span> <span m='266220'>idea.</span> </p><p><span m='267670'>This</span> <span m='268000'>one,</span> <span m='268320'>obviously</span> <span m='268950'>we</span> <span m='269090'>can't</span> <span m='269390'>write</span> <span m='269610'>it</span> <span m='269730'>in</span> <span m='269830'>terms</span> <span m='270120'>of</span> <span m='270280'>capital</span> <span m='270690'>F</span> <span m='270900'>with</span> <span m='271030'>some</span> <span m='271210'>subscript.</span> <span m='272990'>And</span> <span m='273510'>it</span> <span m='273710'>maybe</span> <span m='274040'>doesn't</span> <span m='274260'>look</span> <span m='274380'>so</span> <span m='274520'>easy</span> <span m='274780'>to</span> <span m='275340'>integrate</span> <span m='275740'>right</span> <span m='275910'>away.</span> <span m='276430'>But</span> <span m='276670'>let's</span> <span m='276910'>think</span> <span m='277160'>about</span> <span m='277450'>it</span> <span m='277560'>for</span> <span m='277680'>a</span> <span m='277750'>second,</span> <span m='278080'>how</span> <span m='278240'>we</span> <span m='278350'>could</span> <span m='278510'>split</span> <span m='278940'>this</span> <span m='279140'>thing</span> <span m='279380'>up.</span> <span m='280800'>And</span> <span m='280960'>the</span> <span m='281030'>goal</span> <span m='281350'>was</span> <span m='281480'>to</span> <span m='281600'>use an</span> <span m='281780'>integration</span> <span m='282310'>by</span> <span m='282430'>parts.</span> <span m='283750'>So</span> <span m='284050'>we're</span> <span m='284170'>going</span> <span m='284290'>to</span> <span m='284350'>examine</span> <span m='284960'>this</span> <span m='285310'>integral</span> <span m='286470'>in</span> <span m='286630'>particular.</span> <span m='287210'>So</span> <span m='287390'>let</span> <span m='287590'>me</span> <span m='288780'>just</span> <span m='289050'>write</span> <span m='289310'>that</span> <span m='289490'>one</span> <span m='289670'>down</span> <span m='290720'>again</span> <span m='291040'>here.</span> </p><p><span m='291280'>So</span> <span m='291410'>we</span> <span m='291520'>need</span> <span m='291670'>to</span> <span m='291750'>analyze--</span> <span m='292270'>I'm</span> <span m='292350'>going</span> <span m='292470'>to</span> <span m='292540'>drop</span> <span m='292810'>the</span> <span m='292900'>minus</span> <span m='293290'>sign</span> <span m='293520'>for</span> <span m='293650'>the</span> <span m='293740'>moment, n minus 2.</span> <span m='301590'>So our</span> <span m='301860'>goal,</span> <span m='302090'>again,</span> <span m='302450'>is</span> <span m='302580'>to</span> <span m='302670'>try</span> <span m='302890'>and</span> <span m='303040'>write</span> <span m='303260'>this</span> <span m='303550'>somehow.</span> <span m='304100'>Either</span> <span m='305070'>manipulate</span> <span m='305650'>it</span> <span m='305800'>so</span> <span m='305950'>it</span> <span m='306050'>looks</span> <span m='306310'>like</span> <span m='306540'>a</span> <span m='307090'>capital</span> <span m='307540'>F</span> <span m='307790'>function,</span> <span m='308350'>or</span> <span m='309240'>manipulate</span> <span m='309575'>it</span> <span m='309910'>so</span> <span m='310050'>that</span> <span m='310250'>the</span> <span m='310760'>integral</span> <span m='311130'>sign</span> <span m='311400'>is</span> <span m='311530'>gone.</span> <span m='312380'>OK?</span> <span m='312660'>That's</span> <span m='312880'>our</span> <span m='313010'>main</span> <span m='313340'>goal</span> <span m='313570'>here.</span> </p><p><span m='314540'>So</span> <span m='314740'>let's</span> <span m='314940'>look</span> <span m='315070'>at</span> <span m='315170'>what</span> <span m='315660'>we</span> <span m='315780'>can</span> <span m='315940'>do</span> <span m='316100'>with</span> <span m='316320'>this.</span> <span m='316540'>Well,</span> <span m='317150'>I</span> <span m='317340'>can</span> <span m='317550'>split</span> <span m='317870'>this</span> <span m='318050'>up.</span> <span m='318860'>What</span> <span m='319060'>I'm</span> <span m='319160'>going to</span> <span m='319380'>do,</span> <span m='319610'>it's</span> <span m='319750'>kind</span> <span m='319930'>of</span> <span m='320030'>tricky,</span> <span m='320460'>but</span> <span m='320600'>what</span> <span m='320710'>I'm</span> <span m='320810'>going to</span> <span m='321010'>do,</span> <span m='321180'>is</span> <span m='321270'>I'm</span> <span m='321360'>going to</span> <span m='321550'>take</span> <span m='322660'>all</span> <span m='323040'>of</span> <span m='323150'>the</span> <span m='323280'>sine</span> <span m='323610'>x's,</span> <span m='324500'>and</span> <span m='324670'>I'm</span> <span m='324760'>going to</span> <span m='324960'>take</span> <span m='325140'>one</span> <span m='325380'>of</span> <span m='325480'>the</span> <span m='325580'>cosine</span> <span m='325855'>x's.</span> <span m='327770'>And</span> <span m='327950'>I'm</span> <span m='328040'>going to</span> <span m='328180'>make</span> <span m='328390'>that</span> <span m='328600'>one</span> <span m='328870'>thing,</span> <span m='329460'>and</span> <span m='329730'>I'm</span> <span m='329850'>going to</span> <span m='330000'>make</span> <span m='330160'>the</span> <span m='330290'>other</span> <span m='330520'>cosine</span> <span m='330800'>x</span> <span m='331080'>another</span> <span m='331390'>thing.</span> <span m='331640'>And</span> <span m='331790'>I'm</span> <span m='331920'>going to</span> <span m='332090'>write</span> <span m='332300'>them</span> <span m='332440'>down</span> <span m='332710'>first,</span> <span m='333100'>and</span> <span m='333350'>we'll</span> <span m='333470'>figure</span> <span m='333810'>out</span> <span m='334050'>which</span> <span m='334270'>is</span> <span m='334370'>a</span> <span m='334440'>good</span> <span m='335200'>u</span> <span m='335540'>and</span> <span m='335700'>which</span> <span m='335850'>is</span> <span m='335940'>a</span> <span m='336010'>good</span> <span m='336200'>v</span> <span m='336380'>prime.</span> </p><p><span m='341700'>So</span> <span m='342200'>that's</span> <span m='342420'>going to</span> <span m='342610'>be</span> <span m='342700'>one</span> <span m='342990'>thing.</span> <span m='344530'>And</span> <span m='344670'>then</span> <span m='344800'>the</span> <span m='344910'>other</span> <span m='345110'>cosine</span> <span m='345520'>x</span> <span m='345930'>is</span> <span m='346340'>going</span> <span m='346750'>to</span> <span m='347160'>be--</span> <span m='347990'>does that</span> <span m='348270'>look</span> <span m='348390'>like</span> <span m='348530'>an</span> <span m='348610'>equals</span> <span m='348830'>sign?</span> <span m='349840'>Equals is</span> <span m='349950'>going to</span> <span m='350140'>be</span> <span m='350280'>the</span> <span m='350390'>other</span> <span m='350600'>thing.</span> <span m='350800'>So</span> <span m='350970'>again,</span> <span m='351720'>sine to</span> <span m='352120'>the n</span> <span m='352290'>minus</span> <span m='352630'>2</span> <span m='352720'>x</span> <span m='353005'>times</span> <span m='353290'>cosine x</span> <span m='353670'>times</span> <span m='354030'>cosine</span> <span m='354230'>x</span> <span m='354380'>gives me</span> <span m='354960'>what's</span> <span m='355160'>up</span> <span m='355300'>here,</span> <span m='356280'>inside</span> <span m='356640'>the</span> <span m='356710'>integral.</span> <span m='357880'>And</span> <span m='358100'>now</span> <span m='358260'>what</span> <span m='358410'>I</span> <span m='358480'>really</span> <span m='358780'>want</span> <span m='359090'>to</span> <span m='359220'>see,</span> <span m='359510'>I'm</span> <span m='359700'>going to</span> <span m='359850'>use</span> <span m='360130'>an</span> <span m='360220'>integration</span> <span m='360660'>by</span> <span m='360780'>parts.</span> <span m='361710'>Well,</span> <span m='362620'>this</span> <span m='362890'>is</span> <span m='363000'>easy</span> <span m='363310'>to</span> <span m='363490'>integrate</span> <span m='363840'>or</span> <span m='363950'>take</span> <span m='364130'>a</span> <span m='364180'>derivative</span> <span m='364600'>of.</span> </p><p><span m='364840'>But</span> <span m='364900'>the</span> <span m='364990'>point</span> <span m='365280'>is</span> <span m='365420'>that</span> <span m='365520'>now</span> <span m='365810'>I</span> <span m='365920'>can</span> <span m='366120'>integrate</span> <span m='366610'>this.</span> <span m='367530'>And</span> <span m='367720'>why</span> <span m='367900'>can</span> <span m='368080'>I</span> <span m='368180'>integrate</span> <span m='368380'>this?</span> <span m='369390'>Well,</span> <span m='369700'>I</span> <span m='369770'>can</span> <span m='369950'>do</span> <span m='370060'>a</span> <span m='370140'>substitution</span> <span m='370990'>on</span> <span m='371270'>this.</span> <span m='371730'>So</span> <span m='371890'>this</span> <span m='372040'>is</span> <span m='372160'>kind</span> <span m='372330'>of</span> <span m='372420'>complicated.</span> <span m='373520'>Because there's</span> <span m='373880'>first,</span> <span m='374340'>you</span> <span m='374430'>have</span> <span m='374540'>to</span> <span m='374630'>notice,</span> <span m='375100'>an</span> <span m='375290'>integration</span> <span m='375700'>by</span> <span m='375810'>parts</span> <span m='376160'>is</span> <span m='376240'>a</span> <span m='376310'>good</span> <span m='376480'>way</span> <span m='376620'>to</span> <span m='376700'>go</span> <span m='376850'>with</span> <span m='377050'>this.</span> <span m='377790'>And</span> <span m='377950'>then</span> <span m='378080'>you</span> <span m='378160'>have</span> <span m='378250'>to</span> <span m='378360'>see,</span> <span m='378690'>oh</span> <span m='378790'>my</span> <span m='378920'>goodness,</span> <span m='379560'>one</span> <span m='379740'>of</span> <span m='379820'>the</span> <span m='379890'>steps</span> <span m='380180'>of</span> <span m='380290'>integration</span> <span m='380760'>by</span> <span m='380880'>parts</span> <span m='381170'>requires</span> <span m='381660'>substitution.</span> <span m='382820'>So</span> <span m='382970'>it's</span> <span m='383050'>a</span> <span m='383120'>little</span> <span m='383470'>tricky.</span> </p><p><span m='384710'>But</span> <span m='385280'>I'm</span> <span m='385530'>going to</span> <span m='385720'>make</span> <span m='385990'>this,</span> <span m='386060'>then,</span> <span m='386510'>my</span> <span m='386660'>v</span> <span m='386880'>prime,</span> <span m='388701'>and</span> <span m='389130'>I'm</span> <span m='389290'>going to</span> <span m='389410'>make</span> <span m='389560'>this</span> <span m='389750'>my</span> <span m='389890'>u.</span> </p><p><span m='391920'>Now,</span> <span m='392630'>I'm</span> <span m='392780'>going to</span> <span m='392950'>come</span> <span m='393170'>over</span> <span m='393530'>to</span> <span m='393660'>the</span> <span m='393740'>other</span> <span m='393920'>board</span> <span m='394300'>to</span> <span m='394380'>figure</span> <span m='394740'>out,</span> <span m='394970'>just</span> <span m='395160'>to</span> <span m='395250'>make</span> <span m='395400'>sure</span> <span m='395570'>I</span> <span m='395650'>do</span> <span m='395770'>the</span> <span m='395870'>v</span> <span m='396050'>prime</span> <span m='396420'>right.</span> <span m='397510'>OK?</span> <span m='398090'>And</span> <span m='398260'>then</span> <span m='398380'>I'm</span> <span m='398480'>going to</span> <span m='398820'>finish</span> <span m='399240'>off</span> <span m='399460'>this</span> <span m='399620'>problem.</span> <span m='400180'>So</span> <span m='400350'>we'll</span> <span m='400470'>come</span> <span m='400670'>back</span> <span m='400860'>here</span> <span m='401040'>in</span> <span m='401110'>a</span> <span m='401190'>second.</span> <span m='401550'>So</span> <span m='401700'>right</span> <span m='401910'>now,</span> <span m='402080'>this</span> <span m='402240'>is</span> <span m='402340'>a</span> <span m='402420'>question</span> <span m='402790'>mark.</span> <span m='404060'>We're</span> <span m='404260'>going to</span> <span m='404490'>make</span> <span m='404660'>sure</span> <span m='404820'>we</span> <span m='404940'>do</span> <span m='405040'>the</span> <span m='405140'>v</span> <span m='405270'>prime</span> <span m='405660'>part</span> <span m='405940'>right,</span> <span m='406300'>and</span> <span m='406430'>then</span> <span m='406550'>we're</span> <span m='406640'>going</span> <span m='406770'>to</span> <span m='406830'>write</span> <span m='407030'>down,</span> <span m='408150'>this</span> <span m='408390'>should</span> <span m='408600'>be</span> <span m='408930'>u*v</span> <span m='409510'>minus</span> <span m='409980'>the</span> <span m='410100'>integral</span> <span m='410480'>of</span> <span m='410610'>v du.</span> <span m='411970'>OK?</span> <span m='412890'>So</span> <span m='413110'>let</span> <span m='413230'>me</span> <span m='413350'>give</span> <span m='413510'>myself</span> <span m='413940'>some</span> <span m='414090'>space.</span> <span m='415520'>So I'm</span> <span m='415730'>trying</span> <span m='415940'>to</span> <span m='416020'>integrate</span> <span m='416390'>now</span> <span m='418990'>sine</span> <span m='419440'>the n</span> <span m='419710'>minus</span> <span m='419850'>2</span> <span m='420060'>x</span> <span m='421510'>cosine</span> <span m='421890'>x</span> <span m='423810'>dx.</span> <span m='424822'>All</span> <span m='425160'>right?</span> <span m='425390'>That's</span> <span m='425600'>my</span> <span m='426230'>integral</span> <span m='426750'>of</span> <span m='426890'>v</span> <span m='427050'>prime</span> <span m='427410'>dx.</span> <span m='429310'>OK, so</span> <span m='429490'>this</span> <span m='429640'>will</span> <span m='429750'>give me</span> <span m='429860'>v.</span> </p><p><span m='431470'>Well,</span> <span m='431750'>let's</span> <span m='431930'>see</span> <span m='432070'>what</span> <span m='432230'>we</span> <span m='432340'>do.</span> <span m='433540'>We're</span> <span m='433690'>going to</span> <span m='433890'>now</span> <span m='434200'>make--</span> <span m='434600'>I</span> <span m='434720'>don't</span> <span m='434880'>want to</span> <span m='435020'>use</span> <span m='435290'>a</span> <span m='435560'>u</span> <span m='435930'>for</span> <span m='436090'>my</span> <span m='436230'>substitution,</span> <span m='437040'>because</span> <span m='437180'>I</span> <span m='437260'>already</span> <span m='437590'>have</span> <span m='437870'>in</span> <span m='437940'>my</span> <span m='438060'>mind</span> <span m='438400'>a u.</span> <span m='438720'>So</span> <span m='438900'>I'm</span> <span m='439040'>going to</span> <span m='439210'>let</span> <span m='439460'>w</span> <span m='442330'>equal</span> <span m='442550'>sine x,</span> <span m='444510'>and</span> <span m='444770'>then</span> <span m='445170'>dw</span> <span m='446720'>is equal</span> <span m='447050'>to</span> <span m='447160'>cosine</span> <span m='447430'>x</span> <span m='447700'>dx. Right?</span> </p><p><span m='450380'>What's</span> <span m='451030'>the</span> <span m='451150'>point</span> <span m='451480'>here?</span> <span m='451710'>Why</span> <span m='452270'>do</span> <span m='452380'>we</span> <span m='452480'>see</span> <span m='452650'>this</span> <span m='452790'>as</span> <span m='452920'>easy</span> <span m='453140'>to</span> <span m='453270'>integrate?</span> <span m='454250'>Because</span> <span m='454530'>this</span> <span m='454710'>is</span> <span m='454850'>powers</span> <span m='455240'>of</span> <span m='455350'>sine,</span> <span m='456420'>and</span> <span m='456580'>the</span> <span m='456650'>derivative</span> <span m='456905'>of</span> <span m='457160'>sine is</span> <span m='457580'>cosine.</span> <span m='458260'>So</span> <span m='458460'>that's</span> <span m='458670'>why</span> <span m='459180'>this</span> <span m='459430'>lends</span> <span m='459780'>itself</span> <span m='460160'>to</span> <span m='460260'>a</span> <span m='460330'>substitution</span> <span m='460980'>so</span> <span m='461200'>easily.</span> <span m='462040'>So</span> <span m='462210'>that</span> <span m='462380'>should</span> <span m='462540'>be</span> <span m='462680'>fairly</span> <span m='463050'>familiar</span> <span m='463450'>by</span> <span m='463620'>now,</span> <span m='463930'>but</span> <span m='464050'>just</span> <span m='464230'>to</span> <span m='464310'>make</span> <span m='464450'>sure</span> <span m='464620'>we're</span> <span m='464740'>clear.</span> <span m='465570'>So</span> <span m='465730'>then</span> <span m='465900'>this</span> <span m='466050'>is</span> <span m='466140'>now</span> <span m='466290'>the</span> <span m='466430'>integral</span> <span m='466900'>of</span> <span m='467040'>w</span> <span m='468280'>to</span> <span m='468400'>the</span> <span m='468510'>n</span> <span m='468650'>minus</span> <span m='469040'>2</span> <span m='470250'>dw.</span> <span m='471896'>All</span> <span m='472370'>right?</span> <span m='472590'>I</span> <span m='472680'>have</span> <span m='472950'>sine</span> <span m='473400'>x to the</span> <span m='473660'>n</span> <span m='474030'>minus</span> <span m='474330'>2.</span> <span m='474600'>So</span> <span m='474760'>that's</span> <span m='474950'>replaced</span> <span m='475310'>by</span> <span m='475430'>w</span> <span m='476330'>to the</span> <span m='476440'>n</span> <span m='476560'>minus</span> <span m='476850'>2.</span> <span m='477580'>And</span> <span m='477750'>then</span> <span m='477880'>dw</span> <span m='478330'>replaces</span> <span m='478760'>cosine</span> <span m='479080'>x</span> <span m='479360'>dx.</span> </p><p><span m='479750'>And</span> <span m='479950'>that</span> <span m='480180'>is</span> <span m='480320'>pretty</span> <span m='480630'>easy</span> <span m='480830'>to</span> <span m='480990'>integrate,</span> <span m='481320'>I</span> <span m='481400'>think.</span> <span m='482590'>That's</span> <span m='482830'>w</span> <span m='483200'>to the</span> <span m='483380'>n</span> <span m='483530'>minus</span> <span m='483870'>1</span> <span m='485020'>over</span> <span m='485470'>n</span> <span m='485620'>minus</span> <span m='485930'>1.</span> <span m='486630'>I'm</span> <span m='487090'>not</span> <span m='487250'>going to</span> <span m='487440'>worry</span> <span m='487710'>about</span> <span m='487980'>my</span> <span m='488130'>c's</span> <span m='488900'>right</span> <span m='489150'>now.</span> <span m='489570'>That'll</span> <span m='489930'>come</span> <span m='490160'>up</span> <span m='490300'>right</span> <span m='490470'>at</span> <span m='490570'>the</span> <span m='490660'>end.</span> <span m='490890'>We'll</span> <span m='491010'>put</span> <span m='491200'>in</span> <span m='491290'>a</span> <span m='491350'>plus</span> <span m='491600'>c</span> <span m='491910'>if</span> <span m='492060'>we</span> <span m='492180'>needed</span> <span m='492340'>to.</span> <span m='495710'>But, so</span> <span m='495900'>don't</span> <span m='496160'>worry</span> <span m='496380'>about</span> <span m='496610'>your</span> <span m='496710'>plus c.</span> <span m='497190'>I don't</span> <span m='497380'>want to</span> <span m='497550'>carry</span> <span m='497810'>that</span> <span m='497960'>around.</span> </p><p><span m='499060'>OK.</span> <span m='499340'>So</span> <span m='500160'>then</span> <span m='500420'>when</span> <span m='500570'>I</span> <span m='500690'>when</span> <span m='501080'>I</span> <span m='501160'>look</span> <span m='501380'>at</span> <span m='501480'>this,</span> <span m='501740'>what</span> <span m='501920'>does</span> <span m='502040'>this</span> <span m='502210'>tell</span> <span m='502400'>me?</span> <span m='502540'>This</span> <span m='502720'>tells</span> <span m='503000'>me</span> <span m='503140'>that</span> <span m='503330'>if</span> <span m='503510'>this</span> <span m='503680'>is</span> <span m='503790'>the</span> <span m='503870'>integral of</span> <span m='504240'>v</span> <span m='504420'>prime,</span> <span m='505380'>this</span> <span m='505600'>tells</span> <span m='505790'>me</span> <span m='505890'>that</span> <span m='506060'>v</span> <span m='506550'>is</span> <span m='506740'>equal</span> <span m='507030'>to</span> <span m='508420'>sine</span> <span m='508850'>x</span> <span m='509690'>to</span> <span m='509830'>the</span> <span m='509930'>n</span> <span m='510060'>minus</span> <span m='510380'>1,</span> <span m='511930'>sine to</span> <span m='512110'>the</span> <span m='512180'>n</span> <span m='512320'>minus</span> <span m='512560'>1</span> <span m='513155'>x,</span> <span m='513570'>over</span> <span m='513850'>n</span> <span m='513980'>minus</span> <span m='514260'>1.</span> <span m='516080'>OK?</span> </p><p><span m='517480'>This</span> <span m='517830'>whole</span> <span m='518070'>bit</span> <span m='518360'>was</span> <span m='518520'>to</span> <span m='518600'>help</span> <span m='518860'>us</span> <span m='519200'>in</span> <span m='519510'>the</span> <span m='519590'>middle</span> <span m='519890'>of</span> <span m='519990'>the</span> <span m='520080'>problem.</span> <span m='520490'>So</span> <span m='520630'>this</span> <span m='520790'>was</span> <span m='520940'>the</span> <span m='521060'>v</span> <span m='521340'>we</span> <span m='521490'>needed. All right?</span> <span m='522840'>So</span> <span m='522980'>let's</span> <span m='523210'>come</span> <span m='523480'>back,</span> <span m='524380'>fill in</span> <span m='524890'>a</span> <span m='524970'>little</span> <span m='525190'>piece</span> <span m='525460'>we</span> <span m='525580'>needed,</span> <span m='525840'>that</span> <span m='525960'>little</span> <span m='526190'>gap</span> <span m='526470'>we</span> <span m='526580'>had,</span> <span m='526900'>and</span> <span m='527050'>then</span> <span m='527150'>we'll</span> <span m='527270'>finish</span> <span m='527580'>the</span> <span m='527660'>problem</span> <span m='528040'>on</span> <span m='528110'>the</span> <span m='528180'>far</span> <span m='528370'>right.</span> </p><p><span m='529250'>So</span> <span m='529480'>let's</span> <span m='529710'>come</span> <span m='529920'>back.</span> <span m='530390'>Where</span> <span m='530650'>was</span> <span m='530860'>I?</span> <span m='531510'>OK.</span> <span m='532670'>So</span> <span m='532920'>I</span> <span m='532970'>was</span> <span m='533140'>integrating</span> <span m='534370'>this</span> <span m='534620'>quantity.</span> <span m='535080'>Sine</span> <span m='535400'>to</span> <span m='535470'>the</span> <span m='535530'>n</span> <span m='535640'>minus</span> <span m='535930'>2</span> <span m='536100'>x</span> <span m='536390'>cosine</span> <span m='536800'>squared</span> <span m='537000'>x</span> <span m='537310'>dx.</span> <span m='538080'>And</span> <span m='538350'>I</span> <span m='538390'>was</span> <span m='538530'>trying</span> <span m='538790'>to</span> <span m='538860'>use</span> <span m='539620'>integration</span> <span m='540150'>by</span> <span m='540270'>parts.</span> <span m='541110'>So</span> <span m='541310'>I</span> <span m='541360'>had</span> <span m='541540'>u</span> <span m='541750'>and</span> <span m='541870'>v</span> <span m='542050'>prime,</span> <span m='542830'>and</span> <span m='543060'>I've</span> <span m='543160'>now</span> <span m='543360'>calculated</span> <span m='543980'>v,</span> <span m='544410'>and</span> <span m='544560'>I</span> <span m='544610'>know</span> <span m='544770'>what</span> <span m='544930'>du</span> <span m='545270'>is.</span> <span m='545510'>So</span> <span m='545680'>I'm</span> <span m='545800'>going to</span> <span m='545970'>write</span> <span m='546210'>down</span> <span m='547090'>what</span> <span m='547320'>this</span> <span m='547450'>equals.</span> <span m='547880'>This</span> <span m='548080'>is</span> <span m='548240'>going to</span> <span m='548420'>be</span> <span m='548580'>u,</span> <span m='549290'>which</span> <span m='549440'>is</span> <span m='549540'>cosine</span> <span m='550010'>x.</span> <span m='551470'>And</span> <span m='551600'>I'll</span> <span m='551700'>just</span> <span m='551890'>write</span> <span m='552100'>down</span> <span m='552330'>v</span> <span m='552600'>here,</span> <span m='552900'>so</span> <span m='553080'>we'll</span> <span m='553210'>see</span> <span m='553370'>what</span> <span m='553530'>it</span> <span m='553640'>is</span> <span m='553770'>again.</span> <span m='554730'>Times</span> <span m='555410'>sine</span> <span m='555865'>to</span> <span m='556320'>the</span> <span m='556540'>n</span> <span m='556810'>minus</span> <span m='557160'>1</span> <span m='559240'>x</span> <span m='559850'>over</span> <span m='560260'>n</span> <span m='560460'>minus</span> <span m='560810'>1.</span> </p><p><span m='562160'>And</span> <span m='562360'>then</span> <span m='562470'>I</span> <span m='562530'>have</span> <span m='562700'>to</span> <span m='562810'>subtract</span> <span m='564000'>v du.</span> <span m='564870'>So</span> <span m='565050'>this</span> <span m='565230'>is</span> <span m='565420'>v.</span> <span m='566240'>And</span> <span m='566540'>what's</span> <span m='566770'>du?</span> <span m='567230'>du</span> <span m='567950'>is,</span> <span m='568210'>or</span> <span m='568510'>I</span> <span m='568680'>should</span> <span m='568870'>say,</span> <span m='568990'>u</span> <span m='569180'>prime</span> <span m='569620'>is</span> <span m='569710'>how</span> <span m='569800'>you</span> <span m='569920'>saw</span> <span m='570160'>it</span> <span m='570230'>in</span> <span m='570300'>class.</span> <span m='571110'>u</span> <span m='571350'>prime</span> <span m='572430'>is</span> <span m='572830'>negative</span> <span m='573330'>sine</span> <span m='573650'>x.</span> <span m='574590'>So</span> <span m='574810'>what</span> <span m='574970'>am</span> <span m='575060'>I</span> <span m='575120'>going</span> <span m='575260'>to</span> <span m='575340'>get?</span> <span m='575560'>I'm</span> <span m='575680'>going to</span> <span m='576030'>get</span> <span m='576230'>negative</span> <span m='576710'>sine</span> <span m='577050'>x</span> <span m='577470'>times</span> <span m='577830'>the</span> <span m='577940'>v</span> <span m='578260'>that</span> <span m='578420'>I</span> <span m='578520'>had.</span> <span m='579870'>So</span> <span m='580100'>when</span> <span m='580270'>I</span> <span m='581060'>subtract,</span> <span m='581830'>I'm</span> <span m='581970'>going to</span> <span m='582130'>end</span> <span m='582280'>up</span> <span m='582370'>with</span> <span m='582470'>a</span> <span m='582540'>plus</span> <span m='582880'>sign.</span> <span m='583305'>And</span> <span m='583730'>I'm</span> <span m='583920'>going to</span> <span m='584070'>have</span> <span m='584270'>plus,</span> <span m='585350'>I'm</span> <span m='585440'>going to</span> <span m='585570'>pull</span> <span m='585760'>out</span> <span m='585940'>the</span> <span m='585990'>constant,</span> <span m='587030'>1</span> <span m='587290'>over</span> <span m='587520'>n</span> <span m='587610'>minus</span> <span m='587890'>1,</span> <span m='588830'>integral,</span> <span m='589255'>now</span> <span m='589680'>let's</span> <span m='589970'>look</span> <span m='590140'>at</span> <span m='590220'>the</span> <span m='590290'>magic</span> <span m='590690'>that</span> <span m='590800'>happens</span> <span m='591190'>here.</span> </p><p><span m='593110'>OK.</span> <span m='594250'>Let's</span> <span m='594450'>make</span> <span m='594630'>sure</span> <span m='594830'>you</span> <span m='594960'>agree</span> <span m='595230'>with</span> <span m='595350'>this</span> <span m='595510'>power.</span> <span m='595910'>It's</span> <span m='596040'>the</span> <span m='596150'>nth</span> <span m='596480'>power</span> <span m='596840'>of</span> <span m='596990'>sine</span> <span m='597330'>x.</span> <span m='598130'>So</span> <span m='598290'>let's</span> <span m='598490'>double</span> <span m='598720'>check.</span> <span m='600230'>I</span> <span m='600360'>said</span> <span m='600580'>u</span> <span m='600780'>was</span> <span m='601000'>cosine</span> <span m='601485'>x,</span> <span m='601970'>so</span> <span m='602140'>u</span> <span m='602340'>prime</span> <span m='602805'>is</span> <span m='603270'>negative</span> <span m='603830'>sine x.</span> <span m='606550'>So</span> <span m='606720'>I</span> <span m='606790'>have</span> <span m='606940'>to</span> <span m='607030'>take</span> <span m='607220'>u</span> <span m='607430'>prime</span> <span m='607840'>v.</span> <span m='608600'>u</span> <span m='608850'>prime</span> <span m='609210'>is</span> <span m='609310'>negative</span> <span m='609650'>sine</span> <span m='609940'>x.</span> <span m='611380'>If</span> <span m='611500'>we</span> <span m='611620'>come</span> <span m='611840'>over</span> <span m='612060'>here,</span> <span m='614670'>we</span> <span m='614840'>see</span> <span m='615100'>v</span> <span m='615510'>is</span> <span m='616080'>sine</span> <span m='616460'>x</span> <span m='616700'>to</span> <span m='616780'>the</span> <span m='616880'>n</span> <span m='617020'>minus</span> <span m='617330'>1,</span> <span m='617870'>so</span> <span m='618040'>u</span> <span m='618240'>prime</span> <span m='618570'>v</span> <span m='618800'>is</span> <span m='618940'>indeed</span> <span m='621180'>negative--</span> <span m='622050'>well,</span> <span m='622290'>I</span> <span m='622340'>should</span> <span m='622550'>say,</span> <span m='622680'>v</span> <span m='623110'>is the sine</span> <span m='623430'>x</span> <span m='623880'>to</span> <span m='623960'>the</span> <span m='624060'>n minus</span> <span m='624350'>1</span> <span m='624480'>over</span> <span m='624730'>n</span> <span m='624870'>minus</span> <span m='625120'>1.</span> <span m='625750'>So</span> <span m='625950'>u</span> <span m='626100'>prime</span> <span m='626390'>v,</span> <span m='627310'>in</span> <span m='627540'>fact,</span> <span m='627880'>has</span> <span m='628100'>the</span> <span m='628200'>power</span> <span m='628560'>n</span> <span m='628980'>on</span> <span m='629240'>sine.</span> </p><p><span m='630390'>So</span> <span m='630570'>that's</span> <span m='630820'>maybe</span> <span m='631090'>a</span> <span m='631160'>little</span> <span m='631360'>bit</span> <span m='631540'>complicated</span> <span m='632130'>and</span> <span m='632480'>nerve-racking,</span> <span m='633140'>but</span> <span m='633250'>that's</span> <span m='633840'>OK.</span> <span m='634160'>We're</span> <span m='634310'>actually</span> <span m='634670'>headed</span> <span m='634970'>in</span> <span m='635080'>the</span> <span m='635170'>right</span> <span m='635380'>direction.</span> <span m='636580'>So</span> <span m='636760'>I'm</span> <span m='636870'>going to</span> <span m='637060'>rewrite</span> <span m='638420'>the</span> <span m='638540'>stuff</span> <span m='638850'>we</span> <span m='639020'>know,</span> <span m='639480'>and</span> <span m='639620'>we'll</span> <span m='639750'>see</span> <span m='639970'>how</span> <span m='640130'>we're</span> <span m='640260'>headed</span> <span m='640510'>in</span> <span m='640640'>the</span> <span m='640730'>right</span> <span m='640900'>direction. OK.</span> <span m='642340'>So</span> <span m='643140'>again,</span> <span m='643490'>we</span> <span m='643600'>were</span> <span m='643730'>trying</span> <span m='644010'>to</span> <span m='644110'>find</span> <span m='645180'>F</span> <span m='645470'>sub n</span> <span m='645720'>of</span> <span m='645800'>x.</span> <span m='646430'>And</span> <span m='646520'>I'm</span> <span m='646590'>going to</span> <span m='646740'>write</span> <span m='646940'>out</span> <span m='647060'>the</span> <span m='647150'>pieces</span> <span m='647530'>we</span> <span m='647650'>already</span> <span m='647950'>knew.</span> <span m='648780'>So</span> <span m='649040'>we</span> <span m='649190'>had</span> <span m='650090'>an</span> <span m='650260'>F sub</span> <span m='650470'>n</span> <span m='650840'>minus</span> <span m='651310'>2</span> <span m='651520'>of x.</span> <span m='652080'>That</span> <span m='652240'>was</span> <span m='653860'>the</span> <span m='653970'>first</span> <span m='654300'>term</span> <span m='654520'>we</span> <span m='654640'>had.</span> </p><p><span m='655030'>And</span> <span m='655250'>then</span> <span m='655410'>we</span> <span m='656220'>analyzed</span> <span m='656850'>this</span> <span m='657020'>second</span> <span m='657380'>piece.</span> <span m='658300'>And</span> <span m='658500'>the</span> <span m='658590'>second</span> <span m='659040'>piece</span> <span m='659410'>is</span> <span m='659600'>the</span> <span m='659680'>one</span> <span m='660150'>that</span> <span m='660460'>we</span> <span m='660570'>just</span> <span m='660870'>spent</span> <span m='661080'>a</span> <span m='661110'>little</span> <span m='661340'>while</span> <span m='661740'>on.</span> <span m='661960'>And</span> <span m='662170'>that</span> <span m='662300'>gave</span> <span m='662580'>us</span> <span m='663372'>a</span> <span m='663770'>cosine x</span> <span m='665990'>sine</span> <span m='666900'>to</span> <span m='667050'>the</span> <span m='667180'>n</span> <span m='667450'>minus</span> <span m='667800'>1</span> <span m='668100'>of</span> <span m='668190'>x</span> <span m='670270'>over</span> <span m='670630'>n</span> <span m='670840'>minus</span> <span m='671170'>1,</span> <span m='673280'>and</span> <span m='673520'>then a</span> <span m='674570'>plus</span> <span m='676340'>1</span> <span m='676580'>over</span> <span m='676820'>n</span> <span m='677000'>minus</span> <span m='677360'>1.</span> <span m='678420'>And</span> <span m='678650'>what</span> <span m='678820'>was</span> <span m='678970'>our</span> <span m='679110'>thing</span> <span m='679340'>here?</span> <span m='679630'>Our</span> <span m='679740'>thing</span> <span m='679960'>here</span> <span m='680150'>was</span> <span m='680400'>F</span> <span m='680700'>sub</span> <span m='680830'>n</span> <span m='681060'>of</span> <span m='681140'>x,</span> <span m='681530'>again.</span> </p><p><span m='683290'>OK.</span> <span m='683550'>So</span> <span m='683690'>this</span> <span m='683870'>might</span> <span m='684050'>be</span> <span m='684130'>a</span> <span m='684180'>little</span> <span m='684340'>complicated.</span> <span m='684960'>So</span> <span m='685090'>I'm</span> <span m='685180'>going to</span> <span m='685790'>show</span> <span m='686100'>us</span> <span m='686290'>where</span> <span m='686420'>all</span> <span m='686570'>the</span> <span m='686650'>pieces</span> <span m='687020'>come</span> <span m='687250'>from,</span> <span m='687520'>just</span> <span m='687720'>remind</span> <span m='688040'>us.</span> </p><p><span m='688620'>So</span> <span m='688840'>we</span> <span m='689010'>started</span> <span m='689370'>with</span> <span m='689470'>F sub</span> <span m='689690'>n of</span> <span m='689910'>x,</span> <span m='690760'>and</span> <span m='691110'>I'm</span> <span m='691290'>claiming</span> <span m='691660'>there are</span> <span m='691870'>two</span> <span m='692070'>pieces</span> <span m='692530'>that</span> <span m='692650'>are</span> <span m='692770'>of</span> <span m='692860'>interest.</span> <span m='693790'>OK?</span> <span m='694420'>The</span> <span m='694530'>first</span> <span m='694920'>piece--</span> <span m='695450'>let's</span> <span m='695630'>come</span> <span m='695800'>back</span> <span m='696010'>over.</span> <span m='698030'>The</span> <span m='698150'>first</span> <span m='698480'>piece,</span> <span m='699410'>this</span> <span m='699600'>was our</span> <span m='699810'>F sub n</span> <span m='700230'>of</span> <span m='700320'>x.</span> <span m='700750'>We</span> <span m='700910'>wrote</span> <span m='701120'>it</span> <span m='701200'>this</span> <span m='701370'>way.</span> <span m='701580'>The</span> <span m='701690'>first</span> <span m='701970'>piece</span> <span m='703480'>was</span> <span m='703660'>the</span> <span m='703760'>F</span> <span m='703900'>sub n</span> <span m='704140'>minus</span> <span m='704280'>2</span> <span m='704580'>of x.</span> <span m='704890'>Sine</span> <span m='705340'>to</span> <span m='705410'>the</span> <span m='705490'>n</span> <span m='705610'>minus</span> <span m='705850'>2</span> <span m='706020'>of x.</span> <span m='706280'>No</span> <span m='706390'>problem.</span> </p><p><span m='707490'>Then</span> <span m='707770'>we</span> <span m='707890'>subtracted</span> <span m='709660'>this</span> <span m='709890'>integral.</span> <span m='711060'>And</span> <span m='711240'>so</span> <span m='711380'>I</span> <span m='711470'>spent</span> <span m='711770'>a</span> <span m='711810'>little</span> <span m='712050'>while</span> <span m='712430'>trying</span> <span m='712600'>to</span> <span m='712660'>figure</span> <span m='712960'>out</span> <span m='713100'>how</span> <span m='713190'>to</span> <span m='713280'>write</span> <span m='713490'>that</span> <span m='713690'>integral.</span> <span m='714490'>And</span> <span m='714680'>that</span> <span m='714850'>integral</span> <span m='715660'>was</span> <span m='716000'>written</span> <span m='716270'>right</span> <span m='716480'>down</span> <span m='716690'>here.</span> <span m='717650'>So</span> <span m='717760'>I</span> <span m='717810'>have</span> <span m='717940'>to</span> <span m='718030'>subtract</span> <span m='718620'>off</span> <span m='718890'>all</span> <span m='719060'>of</span> <span m='719150'>that.</span> </p><p><span m='720430'>And</span> <span m='720650'>the</span> <span m='720720'>point</span> <span m='721060'>is</span> <span m='721270'>that</span> <span m='721430'>this</span> <span m='721800'>integral</span> <span m='722320'>here,</span> <span m='722630'>integral of</span> <span m='723070'>sine x</span> <span m='723530'>to</span> <span m='723610'>the</span> <span m='723730'>n,</span> <span m='724130'>the</span> <span m='724210'>quantity</span> <span m='724620'>of</span> <span m='724730'>sine x</span> <span m='724970'>to the n,</span> <span m='725570'>is</span> <span m='725770'>F</span> <span m='726020'>sub n</span> <span m='726250'>of</span> <span m='726330'>x,</span> <span m='726510'>again.</span> </p><p><span m='727910'>Now</span> <span m='728060'>you</span> <span m='728190'>might</span> <span m='728400'>be</span> <span m='728490'>nervous,</span> <span m='728880'>because</span> <span m='729020'>again,</span> <span m='729270'>we</span> <span m='729410'>just</span> <span m='729580'>said,</span> <span m='729880'>we</span> <span m='730050'>see</span> <span m='730270'>the</span> <span m='730410'>same</span> <span m='730670'>thing</span> <span m='730940'>over--</span> <span m='731570'>we</span> <span m='731760'>see</span> <span m='731980'>what</span> <span m='732170'>we</span> <span m='732280'>want</span> <span m='732490'>to</span> <span m='732550'>reduce</span> <span m='733060'>on</span> <span m='733230'>the</span> <span m='733300'>right-hand</span> <span m='733670'>side.</span> <span m='734490'>But</span> <span m='734690'>now all</span> <span m='734890'>we</span> <span m='735000'>have</span> <span m='735090'>to</span> <span m='735190'>do</span> <span m='735310'>is</span> <span m='735400'>a</span> <span m='735460'>little</span> <span m='735630'>algebra.</span> <span m='736060'>So I'm going</span> <span m='736360'>to</span> <span m='736420'>come</span> <span m='736600'>over</span> <span m='737290'>and</span> <span m='737480'>show</span> <span m='737690'>you</span> <span m='738410'>the</span> <span m='738510'>magic</span> <span m='738920'>of</span> <span m='739030'>algebra.</span> <span m='740200'>OK?</span> </p><p><span m='742540'>Let's, to</span> <span m='742680'>make</span> <span m='742920'>this</span> <span m='744120'>as</span> <span m='744290'>easy</span> <span m='744550'>as</span> <span m='744690'>possible,</span> <span m='745630'>I'm</span> <span m='745860'>going</span> <span m='746160'>to</span> <span m='747290'>erase</span> <span m='747730'>the</span> <span m='747820'>parentheses</span> <span m='748590'>here,</span> <span m='749530'>and</span> <span m='749740'>put</span> <span m='749900'>that</span> <span m='750080'>minus</span> <span m='750440'>sign</span> <span m='750680'>here,</span> <span m='751040'>so</span> <span m='751200'>I</span> <span m='751280'>don't</span> <span m='751470'>have</span> <span m='751580'>to</span> <span m='751680'>rewrite</span> <span m='752090'>the</span> <span m='752170'>whole</span> <span m='752390'>line.</span> <span m='753680'>OK?</span> <span m='755350'>So</span> <span m='755510'>the</span> <span m='755600'>parentheses</span> <span m='756170'>are</span> <span m='756260'>gone,</span> <span m='757270'>and</span> <span m='757430'>I've</span> <span m='758160'>distributed</span> <span m='758670'>the</span> <span m='758750'>negative</span> <span m='759130'>1</span> <span m='759410'>to</span> <span m='759510'>both</span> <span m='759800'>terms.</span> <span m='760680'>Now</span> <span m='760870'>notice,</span> <span m='761260'>I</span> <span m='761440'>want</span> <span m='761640'>to</span> <span m='761700'>figure</span> <span m='762060'>out</span> <span m='762280'>what</span> <span m='762450'>this</span> <span m='762710'>is.</span> <span m='766630'>I'm going to</span> <span m='766750'>figure</span> <span m='767040'>out</span> <span m='767160'>what</span> <span m='767250'>that</span> <span m='767420'>blue</span> <span m='767640'>thing</span> <span m='767930'>equals.</span> </p><p><span m='769120'>Well,</span> <span m='769450'>we're</span> <span m='769600'>back</span> <span m='769930'>to</span> <span m='770030'>sort</span> <span m='770280'>of</span> <span m='770530'>an</span> <span m='770620'>algebra</span> <span m='771010'>problem.</span> <span m='771470'>We</span> <span m='771590'>can</span> <span m='771830'>isolate</span> <span m='772990'>the</span> <span m='773110'>blue</span> <span m='773440'>things,</span> <span m='774860'>and</span> <span m='775090'>solve</span> <span m='775500'>for</span> <span m='775640'>what's</span> <span m='775850'>in</span> <span m='775960'>the</span> <span m='776020'>blue</span> <span m='776210'>box.</span> <span m='777200'>So</span> <span m='777350'>that's</span> <span m='777560'>what</span> <span m='777650'>we're</span> <span m='777760'>going</span> <span m='777890'>to</span> <span m='777980'>do.</span> </p><p><span m='779260'>So</span> <span m='779440'>what</span> <span m='779570'>do</span> <span m='779630'>we</span> <span m='779710'>have</span> <span m='779820'>to</span> <span m='779930'>do?</span> <span m='780180'>Well,</span> <span m='780420'>we</span> <span m='780520'>have</span> <span m='780690'>to</span> <span m='780810'>add</span> <span m='781760'>this</span> <span m='782200'>to</span> <span m='782350'>the</span> <span m='782580'>left-hand</span> <span m='782990'>side.</span> <span m='784080'>And</span> <span m='784290'>what</span> <span m='784400'>do</span> <span m='784460'>we</span> <span m='784570'>get?</span> <span m='784850'>Let's</span> <span m='785060'>see</span> <span m='785180'>what</span> <span m='785330'>we</span> <span m='785440'>get.</span> <span m='785620'>We</span> <span m='785750'>get</span> <span m='787150'>1</span> <span m='787640'>plus</span> <span m='788260'>1</span> <span m='788610'>over</span> <span m='788980'>n</span> <span m='789240'>minus</span> <span m='789630'>1.</span> <span m='792120'>F</span> <span m='792490'>sub n</span> <span m='792770'>of</span> <span m='792870'>x</span> <span m='795000'>is</span> <span m='795170'>equal</span> <span m='795480'>to</span> <span m='797290'>F sub n</span> <span m='797790'>minus</span> <span m='798180'>2</span> <span m='798400'>of x</span> <span m='800230'>minus</span> <span m='802020'>cosine</span> <span m='802690'>x</span> <span m='804060'>sine</span> <span m='804840'>x</span> <span m='805190'>quantity</span> <span m='805630'>to</span> <span m='805770'>the</span> <span m='805860'>n</span> <span m='806010'>minus</span> <span m='806320'>1</span> <span m='807200'>over</span> <span m='807470'>n</span> <span m='807630'>minus</span> <span m='807920'>1.</span> </p><p><span m='809170'>So</span> <span m='809360'>all</span> <span m='809500'>I</span> <span m='809590'>did</span> <span m='809790'>was</span> <span m='809930'>I</span> <span m='810000'>added</span> <span m='810910'>1</span> <span m='811560'>over</span> <span m='811890'>n</span> <span m='812070'>minus</span> <span m='812400'>1</span> <span m='813550'>times</span> <span m='813900'>F sub</span> <span m='814240'>n of</span> <span m='814450'>x</span> <span m='815040'>to</span> <span m='815220'>the</span> <span m='815310'>left-hand</span> <span m='815790'>side--</span> <span m='816560'>well, to</span> <span m='816860'>both</span> <span m='817150'>sides,</span> <span m='817580'>so</span> <span m='817720'>it</span> <span m='817780'>moved</span> <span m='818220'>to</span> <span m='818360'>the</span> <span m='818440'>left-hand</span> <span m='818850'>side--</span> <span m='819310'>and</span> <span m='819710'>there</span> <span m='819810'>was</span> <span m='819960'>one</span> <span m='820200'>of</span> <span m='820290'>them</span> <span m='820410'>here,</span> <span m='820690'>and</span> <span m='820830'>there's</span> <span m='821290'>1</span> <span m='821640'>over</span> <span m='821830'>n</span> <span m='821960'>minus</span> <span m='822220'>1</span> <span m='822360'>of</span> <span m='822440'>them</span> <span m='822780'>here.</span> </p><p><span m='824230'>And</span> <span m='824430'>let's</span> <span m='824640'>make</span> <span m='824790'>sure</span> <span m='824970'>we</span> <span m='825070'>can</span> <span m='825230'>simplify</span> <span m='825670'>that.</span> <span m='826000'>Let's</span> <span m='826160'>see.</span> <span m='826300'>We</span> <span m='826420'>get</span> <span m='826580'>n</span> <span m='826740'>minus</span> <span m='827040'>1</span> <span m='827360'>over</span> <span m='827610'>n</span> <span m='827770'>minus</span> <span m='828050'>1</span> <span m='828390'>plus</span> <span m='828650'>1.</span> <span m='828970'>I</span> <span m='829000'>think</span> <span m='829330'>it</span> <span m='829410'>gives</span> <span m='829640'>me</span> <span m='829870'>n</span> <span m='830080'>over</span> <span m='830330'>n</span> <span m='830480'>minus</span> <span m='830780'>1.</span> <span m='831780'>So</span> <span m='831920'>that</span> <span m='832140'>gives</span> <span m='832340'>me</span> <span m='832560'>n</span> <span m='832750'>over</span> <span m='832980'>n</span> <span m='833120'>minus</span> <span m='833410'>1.</span> <span m='835660'>I</span> <span m='835770'>guess</span> <span m='835970'>I'll write it</span> <span m='836370'>again.</span> <span m='839060'>We're</span> <span m='839280'>really</span> <span m='839730'>close.</span> <span m='845140'>And</span> <span m='845290'>then</span> <span m='845440'>this</span> <span m='845630'>whole</span> <span m='845830'>mess</span> <span m='846110'>again.</span> <span m='851270'>And</span> <span m='851470'>now,</span> <span m='851990'>we</span> <span m='852160'>only</span> <span m='852360'>have</span> <span m='852470'>one</span> <span m='852660'>more</span> <span m='852840'>step</span> <span m='853220'>to</span> <span m='853340'>figure</span> <span m='853620'>out</span> <span m='853880'>what</span> <span m='854020'>F sub n</span> <span m='854190'>of</span> <span m='854490'>x is.</span> <span m='855850'>And</span> <span m='856020'>that</span> <span m='856270'>is</span> <span m='858580'>to</span> <span m='858730'>multiply</span> <span m='859260'>both</span> <span m='859530'>sides</span> <span m='859880'>by</span> <span m='860050'>n</span> <span m='860310'>minus</span> <span m='860620'>1</span> <span m='860800'>over</span> <span m='861000'>n.</span> <span m='862290'>n</span> <span m='862490'>minus</span> <span m='862720'>1</span> <span m='862850'>over</span> <span m='863020'>n</span> <span m='863520'>multiplied</span> <span m='864020'>here</span> <span m='864270'>gives</span> <span m='864470'>me</span> <span m='864590'>1,</span> <span m='865630'>and</span> <span m='865760'>so</span> <span m='865870'>then</span> <span m='866040'>I</span> <span m='866100'>get</span> <span m='866280'>n</span> <span m='866500'>minus</span> <span m='866830'>1</span> <span m='867170'>over</span> <span m='867510'>n,</span> <span m='868940'>F</span> <span m='869140'>sub</span> <span m='869350'>n</span> <span m='869630'>minus</span> <span m='869970'>2</span> <span m='871720'>of</span> <span m='871920'>x,</span> <span m='873460'>minus--</span> <span m='874140'>the</span> <span m='874270'>n</span> <span m='874440'>minus</span> <span m='874740'>1's</span> <span m='875140'>kill</span> <span m='875350'>off,</span> <span m='875680'>and</span> <span m='875780'>I</span> <span m='875850'>just</span> <span m='876080'>get</span> <span m='877120'>cosine</span> <span m='878270'>x</span> <span m='879700'>sine</span> <span m='881560'>to</span> <span m='881690'>the</span> <span m='881790'>n</span> <span m='881900'>minus</span> <span m='882230'>1</span> <span m='882700'>x</span> <span m='883640'>over</span> <span m='884040'>n.</span> </p><p><span m='886790'>So</span> <span m='887060'>this</span> <span m='888210'>is</span> <span m='888390'>our</span> <span m='888540'>answer.</span> <span m='889520'>Because</span> <span m='889810'>what</span> <span m='890030'>is</span> <span m='890180'>the</span> <span m='890280'>point?</span> <span m='890580'>Why</span> <span m='890710'>can</span> <span m='890890'>I</span> <span m='890980'>say,</span> <span m='891200'>well,</span> <span m='891410'>I've</span> <span m='891570'>reduced</span> <span m='892040'>it?</span> <span m='892620'>I've</span> <span m='892760'>reduced</span> <span m='893410'>it</span> <span m='894020'>because</span> <span m='894510'>I</span> <span m='894660'>have--</span> <span m='895130'>the</span> <span m='895300'>only</span> <span m='895710'>integral</span> <span m='896160'>I</span> <span m='896280'>have</span> <span m='896680'>is an</span> <span m='896940'>integral</span> <span m='897440'>that</span> <span m='897520'>was a</span> <span m='897720'>power</span> <span m='898320'>of</span> <span m='898550'>sine</span> <span m='898900'>x.</span> <span m='899570'>And</span> <span m='899870'>that's</span> <span m='900140'>the</span> <span m='900240'>goal,</span> <span m='900550'>is</span> <span m='900700'>that</span> <span m='901170'>I</span> <span m='901310'>have it</span> <span m='901650'>in</span> <span m='901730'>the</span> <span m='901810'>form.</span> <span m='902100'>This</span> <span m='902230'>is</span> <span m='902420'>the</span> <span m='902500'>power</span> <span m='902900'>of</span> <span m='903170'>sine</span> <span m='904140'>x</span> <span m='904390'>to</span> <span m='904460'>the</span> <span m='904580'>n</span> <span m='904950'>integrated.</span> <span m='906010'>This</span> <span m='906190'>is</span> <span m='906410'>sine</span> <span m='906650'>x</span> <span m='906910'>to</span> <span m='906990'>the</span> <span m='907100'>n</span> <span m='907240'>minus</span> <span m='907610'>2</span> <span m='908470'>integrated.</span> <span m='909360'>and</span> <span m='909590'>this</span> <span m='909790'>is</span> <span m='909910'>just</span> <span m='910100'>a</span> <span m='910160'>function.</span> <span m='911680'>OK?</span> <span m='912080'>And,</span> <span m='913240'>you</span> <span m='913390'>know,</span> <span m='913730'>if</span> <span m='913880'>we</span> <span m='913990'>want</span> <span m='914150'>to</span> <span m='914230'>say,</span> <span m='914440'>what's</span> <span m='914680'>the</span> <span m='914800'>true</span> <span m='915100'>antiderivative,</span> <span m='915980'>we</span> <span m='916100'>have</span> <span m='916310'>to</span> <span m='916450'>allow</span> <span m='918910'>for</span> <span m='919140'>a</span> <span m='919250'>plus</span> <span m='919650'>c</span> <span m='919970'>here,</span> <span m='920280'>for</span> <span m='920480'>a</span> <span m='920570'>true</span> <span m='920820'>antiderivative.</span> <span m='921640'>But</span> <span m='923220'>we're</span> <span m='923390'>really</span> <span m='923690'>interested</span> <span m='924180'>in</span> <span m='926480'>this</span> <span m='926730'>part</span> <span m='927110'>here.</span> <span m='928520'>OK?</span> <span m='928850'>Because</span> <span m='929980'>if</span> <span m='930170'>we</span> <span m='930290'>evaluate</span> <span m='930760'>this</span> <span m='930920'>at</span> <span m='931050'>bounds,</span> <span m='931410'>that's</span> <span m='931610'>going to</span> <span m='931820'>go</span> <span m='931990'>away.</span> </p><p><span m='933450'>But</span> <span m='933910'>I</span> <span m='934010'>want to</span> <span m='934270'>just</span> <span m='934480'>make</span> <span m='934630'>sure</span> <span m='934800'>we</span> <span m='934920'>understand--</span> <span m='935540'>I</span> <span m='935640'>think</span> <span m='935850'>we</span> <span m='935940'>understand</span> <span m='936380'>the</span> <span m='936440'>goal.</span> <span m='937520'>Maybe</span> <span m='937950'>the</span> <span m='938080'>hardest</span> <span m='938660'>part</span> <span m='938890'>of</span> <span m='938980'>this</span> <span m='939170'>problem</span> <span m='940040'>is</span> <span m='940280'>once</span> <span m='940480'>you</span> <span m='940580'>come</span> <span m='940750'>over</span> <span m='940960'>here, was</span> <span m='943310'>once</span> <span m='943670'>you</span> <span m='943790'>have</span> <span m='944740'>these</span> <span m='945130'>two</span> <span m='945310'>components.</span> <span m='946250'>So</span> <span m='946440'>we</span> <span m='946560'>did</span> <span m='946750'>the</span> <span m='947040'>substitution</span> <span m='947640'>that</span> <span m='947890'>seems</span> <span m='948120'>natural.</span> <span m='949180'>You</span> <span m='949320'>have</span> <span m='949560'>these</span> <span m='949780'>two</span> <span m='949950'>components.</span> <span m='951370'>This</span> <span m='951680'>one,</span> <span m='951910'>you</span> <span m='952020'>should</span> <span m='952240'>be</span> <span m='952330'>able</span> <span m='952480'>to</span> <span m='952540'>recognize,</span> <span m='952895'>is</span> <span m='953250'>in</span> <span m='953350'>the</span> <span m='953440'>form</span> <span m='953680'>you</span> <span m='953770'>want.</span> <span m='954480'>This</span> <span m='954790'>one</span> <span m='954990'>is</span> <span m='955130'>the</span> <span m='955190'>hard</span> <span m='955450'>one</span> <span m='955630'>to</span> <span m='955760'>deal</span> <span m='955970'>with.</span> <span m='957390'>But</span> <span m='957520'>the</span> <span m='957620'>trick</span> <span m='957910'>is</span> <span m='958110'>to</span> <span m='958250'>see</span> <span m='958860'>that</span> <span m='959020'>under</span> <span m='959260'>the</span> <span m='959370'>right</span> <span m='959720'>splitting</span> <span m='960170'>up</span> <span m='960340'>of</span> <span m='960450'>these</span> <span m='960690'>functions,</span> <span m='961290'>one</span> <span m='961540'>of</span> <span m='961650'>them</span> <span m='961810'>is</span> <span m='961890'>easy</span> <span m='962130'>to</span> <span m='962260'>integrate,</span> <span m='963030'>and</span> <span m='963340'>one</span> <span m='963500'>of</span> <span m='963580'>them,</span> <span m='963990'>you</span> <span m='964120'>know,</span> <span m='964250'>it's</span> <span m='964350'>easy</span> <span m='964550'>to</span> <span m='964650'>integrate</span> <span m='965010'>or</span> <span m='965140'>take</span> <span m='965340'>a</span> <span m='965410'>derivative.</span> <span m='966250'>So</span> <span m='966500'>I</span> <span m='966560'>have</span> <span m='966740'>a</span> <span m='966810'>little</span> <span m='967030'>bit</span> <span m='967180'>of</span> <span m='967280'>freedom.</span> <span m='968270'>You</span> <span m='968420'>don't</span> <span m='968580'>want to</span> <span m='968800'>substitute</span> <span m='969320'>back</span> <span m='969570'>in</span> <span m='969960'>for</span> <span m='970170'>cosine</span> <span m='971330'>squared</span> <span m='971870'>with</span> <span m='972200'>1</span> <span m='972550'>minus</span> <span m='972860'>sine</span> <span m='973090'>squared,</span> <span m='973350'>because</span> <span m='973560'>it will</span> <span m='973670'>get</span> <span m='973810'>you</span> <span m='973920'>right</span> <span m='974190'>back</span> <span m='974390'>to</span> <span m='974480'>where</span> <span m='974610'>you</span> <span m='974740'>started.</span> <span m='975380'>You</span> <span m='975490'>would</span> <span m='975620'>be</span> <span m='975960'>substituting</span> <span m='976580'>one</span> <span m='976770'>way,</span> <span m='976980'>and</span> <span m='977080'>then</span> <span m='977180'>substituting</span> <span m='977750'>the</span> <span m='977830'>other</span> <span m='978050'>way.</span> <span m='978710'>So</span> <span m='978870'>the</span> <span m='978980'>goal</span> <span m='979210'>at</span> <span m='979290'>this</span> <span m='979470'>point</span> <span m='979710'>is</span> <span m='979850'>to</span> <span m='980100'>sort</span> <span m='980290'>of--</span> <span m='980530'>the</span> <span m='980710'>trick</span> <span m='980970'>with</span> <span m='981110'>this</span> <span m='981270'>one,</span> <span m='981460'>I</span> <span m='981520'>mean,</span> <span m='981810'>is</span> <span m='982160'>this</span> <span m='982510'>integration</span> <span m='983130'>by</span> <span m='983260'>parts,</span> <span m='983670'>which</span> <span m='984090'>requires</span> <span m='984590'>some</span> <span m='984730'>substitution.</span> </p><p><span m='986520'>So</span> <span m='987800'>hopefully</span> <span m='988370'>this</span> <span m='988540'>was</span> <span m='988690'>a</span> <span m='988760'>good</span> <span m='988930'>exercise</span> <span m='989600'>for</span> <span m='989810'>you,</span> <span m='990110'>and</span> <span m='991800'>you</span> <span m='991900'>see</span> <span m='992140'>some</span> <span m='992350'>of</span> <span m='992430'>the</span> <span m='992500'>strategies</span> <span m='993280'>that</span> <span m='993430'>one</span> <span m='993640'>needs</span> <span m='993980'>to</span> <span m='994100'>reduce</span> <span m='994450'>the</span> <span m='994540'>powers</span> <span m='995070'>of</span> <span m='996030'>sine</span> <span m='996340'>x.</span> <span m='996810'>You</span> <span m='996940'>can</span> <span m='997090'>do</span> <span m='997200'>a</span> <span m='997300'>very</span> <span m='997530'>similar</span> <span m='998110'>type</span> <span m='998490'>of</span> <span m='999140'>thing</span> <span m='999450'>with</span> <span m='999660'>cosine</span> <span m='1000400'>x</span> <span m='1000750'>to</span> <span m='1000850'>the</span> <span m='1000950'>n.</span> <span m='1001250'>So</span> <span m='1002090'>if</span> <span m='1002290'>you</span> <span m='1002390'>felt</span> <span m='1002640'>like,</span> <span m='1003080'>I'm</span> <span m='1003300'>not</span> <span m='1003460'>quite</span> <span m='1003700'>sure</span> <span m='1004030'>about</span> <span m='1004330'>this</span> <span m='1004520'>method,</span> <span m='1004900'>you</span> <span m='1004980'>might</span> <span m='1005140'>want</span> <span m='1005260'>to</span> <span m='1005320'>try</span> <span m='1005540'>and</span> <span m='1005630'>do</span> <span m='1005710'>something</span> <span m='1005990'>similar</span> <span m='1006440'>with</span> <span m='1006620'>cosine</span> <span m='1006860'>x</span> <span m='1007300'>to</span> <span m='1007370'>the</span> <span m='1007460'>n</span> <span m='1008080'>as</span> <span m='1008370'>your</span> <span m='1010060'>function</span> <span m='1010530'>that</span> <span m='1010640'>you're</span> <span m='1010760'>integrating,</span> <span m='1011320'>and</span> <span m='1011430'>see</span> <span m='1011570'>if</span> <span m='1011660'>you</span> <span m='1011750'>can</span> <span m='1011910'>reduce</span> <span m='1012230'>that.</span> <span m='1013290'>And</span> <span m='1013460'>I</span> <span m='1013520'>guarantee</span> <span m='1013980'>you</span> <span m='1014070'>can</span> <span m='1014230'>find</span> <span m='1014480'>a</span> <span m='1014510'>formula</span> <span m='1014950'>for</span> <span m='1015070'>that</span> <span m='1016180'>in</span> <span m='1016350'>a</span> <span m='1016410'>book</span> <span m='1016640'>or</span> <span m='1016720'>online,</span> <span m='1017160'>if</span> <span m='1017260'>you</span> <span m='1017340'>wanted</span> <span m='1017600'>to</span> <span m='1017680'>check</span> <span m='1017960'>that</span> <span m='1018150'>answer.</span> </p><p><span m='1019040'>So</span> <span m='1019230'>I</span> <span m='1019300'>guess</span> <span m='1019570'>this</span> <span m='1019770'>is</span> <span m='1019910'>where</span> <span m='1020080'>I'll</span> <span m='1020360'>stop.</span> </p>", 
    "_content_type_link_text": "text/plain", 
    "course_linking": [], 
    "_id": "integrating-sinn-x-using-reduction", 
    "modification_date": "2016/09/25 01:17:39.403 GMT-4", 
    "media_index": [], 
    "always_publish": false, 
    "_owner": null, 
    "_permissions": {
        "Change portal events": {
            "acquire": false, 
            "roles": [
                "Editor", 
                "Manager", 
                "MetadataEditor", 
                "Owner"
            ]
        }, 
        "Modify portal content": {
            "acquire": false, 
            "roles": [
                "Manager", 
                "MetadataEditor"
            ]
        }, 
        "Access contents information": {
            "acquire": false, 
            "roles": [
                "Authenticated"
            ]
        }, 
        "List folder contents": {
            "acquire": false, 
            "roles": [
                "Editor", 
                "Manager", 
                "MetadataEditor", 
                "Owner"
            ]
        }, 
        "View": {
            "acquire": false, 
            "roles": [
                "Authenticated"
            ]
        }
    }, 
    "_properties": [
        [
            "title", 
            "Integrating sinn(x) Using Reduction", 
            "string"
        ]
    ], 
    "creators": [
        "sbabbar"
    ], 
    "courselist_features": [], 
    "_path": "/Plone/courses/mathematics/18-01sc-single-variable-calculus-fall-2010/unit-4-techniques-of-integration/part-b-partial-fractions-integration-by-parts-arc-length-and-surface-area/session-76-integration-by-parts/integrating-sinn-x-using-reduction"
}