{
    "rsi_top_html_area": "", 
    "text": "", 
    "_content_type_license": "text/plain", 
    "_uid": "f86264e1b7fb9b51dc19f2231296bd39", 
    "title": "Integration Practice II", 
    "_ac_local_roles": {
        "pgandhi3": [
            "Owner"
        ]
    }, 
    "template_type": "Embed", 
    "location": "", 
    "_content_type_course_identifier": "text/plain", 
    "_atbrefs": {}, 
    "constrainTypesMode": 0, 
    "_content_type_section_identifier": "text/plain", 
    "technical_location": "https://ocw.mit.edu/courses/mathematics/18-01sc-single-variable-calculus-fall-2010/unit-4-techniques-of-integration/exam-4/session-85-review-for-exam-4/integration-practice-ii", 
    "software_requirements": [
        {
            "software_type_col": "Browser", 
            "minimum_version_col": "40.0", 
            "software_name_col": "Chrome", 
            "maximum_version_col": ""
        }, 
        {
            "software_type_col": "Browser", 
            "minimum_version_col": "8.0", 
            "software_name_col": "Safari", 
            "maximum_version_col": ""
        }, 
        {
            "software_type_col": "Browser", 
            "minimum_version_col": "38.0", 
            "software_name_col": "Mozilla Firefox", 
            "maximum_version_col": ""
        }, 
        {
            "software_type_col": "Browser", 
            "minimum_version_col": "9.0", 
            "software_name_col": "Internet Explorer", 
            "maximum_version_col": ""
        }, 
        {
            "software_type_col": "Browser", 
            "minimum_version_col": "13.1", 
            "software_name_col": "Edge", 
            "maximum_version_col": ""
        }
    ], 
    "_content_type_technical_location": "text/plain", 
    "start_time": "", 
    "_content_type_rights": "text/html", 
    "_directly_provided": [
        "Products.CMFEditions.interfaces.IVersioned"
    ], 
    "media_rights": "(CC BY-NC-SA)", 
    "parent_uid": "4699d63d2fc16b8bd7fc498a382dc972", 
    "excludeFromNav": false, 
    "about_this_resource_text": "", 
    "_content_type_unique_identifier": "text/plain", 
    "end_time": "", 
    "allowDiscussion": false, 
    "_content_type_materialtype": "text/plain", 
    "locallyAllowedTypes": [
        "OCWImage", 
        "OCWFile", 
        "OCWMediaAsset"
    ], 
    "optional_tab_title": "", 
    "ad_type": "HOUSE", 
    "creation_date": "2015/12/24 01:36:30.879 US/Eastern", 
    "aggregationlevel": 2, 
    "bottom_html_area": "", 
    "duration": "", 
    "immediatelyAddableTypes": [
        "OCWImage", 
        "OCWFile", 
        "OCWMediaAsset"
    ], 
    "_content_type_template_type": "text/plain", 
    "subject": [], 
    "_content_type_short_page_title": "text/plain", 
    "effectiveDate": "2015/12/30 08:30:29.512 US/Eastern", 
    "parent_module": "bfe41979b9593362793fd930b36efa01", 
    "is_mathml_document": false, 
    "bottomtext": "", 
    "short_page_title": "Integration Practice II", 
    "section_identifier": "https://ocw.mit.edu/courses/mathematics/18-01sc-single-variable-calculus-fall-2010/unit-4-techniques-of-integration", 
    "show_captions_outside_player": false, 
    "related_mit_links": "", 
    "_content_type_ad_type": "text/plain", 
    "_layout": "custom_view", 
    "_workflow_history": {
        "page_workflow": [
            {
                "action": null, 
                "review_state": "waiting_for_authoring", 
                "comments": "", 
                "actor": "pgandhi3", 
                "time": "2015/12/24 01:36:30.891 US/Eastern"
            }, 
            {
                "action": "approve_to_staging", 
                "review_state": "ready_for_staging", 
                "actor": "sbabbar", 
                "comments": "", 
                "time": "2015/12/30 08:30:29.535 US/Eastern"
            }
        ]
    }, 
    "_content_type_transcript": "text/html", 
    "metadata_contributor_list": [], 
    "_userdefined_roles": [], 
    "_content_type_inline_embed_id": "text/plain", 
    "publisher": "MIT OpenCourseWare", 
    "nextPreviousEnabled": false, 
    "_gopip": 9, 
    "license": "http://creativecommons.org/licenses/by-nc-sa/3.0/us/", 
    "url_rewrite_patterns": [], 
    "widgets_features": [], 
    "category_features": [], 
    "resource_contributor_list": [
        {
            "res_contributor_entity": "Jerison, David", 
            "res_contributor_uid": "b28f05bbf3c3b44d28bc8f11fc7834cd", 
            "res_contributor_role": "Performer"
        }
    ], 
    "show_jump_back_5_seconds_button": false, 
    "firstTimeEdit": false, 
    "_content_type_media_rights": "text/plain", 
    "feature_requirements": [], 
    "list_in_left_nav": false, 
    "inline_embed_id": "5390754integrationpracticeii99209394", 
    "_classname": "MediaResource", 
    "short_name_tlp": "", 
    "expirationDate": "None", 
    "_content_type_id": "text/plain", 
    "contributor_list": [
        {}
    ], 
    "is_media_gallery": false, 
    "contributors": [], 
    "media_locations": [
        {}
    ], 
    "_content_type_media_resource_type": "text/plain", 
    "_content_type_title": "text/plain", 
    "subtitle_exemption": "None", 
    "_content_type": "text/html", 
    "resource_index_text": "", 
    "_atrefs": {
        "BelongsTo": [
            "bfe41979b9593362793fd930b36efa01"
        ]
    }, 
    "media_slides": [], 
    "other_platform_requirements": "", 
    "language": "", 
    "rights": "This site (c) Massachusetts Institute of Technology 2015.  Content within individual courses is (c) by the individual authors unless otherwise noted. The Massachusetts Institute of Technology is providing this Work (as defined below) under the terms of this Creative Commons public license (\"CCPL\" or \"license\") unless otherwise noted. The Work is protected by copyright and/or other applicable law. Any use of the work other than as authorized under this license is prohibited. By exercising any of the rights to the Work provided here, You (as defined below) accept and agree to be bound by the terms of this license. The Licensor, the Massachusetts Institute of Technology, grants You the rights contained here in consideration of Your acceptance of such terms and conditions.", 
    "hide_Page_title": false, 
    "_defaultpage": "", 
    "related_resources_text": "", 
    "tcATmit_subject_tags": [], 
    "features_tracking": [], 
    "ad_champion_text": "", 
    "has_inline_embed": false, 
    "unique_identifier": "https://ocw.mit.edu/courses/mathematics/18-01sc-single-variable-calculus-fall-2010/unit-4-techniques-of-integration/exam-4/session-85-review-for-exam-4/integration-practice-ii", 
    "link_text": "Integration Practice II", 
    "is_image_gallery": false, 
    "id": "integration-practice-ii", 
    "_content_type_subtitle_exemption": "text/plain", 
    "materialtype": "Other", 
    "optional_text": "", 
    "_type": "MediaResource", 
    "description": "", 
    "media_resource_type": "Video", 
    "course_identifier": "https://ocw.mit.edu/courses/mathematics/18-01sc-single-variable-calculus-fall-2010", 
    "_content_type_publisher": "text/plain", 
    "tcATmit_instructional_tags": [], 
    "transcript": "<p><span m='6920'>Welcome</span> <span m='7290'>back to</span> <span m='7460'>recitation.</span> <span m='8580'>In</span> <span m='8700'>this</span> <span m='8820'>video,</span> <span m='9080'>I</span> <span m='9130'>want</span> <span m='9290'>us</span> <span m='9380'>to</span> <span m='9480'>practice</span> <span m='10280'>doing</span> <span m='10690'>integration</span> <span m='11240'>again.</span> <span m='11520'>And</span> <span m='11700'>so</span> <span m='12040'>what</span> <span m='12380'>we're</span> <span m='12700'>going</span> <span m='12860'>to</span> <span m='12960'>do</span> <span m='13310'>is</span> <span m='13640'>two</span> <span m='13790'>problems.</span> <span m='14360'>One</span> <span m='14680'>is</span> <span m='14820'>a</span> <span m='14910'>definite</span> <span m='15400'>integral,</span> <span m='15780'>one</span> <span m='15940'>is</span> <span m='16060'>indefinite.</span> <span m='16640'>So</span> <span m='17350'>this</span> <span m='17940'>integral,</span> <span m='18260'>we're</span> <span m='18390'>going to have,</span> <span m='20680'>find</span> <span m='21270'>the</span> <span m='21470'>value</span> <span m='21700'>of the</span> <span m='21930'>integral</span> <span m='22400'>minus</span> <span m='22740'>pi</span> <span m='22990'>over</span> <span m='23060'>4</span> <span m='23330'>to</span> <span m='23420'>pi</span> <span m='23650'>over</span> <span m='23740'>4</span> <span m='24400'>of</span> <span m='24600'>secant</span> <span m='25080'>cubed</span> <span m='25370'>u</span> <span m='25850'>du,</span> <span m='27020'>and</span> <span m='27380'>then</span> <span m='27610'>this</span> <span m='27800'>one,</span> <span m='28000'>I</span> <span m='28120'>just</span> <span m='28310'>want</span> <span m='28460'>you</span> <span m='28560'>to</span> <span m='28900'>actually just</span> <span m='30260'>find</span> <span m='30490'>an</span> <span m='30550'>antiderivative,</span> <span m='31370'>then,</span> <span m='31660'>for</span> <span m='32310'>1</span> <span m='32670'>over</span> <span m='32920'>2</span> <span m='33150'>sine</span> <span m='33500'>u</span> <span m='33690'>cosine</span> <span m='34150'>u.</span> </p><p><span m='35030'>So</span> <span m='35240'>why</span> <span m='35370'>don't</span> <span m='35540'>you</span> <span m='35750'>take</span> <span m='35960'>a while</span> <span m='36190'>to</span> <span m='36260'>work</span> <span m='36440'>on</span> <span m='36580'>this,</span> <span m='36810'>pause the</span> <span m='37210'>video,</span> <span m='37760'>and</span> <span m='38030'>then</span> <span m='38230'>when</span> <span m='38420'>you're</span> <span m='38580'>ready,</span> <span m='39640'>restart</span> <span m='40020'>the</span> <span m='40100'>video,</span> <span m='40430'>and</span> <span m='40600'>I</span> <span m='40770'>will</span> <span m='41040'>come</span> <span m='41210'>back</span> <span m='41440'>and</span> <span m='41580'>show</span> <span m='41730'>you</span> <span m='42300'>how</span> <span m='42470'>I</span> <span m='42550'>did</span> <span m='42740'>it.</span> </p><p><span m='52480'>OK.</span> <span m='52720'>Welcome</span> <span m='53020'>back.</span> <span m='53820'>So</span> <span m='54270'>again,</span> <span m='54630'>we're</span> <span m='54740'>going</span> <span m='54900'>to</span> <span m='54970'>work</span> <span m='55180'>on</span> <span m='56340'>finding,</span> <span m='56970'>in</span> <span m='57250'>this</span> <span m='57560'>one,</span> <span m='57780'>a</span> <span m='57870'>specific</span> <span m='58330'>number,</span> <span m='58660'>and</span> <span m='59020'>in</span> <span m='59160'>this</span> <span m='59340'>one,</span> <span m='59690'>an</span> <span m='59870'>antiderivative.</span> <span m='61230'>So</span> <span m='61670'>we'll</span> <span m='61920'>start</span> <span m='62260'>off</span> <span m='62520'>with</span> <span m='62710'>the</span> <span m='62920'>integral</span> <span m='63120'>from</span> <span m='63300'>minus</span> <span m='63610'>pi</span> <span m='63770'>over</span> <span m='63950'>4</span> <span m='64200'>to</span> <span m='64270'>pi over</span> <span m='64570'>4</span> <span m='65300'>of</span> <span m='65450'>secant</span> <span m='65880'>cubed</span> <span m='66200'>u</span> <span m='66540'>du.</span> <span m='67410'>And</span> <span m='67740'>the</span> <span m='67820'>first</span> <span m='68080'>thing</span> <span m='68220'>I'm</span> <span m='68350'>going</span> <span m='68560'>to</span> <span m='68640'>do,</span> <span m='68930'>is</span> <span m='69120'>I'm</span> <span m='69270'>going</span> <span m='69490'>to</span> <span m='69630'>drop</span> <span m='70110'>the</span> <span m='70230'>bounds</span> <span m='70800'>and</span> <span m='71100'>just</span> <span m='71390'>find</span> <span m='73460'>the</span> <span m='73590'>function</span> <span m='74000'>I</span> <span m='74090'>need,</span> <span m='74560'>and</span> <span m='74730'>then</span> <span m='74880'>I'll</span> <span m='74970'>bring</span> <span m='75160'>the</span> <span m='75240'>bounds</span> <span m='75550'>back</span> <span m='75780'>in.</span> <span m='75990'>I</span> <span m='76080'>don't</span> <span m='76240'>want</span> <span m='76360'>to</span> <span m='76420'>write</span> <span m='76620'>the</span> <span m='76700'>bounds</span> <span m='77120'>down</span> <span m='77520'>at</span> <span m='77650'>every</span> <span m='77870'>step.</span> <span m='79230'>I'm</span> <span m='79370'>not</span> <span m='79600'>doing</span> <span m='79870'>any</span> <span m='81070'>substitution,</span> <span m='81850'>I</span> <span m='81890'>don't</span> <span m='82100'>think.</span> <span m='82380'>So</span> <span m='82690'>I</span> <span m='82840'>don't</span> <span m='83040'>need</span> <span m='83160'>to</span> <span m='83260'>worry</span> <span m='83460'>about</span> <span m='83700'>if</span> <span m='83770'>I'm</span> <span m='83960'>changing</span> <span m='84320'>the</span> <span m='84410'>bounds</span> <span m='84730'>or</span> <span m='84810'>not.</span> <span m='85080'>So</span> <span m='85240'>I'll</span> <span m='85320'>keep</span> <span m='85500'>the</span> <span m='85590'>bounds</span> <span m='85960'>the</span> <span m='86060'>same,</span> <span m='86370'>but</span> <span m='86510'>I</span> <span m='86550'>won't</span> <span m='86810'>write</span> <span m='86990'>them</span> <span m='87120'>down</span> <span m='87380'>again</span> <span m='87680'>until</span> <span m='88070'>near</span> <span m='88300'>the</span> <span m='88430'>end.</span> </p><p><span m='89660'>All right.</span> <span m='90430'>So</span> <span m='91850'>let's</span> <span m='93550'>look</span> <span m='93860'>at</span> <span m='93980'>this</span> <span m='94270'>integral.</span> <span m='95660'>So</span> <span m='95910'>the</span> <span m='96050'>easiest</span> <span m='96600'>way,</span> <span m='96990'>I</span> <span m='97370'>think,</span> <span m='97780'>to</span> <span m='97950'>start an</span> <span m='98440'>integral</span> <span m='98820'>like</span> <span m='99030'>this,</span> <span m='100130'>is</span> <span m='100920'>to</span> <span m='101080'>split</span> <span m='101440'>it</span> <span m='101550'>up</span> <span m='102020'>into</span> <span m='102460'>secant</span> <span m='102970'>u</span> <span m='103240'>and</span> <span m='103540'>then</span> <span m='103880'>secant</span> <span m='104330'>squared</span> <span m='104740'>u.</span> <span m='105290'>Maybe</span> <span m='105680'>there</span> <span m='105870'>are</span> <span m='105950'>some</span> <span m='106130'>other</span> <span m='106290'>ways</span> <span m='106530'>you</span> <span m='106680'>did</span> <span m='106900'>it,</span> <span m='107090'>but</span> <span m='107220'>when</span> <span m='107360'>I</span> <span m='107460'>was</span> <span m='107640'>looking</span> <span m='107930'>at this</span> <span m='108110'>problem,</span> <span m='108330'>the</span> <span m='108430'>way</span> <span m='108640'>I</span> <span m='108820'>saw</span> <span m='109840'>was</span> <span m='110080'>to</span> <span m='110200'>start</span> <span m='110560'>off</span> <span m='111340'>and</span> <span m='111520'>write</span> <span m='111720'>this</span> <span m='111870'>as</span> <span m='112140'>secant</span> <span m='112570'>u</span> <span m='113730'>times</span> <span m='114130'>1--</span> <span m='114880'>oops,</span> <span m='115190'>let me</span> <span m='115390'>make</span> <span m='115550'>sure, yes--</span> <span m='115910'>times</span> <span m='116180'>1</span> <span m='116410'>plus</span> <span m='117340'>tan</span> <span m='117630'>squared</span> <span m='117990'>u</span> <span m='119720'>du.</span> <span m='121230'>Because</span> <span m='121600'>secant</span> <span m='122070'>squared</span> <span m='122410'>u</span> <span m='122690'>is</span> <span m='122900'>equal</span> <span m='123100'>to</span> <span m='123180'>1</span> <span m='123380'>plus</span> <span m='123640'>tangent</span> <span m='124030'>squared</span> <span m='124380'>u.</span> </p><p><span m='125210'>And</span> <span m='125560'>what</span> <span m='125680'>does</span> <span m='125870'>it</span> <span m='125970'>do</span> <span m='126160'>for us?</span> <span m='126500'>Well,</span> <span m='126670'>it</span> <span m='126840'>partially</span> <span m='127420'>answers</span> <span m='127700'>the</span> <span m='127770'>question,</span> <span m='128560'>but</span> <span m='128780'>not</span> <span m='128970'>completely,</span> <span m='129510'>we'll</span> <span m='129710'>see.</span> <span m='130450'>So</span> <span m='131080'>what</span> <span m='131280'>it</span> <span m='131380'>does</span> <span m='131700'>first,</span> <span m='132140'>is</span> <span m='132210'>it</span> <span m='132310'>gives</span> <span m='132520'>us</span> <span m='132660'>something</span> <span m='133080'>we</span> <span m='133220'>can</span> <span m='133410'>find</span> <span m='134900'>pretty</span> <span m='135500'>easily.</span> <span m='136680'>The</span> <span m='136810'>first</span> <span m='137140'>one,</span> <span m='137270'>we</span> <span m='137360'>just</span> <span m='137540'>get</span> <span m='137660'>the</span> <span m='137750'>integral</span> <span m='137920'>of</span> <span m='138220'>secant</span> <span m='138600'>u</span> <span m='138730'>du.</span> <span m='139040'>We</span> <span m='139220'>know</span> <span m='139410'>that</span> <span m='139620'>one.</span> <span m='140740'>The</span> <span m='140940'>second</span> <span m='141290'>one</span> <span m='141450'>is</span> <span m='141560'>a</span> <span m='141660'>little</span> <span m='141930'>harder,</span> <span m='142270'>because</span> <span m='142540'>we</span> <span m='142630'>get</span> <span m='142760'>the</span> <span m='142850'>integral</span> <span m='143170'>of</span> <span m='144050'>secant</span> <span m='144610'>u</span> <span m='145680'>tangent</span> <span m='146300'>squared</span> <span m='146820'>u</span> <span m='147500'>du.</span> </p><p><span m='149650'>And</span> <span m='149860'>this</span> <span m='150930'>has</span> <span m='151370'>promise,</span> <span m='152250'>but</span> <span m='152480'>it's</span> <span m='152650'>not</span> <span m='154040'>going</span> <span m='154310'>to</span> <span m='154390'>work</span> <span m='154560'>for</span> <span m='154680'>us</span> <span m='154780'>right</span> <span m='155030'>away.</span> <span m='156300'>Because, you know,</span> <span m='157660'>the</span> <span m='157780'>derivative</span> <span m='158320'>of</span> <span m='158490'>tangent</span> <span m='159310'>is</span> <span m='159550'>secant</span> <span m='159950'>squared,</span> <span m='160910'>and</span> <span m='161090'>the</span> <span m='161160'>derivative</span> <span m='161540'>of</span> <span m='161670'>secant</span> <span m='162340'>is</span> <span m='162520'>secant</span> <span m='162960'>tangent.</span> <span m='163920'>So</span> <span m='165040'>a</span> <span m='165200'>substitution</span> <span m='166170'>won't</span> <span m='166410'>work</span> <span m='166710'>in</span> <span m='166800'>this</span> <span m='166970'>case,</span> <span m='167270'>because</span> <span m='167570'>neither</span> <span m='167890'>one</span> <span m='168030'>of</span> <span m='168110'>these</span> <span m='168330'>functions</span> <span m='168850'>is</span> <span m='168940'>a</span> <span m='169020'>derivative</span> <span m='169370'>of</span> <span m='169580'>the</span> <span m='169680'>other</span> <span m='169870'>one.</span> <span m='170390'>If</span> <span m='170590'>I</span> <span m='170960'>even</span> <span m='171250'>move</span> <span m='171470'>off</span> <span m='171660'>a</span> <span m='171740'>tangent,</span> <span m='172310'>and</span> <span m='172430'>I</span> <span m='172920'>have</span> <span m='173140'>secant</span> <span m='173380'>tangent</span> <span m='174020'>times</span> <span m='174320'>another</span> <span m='174610'>tangent,</span> <span m='175480'>it's</span> <span m='175630'>not</span> <span m='175870'>the</span> <span m='175960'>right</span> <span m='176280'>derivative.</span> <span m='176830'>A</span> <span m='177210'>tangent's</span> <span m='177460'>derivative</span> <span m='177980'>is</span> <span m='178110'>secant</span> <span m='178410'>squared.</span> <span m='178820'>So</span> <span m='179750'>my</span> <span m='179860'>main</span> <span m='180080'>point</span> <span m='180330'>here</span> <span m='180510'>is</span> <span m='180610'>that</span> <span m='180750'>a</span> <span m='180960'>u-substitution</span> <span m='181070'>doesn't</span> <span m='181420'>work,</span> <span m='181660'>or</span> <span m='182300'>the</span> <span m='182440'>substitution</span> <span m='183010'>strategy</span> <span m='183410'>doesn't</span> <span m='183700'>work.</span> </p><p><span m='184490'>So what</span> <span m='184760'>we're</span> <span m='184900'>going to</span> <span m='185160'>do,</span> <span m='185450'>is</span> <span m='185600'>we're</span> <span m='185700'>actually</span> <span m='185980'>going</span> <span m='186230'>to</span> <span m='187600'>take</span> <span m='187900'>this</span> <span m='188110'>part,</span> <span m='188470'>and</span> <span m='188640'>make</span> <span m='188840'>it</span> <span m='188930'>into</span> <span m='189420'>an</span> <span m='189590'>integration</span> <span m='190030'>by</span> <span m='190150'>parts</span> <span m='190460'>problem.</span> <span m='191710'>So</span> <span m='191960'>this</span> <span m='192210'>is</span> <span m='192370'>going</span> <span m='192610'>to</span> <span m='192690'>be,</span> <span m='192830'>I'm</span> <span m='192940'>going to</span> <span m='193820'>stop</span> <span m='194070'>writing</span> <span m='194300'>equals</span> <span m='194550'>signs,</span> <span m='194820'>I'm going</span> <span m='195030'>to</span> <span m='195100'>figure</span> <span m='195400'>out</span> <span m='195620'>the</span> <span m='195710'>integral of</span> <span m='196100'>this</span> <span m='196310'>one.</span> <span m='197110'>So</span> <span m='197280'>this</span> <span m='197460'>is</span> <span m='197560'>a</span> <span m='197650'>little</span> <span m='197890'>sidebar,</span> <span m='199910'>and</span> <span m='200080'>I'm</span> <span m='200190'>going</span> <span m='200380'>to</span> <span m='200440'>look</span> <span m='200610'>at</span> <span m='200690'>the</span> <span m='200770'>integral</span> <span m='201070'>of</span> <span m='201180'>secant</span> <span m='202220'>u</span> <span m='203890'>tangent</span> <span m='204280'>squared</span> <span m='204570'>u.</span> </p><p><span m='207900'>And</span> <span m='208060'>the</span> <span m='208140'>way</span> <span m='208330'>I'm</span> <span m='208440'>going</span> <span m='208650'>to</span> <span m='208730'>write</span> <span m='209010'>that,</span> <span m='209330'>is</span> <span m='209490'>I'm</span> <span m='209610'>going</span> <span m='209850'>to</span> <span m='210210'>write</span> <span m='210600'>that</span> <span m='210810'>as</span> <span m='211410'>secant</span> <span m='211900'>u</span> <span m='212050'>tangent</span> <span m='212450'>u</span> <span m='212680'>will</span> <span m='212850'>be</span> <span m='212960'>one</span> <span m='213260'>function</span> <span m='213680'>I</span> <span m='213780'>want.</span> <span m='216340'>We'll</span> <span m='216520'>call</span> <span m='216770'>that w--</span> <span m='220740'>I</span> <span m='220880'>guess,</span> <span m='221150'>v</span> <span m='221350'>prime.</span> <span m='221980'>We</span> <span m='222190'>can</span> <span m='222340'>use</span> <span m='222550'>v</span> <span m='222730'>prime.</span> <span m='224700'>And</span> <span m='224990'>then</span> <span m='226040'>the</span> <span m='226140'>usual</span> <span m='226530'>thing</span> <span m='226720'>we</span> <span m='226810'>call</span> <span m='227040'>u,</span> <span m='227350'>we'll</span> <span m='227540'>call</span> <span m='227780'>w.</span> <span m='228340'>So</span> <span m='228540'>tangent</span> <span m='229040'>u</span> <span m='230410'>we'll</span> <span m='230660'>call</span> <span m='230890'>w.</span> <span m='232490'>And</span> <span m='232690'>I</span> <span m='232740'>want to</span> <span m='233030'>write</span> <span m='233290'>down,</span> <span m='233530'>I want to</span> <span m='233730'>explain to you</span> <span m='234180'>why</span> <span m='234590'>I'm</span> <span m='234800'>picking</span> <span m='235190'>these,</span> <span m='235540'>and</span> <span m='235650'>sort</span> <span m='235820'>of</span> <span m='235900'>where</span> <span m='236100'>this</span> <span m='236300'>is</span> <span m='236650'>going</span> <span m='236900'>to</span> <span m='236980'>get</span> <span m='237160'>us.</span> </p><p><span m='237840'>So</span> <span m='238540'>this</span> <span m='238860'>is</span> <span m='239000'>an</span> <span m='239100'>easy</span> <span m='239470'>thing</span> <span m='239700'>to</span> <span m='239820'>take</span> <span m='240010'>an</span> <span m='240080'>antiderivative</span> <span m='240810'>of.</span> <span m='241000'>Right?</span> <span m='241320'>I</span> <span m='241390'>can</span> <span m='241570'>take</span> <span m='241790'>this.</span> <span m='241990'>I</span> <span m='242090'>know</span> <span m='243040'>v</span> <span m='243940'>is</span> <span m='244220'>going</span> <span m='244480'>to</span> <span m='244550'>be</span> <span m='244690'>secant</span> <span m='245080'>u.</span> <span m='245270'>Because</span> <span m='245600'>the</span> <span m='245680'>derivative</span> <span m='245930'>of</span> <span m='246100'>secant u</span> <span m='246580'>is secant</span> <span m='246820'>u</span> <span m='246920'>tangent</span> <span m='247160'>u.</span> <span m='247980'>And</span> <span m='248180'>then</span> <span m='248450'>w</span> <span m='249010'>is</span> <span m='249200'>tangent</span> <span m='249590'>u,</span> <span m='249790'>w</span> <span m='250090'>prime is</span> <span m='250980'>secant</span> <span m='251180'>squared</span> <span m='251530'>u.</span> <span m='252540'>So if</span> <span m='252750'>you</span> <span m='252930'>think</span> <span m='253140'>about,</span> <span m='253620'>what</span> <span m='253870'>does</span> <span m='253970'>an</span> <span m='254230'>integration</span> <span m='254710'>by</span> <span m='254820'>parts</span> <span m='255120'>have?</span> <span m='256420'>It's</span> <span m='256560'>going</span> <span m='256750'>to</span> <span m='256810'>have</span> <span m='257520'>v*w</span> <span m='258920'>minus</span> <span m='259450'>the</span> <span m='259580'>integral</span> <span m='260150'>of</span> <span m='260930'>v</span> <span m='261250'>w</span> <span m='261610'>prime.</span> <span m='262520'>That's</span> <span m='262710'>a</span> <span m='262780'>lot</span> <span m='263000'>to</span> <span m='263120'>take</span> <span m='263380'>in.</span> <span m='263590'>But</span> <span m='263800'>the</span> <span m='263880'>point</span> <span m='264220'>is</span> <span m='264370'>that</span> <span m='264450'>that</span> <span m='264640'>integral</span> <span m='265040'>is</span> <span m='265150'>going</span> <span m='265340'>to</span> <span m='265410'>have</span> <span m='266630'>the</span> <span m='267340'>antiderivative</span> <span m='268010'>of</span> <span m='268140'>this,</span> <span m='268630'>which</span> <span m='268900'>is</span> <span m='269050'>secant,</span> <span m='269810'>and</span> <span m='270060'>the</span> <span m='270120'>derivative</span> <span m='270580'>of</span> <span m='270690'>this,</span> <span m='270980'>which is</span> <span m='271270'>secant</span> <span m='271570'>squared.</span> <span m='272280'>So</span> <span m='272450'>it's</span> <span m='272540'>going</span> <span m='272730'>to</span> <span m='272790'>have</span> <span m='272900'>a</span> <span m='272970'>secant</span> <span m='273410'>cubed.</span> <span m='274700'>Which</span> <span m='274890'>might</span> <span m='275130'>seem</span> <span m='275350'>weird,</span> <span m='275970'>because</span> <span m='276210'>now</span> <span m='276370'>we're</span> <span m='276470'>getting</span> <span m='276700'>back</span> <span m='276980'>to</span> <span m='277070'>what</span> <span m='277210'>we</span> <span m='277330'>started</span> <span m='277780'>with.</span> <span m='278590'>But</span> <span m='278800'>the</span> <span m='278930'>sign</span> <span m='279410'>on</span> <span m='279530'>the</span> <span m='279620'>secant</span> <span m='279910'>cubed</span> <span m='280140'>is</span> <span m='280260'>going</span> <span m='280430'>to</span> <span m='280500'>be</span> <span m='280590'>opposite.</span> </p><p><span m='281630'>Again,</span> <span m='281940'>this</span> <span m='282060'>is</span> <span m='282130'>a</span> <span m='282200'>lot</span> <span m='282400'>of</span> <span m='282500'>talking.</span> <span m='283470'>But</span> <span m='283730'>let's</span> <span m='283930'>figure</span> <span m='284210'>out</span> <span m='284370'>now.</span> <span m='284590'>I</span> <span m='284650'>just</span> <span m='284890'>want to</span> <span m='285680'>show</span> <span m='285990'>you</span> <span m='286230'>where</span> <span m='287140'>we're</span> <span m='287270'>headed</span> <span m='287590'>with</span> <span m='287740'>this,</span> <span m='287970'>why</span> <span m='288330'>I</span> <span m='288450'>picked</span> <span m='288800'>the</span> <span m='288900'>things</span> <span m='289170'>I</span> <span m='289260'>did.</span> </p><p><span m='290780'>So</span> <span m='291060'>as</span> <span m='291280'>I</span> <span m='291360'>mentioned--</span> <span m='291830'>let</span> <span m='291920'>me</span> <span m='292010'>just</span> <span m='292190'>write</span> <span m='292380'>these</span> <span m='292590'>down--</span> <span m='294700'>secant</span> <span m='294880'>u</span> <span m='296590'>is</span> <span m='296740'>equal</span> <span m='296990'>to</span> <span m='297100'>v,</span> <span m='298010'>and</span> <span m='298410'>secant</span> <span m='298780'>squared</span> <span m='299180'>u</span> <span m='301260'>is</span> <span m='301510'>equal</span> <span m='301650'>to</span> <span m='301740'>w</span> <span m='302050'>prime.</span> <span m='303160'>Sorry if</span> <span m='303580'>that</span> <span m='303740'>looks</span> <span m='303930'>a</span> <span m='304010'>little</span> <span m='304260'>weird,</span> <span m='304590'>but</span> <span m='304710'>that's</span> <span m='304910'>a</span> <span m='304980'>u.</span> </p><p><span m='306090'>OK.</span> <span m='306360'>So</span> <span m='306540'>now</span> <span m='306960'>let's</span> <span m='307150'>write</span> <span m='307440'>this</span> <span m='307780'>with</span> <span m='308020'>an</span> <span m='308110'>integration</span> <span m='308540'>by</span> <span m='308670'>parts.</span> <span m='309520'>I</span> <span m='309750'>get</span> <span m='310260'>v*w,</span> <span m='310930'>which</span> <span m='311190'>is</span> <span m='312760'>secant</span> <span m='313230'>u</span> <span m='313420'>tangent</span> <span m='313810'>u</span> <span m='316710'>minus</span> <span m='317520'>the</span> <span m='317710'>integral</span> <span m='318350'>of</span> <span m='319570'>v*dw,</span> <span m='320530'>which</span> <span m='320770'>is</span> <span m='321130'>secant</span> <span m='321550'>cubed</span> <span m='321780'>u</span> <span m='322720'>du.</span> </p><p><span m='330030'>So</span> <span m='330180'>this</span> <span m='330370'>is</span> <span m='330500'>what</span> <span m='330640'>I</span> <span m='330690'>was</span> <span m='330870'>trying</span> <span m='331090'>to</span> <span m='331160'>show</span> <span m='331350'>you</span> <span m='331520'>we</span> <span m='331670'>were</span> <span m='331790'>anticipating.</span> <span m='332970'>So</span> <span m='333160'>when</span> <span m='333290'>I</span> <span m='333380'>put</span> <span m='333730'>this</span> <span m='333910'>all together,</span> <span m='335010'>I</span> <span m='335240'>replace</span> <span m='335810'>this</span> <span m='336110'>integral</span> <span m='336920'>by</span> <span m='337080'>these</span> <span m='337370'>two</span> <span m='337550'>things.</span> <span m='338940'>And</span> <span m='339130'>what's</span> <span m='339370'>the</span> <span m='339470'>point</span> <span m='339790'>there?</span> <span m='340050'>Notice</span> <span m='340440'>what</span> <span m='340600'>I</span> <span m='340700'>have.</span> <span m='341070'>If</span> <span m='341210'>I</span> <span m='341430'>actually</span> <span m='342000'>look</span> <span m='342300'>at</span> <span m='342400'>the</span> <span m='342510'>pieces,</span> <span m='342890'>I</span> <span m='343000'>have,</span> <span m='343320'>up</span> <span m='343490'>here,</span> <span m='343700'>I</span> <span m='343770'>have</span> <span m='343910'>a</span> <span m='343990'>secant</span> <span m='344140'>cubed</span> <span m='344570'>u.</span> <span m='345670'>It's</span> <span m='345830'>going</span> <span m='346040'>to</span> <span m='346130'>equal</span> <span m='347140'>secant</span> <span m='347780'>u</span> <span m='348630'>plus</span> <span m='349840'>this--</span> <span m='351030'>I</span> <span m='351150'>have</span> <span m='351310'>to</span> <span m='351370'>evaluate</span> <span m='351760'>that</span> <span m='351990'>at the</span> <span m='352090'>bounds--</span> <span m='352860'>minus</span> <span m='353440'>this.</span> <span m='355430'>So</span> <span m='355710'>I</span> <span m='355840'>have</span> <span m='356050'>the</span> <span m='356160'>same</span> <span m='356430'>thing</span> <span m='356630'>on</span> <span m='356740'>this</span> <span m='356870'>side</span> <span m='357120'>that</span> <span m='357240'>I</span> <span m='357300'>had</span> <span m='357480'>on</span> <span m='357580'>the</span> <span m='357670'>other</span> <span m='357850'>side,</span> <span m='358180'>but</span> <span m='358270'>with</span> <span m='358400'>a</span> <span m='358440'>minus</span> <span m='358850'>sign.</span> <span m='359560'>So</span> <span m='359740'>if I</span> <span m='360040'>add it</span> <span m='360470'>to</span> <span m='360560'>the</span> <span m='360650'>other</span> <span m='360870'>side,</span> <span m='361220'>I'm</span> <span m='361310'>going</span> <span m='361490'>to</span> <span m='361550'>get</span> <span m='361750'>two</span> <span m='361950'>of</span> <span m='362080'>them.</span> </p><p><span m='362880'>So</span> <span m='363110'>this</span> <span m='363320'>was</span> <span m='363510'>sort</span> <span m='363730'>of</span> <span m='363840'>where</span> <span m='364530'>we're</span> <span m='364630'>headed.</span> <span m='364960'>Now</span> <span m='365150'>let's</span> <span m='367070'>put</span> <span m='367300'>it</span> <span m='367390'>all</span> <span m='367550'>together.</span> <span m='367920'>Let's</span> <span m='368150'>take</span> <span m='368390'>it</span> <span m='369350'>back.</span> <span m='369760'>So</span> <span m='369930'>this</span> <span m='370290'>stuff</span> <span m='370730'>here</span> <span m='371680'>is</span> <span m='371880'>that,</span> <span m='372160'>right?</span> <span m='372400'>That's</span> <span m='372600'>what</span> <span m='372700'>we</span> <span m='372800'>did.</span> <span m='373020'>I'm</span> <span m='373200'>going to</span> <span m='373370'>write</span> <span m='375200'>just</span> <span m='375510'>the</span> <span m='376490'>important</span> <span m='376880'>stuff</span> <span m='377230'>right</span> <span m='377470'>here.</span> <span m='378830'>I've</span> <span m='379070'>got</span> <span m='379220'>the</span> <span m='379330'>integral</span> <span m='379810'>of</span> <span m='379930'>secant</span> <span m='380110'>cubed</span> <span m='380320'>u</span> <span m='382500'>du</span> <span m='383060'>is</span> <span m='383250'>equal</span> <span m='383490'>to</span> <span m='385080'>secant</span> <span m='385250'>u</span> <span m='385740'>tangent</span> <span m='386150'>u.</span> <span m='390130'>Plus</span> <span m='390440'>that</span> <span m='390680'>secant--</span> <span m='391310'>I</span> <span m='391400'>forgot</span> <span m='391700'>to</span> <span m='391770'>put</span> <span m='391920'>that</span> <span m='392100'>one</span> <span m='392250'>in,</span> <span m='392470'>so let</span> <span m='392700'>me</span> <span m='392810'>write</span> <span m='392980'>in</span> <span m='393070'>that</span> <span m='393230'>one.</span> <span m='393880'>Plus</span> <span m='394180'>the</span> <span m='394300'>integral</span> <span m='394400'>of</span> <span m='394650'>secant</span> <span m='395050'>u</span> <span m='398820'>du</span> <span m='400140'>minus</span> <span m='401250'>secant</span> <span m='401620'>cubed</span> <span m='401790'>u</span> <span m='402120'>du.</span> <span m='403040'>The</span> <span m='403150'>integral</span> <span m='403510'>of secant</span> <span m='403730'>cubed</span> <span m='403980'>u</span> <span m='404100'>du.</span> <span m='407770'>OK?</span> </p><p><span m='409300'>And</span> <span m='409540'>now</span> <span m='409830'>I'm</span> <span m='409920'>going to</span> <span m='410110'>work</span> <span m='410310'>some</span> <span m='410480'>magic.</span> <span m='410880'>I'm</span> <span m='411010'>actually</span> <span m='411340'>going</span> <span m='411590'>to</span> <span m='411850'>erase</span> <span m='412340'>something</span> <span m='412990'>and</span> <span m='413210'>move</span> <span m='413400'>it</span> <span m='413510'>to</span> <span m='413600'>the</span> <span m='413660'>other</span> <span m='413870'>side.</span> <span m='414720'>So</span> <span m='415070'>let</span> <span m='415210'>me</span> <span m='415310'>sneak</span> <span m='415680'>an</span> <span m='415760'>eraser</span> <span m='416460'>off</span> <span m='416730'>screen.</span> <span m='417690'>I'm</span> <span m='417920'>going</span> <span m='418090'>to</span> <span m='418230'>add</span> <span m='418530'>this</span> <span m='418750'>to</span> <span m='418850'>the</span> <span m='418940'>other</span> <span m='419120'>side.</span> <span m='419480'>And</span> <span m='419570'>what's</span> <span m='419750'>going to</span> <span m='419960'>happen?</span> <span m='423510'>I</span> <span m='423650'>come</span> <span m='423820'>over</span> <span m='424000'>here</span> <span m='424210'>and</span> <span m='424300'>I</span> <span m='424340'>get</span> <span m='424550'>two</span> <span m='424730'>of</span> <span m='424860'>them.</span> <span m='427120'>Right?</span> <span m='427660'>There</span> <span m='427800'>was</span> <span m='427950'>one</span> <span m='428170'>on</span> <span m='428290'>this</span> <span m='428420'>side,</span> <span m='428670'>with</span> <span m='428730'>a</span> <span m='428790'>minus</span> <span m='429100'>sign.</span> <span m='429270'>I</span> <span m='429310'>added</span> <span m='429750'>it,</span> <span m='429890'>and</span> <span m='430010'>now I</span> <span m='430100'>have</span> <span m='430230'>two</span> <span m='430400'>of</span> <span m='430500'>them.</span> <span m='431330'>And</span> <span m='431520'>now</span> <span m='431650'>what's</span> <span m='431880'>the</span> <span m='431970'>magic?</span> <span m='432440'>Well, I</span> <span m='432830'>just</span> <span m='433060'>divide</span> <span m='433390'>everything</span> <span m='433750'>by</span> <span m='433910'>2.</span> <span m='434630'>And</span> <span m='434800'>so</span> <span m='434900'>this</span> <span m='435080'>is</span> <span m='435170'>going to</span> <span m='435360'>be</span> <span m='435460'>over</span> <span m='435680'>2,</span> <span m='436530'>and</span> <span m='436710'>this</span> <span m='436820'>is</span> <span m='436940'>going to</span> <span m='437130'>be</span> <span m='437280'>over</span> <span m='437470'>2.</span> </p><p><span m='439100'>And</span> <span m='439520'>now</span> <span m='439830'>I</span> <span m='439940'>know</span> <span m='440160'>what</span> <span m='440460'>an antiderivative</span> <span m='441380'>is.</span> <span m='441720'>Notice</span> <span m='442040'>I</span> <span m='442150'>haven't</span> <span m='442370'>put</span> <span m='442520'>in</span> <span m='442600'>the</span> <span m='442690'>plus</span> <span m='442950'>c,</span> <span m='443230'>because</span> <span m='443360'>I'm</span> <span m='443450'>about</span> <span m='443790'>to</span> <span m='444570'>put</span> <span m='444790'>in</span> <span m='444930'>some</span> <span m='445150'>bounds.</span> <span m='446590'>All</span> <span m='446730'>right?</span> <span m='447840'>And</span> <span m='448020'>by</span> <span m='448150'>the</span> <span m='448250'>way,</span> <span m='448400'>I</span> <span m='448540'>know</span> <span m='449020'>an</span> <span m='449260'>antiderivative</span> <span m='449990'>of</span> <span m='450100'>secant</span> <span m='450250'>u.</span> <span m='450700'>So</span> <span m='450900'>we'll</span> <span m='451270'>get</span> <span m='451480'>to</span> <span m='451570'>that</span> <span m='452340'>in</span> <span m='452570'>one</span> <span m='452730'>second.</span> <span m='453140'>But</span> <span m='453270'>hopefully</span> <span m='453600'>everyone</span> <span m='453860'>follows.</span> <span m='454280'>I</span> <span m='454360'>had an</span> <span m='454780'>integral</span> <span m='454820'>of</span> <span m='454990'>secant</span> <span m='455340'>cubed</span> <span m='455500'>u</span> <span m='455650'>on</span> <span m='455800'>this</span> <span m='455910'>side.</span> <span m='456320'>I</span> <span m='456420'>had</span> <span m='456640'>a</span> <span m='456810'>minus</span> <span m='457260'>integral</span> <span m='457620'>of</span> <span m='457790'>secant</span> <span m='457960'>cubed</span> <span m='458160'>u</span> <span m='458320'>over</span> <span m='458470'>here.</span> <span m='458820'>I</span> <span m='459070'>added</span> <span m='459470'>it</span> <span m='459590'>to</span> <span m='459680'>the</span> <span m='459770'>other</span> <span m='459960'>side.</span> <span m='460320'>It</span> <span m='460390'>gave</span> <span m='460570'>me</span> <span m='460670'>two</span> <span m='460880'>of</span> <span m='460990'>them,</span> <span m='461710'>so</span> <span m='461900'>then</span> <span m='462060'>I</span> <span m='462120'>just</span> <span m='462300'>divided</span> <span m='462660'>by</span> <span m='462800'>2.</span> <span m='464040'>All</span> <span m='464150'>right?</span> </p><p><span m='464890'>And</span> <span m='465230'>now</span> <span m='465870'>let</span> <span m='466220'>me</span> <span m='466560'>just</span> <span m='467290'>explicitly</span> <span m='467610'>write</span> <span m='467830'>down</span> <span m='468790'>the</span> <span m='468890'>last</span> <span m='469220'>thing</span> <span m='469450'>we</span> <span m='469570'>need.</span> <span m='473720'>We</span> <span m='473870'>still</span> <span m='474140'>need</span> <span m='474330'>this</span> <span m='474520'>one.</span> <span m='474930'>And</span> <span m='475120'>this</span> <span m='475270'>is</span> <span m='475400'>going</span> <span m='475640'>to</span> <span m='475700'>be</span> <span m='475820'>1/2</span> <span m='477290'>natural</span> <span m='477740'>log</span> <span m='478680'>absolute</span> <span m='479120'>value</span> <span m='480180'>secant</span> <span m='480690'>u</span> <span m='481250'>plus</span> <span m='481570'>tangent</span> <span m='481990'>u.</span> </p><p><span m='483910'>OK.</span> <span m='484170'>So</span> <span m='484340'>now</span> <span m='484610'>we</span> <span m='484740'>just</span> <span m='484920'>have</span> <span m='485050'>to</span> <span m='485170'>evaluate</span> <span m='485780'>everywhere</span> <span m='486200'>and</span> <span m='486350'>we're</span> <span m='486450'>done.</span> <span m='487540'>So</span> <span m='487770'>now</span> <span m='488040'>we</span> <span m='488160'>have</span> <span m='488320'>to</span> <span m='488440'>evaluate</span> <span m='488960'>all</span> <span m='489140'>of</span> <span m='489250'>this.</span> <span m='489490'>Remember,</span> <span m='489860'>I</span> <span m='489960'>said</span> <span m='490140'>I</span> <span m='490190'>left</span> <span m='490420'>out</span> <span m='490550'>the</span> <span m='490630'>bounds.</span> <span m='491630'>The</span> <span m='491760'>bounds are</span> <span m='492070'>pi over</span> <span m='492440'>4,</span> <span m='493520'>minus</span> <span m='493920'>pi</span> <span m='494100'>over</span> <span m='494310'>4;</span> <span m='496670'>pi</span> <span m='496900'>over</span> <span m='497120'>4</span> <span m='498830'>minus</span> <span m='499250'>pi</span> <span m='499580'>over 4.</span> </p><p><span m='501760'>All</span> <span m='501930'>right.</span> <span m='503060'>So</span> <span m='503240'>I'm</span> <span m='503300'>going to</span> <span m='503450'>give</span> <span m='503580'>myself</span> <span m='503940'>a</span> <span m='504010'>little</span> <span m='504300'>cheat</span> <span m='504550'>sheet</span> <span m='504880'>up</span> <span m='505040'>here,</span> <span m='505360'>and</span> <span m='505520'>then</span> <span m='505620'>I'm</span> <span m='505710'>going to</span> <span m='507550'>write</span> <span m='507850'>down</span> <span m='508140'>the</span> <span m='508250'>numbers</span> <span m='508610'>I</span> <span m='508710'>get</span> <span m='509220'>here.</span> <span m='509560'>So</span> <span m='510230'>my</span> <span m='510480'>cheat</span> <span m='510740'>sheet</span> <span m='511590'>is</span> <span m='511910'>to</span> <span m='512050'>remind</span> <span m='512440'>myself</span> <span m='512900'>that</span> <span m='513040'>secant</span> <span m='513690'>of</span> <span m='514020'>plus</span> <span m='514410'>or</span> <span m='514630'>minus</span> <span m='515700'>pi</span> <span m='516010'>over</span> <span m='516200'>4</span> <span m='517140'>is</span> <span m='517270'>equal</span> <span m='517520'>to</span> <span m='517620'>square</span> <span m='517890'>root</span> <span m='518140'>2.</span> <span m='518775'>Let</span> <span m='519190'>me</span> <span m='519350'>just</span> <span m='519540'>make</span> <span m='519700'>sure</span> <span m='519900'>that's</span> <span m='520130'>right.</span> <span m='521060'>Cosine</span> <span m='521660'>pi over</span> <span m='522040'>4</span> <span m='522410'>is</span> <span m='522510'>1</span> <span m='522770'>over</span> <span m='523050'>square</span> <span m='523340'>root</span> <span m='523570'>2.</span> <span m='524440'>Cosine</span> <span m='524705'>is</span> <span m='524970'>even,</span> <span m='525520'>so</span> <span m='525710'>plus</span> <span m='525990'>or</span> <span m='526070'>minus</span> <span m='526410'>pi</span> <span m='526630'>over</span> <span m='526700'>4</span> <span m='526930'>will</span> <span m='527060'>be</span> <span m='527170'>the</span> <span m='527280'>same.</span> <span m='527690'>Secant</span> <span m='527990'>is</span> <span m='528280'>1</span> <span m='528540'>over</span> <span m='528740'>that,</span> <span m='529170'>so</span> <span m='529370'>I'm</span> <span m='529500'>good.</span> </p><p><span m='531160'>Tangent</span> <span m='531720'>of pi</span> <span m='532010'>over</span> <span m='532170'>4.</span> <span m='534490'>Well,</span> <span m='534710'>tangent is</span> <span m='535150'>odd,</span> <span m='535740'>so</span> <span m='535930'>I</span> <span m='535970'>should</span> <span m='536160'>say</span> <span m='536270'>plus</span> <span m='536540'>or</span> <span m='536620'>minus</span> <span m='536990'>here,</span> <span m='537190'>tangent</span> <span m='537420'>is</span> <span m='537540'>odd,</span> <span m='537950'>so it's going to be,</span> <span m='539510'>they're</span> <span m='539650'>going to</span> <span m='539790'>have</span> <span m='539950'>two</span> <span m='540120'>different</span> <span m='540430'>signs.</span> <span m='541620'>Tangent</span> <span m='542080'>pi over</span> <span m='542270'>4</span> <span m='542570'>is sine</span> <span m='542970'>pi over</span> <span m='543280'>4</span> <span m='543730'>over cosine</span> <span m='544170'>pi over</span> <span m='544460'>4.</span> <span m='544920'>It's</span> <span m='545090'>the</span> <span m='545180'>same</span> <span m='545410'>value</span> <span m='545780'>there.</span> <span m='546530'>So</span> <span m='546790'>it's</span> <span m='546920'>1.</span> <span m='547430'>So</span> <span m='547500'>tangent</span> <span m='547990'>plus</span> <span m='548230'>or</span> <span m='548290'>minus</span> <span m='548520'>pi over</span> <span m='548770'>4 is</span> <span m='549100'>plus</span> <span m='549280'>or</span> <span m='549350'>minus</span> <span m='549690'>1.</span> </p><p><span m='550720'>So</span> <span m='550940'>that's</span> <span m='551170'>what we're</span> <span m='551410'>working</span> <span m='551760'>with.</span> <span m='552530'>So</span> <span m='552720'>now</span> <span m='552910'>let's</span> <span m='553070'>start</span> <span m='553330'>plugging</span> <span m='553680'>in.</span> <span m='555530'>Secant</span> <span m='556130'>pi over</span> <span m='556430'>4</span> <span m='556690'>tangent</span> <span m='557130'>pi</span> <span m='557290'>over</span> <span m='557490'>4</span> <span m='558300'>gives</span> <span m='558510'>me</span> <span m='558640'>root</span> <span m='558950'>2</span> <span m='559530'>times</span> <span m='559850'>1</span> <span m='560250'>over</span> <span m='560500'>2.</span> <span m='560860'>So</span> <span m='560990'>I</span> <span m='561050'>get</span> <span m='561220'>root</span> <span m='561430'>2</span> <span m='561610'>over</span> <span m='561810'>2,</span> <span m='562960'>is</span> <span m='563120'>the</span> <span m='563220'>first</span> <span m='563500'>thing.</span> <span m='563860'>So</span> <span m='563980'>I</span> <span m='564060'>have</span> <span m='564210'>to write--</span> <span m='565360'>this</span> <span m='565500'>equals</span> <span m='565930'>is</span> <span m='566050'>from</span> <span m='566240'>here.</span> <span m='567760'>So I have</span> <span m='568150'>root 2</span> <span m='568380'>over</span> <span m='568600'>2.</span> <span m='570490'>And</span> <span m='570720'>then</span> <span m='572150'>secant</span> <span m='573760'>minus</span> <span m='573940'>pi</span> <span m='574120'>over</span> <span m='574310'>4</span> <span m='574490'>is</span> <span m='574600'>again</span> <span m='574780'>root</span> <span m='574930'>2,</span> <span m='575690'>tangent</span> <span m='576200'>minus</span> <span m='576490'>pi over</span> <span m='576740'>4 is</span> <span m='577010'>minus</span> <span m='577330'>1.</span> <span m='578040'>So</span> <span m='578220'>I</span> <span m='578280'>have minus, I have</span> <span m='581380'>a</span> <span m='581590'>negative</span> <span m='582230'>here,</span> <span m='582830'>and</span> <span m='582950'>then</span> <span m='583060'>I</span> <span m='583120'>have</span> <span m='583310'>a</span> <span m='583740'>1</span> <span m='584090'>here,</span> <span m='585010'>or a</span> <span m='585240'>root</span> <span m='585550'>2</span> <span m='585900'>here,</span> <span m='586230'>negative</span> <span m='586590'>1</span> <span m='586890'>over</span> <span m='587120'>2.</span> <span m='587740'>So</span> <span m='587870'>I</span> <span m='587910'>get</span> <span m='588040'>another</span> <span m='588350'>negative,</span> <span m='588800'>so</span> <span m='588950'>I</span> <span m='589020'>have</span> <span m='589150'>a</span> <span m='589240'>plus.</span> <span m='591800'>So</span> <span m='592040'>one</span> <span m='592260'>negative</span> <span m='592650'>came</span> <span m='592960'>from,</span> <span m='593190'>I</span> <span m='593250'>was</span> <span m='593370'>using</span> <span m='593640'>the</span> <span m='593720'>lower</span> <span m='593950'>bound,</span> <span m='594270'>and</span> <span m='594380'>one</span> <span m='594530'>negative</span> <span m='594860'>came</span> <span m='595140'>from</span> <span m='595320'>the</span> <span m='595400'>tangent.</span> <span m='596830'>That</span> <span m='597030'>gave</span> <span m='597180'>me</span> <span m='597270'>a</span> <span m='597340'>plus.</span> </p><p><span m='598740'>And</span> <span m='598880'>then</span> <span m='598990'>I</span> <span m='599030'>have</span> <span m='599340'>plus</span> <span m='599690'>1/2.</span> <span m='600960'>Well,</span> <span m='601220'>again.</span> <span m='602190'>Natural</span> <span m='602590'>log</span> <span m='603000'>of</span> <span m='604340'>secant</span> <span m='605410'>pi</span> <span m='605680'>over</span> <span m='605900'>4</span> <span m='606170'>is</span> <span m='606300'>going to</span> <span m='606500'>be--</span> <span m='606690'>so</span> <span m='606850'>I'm</span> <span m='606920'>going to</span> <span m='607060'>have</span> <span m='607200'>natural</span> <span m='607520'>log</span> <span m='607610'>of</span> <span m='607710'>root</span> <span m='607970'>2</span> <span m='608270'>plus</span> <span m='608620'>1,</span> <span m='609730'>and</span> <span m='609920'>I'm</span> <span m='610060'>going to</span> <span m='610220'>have</span> <span m='610390'>a</span> <span m='610450'>natural</span> <span m='610840'>log</span> <span m='611060'>of root</span> <span m='611310'>2</span> <span m='611590'>minus</span> <span m='611980'>1.</span> <span m='613470'>And</span> <span m='613630'>I'm</span> <span m='613740'>going</span> <span m='613950'>to</span> <span m='614030'>have</span> <span m='614320'>a</span> <span m='614370'>negative</span> <span m='614840'>in</span> <span m='614950'>between</span> <span m='615310'>them.</span> <span m='615510'>So</span> <span m='615640'>I'm</span> <span m='615700'>going to</span> <span m='615840'>work</span> <span m='616040'>a</span> <span m='616110'>little</span> <span m='616310'>magic</span> <span m='616690'>here.</span> <span m='617005'>It's</span> <span m='617320'>going to be</span> <span m='617670'>natural</span> <span m='618070'>log</span> <span m='618350'>of</span> <span m='619480'>2</span> <span m='619740'>plus</span> <span m='620070'>1</span> <span m='620860'>over</span> <span m='621350'>root</span> <span m='621640'>2</span> <span m='622440'>minus</span> <span m='622890'>1.</span> </p><p><span m='623730'>Now,</span> <span m='624300'>just</span> <span m='624570'>to</span> <span m='624720'>point</span> <span m='625060'>out,</span> <span m='625230'>where</span> <span m='625370'>did</span> <span m='625490'>that</span> <span m='625660'>come</span> <span m='625880'>from?</span> <span m='626750'>That</span> <span m='626940'>came</span> <span m='627170'>from</span> <span m='627350'>putting</span> <span m='627650'>in</span> <span m='628140'>root</span> <span m='628560'>2</span> <span m='628790'>for</span> <span m='628940'>both</span> <span m='629220'>of</span> <span m='629290'>the</span> <span m='629370'>pi</span> <span m='629540'>over</span> <span m='629710'>4's</span> <span m='630310'>and</span> <span m='630450'>minus</span> <span m='630720'>pi</span> <span m='630930'>over</span> <span m='631000'>4.</span> <span m='631830'>Tangent</span> <span m='632220'>pi over</span> <span m='632480'>4</span> <span m='632730'>was</span> <span m='632880'>the</span> <span m='632970'>plus</span> <span m='633280'>1.</span> <span m='635170'>Tangent</span> <span m='635620'>of</span> <span m='635710'>negative</span> <span m='636060'>pi</span> <span m='636260'>over</span> <span m='636330'>4</span> <span m='636530'>was</span> <span m='636660'>the</span> <span m='636730'>minus</span> <span m='637070'>1.</span> <span m='637590'>How</span> <span m='637770'>do</span> <span m='637850'>I</span> <span m='637950'>get</span> <span m='638120'>this</span> <span m='638230'>division?</span> <span m='639110'>I</span> <span m='639270'>had</span> <span m='639450'>natural</span> <span m='639850'>log</span> <span m='640110'>of</span> <span m='640200'>something</span> <span m='640640'>minus</span> <span m='641080'>natural</span> <span m='641390'>log of</span> <span m='641610'>something</span> <span m='641910'>else.</span> </p><p><span m='642860'>So</span> <span m='643060'>in</span> <span m='643130'>the</span> <span m='643240'>end,</span> <span m='644040'>I</span> <span m='644180'>get</span> <span m='644390'>root</span> <span m='644610'>2</span> <span m='645830'>plus</span> <span m='646070'>1/2</span> <span m='647220'>natural</span> <span m='647630'>log</span> <span m='648870'>absolute</span> <span m='649630'>root 2</span> <span m='649915'>plus</span> <span m='650200'>1</span> <span m='650650'>over</span> <span m='651510'>root</span> <span m='651800'>2</span> <span m='651970'>minus</span> <span m='652350'>1.</span> </p><p><span m='654330'>All right.</span> <span m='656230'>That</span> <span m='656660'>is</span> <span m='657570'>part</span> <span m='657900'>(a).</span> <span m='660030'>So</span> <span m='660200'>part</span> <span m='660530'>(a),</span> <span m='660740'>let me</span> <span m='660980'>just</span> <span m='661120'>remind</span> <span m='661470'>you,</span> <span m='661580'>what did</span> <span m='661780'>we</span> <span m='661990'>do?</span> <span m='663550'>We</span> <span m='663690'>had</span> <span m='663880'>secant</span> <span m='664090'>cubed</span> <span m='664610'>u.</span> <span m='666060'>We</span> <span m='666200'>did</span> <span m='666360'>a</span> <span m='666410'>substitution</span> <span m='666700'>for</span> <span m='666990'>one</span> <span m='667305'>of</span> <span m='667620'>the,</span> <span m='668160'>for</span> <span m='668830'>secant</span> <span m='669090'>squared.</span> <span m='670280'>We</span> <span m='670510'>got</span> <span m='670680'>something</span> <span m='670970'>we</span> <span m='671080'>could</span> <span m='671200'>deal</span> <span m='671400'>with,</span> <span m='672090'>and</span> <span m='672230'>something</span> <span m='672640'>that</span> <span m='672800'>didn't</span> <span m='673070'>look</span> <span m='673260'>so</span> <span m='673490'>promising,</span> <span m='674120'>but</span> <span m='674230'>once</span> <span m='674410'>we</span> <span m='674490'>did an</span> <span m='674740'>integration</span> <span m='675170'>by</span> <span m='675270'>parts,</span> <span m='675610'>we</span> <span m='675700'>were</span> <span m='675820'>back</span> <span m='676150'>to</span> <span m='676260'>what</span> <span m='676390'>we</span> <span m='676510'>started</span> <span m='676950'>with,</span> <span m='677730'>with</span> <span m='678510'>a</span> <span m='678580'>different</span> <span m='678890'>sign.</span> <span m='679780'>So</span> <span m='679930'>we</span> <span m='680030'>moved</span> <span m='680340'>it to</span> <span m='680500'>the</span> <span m='680590'>other</span> <span m='680790'>side.</span> <span m='681810'>We</span> <span m='682080'>were</span> <span m='682210'>basically</span> <span m='682660'>able</span> <span m='682930'>to</span> <span m='683020'>solve</span> <span m='683350'>for</span> <span m='683430'>secant</span> <span m='683580'>cubed</span> <span m='683790'>u.</span> <span m='684920'>So</span> <span m='685090'>we</span> <span m='685160'>got</span> <span m='685290'>all</span> <span m='685440'>the</span> <span m='685510'>way</span> <span m='685660'>through,</span> <span m='685920'>and</span> <span m='686020'>then</span> <span m='686120'>we</span> <span m='686220'>just</span> <span m='686360'>had</span> <span m='686480'>to</span> <span m='686610'>evaluate.</span> </p><p><span m='687150'>So</span> <span m='687260'>the</span> <span m='687350'>big</span> <span m='687620'>step</span> <span m='688360'>was,</span> <span m='688590'>once</span> <span m='688810'>you</span> <span m='688900'>were</span> <span m='689020'>here,</span> <span m='689770'>knowing</span> <span m='690100'>an</span> <span m='690190'>integration</span> <span m='690620'>by</span> <span m='690750'>parts</span> <span m='691160'>actually</span> <span m='691700'>would</span> <span m='691870'>save</span> <span m='692180'>you.</span> <span m='692890'>That's</span> <span m='693080'>sort</span> <span m='693300'>of</span> <span m='693380'>the</span> <span m='693450'>hard</span> <span m='693720'>thing</span> <span m='693920'>to</span> <span m='694040'>see.</span> <span m='694680'>Takes</span> <span m='694930'>a</span> <span m='694990'>little</span> <span m='695190'>while</span> <span m='695480'>to</span> <span m='695570'>see</span> <span m='695740'>that</span> <span m='695960'>one,</span> <span m='696140'>maybe.</span> </p><p><span m='697300'>All right.</span> <span m='697510'>So</span> <span m='697630'>now</span> <span m='697770'>the</span> <span m='697870'>next</span> <span m='698100'>one.</span> <span m='698780'>If we</span> <span m='698940'>come</span> <span m='699130'>back</span> <span m='699340'>here,</span> <span m='700580'>we're</span> <span m='700730'>trying</span> <span m='700920'>to</span> <span m='700980'>find an</span> <span m='701390'>antiderivative</span> <span m='702130'>of</span> <span m='702350'>1</span> <span m='702570'>over</span> <span m='702760'>2</span> <span m='702960'>sine</span> <span m='703260'>u</span> <span m='703390'>cosine</span> <span m='703830'>u.</span> <span m='704530'>And</span> <span m='705350'>there</span> <span m='705990'>may</span> <span m='706170'>be</span> <span m='706370'>some</span> <span m='706560'>other</span> <span m='706750'>ways</span> <span m='707010'>to</span> <span m='707110'>do</span> <span m='707330'>this,</span> <span m='707620'>but</span> <span m='707810'>actually,</span> <span m='708720'>this</span> <span m='708960'>problem,</span> <span m='709410'>part</span> <span m='709650'>of</span> <span m='709710'>the</span> <span m='709800'>reason</span> <span m='710110'>I</span> <span m='710320'>wanted</span> <span m='710690'>to</span> <span m='710770'>do</span> <span m='710880'>this</span> <span m='711080'>problem,</span> <span m='711320'>was I</span> <span m='711460'>wanted</span> <span m='711630'>to</span> <span m='711740'>remind</span> <span m='711920'>you</span> <span m='712090'>that</span> <span m='712270'>it's</span> <span m='712430'>good</span> <span m='712650'>to</span> <span m='712760'>know</span> <span m='712930'>some</span> <span m='713150'>of</span> <span m='713230'>the</span> <span m='713310'>basic</span> <span m='714170'>trigonometric</span> <span m='714760'>identities,</span> <span m='715370'>because</span> <span m='715520'>it'll</span> <span m='715640'>make</span> <span m='715820'>your</span> <span m='715930'>life</span> <span m='716160'>a</span> <span m='716220'>lot</span> <span m='716470'>easier.</span> </p><p><span m='717670'>So</span> <span m='717930'>this</span> <span m='718230'>integral</span> <span m='719600'>is</span> <span m='719780'>actually</span> <span m='720070'>the</span> <span m='720210'>same</span> <span m='720610'>as,</span> <span m='721840'>is</span> <span m='722060'>the</span> <span m='722200'>integral</span> <span m='722330'>of</span> <span m='722510'>du</span> <span m='722950'>over</span> <span m='723320'>sine</span> <span m='723910'>2u.</span> <span m='724470'>And</span> <span m='724690'>the</span> <span m='724760'>reason</span> <span m='725150'>is,</span> <span m='725910'>there's</span> <span m='726140'>a</span> <span m='726210'>trigonometric</span> <span m='726780'>identity</span> <span m='727860'>that</span> <span m='728010'>says,</span> <span m='728370'>2</span> <span m='728660'>sine</span> <span m='729050'>u</span> <span m='729230'>cosine</span> <span m='729690'>u</span> <span m='729940'>is</span> <span m='730100'>equal</span> <span m='730190'>to</span> <span m='730320'>sine</span> <span m='730950'>2u.</span> <span m='732060'>So</span> <span m='732430'>I</span> <span m='733320'>wanted</span> <span m='733740'>to</span> <span m='734530'>give</span> <span m='734910'>you</span> <span m='735040'>a</span> <span m='735130'>reason</span> <span m='735560'>for</span> <span m='735690'>why</span> <span m='735900'>we</span> <span m='736080'>know</span> <span m='736370'>those,</span> <span m='737570'>why</span> <span m='737820'>we</span> <span m='737980'>know</span> <span m='738150'>some</span> <span m='738340'>of</span> <span m='738420'>those</span> <span m='738550'>identities,</span> <span m='739100'>and</span> <span m='739190'>you</span> <span m='739290'>end</span> <span m='739450'>up</span> <span m='739570'>in</span> <span m='739640'>these</span> <span m='739810'>situations.</span> <span m='741300'>There</span> <span m='741450'>might</span> <span m='741640'>be</span> <span m='741740'>other</span> <span m='741920'>ways</span> <span m='742150'>to</span> <span m='742230'>handle</span> <span m='742530'>this</span> <span m='742710'>one,</span> <span m='742950'>but</span> <span m='743120'>the</span> <span m='743220'>easiest,</span> <span m='743780'>most</span> <span m='744020'>direct</span> <span m='744340'>way</span> <span m='745220'>is</span> <span m='745400'>if</span> <span m='745520'>you</span> <span m='745620'>do</span> <span m='745780'>this.</span> <span m='747120'>You</span> <span m='747340'>change</span> <span m='747740'>it</span> <span m='747870'>so that</span> <span m='748110'>(b)</span> <span m='748770'>is</span> <span m='748860'>actually</span> <span m='749170'>the</span> <span m='749280'>same</span> <span m='749590'>thing</span> <span m='749900'>as</span> <span m='750650'>integral</span> <span m='750870'>of</span> <span m='751040'>du</span> <span m='751370'>over</span> <span m='751530'>sine</span> <span m='751800'>2u.</span> <span m='752860'>So</span> <span m='753070'>it's</span> <span m='753190'>just</span> <span m='753410'>a</span> <span m='753480'>straight</span> <span m='753900'>up</span> <span m='754600'>double</span> <span m='755010'>angle</span> <span m='755330'>formula,</span> <span m='756230'>you</span> <span m='756440'>can</span> <span m='757230'>call</span> <span m='757500'>it</span> <span m='757600'>if</span> <span m='757710'>you</span> <span m='757810'>need</span> <span m='758370'>a</span> <span m='758400'>fancy</span> <span m='758790'>name.</span> </p><p><span m='759690'>And</span> <span m='759850'>now</span> <span m='759930'>what</span> <span m='760130'>is</span> <span m='760250'>this?</span> <span m='760670'>Well,</span> <span m='760830'>this</span> <span m='761040'>is</span> <span m='761150'>equal</span> <span m='761430'>to the</span> <span m='762410'>integral</span> <span m='762840'>of--</span> <span m='763600'>what's</span> <span m='764430'>1</span> <span m='764710'>over</span> <span m='764960'>sine,</span> <span m='765780'>is</span> <span m='765980'>going</span> <span m='766230'>to</span> <span m='766310'>be</span> <span m='766460'>cosecant.</span> <span m='769130'>Cosecant</span> <span m='769680'>2u</span> <span m='770050'>du.</span> <span m='771930'>And</span> <span m='772140'>we</span> <span m='772240'>know</span> <span m='772560'>the</span> <span m='772750'>antiderivative</span> <span m='772910'>to</span> <span m='773330'>cosecant</span> <span m='774180'>u.</span> <span m='774910'>We</span> <span m='775260'>know</span> <span m='775420'>that</span> <span m='775570'>that's</span> <span m='775780'>going</span> <span m='776000'>to</span> <span m='776080'>be</span> <span m='776280'>negative</span> <span m='776790'>natural</span> <span m='777220'>log</span> <span m='777680'>of</span> <span m='778300'>cosecant</span> <span m='778890'>u</span> <span m='779040'>plus</span> <span m='779320'>cotangent</span> <span m='779860'>u.</span> <span m='780500'>But</span> <span m='780760'>the</span> <span m='780840'>problem</span> <span m='781290'>is,</span> <span m='782280'>when</span> <span m='782430'>there's</span> <span m='782600'>a</span> <span m='782670'>2</span> <span m='782980'>there,</span> <span m='783220'>what</span> <span m='783330'>do</span> <span m='783400'>we</span> <span m='783520'>do?</span> <span m='783880'>Well,</span> <span m='784120'>just</span> <span m='784640'>think</span> <span m='784830'>about</span> <span m='785100'>it</span> <span m='785330'>as,</span> <span m='785550'>if</span> <span m='785710'>you</span> <span m='785820'>had</span> <span m='786050'>the</span> <span m='786140'>antiderivative,</span> <span m='786940'>you</span> <span m='787090'>know</span> <span m='787850'>by</span> <span m='787970'>the</span> <span m='788080'>chain</span> <span m='788400'>rule,</span> <span m='789160'>if</span> <span m='789340'>you</span> <span m='789430'>just</span> <span m='790260'>put</span> <span m='790400'>in two</span> <span m='790690'>u's</span> <span m='790950'>everywhere</span> <span m='791250'>there</span> <span m='791380'>was</span> <span m='791510'>a</span> <span m='791570'>u</span> <span m='791810'>when</span> <span m='791990'>you</span> <span m='792090'>took</span> <span m='792270'>the</span> <span m='792370'>derivative,</span> <span m='793360'>you</span> <span m='793570'>would</span> <span m='793680'>end</span> <span m='793830'>up</span> <span m='793920'>with</span> <span m='794030'>an</span> <span m='794090'>extra</span> <span m='794370'>2</span> <span m='794580'>in</span> <span m='794720'>front.</span> <span m='795220'>So</span> <span m='795310'>you have to,</span> <span m='796020'>basically you</span> <span m='796540'>have</span> <span m='796670'>to</span> <span m='796770'>just</span> <span m='796950'>put</span> <span m='797130'>in</span> <span m='797260'>1/2</span> <span m='797770'>in</span> <span m='797880'>front.</span> </p><p><span m='799830'>You</span> <span m='800010'>could</span> <span m='800180'>do</span> <span m='800360'>a</span> <span m='800910'>substitution</span> <span m='801410'>to</span> <span m='801640'>check</span> <span m='802090'>this,</span> <span m='802270'>but</span> <span m='802430'>it's</span> <span m='802550'>really</span> <span m='802830'>straightforward</span> <span m='804040'>to</span> <span m='804180'>say,</span> <span m='804890'>this</span> <span m='805050'>antiderivative</span> <span m='806340'>is</span> <span m='806490'>equal</span> <span m='806730'>to</span> <span m='806820'>negative</span> <span m='808710'>1/2</span> <span m='809290'>natural</span> <span m='809670'>log</span> <span m='810490'>absolute</span> <span m='812060'>cosecant</span> <span m='813300'>2u</span> <span m='814810'>plus cotangent</span> <span m='815680'>2u.</span> </p><p><span m='818400'>Now</span> <span m='818580'>that</span> <span m='818720'>I</span> <span m='818770'>have</span> <span m='818930'>that</span> <span m='819070'>written</span> <span m='819230'>out,</span> <span m='819580'>I'll</span> <span m='819650'>just</span> <span m='819850'>point</span> <span m='820050'>out</span> <span m='820150'>again,</span> <span m='820830'>if</span> <span m='821100'>there</span> <span m='821210'>was</span> <span m='821320'>no</span> <span m='821460'>2</span> <span m='821910'>here,</span> <span m='822890'>the</span> <span m='823010'>1/2</span> <span m='823510'>wouldn't</span> <span m='823810'>be</span> <span m='823980'>here,</span> <span m='824210'>and</span> <span m='824310'>we'd</span> <span m='824420'>just</span> <span m='824620'>have</span> <span m='824790'>cosecant</span> <span m='825380'>u</span> <span m='825540'>cotangent</span> <span m='826130'>u</span> <span m='826350'>inside</span> <span m='826760'>here.</span> <span m='827720'>But</span> <span m='828490'>once</span> <span m='828810'>we</span> <span m='829450'>have</span> <span m='829600'>to</span> <span m='829680'>have</span> <span m='829860'>the</span> <span m='829990'>2</span> <span m='830370'>to</span> <span m='830490'>get</span> <span m='830870'>a cosecant</span> <span m='831650'>2u</span> <span m='832720'>in</span> <span m='832830'>the</span> <span m='832960'>end,</span> <span m='834060'>we</span> <span m='834280'>also</span> <span m='834530'>need</span> <span m='834730'>to</span> <span m='834820'>divide</span> <span m='835230'>by</span> <span m='835400'>2</span> <span m='836250'>to</span> <span m='836350'>kill</span> <span m='836590'>it</span> <span m='836660'>off</span> <span m='836900'>when</span> <span m='837000'>we</span> <span m='837110'>take</span> <span m='837310'>a</span> <span m='837370'>derivative.</span> <span m='838220'>The</span> <span m='838310'>chain</span> <span m='838590'>rule</span> <span m='838790'>would</span> <span m='838930'>give</span> <span m='839120'>us</span> <span m='839260'>a</span> <span m='839350'>2</span> <span m='839550'>in</span> <span m='839670'>front,</span> <span m='840070'>so</span> <span m='840230'>the</span> <span m='840330'>1/2</span> <span m='840820'>kills</span> <span m='841140'>it</span> <span m='841210'>off.</span> <span m='841940'>So</span> <span m='842140'>we</span> <span m='842270'>don't</span> <span m='842520'>end</span> <span m='842660'>up</span> <span m='842820'>with,</span> <span m='843390'>you</span> <span m='843710'>know,</span> <span m='843840'>with this</span> <span m='844180'>not</span> <span m='844440'>here,</span> <span m='844670'>the</span> <span m='844800'>derivative</span> <span m='845060'>of</span> <span m='845190'>this</span> <span m='845510'>is</span> <span m='845700'>2</span> <span m='845950'>cosecant</span> <span m='846550'>2u.</span> <span m='847590'>So we</span> <span m='847670'>divide</span> <span m='847950'>by</span> <span m='848070'>2,</span> <span m='848680'>then</span> <span m='848860'>we</span> <span m='848950'>get</span> <span m='849220'>it.</span> <span m='849980'>We</span> <span m='850120'>get</span> <span m='850250'>the</span> <span m='850350'>right</span> <span m='850520'>answer.</span> </p><p><span m='851190'>So</span> <span m='851420'>this</span> <span m='851630'>one--</span> <span m='852820'>you</span> <span m='852980'>know,</span> <span m='853090'>I'm</span> <span m='853220'>not</span> <span m='853400'>intentionally</span> <span m='853910'>trying</span> <span m='854150'>to</span> <span m='854260'>trick</span> <span m='854490'>you.</span> <span m='854850'>I</span> <span m='854940'>just</span> <span m='855150'>want</span> <span m='855270'>to</span> <span m='855330'>point</span> <span m='855600'>out</span> <span m='856260'>that</span> <span m='857630'>it's</span> <span m='857810'>good</span> <span m='858030'>to</span> <span m='858130'>know</span> <span m='858330'>some</span> <span m='858530'>of</span> <span m='858620'>these</span> <span m='858800'>trigonometric</span> <span m='859290'>identities.</span> <span m='859870'>It</span> <span m='859970'>makes</span> <span m='860130'>solving</span> <span m='860440'>these</span> <span m='860600'>problems</span> <span m='860880'>a</span> <span m='860950'>lot</span> <span m='861150'>easier</span> <span m='861430'>to</span> <span m='861550'>deal</span> <span m='861740'>with.</span> <span m='862470'>So</span> <span m='862670'>the</span> <span m='862760'>main</span> <span m='863170'>point</span> <span m='863470'>of</span> <span m='863570'>this</span> <span m='863780'>one</span> <span m='864060'>was</span> <span m='864280'>actually</span> <span m='864670'>knowing</span> <span m='865060'>the</span> <span m='865150'>identity,</span> <span m='866030'>in</span> <span m='866180'>my</span> <span m='866330'>mind.</span> <span m='866630'>Maybe</span> <span m='866930'>you</span> <span m='867030'>found</span> <span m='867350'>another</span> <span m='867600'>way</span> <span m='867730'>to</span> <span m='867840'>do</span> <span m='868070'>it.</span> <span m='869490'>Probably</span> <span m='870010'>it</span> <span m='870150'>didn't</span> <span m='870400'>take</span> <span m='871140'>two</span> <span m='871340'>lines, though.</span> <span m='871810'>So</span> <span m='873580'>if</span> <span m='873700'>you</span> <span m='873770'>found</span> <span m='874020'>other</span> <span m='874160'>way</span> <span m='874270'>to</span> <span m='874380'>do</span> <span m='874560'>it,</span> <span m='874650'>actually,</span> <span m='874980'>it's</span> <span m='875120'>good.</span> <span m='875350'>It's</span> <span m='875510'>creative.</span> <span m='876220'>And</span> <span m='876350'>I</span> <span m='876420'>like</span> <span m='876670'>that.</span> <span m='877250'>But</span> <span m='877810'>I</span> <span m='877970'>was</span> <span m='878620'>hoping</span> <span m='878900'>to</span> <span m='878980'>convince</span> <span m='879380'>you</span> <span m='879550'>that</span> <span m='879730'>sometimes</span> <span m='880150'>it's</span> <span m='880300'>simple</span> <span m='880590'>to</span> <span m='880720'>know</span> <span m='880880'>a</span> <span m='881000'>few</span> <span m='881120'>of</span> <span m='881210'>these</span> <span m='881390'>identities.</span> </p><p><span m='882950'>And</span> <span m='883450'>that</span> <span m='883750'>is</span> <span m='883860'>where</span> <span m='883990'>I</span> <span m='884060'>will</span> <span m='884200'>stop.</span> </p>", 
    "_content_type_link_text": "text/plain", 
    "course_linking": [], 
    "_id": "integration-practice-ii", 
    "modification_date": "2016/09/25 01:17:35.915 GMT-4", 
    "media_index": [], 
    "always_publish": false, 
    "_owner": null, 
    "_permissions": {
        "Change portal events": {
            "acquire": false, 
            "roles": [
                "Editor", 
                "Manager", 
                "MetadataEditor", 
                "Owner"
            ]
        }, 
        "Modify portal content": {
            "acquire": false, 
            "roles": [
                "Manager", 
                "MetadataEditor"
            ]
        }, 
        "Access contents information": {
            "acquire": false, 
            "roles": [
                "Authenticated"
            ]
        }, 
        "List folder contents": {
            "acquire": false, 
            "roles": [
                "Editor", 
                "Manager", 
                "MetadataEditor", 
                "Owner"
            ]
        }, 
        "View": {
            "acquire": false, 
            "roles": [
                "Authenticated"
            ]
        }
    }, 
    "_properties": [
        [
            "title", 
            "Integration Practice II", 
            "string"
        ]
    ], 
    "creators": [
        "pgandhi3"
    ], 
    "courselist_features": [], 
    "_path": "/Plone/courses/mathematics/18-01sc-single-variable-calculus-fall-2010/unit-4-techniques-of-integration/exam-4/session-85-review-for-exam-4/integration-practice-ii"
}