{
    "rsi_top_html_area": "", 
    "text": "", 
    "_content_type_license": "text/plain", 
    "_uid": "b5dadc3422a49eb974c0cb95c8d740e3", 
    "title": "Integration Practice III", 
    "_ac_local_roles": {
        "pgandhi3": [
            "Owner"
        ]
    }, 
    "template_type": "Embed", 
    "location": "", 
    "_content_type_course_identifier": "text/plain", 
    "_atbrefs": {}, 
    "constrainTypesMode": 0, 
    "_content_type_section_identifier": "text/plain", 
    "technical_location": "https://ocw.mit.edu/courses/mathematics/18-01sc-single-variable-calculus-fall-2010/unit-4-techniques-of-integration/exam-4/session-85-review-for-exam-4/integration-practice-iii", 
    "software_requirements": [
        {
            "software_type_col": "Browser", 
            "minimum_version_col": "40.0", 
            "software_name_col": "Chrome", 
            "maximum_version_col": ""
        }, 
        {
            "software_type_col": "Browser", 
            "minimum_version_col": "8.0", 
            "software_name_col": "Safari", 
            "maximum_version_col": ""
        }, 
        {
            "software_type_col": "Browser", 
            "minimum_version_col": "38.0", 
            "software_name_col": "Mozilla Firefox", 
            "maximum_version_col": ""
        }, 
        {
            "software_type_col": "Browser", 
            "minimum_version_col": "9.0", 
            "software_name_col": "Internet Explorer", 
            "maximum_version_col": ""
        }, 
        {
            "software_type_col": "Browser", 
            "minimum_version_col": "13.1", 
            "software_name_col": "Edge", 
            "maximum_version_col": ""
        }
    ], 
    "_content_type_technical_location": "text/plain", 
    "start_time": "", 
    "_content_type_rights": "text/html", 
    "_directly_provided": [
        "Products.CMFEditions.interfaces.IVersioned"
    ], 
    "media_rights": "(CC BY-NC-SA)", 
    "parent_uid": "4699d63d2fc16b8bd7fc498a382dc972", 
    "excludeFromNav": false, 
    "about_this_resource_text": "", 
    "_content_type_unique_identifier": "text/plain", 
    "end_time": "", 
    "allowDiscussion": false, 
    "_content_type_materialtype": "text/plain", 
    "locallyAllowedTypes": [
        "OCWImage", 
        "OCWFile", 
        "OCWMediaAsset"
    ], 
    "optional_tab_title": "", 
    "ad_type": "HOUSE", 
    "creation_date": "2015/12/24 01:36:41.563 US/Eastern", 
    "aggregationlevel": 2, 
    "bottom_html_area": "", 
    "duration": "", 
    "immediatelyAddableTypes": [
        "OCWImage", 
        "OCWFile", 
        "OCWMediaAsset"
    ], 
    "_content_type_template_type": "text/plain", 
    "subject": [], 
    "_content_type_short_page_title": "text/plain", 
    "effectiveDate": "2015/12/30 08:44:06.783 US/Eastern", 
    "parent_module": "bfe41979b9593362793fd930b36efa01", 
    "is_mathml_document": false, 
    "bottomtext": "", 
    "short_page_title": "Integration Practice III", 
    "section_identifier": "https://ocw.mit.edu/courses/mathematics/18-01sc-single-variable-calculus-fall-2010/unit-4-techniques-of-integration", 
    "show_captions_outside_player": false, 
    "related_mit_links": "", 
    "_content_type_ad_type": "text/plain", 
    "_layout": "custom_view", 
    "_workflow_history": {
        "page_workflow": [
            {
                "action": null, 
                "review_state": "waiting_for_authoring", 
                "comments": "", 
                "actor": "pgandhi3", 
                "time": "2015/12/24 01:36:41.576 US/Eastern"
            }, 
            {
                "action": "approve_to_staging", 
                "review_state": "ready_for_staging", 
                "actor": "asingh33", 
                "comments": "", 
                "time": "2015/12/30 08:44:06.807 US/Eastern"
            }
        ]
    }, 
    "_content_type_transcript": "text/html", 
    "metadata_contributor_list": [], 
    "_userdefined_roles": [], 
    "_content_type_inline_embed_id": "text/plain", 
    "publisher": "MIT OpenCourseWare", 
    "nextPreviousEnabled": false, 
    "_gopip": 10, 
    "license": "http://creativecommons.org/licenses/by-nc-sa/3.0/us/", 
    "url_rewrite_patterns": [], 
    "widgets_features": [], 
    "category_features": [], 
    "resource_contributor_list": [
        {
            "res_contributor_entity": "Jerison, David", 
            "res_contributor_uid": "b28f05bbf3c3b44d28bc8f11fc7834cd", 
            "res_contributor_role": "Performer"
        }
    ], 
    "show_jump_back_5_seconds_button": false, 
    "firstTimeEdit": false, 
    "_content_type_media_rights": "text/plain", 
    "feature_requirements": [], 
    "list_in_left_nav": false, 
    "inline_embed_id": "33067388integrationpracticeiii62613691", 
    "_classname": "MediaResource", 
    "short_name_tlp": "", 
    "expirationDate": "None", 
    "_content_type_id": "text/plain", 
    "contributor_list": [
        {}
    ], 
    "is_media_gallery": false, 
    "contributors": [], 
    "media_locations": [
        {}
    ], 
    "_content_type_media_resource_type": "text/plain", 
    "_content_type_title": "text/plain", 
    "subtitle_exemption": "None", 
    "_content_type": "text/html", 
    "resource_index_text": "", 
    "_atrefs": {
        "BelongsTo": [
            "bfe41979b9593362793fd930b36efa01"
        ]
    }, 
    "media_slides": [], 
    "other_platform_requirements": "", 
    "language": "", 
    "rights": "This site (c) Massachusetts Institute of Technology 2015.  Content within individual courses is (c) by the individual authors unless otherwise noted. The Massachusetts Institute of Technology is providing this Work (as defined below) under the terms of this Creative Commons public license (\"CCPL\" or \"license\") unless otherwise noted. The Work is protected by copyright and/or other applicable law. Any use of the work other than as authorized under this license is prohibited. By exercising any of the rights to the Work provided here, You (as defined below) accept and agree to be bound by the terms of this license. The Licensor, the Massachusetts Institute of Technology, grants You the rights contained here in consideration of Your acceptance of such terms and conditions.", 
    "hide_Page_title": false, 
    "_defaultpage": "", 
    "related_resources_text": "", 
    "tcATmit_subject_tags": [], 
    "features_tracking": [], 
    "ad_champion_text": "", 
    "has_inline_embed": false, 
    "unique_identifier": "https://ocw.mit.edu/courses/mathematics/18-01sc-single-variable-calculus-fall-2010/unit-4-techniques-of-integration/exam-4/session-85-review-for-exam-4/integration-practice-iii", 
    "link_text": "Integration Practice III", 
    "is_image_gallery": false, 
    "id": "integration-practice-iii", 
    "_content_type_subtitle_exemption": "text/plain", 
    "materialtype": "Other", 
    "optional_text": "", 
    "_type": "MediaResource", 
    "description": "", 
    "media_resource_type": "Video", 
    "course_identifier": "https://ocw.mit.edu/courses/mathematics/18-01sc-single-variable-calculus-fall-2010", 
    "_content_type_publisher": "text/plain", 
    "tcATmit_instructional_tags": [], 
    "transcript": "<p><span m='6940'>Hi.</span> <span m='7410'>Welcome</span> <span m='7770'>back</span> <span m='7980'>to</span> <span m='8070'>recitation.</span> <span m='8980'>We've</span> <span m='9230'>been</span> <span m='9370'>talking</span> <span m='9710'>about</span> <span m='9910'>a</span> <span m='9960'>bunch</span> <span m='10180'>of</span> <span m='10300'>different</span> <span m='10630'>integration</span> <span m='11150'>techniques.</span> <span m='11820'>Here</span> <span m='12140'>are a</span> <span m='12210'>couple</span> <span m='12500'>of</span> <span m='12580'>examples</span> <span m='13140'>on</span> <span m='13290'>which</span> <span m='13510'>you</span> <span m='13630'>can</span> <span m='14200'>try</span> <span m='14420'>and</span> <span m='14530'>pick</span> <span m='14690'>out</span> <span m='14890'>the</span> <span m='14980'>right</span> <span m='15190'>technique</span> <span m='15680'>to</span> <span m='16580'>compute</span> <span m='16890'>these</span> <span m='17090'>two</span> <span m='17220'>integrals</span> <span m='17660'>with.</span> </p><p><span m='17840'>So</span> <span m='18460'>I've</span> <span m='18590'>got</span> <span m='18710'>the</span> <span m='18800'>first</span> <span m='19120'>one,</span> <span m='19300'>is</span> <span m='19510'>the</span> <span m='19950'>indefinite</span> <span m='20620'>integral</span> <span m='21400'>of</span> <span m='21700'>x cubed</span> <span m='22520'>times</span> <span m='22850'>the</span> <span m='22960'>square root</span> <span m='23390'>of</span> <span m='23490'>the</span> <span m='23590'>quantity</span> <span m='24410'>x</span> <span m='24640'>squared</span> <span m='25030'>plus</span> <span m='25380'>2</span> <span m='26110'>dx.</span> <span m='26880'>And</span> <span m='27160'>the</span> <span m='27220'>second</span> <span m='27600'>one</span> <span m='27760'>is</span> <span m='27850'>a</span> <span m='27910'>definite</span> <span m='28330'>integral.</span> <span m='28640'>It's the</span> <span m='28840'>integral</span> <span m='29600'>1</span> <span m='29980'>to</span> <span m='30160'>e</span> <span m='30870'>of</span> <span m='31200'>x</span> <span m='31450'>squared</span> <span m='32050'>times</span> <span m='32400'>the</span> <span m='32580'>quantity</span> <span m='33040'>ln of</span> <span m='33340'>x</span> <span m='33950'>squared,</span> <span m='34780'>with</span> <span m='34990'>respect to</span> <span m='35410'>x.</span> <span m='36180'>So why don't</span> <span m='36450'>you</span> <span m='36540'>pause the</span> <span m='36930'>video,</span> <span m='37540'>take</span> <span m='37800'>some</span> <span m='37930'>time</span> <span m='38190'>to</span> <span m='38290'>compute</span> <span m='38590'>these</span> <span m='38770'>two</span> <span m='38890'>integrals,</span> <span m='39520'>come</span> <span m='39720'>back,</span> <span m='39930'>and</span> <span m='40020'>we</span> <span m='40100'>can</span> <span m='40210'>compute them</span> <span m='40580'>together.</span> </p><p><span m='48540'>So</span> <span m='48750'>hopefully</span> <span m='49080'>you</span> <span m='49150'>had</span> <span m='49320'>some</span> <span m='49450'>luck</span> <span m='49700'>working</span> <span m='49970'>on</span> <span m='50090'>these</span> <span m='50480'>integrals.</span> <span m='51100'>Let's</span> <span m='51350'>start</span> <span m='51640'>with</span> <span m='51810'>the</span> <span m='51900'>first</span> <span m='52230'>one.</span> <span m='53140'>So</span> <span m='53480'>for</span> <span m='54150'>question</span> <span m='54550'>A,</span> <span m='55330'>let</span> <span m='55630'>me</span> <span m='55700'>just</span> <span m='55850'>rewrite</span> <span m='56030'>it</span> <span m='56330'>here.</span> <span m='56930'>We</span> <span m='57170'>have</span> <span m='57620'>the</span> <span m='58070'>integral</span> <span m='58485'>of</span> <span m='58900'>x</span> <span m='59730'>cubed</span> <span m='60110'>times</span> <span m='60490'>the</span> <span m='60600'>square</span> <span m='60950'>root</span> <span m='61660'>of</span> <span m='61870'>x</span> <span m='62190'>squared</span> <span m='62980'>plus</span> <span m='63320'>2</span> <span m='65620'>dx.</span> </p><p><span m='66250'>Now,</span> <span m='66400'>if</span> <span m='66480'>you</span> <span m='66610'>look</span> <span m='66830'>at</span> <span m='66930'>this</span> <span m='67100'>integral,</span> <span m='68530'>what</span> <span m='68750'>you</span> <span m='68860'>see</span> <span m='69720'>is</span> <span m='69950'>a</span> <span m='70010'>product</span> <span m='70470'>of</span> <span m='70570'>two</span> <span m='70750'>terms.</span> <span m='71870'>This</span> <span m='72100'>term</span> <span m='72430'>is</span> <span m='72640'>x cubed.</span> <span m='73250'>It's</span> <span m='73400'>a</span> <span m='73470'>nice</span> <span m='73750'>term.</span> <span m='74110'>This</span> <span m='74270'>one</span> <span m='74480'>is</span> <span m='74650'>the</span> <span m='74790'>square root</span> <span m='75370'>of</span> <span m='76000'>x squared</span> <span m='76420'>plus</span> <span m='76630'>2.</span> <span m='76820'>That's</span> <span m='77060'>not</span> <span m='77330'>such</span> <span m='77530'>a</span> <span m='77570'>nice</span> <span m='77820'>term.</span> </p><p><span m='78930'>There</span> <span m='79110'>are</span> <span m='79510'>a</span> <span m='79640'>few</span> <span m='80000'>different</span> <span m='80730'>things</span> <span m='81070'>you</span> <span m='81140'>might</span> <span m='81370'>think</span> <span m='81600'>to</span> <span m='81720'>try</span> <span m='82040'>here.</span> <span m='82970'>So</span> <span m='83650'>one</span> <span m='84020'>thing</span> <span m='84250'>you</span> <span m='84350'>might</span> <span m='84600'>think</span> <span m='84780'>to</span> <span m='84860'>try, is</span> <span m='85260'>this</span> <span m='85490'>square root</span> <span m='85990'>of</span> <span m='86070'>x</span> <span m='86270'>squared</span> <span m='86530'>plus</span> <span m='86740'>2</span> <span m='87140'>is</span> <span m='87360'>the</span> <span m='87440'>sort</span> <span m='87780'>of</span> <span m='87890'>thing</span> <span m='88090'>that</span> <span m='88230'>shows</span> <span m='88510'>up</span> <span m='88690'>in</span> <span m='89000'>trig</span> <span m='89330'>substitutions.</span> <span m='90300'>So</span> <span m='90510'>that's</span> <span m='90710'>one</span> <span m='90980'>thing</span> <span m='91160'>you</span> <span m='91260'>might</span> <span m='91460'>have</span> <span m='91620'>in</span> <span m='91710'>your</span> <span m='92025'>mind.</span> <span m='92340'>Another</span> <span m='92780'>thing</span> <span m='92930'>you</span> <span m='93000'>might</span> <span m='93220'>have</span> <span m='93370'>in</span> <span m='93430'>your</span> <span m='93560'>mind,</span> <span m='94010'>is</span> <span m='94200'>that</span> <span m='94310'>this</span> <span m='94430'>is</span> <span m='94520'>a</span> <span m='94600'>product</span> <span m='95120'>of</span> <span m='95220'>two</span> <span m='95430'>things.</span> <span m='96160'>So</span> <span m='96290'>you</span> <span m='96400'>might</span> <span m='96590'>consider</span> <span m='96980'>the</span> <span m='97110'>possibility</span> <span m='97670'>that</span> <span m='97800'>you're</span> <span m='97910'>going to</span> <span m='98090'>do</span> <span m='98520'>an</span> <span m='98690'>integration</span> <span m='99210'>by</span> <span m='99340'>parts</span> <span m='99690'>here.</span> <span m='100070'>And</span> <span m='100550'>the</span> <span m='100750'>third</span> <span m='101080'>thing</span> <span m='101230'>you</span> <span m='101330'>might</span> <span m='101490'>have</span> <span m='101610'>in</span> <span m='101670'>your</span> <span m='101770'>mind</span> <span m='101980'>is just,</span> <span m='102080'>you</span> <span m='102400'>could</span> <span m='102590'>just--</span> <span m='102730'>you</span> <span m='103030'>know,</span> <span m='103650'>this</span> <span m='103810'>might</span> <span m='104100'>just</span> <span m='104310'>be</span> <span m='104750'>a</span> <span m='104870'>substitution</span> <span m='105540'>situation.</span> <span m='106070'>You</span> <span m='106140'>have</span> <span m='106300'>this</span> <span m='106660'>x</span> <span m='106880'>squared</span> <span m='107240'>plus</span> <span m='107500'>2</span> <span m='107680'>as</span> <span m='107820'>the</span> <span m='107930'>sort</span> <span m='108140'>of</span> <span m='108260'>discrete</span> <span m='109220'>entity</span> <span m='109640'>that</span> <span m='109790'>shows</span> <span m='110070'>up</span> <span m='110230'>there.</span> <span m='110560'>So</span> <span m='110710'>you</span> <span m='110940'>might</span> <span m='111180'>try a</span> <span m='111410'>regular</span> <span m='111880'>substitution.</span> </p><p><span m='112900'>Now</span> <span m='115280'>you</span> <span m='115360'>have</span> <span m='115460'>to, you know,</span> <span m='115860'>make</span> <span m='116080'>a</span> <span m='116120'>choice</span> <span m='116450'>among</span> <span m='116700'>which</span> <span m='116870'>of</span> <span m='116960'>these</span> <span m='117150'>to</span> <span m='117240'>try.</span> <span m='117810'>And</span> <span m='118580'>it</span> <span m='118750'>seems</span> <span m='118990'>to</span> <span m='119100'>me</span> <span m='119580'>that</span> <span m='119920'>of</span> <span m='120180'>those</span> <span m='120440'>options,</span> <span m='121040'>a</span> <span m='121150'>regular</span> <span m='121530'>substitution</span> <span m='121950'>is</span> <span m='122140'>the</span> <span m='122310'>easiest</span> <span m='122780'>to</span> <span m='122890'>do.</span> <span m='123420'>And</span> <span m='123600'>you'll</span> <span m='123710'>find</span> <span m='124130'>out</span> <span m='124320'>really</span> <span m='124580'>quickly</span> <span m='125150'>whether</span> <span m='126020'>you've</span> <span m='126240'>made your</span> <span m='126570'>life</span> <span m='126740'>horribly</span> <span m='127170'>complicated</span> <span m='127950'>or</span> <span m='128210'>not.</span> <span m='129220'>And</span> <span m='129450'>frequently,</span> <span m='130200'>with</span> <span m='130370'>integration</span> <span m='130860'>by</span> <span m='131010'>parts,</span> <span m='131620'>if</span> <span m='131840'>you</span> <span m='131950'>have</span> <span m='132170'>the</span> <span m='132280'>option</span> <span m='132650'>of</span> <span m='132740'>doing</span> <span m='132970'>a</span> <span m='133040'>substitution</span> <span m='133730'>when</span> <span m='133840'>you</span> <span m='133920'>have</span> <span m='134050'>integration</span> <span m='134430'>by</span> <span m='134540'>parts,</span> <span m='134900'>you know,</span> <span m='135290'>it</span> <span m='135470'>won't--</span> <span m='136180'>if</span> <span m='136330'>you</span> <span m='136430'>do</span> <span m='136640'>the</span> <span m='136750'>substitution,</span> <span m='137440'>you</span> <span m='137650'>still</span> <span m='137940'>can</span> <span m='138080'>do</span> <span m='138190'>integration</span> <span m='138630'>by</span> <span m='138730'>parts</span> <span m='138980'>afterward.</span> <span m='139410'>If</span> <span m='139480'>you</span> <span m='139560'>do</span> <span m='139670'>integration</span> <span m='140080'>by</span> <span m='140200'>parts</span> <span m='140780'>first,</span> <span m='141130'>you</span> <span m='141220'>can</span> <span m='141370'>still</span> <span m='141570'>do</span> <span m='141700'>the</span> <span m='141800'>substitution</span> <span m='142390'>afterward.</span> </p><p><span m='144490'>So</span> <span m='146370'>trying</span> <span m='146820'>the</span> <span m='146890'>substitution</span> <span m='147790'>shouldn't</span> <span m='148180'>hurt</span> <span m='148410'>us</span> <span m='148570'>for</span> <span m='148700'>integration</span> <span m='149080'>by</span> <span m='149190'>parts,</span> <span m='149550'>and</span> <span m='149780'>a</span> <span m='149810'>regular</span> <span m='150220'>substitution</span> <span m='150700'>will</span> <span m='150860'>be</span> <span m='150950'>a</span> <span m='151030'>lot</span> <span m='151390'>simpler</span> <span m='152150'>than</span> <span m='152280'>a</span> <span m='152330'>trig</span> <span m='152610'>substitution</span> <span m='153170'>here,</span> <span m='153420'>right?</span> <span m='153540'>Trig</span> <span m='153830'>substitutions</span> <span m='154310'>in</span> <span m='154490'>general</span> <span m='154810'>are</span> <span m='154900'>complicated,</span> <span m='155590'>so</span> <span m='155770'>it's a good</span> <span m='156000'>idea</span> <span m='156420'>to</span> <span m='156540'>see</span> <span m='156790'>if</span> <span m='156900'>there's</span> <span m='157050'>something</span> <span m='157330'>simpler</span> <span m='157760'>that</span> <span m='157900'>can</span> <span m='158030'>be</span> <span m='158150'>done</span> <span m='158330'>first.</span> </p><p><span m='159190'>So</span> <span m='159590'>if</span> <span m='159770'>we're</span> <span m='159860'>going to</span> <span m='160000'>try</span> <span m='160230'>regular</span> <span m='160620'>substitution,</span> <span m='161230'>the</span> <span m='162030'>sort</span> <span m='162230'>of</span> <span m='162310'>natural</span> <span m='162760'>thing</span> <span m='163350'>to</span> <span m='163480'>do,</span> <span m='163950'>is</span> <span m='164120'>to</span> <span m='164250'>set</span> <span m='164440'>u</span> <span m='164870'>equal</span> <span m='165830'>x</span> <span m='166110'>squared</span> <span m='167220'>plus</span> <span m='167550'>2.</span> <span m='168230'>So</span> <span m='168450'>in</span> <span m='168560'>this</span> <span m='168810'>case,</span> <span m='169760'>we</span> <span m='169960'>have</span> <span m='172090'>du</span> <span m='173360'>is</span> <span m='173500'>equal</span> <span m='173750'>to</span> <span m='173850'>2x</span> <span m='174890'>dx.</span> <span m='178210'>Or--</span> <span m='179010'>well,</span> <span m='179350'>so</span> <span m='179520'>OK.</span> <span m='179730'>So</span> <span m='180230'>we</span> <span m='180440'>want to</span> <span m='180710'>substitute</span> <span m='181110'>these</span> <span m='181320'>things</span> <span m='181560'>in.</span> <span m='182720'>The</span> <span m='183230'>u</span> <span m='183870'>is</span> <span m='184050'>going</span> <span m='184200'>to</span> <span m='184270'>go</span> <span m='184420'>into</span> <span m='184610'>the</span> <span m='184710'>square</span> <span m='184980'>root</span> <span m='185270'>term.</span> <span m='185600'>So</span> <span m='185720'>that's</span> <span m='185940'>going to</span> <span m='186090'>be</span> <span m='186180'>taken</span> <span m='186490'>care</span> <span m='186690'>of.</span> <span m='187070'>And</span> <span m='187400'>the</span> <span m='187510'>dx</span> <span m='188270'>part--</span> <span m='188680'>well,</span> <span m='188880'>we've</span> <span m='189030'>got</span> <span m='189250'>an</span> <span m='189470'>x</span> <span m='190150'>here</span> <span m='190850'>to</span> <span m='191010'>pair</span> <span m='191350'>up</span> <span m='191690'>with</span> <span m='191910'>the</span> <span m='191990'>dx,</span> <span m='192580'>so</span> <span m='192790'>that's</span> <span m='193070'>going to</span> <span m='193250'>give</span> <span m='193390'>us</span> <span m='193460'>a</span> <span m='193590'>du.</span> <span m='194890'>And</span> <span m='195170'>then</span> <span m='195290'>we'll</span> <span m='195390'>have</span> <span m='195630'>x</span> <span m='195870'>squared</span> <span m='196260'>left</span> <span m='196560'>over.</span> <span m='196800'>So</span> <span m='196950'>we'll</span> <span m='197050'>need</span> <span m='197240'>to</span> <span m='197820'>substitute</span> <span m='198390'>in</span> <span m='198930'>for</span> <span m='199070'>x</span> <span m='199330'>squared.</span> <span m='199960'>So</span> <span m='200110'>we're</span> <span m='200230'>going to</span> <span m='200410'>use</span> <span m='201200'>x</span> <span m='201670'>squared</span> <span m='202390'>is</span> <span m='202600'>equal</span> <span m='202890'>to</span> <span m='203390'>u</span> <span m='203650'>minus</span> <span m='204230'>2,</span> <span m='204910'>and</span> <span m='205864'>x</span> <span m='206820'>dx</span> <span m='207260'>is</span> <span m='207700'>equal</span> <span m='208180'>to</span> <span m='209520'>du</span> <span m='210100'>over</span> <span m='210460'>2.</span> </p><p><span m='211340'>So</span> <span m='211510'>when</span> <span m='211640'>we</span> <span m='211740'>make</span> <span m='212310'>these</span> <span m='212550'>substitutions</span> <span m='213280'>in</span> <span m='213390'>here,</span> <span m='213790'>what</span> <span m='214050'>we</span> <span m='214150'>get</span> <span m='214450'>is that</span> <span m='214590'>this</span> <span m='214780'>integral</span> <span m='215490'>is</span> <span m='215680'>equal</span> <span m='215980'>to</span> <span m='216325'>the</span> <span m='216670'>integral</span> <span m='217400'>of--</span> <span m='218020'>so</span> <span m='218200'>it's</span> <span m='218410'>x</span> <span m='218690'>squared</span> <span m='219480'>times</span> <span m='219900'>the</span> <span m='220010'>square</span> <span m='220320'>root</span> <span m='220470'>of</span> <span m='220750'>x squared</span> <span m='220930'>plus</span> <span m='221170'>2</span> <span m='221700'>times</span> <span m='221950'>x</span> <span m='222230'>dx.</span> <span m='222820'>So</span> <span m='223050'>that's</span> <span m='223820'>u</span> <span m='224240'>minus</span> <span m='224750'>2</span> <span m='225790'>times the</span> <span m='226180'>square</span> <span m='226630'>root</span> <span m='226960'>of</span> <span m='227140'>u</span> <span m='228050'>times</span> <span m='230120'>du</span> <span m='230780'>over</span> <span m='231050'>2.</span> </p><p><span m='232420'>Now,</span> <span m='232580'>having</span> <span m='232840'>made</span> <span m='233040'>the</span> <span m='233140'>substitution,</span> <span m='233690'>we</span> <span m='233890'>see--</span> <span m='234450'>OK.</span> <span m='234750'>So</span> <span m='235000'>with</span> <span m='235190'>a</span> <span m='235240'>little</span> <span m='235450'>bit</span> <span m='235540'>of</span> <span m='235610'>rearrangement,</span> <span m='236320'>this</span> <span m='236480'>is</span> <span m='236610'>just</span> <span m='236780'>a</span> <span m='236840'>sum of</span> <span m='237210'>powers</span> <span m='237700'>of</span> <span m='237830'>u.</span> <span m='238420'>Right?</span> <span m='238610'>We</span> <span m='238720'>can</span> <span m='238870'>rewrite</span> <span m='239310'>this</span> <span m='240040'>as</span> <span m='240320'>the integral</span> <span m='241430'>of</span> <span m='242180'>u</span> <span m='243290'>to</span> <span m='243410'>the</span> <span m='243540'>3/2</span> <span m='245140'>over</span> <span m='245460'>2</span> <span m='246720'>minus</span> <span m='248290'>u</span> <span m='248540'>to</span> <span m='248680'>the</span> <span m='248770'>1/2</span> <span m='250710'>du.</span> <span m='251580'>And</span> <span m='251760'>now,</span> <span m='251890'>this</span> <span m='252080'>is</span> <span m='252280'>just</span> <span m='252350'>straightforward</span> <span m='252645'>to</span> <span m='252940'>integrate.</span> <span m='253310'>So it</span> <span m='253440'>turns</span> <span m='253700'>out</span> <span m='253820'>we</span> <span m='253930'>don't</span> <span m='254150'>need</span> <span m='254320'>integration</span> <span m='254730'>by</span> <span m='254820'>parts.</span> <span m='255090'>We</span> <span m='255180'>don't</span> <span m='255370'>need</span> <span m='255570'>a</span> <span m='255660'>trig</span> <span m='255830'>substitution.</span> <span m='256630'>Just</span> <span m='256830'>this</span> <span m='256950'>regular</span> <span m='257310'>substitution</span> <span m='257810'>works</span> <span m='258060'>nicely.</span> <span m='258730'>So</span> <span m='258930'>we</span> <span m='259040'>get,</span> <span m='259410'>well,</span> <span m='259630'>u</span> <span m='260030'>to</span> <span m='260150'>the</span> <span m='260260'>3/2,</span> <span m='261220'>so</span> <span m='261380'>we</span> <span m='261900'>compute</span> <span m='262670'>an</span> <span m='262810'>antiderivative,</span> <span m='263560'>so</span> <span m='263670'>that</span> <span m='263860'>gives</span> <span m='264050'>us</span> <span m='264650'>u</span> <span m='264940'>to</span> <span m='265080'>the</span> <span m='265190'>5/2.</span> <span m='267190'>And</span> <span m='267590'>I</span> <span m='267930'>have</span> <span m='268060'>to</span> <span m='268170'>divide</span> <span m='268680'>by</span> <span m='268820'>5/2,</span> <span m='269540'>so</span> <span m='269660'>I</span> <span m='269710'>have</span> <span m='269810'>to</span> <span m='269900'>multiply</span> <span m='270420'>by</span> <span m='270590'>2/5.</span> <span m='271540'>And</span> <span m='271760'>then I</span> <span m='271880'>have</span> <span m='272020'>a</span> <span m='272060'>half.</span> <span m='272510'>So it's</span> <span m='273450'>u</span> <span m='273590'>to the</span> <span m='273730'>5/2</span> <span m='274280'>over</span> <span m='274550'>5,</span> <span m='275370'>minus--</span> <span m='276050'>so</span> <span m='276560'>u</span> <span m='276980'>to</span> <span m='277110'>the</span> <span m='277220'>1/2,</span> <span m='278240'>so</span> <span m='278430'>that</span> <span m='278560'>gives</span> <span m='278690'>me</span> <span m='278810'>3/2,</span> <span m='279820'>so</span> <span m='280020'>I</span> <span m='280090'>need</span> <span m='280290'>minus</span> <span m='281600'>2/3</span> <span m='283440'>u</span> <span m='284950'>to</span> <span m='285060'>the</span> <span m='285180'>3/2.</span> </p><p><span m='287010'>OK.</span> <span m='287460'>And</span> <span m='287730'>now</span> <span m='287870'>to</span> <span m='287970'>finish</span> <span m='288260'>this</span> <span m='288450'>off,</span> <span m='288820'>I</span> <span m='288990'>have</span> <span m='289150'>to</span> <span m='289690'>do</span> <span m='290120'>my</span> <span m='290390'>final</span> <span m='290740'>back</span> <span m='291020'>substitution,</span> <span m='291540'>and</span> <span m='291960'>replace</span> <span m='292510'>u</span> <span m='293050'>with</span> <span m='293470'>x.</span> <span m='293890'>So</span> <span m='294230'>this</span> <span m='294420'>is</span> <span m='294590'>going to</span> <span m='294810'>be</span> <span m='296850'>x</span> <span m='297160'>squared</span> <span m='298200'>plus</span> <span m='298610'>2</span> <span m='299830'>over</span> <span m='300110'>5</span> <span m='301500'>to the</span> <span m='301985'>5/2</span> <span m='303750'>minus</span> <span m='304270'>2/3</span> <span m='305530'>times</span> <span m='305950'>x</span> <span m='306200'>squared</span> <span m='307000'>plus</span> <span m='307500'>2</span> <span m='308890'>to</span> <span m='309010'>the</span> <span m='309110'>3/2.</span> <span m='310750'>All</span> <span m='310920'>right.</span> <span m='312060'>Plus</span> <span m='312260'>a</span> <span m='312320'>constant.</span> <span m='313160'>Thank</span> <span m='313410'>you,</span> <span m='315020'>peanut</span> <span m='315370'>gallery.</span> <span m='315780'>Plus</span> <span m='315980'>a</span> <span m='316040'>constant.</span> <span m='316460'>Right.</span> <span m='317260'>Indefinite</span> <span m='317890'>integral,</span> <span m='318370'>should</span> <span m='318590'>have</span> <span m='318620'>had</span> <span m='318770'>it</span> <span m='318990'>right</span> <span m='319230'>the</span> <span m='319310'>very</span> <span m='319540'>first</span> <span m='319810'>time</span> <span m='320030'>I</span> <span m='320700'>went</span> <span m='320860'>through.</span> <span m='321180'>Plus a</span> <span m='321450'>constant,</span> <span m='321520'>both times.</span> </p><p><span m='322790'>OK.</span> <span m='323160'>Good.</span> <span m='323530'>So</span> <span m='324000'>that's</span> <span m='324230'>all</span> <span m='324400'>there</span> <span m='324560'>is</span> <span m='324680'>for</span> <span m='324780'>part</span> <span m='325040'>A.</span> <span m='326500'>Now</span> <span m='326770'>let's</span> <span m='327010'>look</span> <span m='327220'>at</span> <span m='327400'>part</span> <span m='327710'>B.</span> <span m='328440'>So</span> <span m='328600'>OK.</span> <span m='328770'>So</span> <span m='328870'>part</span> <span m='329170'>B</span> <span m='329920'>is</span> <span m='330040'>a</span> <span m='330100'>little</span> <span m='330280'>more</span> <span m='330450'>complicated-looking.</span> <span m='331680'>Let</span> <span m='331870'>me</span> <span m='332360'>copy it</span> <span m='332800'>over</span> <span m='332970'>here</span> <span m='334300'>again.</span> <span m='334880'>So</span> <span m='335860'>part</span> <span m='336230'>B,</span> <span m='337450'>we</span> <span m='337560'>have</span> <span m='337700'>the</span> <span m='337800'>integral</span> <span m='338180'>from</span> <span m='338410'>1</span> <span m='339410'>to</span> <span m='339560'>e</span> <span m='340220'>of</span> <span m='341390'>x</span> <span m='341680'>squared</span> <span m='342510'>times</span> <span m='342710'>the</span> <span m='342780'>quantity</span> <span m='343740'>ln</span> <span m='344200'>x</span> <span m='344660'>squared</span> <span m='346130'>dx.</span> </p><p><span m='347950'>So</span> <span m='348110'>again,</span> <span m='348370'>there</span> <span m='348500'>are a</span> <span m='348590'>couple</span> <span m='348900'>of</span> <span m='349420'>possibilities</span> <span m='350440'>for</span> <span m='350570'>what</span> <span m='350770'>we</span> <span m='350920'>could</span> <span m='351060'>want</span> <span m='351250'>to</span> <span m='351310'>do</span> <span m='351490'>here.</span> <span m='352680'>One</span> <span m='352980'>thing</span> <span m='353550'>is</span> <span m='353980'>you</span> <span m='354110'>could</span> <span m='354240'>try</span> <span m='354740'>just</span> <span m='354970'>a</span> <span m='355030'>regular</span> <span m='355410'>substitution.</span> <span m='357090'>So</span> <span m='357250'>maybe</span> <span m='357810'>a</span> <span m='357900'>regular</span> <span m='358340'>substitution</span> <span m='358780'>you</span> <span m='358840'>might</span> <span m='358990'>want to</span> <span m='359130'>try</span> <span m='359840'>is</span> <span m='360640'>u</span> <span m='361100'>equals</span> <span m='361500'>ln of</span> <span m='361920'>x,</span> <span m='362430'>or</span> <span m='362780'>x</span> <span m='363130'>equals</span> <span m='363540'>e</span> <span m='363720'>to</span> <span m='363820'>the</span> <span m='363880'>u.</span> <span m='364760'>And now</span> <span m='364930'>if</span> <span m='365020'>you</span> <span m='365110'>try</span> <span m='365380'>that,</span> <span m='365680'>you</span> <span m='365760'>can try</span> <span m='366510'>it,</span> <span m='366750'>and</span> <span m='366910'>what</span> <span m='367030'>you'll</span> <span m='367130'>see,</span> <span m='367330'>is</span> <span m='367440'>you'll</span> <span m='367580'>get</span> <span m='368080'>something.</span> <span m='368500'>So</span> <span m='368600'>here</span> <span m='368780'>we</span> <span m='368880'>have</span> <span m='368980'>a</span> <span m='369030'>polynomial</span> <span m='369700'>times</span> <span m='370790'>a</span> <span m='372070'>function</span> <span m='372460'>of</span> <span m='372570'>the</span> <span m='372660'>logarithm,</span> <span m='372980'>a</span> <span m='373130'>power</span> <span m='373390'>of</span> <span m='373480'>the</span> <span m='373570'>logarithm.</span> <span m='374110'>If</span> <span m='374250'>you</span> <span m='374320'>try</span> <span m='374500'>that</span> <span m='374670'>substitution,</span> <span m='375220'>what</span> <span m='375340'>you'll</span> <span m='375490'>end</span> <span m='375730'>up</span> <span m='375860'>with</span> <span m='376030'>is a</span> <span m='376430'>polynomial</span> <span m='377240'>in</span> <span m='377390'>u</span> <span m='377770'>times</span> <span m='378570'>an</span> <span m='378920'>exponential</span> <span m='379500'>in</span> <span m='379630'>u.</span> <span m='381790'>So OK. So</span> <span m='383160'>it's</span> <span m='383340'>not</span> <span m='383500'>clear</span> <span m='383710'>that</span> <span m='384590'>we've</span> <span m='384750'>won</span> <span m='385050'>anything,</span> <span m='385650'>if</span> <span m='385790'>we</span> <span m='386180'>make</span> <span m='386450'>that</span> <span m='386640'>substitution.</span> </p><p><span m='388080'>The</span> <span m='388180'>other</span> <span m='388380'>thing</span> <span m='389090'>we</span> <span m='389220'>can</span> <span m='389360'>try,</span> <span m='389670'>is we can</span> <span m='389850'>try</span> <span m='390000'>integration</span> <span m='390440'>by</span> <span m='390550'>parts</span> <span m='390820'>here.</span> <span m='390990'>Again,</span> <span m='391260'>we</span> <span m='391360'>have</span> <span m='391480'>a</span> <span m='392050'>product</span> <span m='392540'>form.</span> <span m='393990'>And</span> <span m='394390'>if</span> <span m='394480'>you</span> <span m='394570'>make</span> <span m='394770'>that</span> <span m='394870'>substitution,</span> <span m='395360'>you</span> <span m='395430'>get</span> <span m='395920'>polynomial</span> <span m='396640'>times</span> <span m='396840'>exponential,</span> <span m='397380'>and that's</span> <span m='397580'>also</span> <span m='397900'>a</span> <span m='397960'>promising</span> <span m='398400'>place</span> <span m='398660'>for</span> <span m='399060'>integration</span> <span m='399570'>by</span> <span m='399680'>parts,</span> <span m='399990'>after</span> <span m='400310'>the</span> <span m='400430'>substitution.</span> </p><p><span m='401620'>So</span> <span m='402000'>OK.</span> <span m='402240'>So</span> <span m='402380'>I'm</span> <span m='402520'>not</span> <span m='402680'>going</span> <span m='402800'>to</span> <span m='402860'>make</span> <span m='402990'>the</span> <span m='403080'>substitution.</span> <span m='403740'>I'm</span> <span m='403980'>just</span> <span m='404130'>going to</span> <span m='404290'>go--</span> <span m='405130'>seeing</span> <span m='405510'>this</span> <span m='405990'>product,</span> <span m='406640'>I'm</span> <span m='406810'>going to</span> <span m='406980'>go</span> <span m='407080'>for</span> <span m='407270'>integration</span> <span m='407710'>by</span> <span m='407820'>parts</span> <span m='408130'>directly.</span> <span m='408690'>So</span> <span m='408890'>I</span> <span m='408940'>need</span> <span m='409070'>to</span> <span m='409150'>decide</span> <span m='410140'>what</span> <span m='410570'>pieces</span> <span m='410990'>are</span> <span m='411100'>which</span> <span m='411390'>for</span> <span m='411540'>integration</span> <span m='411990'>by</span> <span m='412100'>parts.</span> <span m='412580'>And</span> <span m='412760'>the</span> <span m='412820'>thing</span> <span m='413020'>to</span> <span m='413110'>remember</span> <span m='413680'>is</span> <span m='414020'>this that--</span> <span m='414190'>so</span> <span m='414310'>I</span> <span m='414570'>have</span> <span m='414700'>here</span> <span m='414870'>a</span> <span m='415290'>polynomial</span> <span m='415860'>times</span> <span m='416120'>a</span> <span m='416400'>function</span> <span m='416770'>of</span> <span m='416860'>the</span> <span m='416940'>logarithm.</span> <span m='417940'>And</span> <span m='418140'>the</span> <span m='418200'>thing</span> <span m='418340'>to</span> <span m='418420'>remember</span> <span m='418760'>is that</span> <span m='418870'>polynomials</span> <span m='419490'>like</span> <span m='419740'>to</span> <span m='419840'>be</span> <span m='419940'>differentiated.</span> <span m='420920'>That's</span> <span m='421150'>their</span> <span m='421290'>preference.</span> <span m='421850'>But</span> <span m='422080'>logarithms</span> <span m='422760'>really,</span> <span m='423140'>really</span> <span m='423620'>like</span> <span m='423880'>to</span> <span m='423990'>be</span> <span m='424080'>differentiated.</span> <span m='425130'>You'd</span> <span m='425350'>much</span> <span m='425710'>rather</span> <span m='426060'>differentiate</span> <span m='426570'>a</span> <span m='426620'>logarithm</span> <span m='426910'>than</span> <span m='427180'>integrate it.</span> <span m='427700'>You</span> <span m='427890'>can</span> <span m='428270'>integrate</span> <span m='428660'>a polynomial--</span> <span m='429130'>I</span> <span m='429200'>mean</span> <span m='429310'>you</span> <span m='429400'>can</span> <span m='429690'>integrate</span> <span m='430060'>either</span> <span m='430300'>of</span> <span m='430420'>them. You can integrate a polynomial.</span> <span m='433090'>When</span> <span m='433330'>you</span> <span m='433520'>integrate</span> <span m='433710'>a</span> <span m='433980'>polynomial,</span> <span m='434090'>you</span> <span m='434230'>get</span> <span m='434410'>something</span> <span m='435300'>that's</span> <span m='435480'>still</span> <span m='435920'>a</span> <span m='435990'>fairly</span> <span m='436310'>nice</span> <span m='436530'>polynomial.</span> <span m='437030'>Integrating</span> <span m='437450'>logarithms</span> <span m='437860'>is</span> <span m='438040'>harder,</span> <span m='438810'>whereas</span> <span m='439070'>differentiating</span> <span m='439700'>logarithms</span> <span m='440420'>makes</span> <span m='440710'>them</span> <span m='440840'>into</span> <span m='441000'>just</span> <span m='441180'>powers</span> <span m='441540'>of</span> <span m='441620'>x.</span> </p><p><span m='442610'>So</span> <span m='445560'>setting</span> <span m='445960'>this</span> <span m='446070'>up</span> <span m='446230'>as</span> <span m='446320'>an</span> <span m='446380'>integration</span> <span m='446800'>by</span> <span m='446910'>parts,</span> <span m='447420'>we're</span> <span m='447620'>going to</span> <span m='448320'>want to</span> <span m='448540'>take this, the</span> <span m='449290'>everything</span> <span m='449680'>with</span> <span m='449800'>the</span> <span m='449890'>logarithm</span> <span m='450340'>in it,</span> <span m='450670'>and</span> <span m='450930'>that's</span> <span m='451160'>the</span> <span m='451250'>piece</span> <span m='451490'>we</span> <span m='451600'>want to</span> <span m='452370'>differentiate,</span> <span m='453010'>to</span> <span m='453100'>try</span> <span m='453310'>and</span> <span m='453400'>simplify</span> <span m='453660'>it.</span> <span m='454270'>So</span> <span m='454590'>that's</span> <span m='454840'>going to</span> <span m='455060'>be</span> <span m='455170'>our</span> <span m='455300'>u</span> <span m='455570'>part.</span> <span m='456340'>So we're going to</span> <span m='456690'>try</span> <span m='456960'>u</span> <span m='457520'>equals</span> <span m='459680'>ln x</span> <span m='462080'>squared,</span> <span m='463330'>and</span> <span m='463500'>that</span> <span m='463700'>leaves</span> <span m='464880'>v</span> <span m='465240'>prime</span> <span m='466390'>to</span> <span m='466510'>be</span> <span m='466700'>x</span> <span m='467010'>squared.</span> <span m='469450'>So</span> <span m='469860'>to</span> <span m='470010'>do</span> <span m='470110'>integration</span> <span m='470510'>by parts--</span> <span m='470810'>OK.</span> <span m='470980'>We</span> <span m='471110'>need</span> <span m='471260'>to</span> <span m='471390'>differentiate</span> <span m='472030'>and</span> <span m='472140'>we</span> <span m='472230'>need</span> <span m='472340'>to</span> <span m='472440'>integrate.</span> <span m='472880'>So</span> <span m='473080'>if</span> <span m='473160'>I</span> <span m='473260'>differentiate</span> <span m='473880'>ln x</span> <span m='474300'>squared,</span> <span m='475020'>I</span> <span m='475260'>get</span> <span m='475490'>u</span> <span m='475650'>prime.</span> <span m='477180'>The prime</span> <span m='478340'>is</span> <span m='478520'>equal</span> <span m='478840'>to--</span> <span m='479060'>OK.</span> <span m='479260'>Well,</span> <span m='479410'>this</span> <span m='479550'>is</span> <span m='479650'>a</span> <span m='479890'>little</span> <span m='480070'>chain</span> <span m='480360'>rule.</span> <span m='480560'>So</span> <span m='480710'>it's</span> <span m='480910'>2</span> <span m='481830'>ln x</span> <span m='482690'>times</span> <span m='483010'>the</span> <span m='483070'>derivative</span> <span m='483580'>of</span> <span m='483730'>ln</span> <span m='484040'>x,</span> <span m='484600'>which</span> <span m='484880'>is</span> <span m='485000'>1</span> <span m='485190'>over</span> <span m='485380'>x.</span> <span m='486120'>And</span> <span m='486350'>if</span> <span m='486480'>I</span> <span m='487060'>integrate</span> <span m='487590'>v</span> <span m='487800'>prime,</span> <span m='488560'>I</span> <span m='488740'>get</span> <span m='488900'>v</span> <span m='489632'>is</span> <span m='490000'>equal</span> <span m='490380'>to</span> <span m='490470'>x cubed</span> <span m='492170'>over</span> <span m='492440'>3.</span> </p><p><span m='494120'>OK.</span> <span m='494400'>So</span> <span m='494560'>now</span> <span m='494760'>I</span> <span m='494830'>use</span> <span m='495200'>the</span> <span m='495730'>formula</span> <span m='496190'>for</span> <span m='496980'>integration</span> <span m='497500'>by</span> <span m='497630'>parts.</span> <span m='498370'>So</span> <span m='499450'>I</span> <span m='499620'>have</span> <span m='499790'>that</span> <span m='499950'>this</span> <span m='500280'>integral--</span> <span m='502520'>what</span> <span m='502670'>I'm</span> <span m='502740'>going to</span> <span m='502920'>do</span> <span m='503030'>is</span> <span m='503130'>I'm</span> <span m='503210'>going to</span> <span m='503360'>call</span> <span m='503590'>this,</span> <span m='504000'>let me</span> <span m='504590'>give</span> <span m='504710'>it</span> <span m='504770'>a</span> <span m='504800'>name,</span> <span m='505220'>I.</span> <span m='505890'>Now</span> <span m='506310'>I'm</span> <span m='506430'>going to</span> <span m='506580'>come</span> <span m='506760'>down</span> <span m='506940'>here</span> <span m='507110'>and</span> <span m='507200'>I'm</span> <span m='507260'>going to</span> <span m='507400'>say,</span> <span m='508010'>I is</span> <span m='508690'>equal</span> <span m='509030'>to--</span> <span m='510230'>well,</span> <span m='510480'>by</span> <span m='510630'>integration</span> <span m='511030'>by</span> <span m='511170'>parts,</span> <span m='511680'>it's</span> <span m='511880'>equal</span> <span m='512090'>to</span> <span m='512180'>u*v</span> <span m='512770'>minus</span> <span m='513245'>the</span> <span m='513720'>integral</span> <span m='514750'>of</span> <span m='515720'>u</span> <span m='516170'>prime</span> <span m='516570'>v</span> <span m='517120'>dx.</span> <span m='518350'>So</span> <span m='519180'>in</span> <span m='519320'>our</span> <span m='519440'>case,</span> <span m='519660'>u*v</span> <span m='521550'>is</span> <span m='521970'>x cubed</span> <span m='523230'>over</span> <span m='523590'>3</span> <span m='524840'>times</span> <span m='525130'>ln x</span> <span m='526650'>squared.</span> <span m='527910'>But</span> <span m='528090'>the</span> <span m='528180'>thing</span> <span m='528350'>to</span> <span m='528440'>remember</span> <span m='528770'>is,  this</span> <span m='529040'>was</span> <span m='529180'>a</span> <span m='529230'>definite</span> <span m='529670'>integral</span> <span m='530350'>to</span> <span m='530470'>start</span> <span m='530730'>out</span> <span m='530880'>with.</span> <span m='531050'>It's</span> <span m='531190'>from</span> <span m='531400'>1</span> <span m='531650'>to</span> <span m='531760'>e.</span> <span m='532050'>So</span> <span m='532260'>when</span> <span m='532420'>you</span> <span m='532530'>take</span> <span m='532770'>this</span> <span m='532920'>part</span> <span m='533130'>out</span> <span m='533270'>front,</span> <span m='533620'>you</span> <span m='533970'>have</span> <span m='534120'>to</span> <span m='534210'>take</span> <span m='534460'>the</span> <span m='534880'>difference</span> <span m='535320'>of</span> <span m='535420'>its</span> <span m='535580'>two</span> <span m='535730'>values.</span> <span m='536440'>So</span> <span m='536630'>we're</span> <span m='536720'>going to</span> <span m='537320'>evaluate</span> <span m='537910'>this</span> <span m='538120'>between</span> <span m='538946'>x</span> <span m='539360'>equals</span> <span m='539850'>1</span> <span m='540720'>and x</span> <span m='541030'>equals</span> <span m='541270'>e,</span> <span m='541900'>minus</span> <span m='543100'>the</span> <span m='543210'>definite</span> <span m='543730'>integral--</span> <span m='545010'>so</span> <span m='545150'>we</span> <span m='545240'>still</span> <span m='545420'>have</span> <span m='545550'>a</span> <span m='545600'>definite</span> <span m='546060'>integral</span> <span m='546280'>from</span> <span m='546470'>one</span> <span m='546660'>to</span> <span m='546790'>e</span> <span m='547440'>of</span> <span m='548480'>u</span> <span m='548780'>prime</span> <span m='549200'>v.</span> <span m='549600'>So</span> <span m='549770'>that's</span> <span m='551050'>2/3--</span> <span m='553450'>OK.</span> <span m='553740'>So</span> <span m='553880'>now</span> <span m='554030'>we</span> <span m='554160'>have an</span> <span m='554620'>ln</span> <span m='554990'>x</span> <span m='555290'>over</span> <span m='555550'>x</span> <span m='556250'>times</span> <span m='556610'>x cubed.</span> <span m='557730'>So</span> <span m='557900'>the</span> <span m='558020'>x</span> <span m='558360'>and</span> <span m='558450'>the</span> <span m='558540'>x cubed,</span> <span m='559110'>that</span> <span m='559290'>cancels</span> <span m='559810'>one</span> <span m='560040'>power</span> <span m='560490'>of x</span> <span m='561270'>out</span> <span m='561470'>of</span> <span m='561610'>the</span> <span m='562440'>numerator.</span> <span m='563030'>So</span> <span m='563300'>we're</span> <span m='563440'>left</span> <span m='563890'>with</span> <span m='564200'>2/3</span> <span m='565780'>x</span> <span m='566350'>squared</span> <span m='567710'>ln x</span> <span m='569730'>dx.</span> </p><p><span m='570930'>So.</span> <span m='572840'>One</span> <span m='573160'>thing</span> <span m='573300'>we</span> <span m='573390'>see,</span> <span m='573530'>this</span> <span m='573720'>is</span> <span m='573840'>just going to be--</span> <span m='574160'>this</span> <span m='574460'>is</span> <span m='574600'>just</span> <span m='574660'>going to</span> <span m='574820'>evaluate</span> <span m='575260'>to</span> <span m='575340'>a</span> <span m='575400'>constant.</span> <span m='575790'>We're</span> <span m='575890'>going to</span> <span m='576030'>plug</span> <span m='576250'>in e,</span> <span m='576650'>and we're</span> <span m='576920'>going to</span> <span m='577180'>plug</span> <span m='577370'>in</span> <span m='577450'>1, and</span> <span m='577690'>we're</span> <span m='577800'>going to</span> <span m='577950'>take</span> <span m='578140'>the</span> <span m='578210'>difference.</span> <span m='578500'>So</span> <span m='578600'>that's</span> <span m='578780'>just</span> <span m='578940'>some</span> <span m='579130'>number.</span> <span m='580500'>This</span> <span m='580700'>part</span> <span m='580900'>is</span> <span m='580970'>still</span> <span m='581230'>some</span> <span m='581400'>integral.</span> <span m='582560'>Are</span> <span m='582680'>we</span> <span m='582790'>done</span> <span m='583150'>yet?</span> <span m='583450'>Well,</span> <span m='583960'>it's</span> <span m='584190'>not</span> <span m='585430'>obvious</span> <span m='586360'>immediately</span> <span m='586930'>how</span> <span m='587070'>to</span> <span m='587170'>integrate</span> <span m='587560'>this.</span> <span m='587890'>I</span> <span m='588020'>mean,</span> <span m='588130'>I</span> <span m='588240'>don't</span> <span m='588520'>already</span> <span m='588900'>know</span> <span m='589150'>off</span> <span m='589390'>the</span> <span m='589470'>top</span> <span m='589700'>of</span> <span m='589820'>my</span> <span m='589950'>head</span> <span m='590210'>what</span> <span m='590400'>the</span> <span m='591210'>antiderivative</span> <span m='591930'>here</span> <span m='592190'>is.</span> <span m='593340'>On</span> <span m='593500'>the</span> <span m='593570'>other</span> <span m='593660'>hand,</span> <span m='593790'>it's</span> <span m='593950'>definitely</span> <span m='594480'>simpler</span> <span m='595070'>than</span> <span m='595220'>what</span> <span m='595410'>we</span> <span m='595500'>started</span> <span m='595890'>with,</span> <span m='596090'>right?</span> <span m='596240'>Before</span> <span m='596610'>we</span> <span m='596720'>had</span> <span m='596880'>x</span> <span m='597150'>squared</span> <span m='597480'>ln</span> <span m='597760'>x</span> <span m='597940'>squared.</span> <span m='598630'>Here</span> <span m='598930'>we</span> <span m='599060'>just</span> <span m='599220'>have</span> <span m='599340'>x</span> <span m='599590'>squared</span> <span m='599860'>ln x.</span> <span m='600270'>So</span> <span m='600410'>we've</span> <span m='600930'>simplified</span> <span m='601260'>the</span> <span m='601590'>integrand.</span> <span m='603840'>And</span> <span m='604280'>it's</span> <span m='604490'>still</span> <span m='604820'>in</span> <span m='604890'>a</span> <span m='604950'>form in</span> <span m='605350'>which</span> <span m='605550'>we</span> <span m='605680'>can</span> <span m='605980'>further</span> <span m='606390'>integrate</span> <span m='606800'>by</span> <span m='606910'>parts,</span> <span m='607830'>if</span> <span m='608030'>you</span> <span m='608130'>wanted</span> <span m='608430'>to.</span> <span m='608740'>Right?</span> </p><p><span m='609050'>So</span> <span m='609710'>now</span> <span m='610020'>in</span> <span m='610130'>this</span> <span m='610360'>case</span> <span m='611020'>the</span> <span m='611140'>natural</span> <span m='611530'>thing</span> <span m='611700'>to</span> <span m='611790'>do</span> <span m='611910'>would</span> <span m='612050'>be</span> <span m='612160'>very</span> <span m='612440'>similar</span> <span m='612710'>to</span> <span m='612790'>what</span> <span m='612910'>we</span> <span m='613020'>did</span> <span m='613170'>before.</span> <span m='613740'>We're</span> <span m='613920'>going</span> <span m='614040'>to</span> <span m='614110'>take</span> <span m='614590'>the</span> <span m='614790'>u</span> <span m='615230'>to</span> <span m='615350'>be</span> <span m='615450'>the</span> <span m='615570'>ln x,</span> <span m='616160'>to</span> <span m='616260'>be</span> <span m='616360'>the</span> <span m='616460'>piece</span> <span m='616670'>we</span> <span m='616760'>differentiate,</span> <span m='617200'>and</span> <span m='617640'>we're</span> <span m='617810'>going to</span> <span m='617940'>take</span> <span m='618110'>the</span> <span m='618190'>v</span> <span m='618590'>to</span> <span m='618710'>be</span> <span m='618860'>x</span> <span m='619130'>squared. OK?</span> <span m='621420'>So</span> <span m='621560'>we</span> <span m='621660'>can</span> <span m='621780'>do</span> <span m='621910'>that.</span> <span m='622110'>So</span> <span m='622290'>this</span> <span m='622520'>is</span> <span m='622680'>equal</span> <span m='623070'>to--</span> <span m='624030'>let's</span> <span m='624200'>see.</span> <span m='624310'>I'm</span> <span m='624460'>going to</span> <span m='624740'>bring</span> <span m='625040'>it,</span> <span m='625140'>now,</span> <span m='625430'>upstairs.</span> <span m='627590'>So</span> <span m='627850'>this</span> <span m='627980'>is</span> <span m='628130'>equal</span> <span m='628460'>to--</span> <span m='628680'>all right.</span> <span m='628930'>So</span> <span m='629370'>we</span> <span m='629540'>plug</span> <span m='629810'>in</span> <span m='629980'>e</span> <span m='630330'>here.</span> <span m='630600'>We</span> <span m='630740'>get</span> <span m='631010'>e</span> <span m='631270'>cubed</span> <span m='631530'>over</span> <span m='631750'>3</span> <span m='632050'>times</span> <span m='632390'>1,</span> <span m='633230'>minus</span> <span m='633990'>when</span> <span m='634120'>we</span> <span m='634220'>plug</span> <span m='634450'>in</span> <span m='634530'>1,</span> <span m='635310'>ln</span> <span m='635620'>of</span> <span m='635740'>1</span> <span m='635940'>is</span> <span m='636020'>0.</span> <span m='636770'>So</span> <span m='636930'>that</span> <span m='637080'>just</span> <span m='637260'>gives</span> <span m='637440'>me</span> <span m='638450'>e</span> <span m='638720'>cubed</span> <span m='639160'>over</span> <span m='639480'>3</span> <span m='639810'>for</span> <span m='639950'>the</span> <span m='640050'>first</span> <span m='640310'>part</span> <span m='640980'>minus--</span> <span m='641970'>all right,</span> <span m='642200'>and</span> <span m='642290'>I'm</span> <span m='642390'>going to</span> <span m='642530'>pull</span> <span m='642780'>the</span> <span m='642860'>2/3</span> <span m='643330'>out</span> <span m='643520'>front.</span> <span m='644470'>So it's</span> <span m='644710'>minus</span> <span m='645170'>2/3</span> <span m='646550'>times--</span> </p><p><span m='647900'>OK.</span> <span m='648150'>So</span> <span m='648280'>now</span> <span m='648480'>I'm</span> <span m='648610'>going to</span> <span m='648830'>do</span> <span m='649400'>an</span> <span m='649570'>integration</span> <span m='650060'>by</span> <span m='650200'>parts</span> <span m='650520'>on</span> <span m='650620'>this</span> <span m='650730'>one.</span> <span m='650850'>So</span> <span m='650970'>again,</span> <span m='651650'>like</span> <span m='651830'>I</span> <span m='651910'>said,</span> <span m='652150'>I'm</span> <span m='652240'>going to</span> <span m='652400'>take</span> <span m='652740'>u</span> <span m='653920'>is</span> <span m='654210'>equal</span> <span m='654570'>to</span> <span m='654780'>ln x.</span> <span m='656860'>I'm</span> <span m='657020'>going to</span> <span m='657180'>take</span> <span m='657920'>v</span> <span m='658260'>prime</span> <span m='659500'>is equal</span> <span m='659720'>to x</span> <span m='660350'>squared.</span> <span m='661690'>So</span> <span m='661900'>that</span> <span m='662130'>means</span> <span m='663150'>u</span> <span m='663410'>prime</span> <span m='664560'>is</span> <span m='664720'>equal</span> <span m='664950'>to</span> <span m='665030'>1</span> <span m='665510'>over</span> <span m='666360'>x</span> <span m='667320'>and</span> <span m='668660'>v</span> <span m='669960'>is</span> <span m='670130'>equal</span> <span m='670340'>to</span> <span m='670420'>x cubed</span> <span m='671990'>over</span> <span m='672330'>3.</span> <span m='673190'>And</span> <span m='673350'>so</span> <span m='673470'>again,</span> <span m='673910'>I</span> <span m='674030'>get</span> <span m='674610'>uv,</span> <span m='675510'>which</span> <span m='675760'>is</span> <span m='677090'>x</span> <span m='677680'>cubed</span> <span m='678380'>over</span> <span m='678650'>3</span> <span m='679810'>ln x,</span> <span m='680530'>and</span> <span m='680690'>again,</span> <span m='681030'>because</span> <span m='681260'>it</span> <span m='681320'>was</span> <span m='681420'>a</span> <span m='681470'>definite</span> <span m='681810'>integral,</span> <span m='682320'>I</span> <span m='682600'>have</span> <span m='682730'>to</span> <span m='682830'>evaluate</span> <span m='683360'>this</span> <span m='683580'>between</span> <span m='684406'>x</span> <span m='684820'>equals</span> <span m='685130'>1</span> <span m='685410'>and</span> <span m='685510'>e,</span> <span m='686640'>minus--</span> <span m='688630'>OK.</span> <span m='688930'>So</span> <span m='689060'>minus</span> <span m='689455'>the</span> <span m='689850'>integral</span> <span m='690310'>of</span> <span m='690430'>u</span> <span m='690580'>prime</span> <span m='690960'>v.</span> <span m='691580'>So</span> <span m='691720'>this</span> <span m='691860'>is</span> <span m='692020'>the</span> <span m='692150'>integral</span> <span m='692580'>from</span> <span m='692810'>1</span> <span m='693190'>to</span> <span m='693570'>e.</span> <span m='694050'>u</span> <span m='694310'>prime</span> <span m='694570'>v</span> <span m='694690'>is</span> <span m='694790'>1</span> <span m='694980'>over</span> <span m='695130'>x</span> <span m='695450'>times x cubed</span> <span m='695870'>over</span> <span m='696020'>3,</span> <span m='696560'>so</span> <span m='696760'>that's</span> <span m='697370'>x</span> <span m='697660'>squared</span> <span m='698900'>over</span> <span m='699180'>3</span> <span m='700560'>dx.</span> </p><p><span m='703070'>OK, so</span> <span m='703550'>having</span> <span m='703890'>written</span> <span m='704140'>all</span> <span m='704280'>that</span> <span m='704500'>down,</span> <span m='704930'>what</span> <span m='705180'>you</span> <span m='705260'>see is</span> <span m='705430'>this</span> <span m='705690'>is</span> <span m='705790'>a</span> <span m='705860'>constant</span> <span m='706610'>minus</span> <span m='706980'>2/3.</span> <span m='707730'>OK.</span> <span m='707940'>This</span> <span m='708130'>is</span> <span m='708270'>just</span> <span m='708440'>some</span> <span m='708610'>constant.  We'll</span> <span m='709110'>plug</span> <span m='709370'>in</span> <span m='709460'>e,</span> <span m='709650'>we'll</span> <span m='709800'>plug</span> <span m='710000'>in</span> <span m='710080'>1.</span> <span m='710250'>That's</span> <span m='710410'>easy.</span> <span m='710920'>And</span> <span m='711100'>now</span> <span m='711200'>we</span> <span m='711320'>have an</span> <span m='711530'>integral,</span> <span m='711940'>and</span> <span m='712190'>we've</span> <span m='712330'>reduced</span> <span m='712720'>this</span> <span m='712890'>finally.</span> <span m='713500'>Here</span> <span m='713750'>we</span> <span m='713850'>have</span> <span m='714000'>just</span> <span m='714170'>an</span> <span m='714260'>integral</span> <span m='714650'>of</span> <span m='714770'>a</span> <span m='715150'>polynomial.</span> <span m='715800'>So an</span> <span m='715960'>integral</span> <span m='716080'>of a</span> <span m='716310'>polynomial,</span> <span m='716930'>that's</span> <span m='717110'>easy</span> <span m='717310'>to</span> <span m='717420'>compute,</span> <span m='717990'>you</span> <span m='718190'>can</span> <span m='718300'>do</span> <span m='718420'>it</span> <span m='718490'>yourself.</span> </p><p><span m='719900'>And</span> <span m='720950'>I'm</span> <span m='721160'>going to</span> <span m='721440'>let</span> <span m='721700'>you</span> <span m='722130'>finish</span> <span m='722470'>off</span> <span m='722710'>the</span> <span m='722790'>last</span> <span m='723100'>couple</span> <span m='723390'>of</span> <span m='723490'>steps</span> <span m='723830'>for</span> <span m='723950'>yourself.</span> <span m='724820'>In</span> <span m='724960'>the</span> <span m='725160'>end,</span> <span m='726220'>the</span> <span m='726410'>answer</span> <span m='726790'>should</span> <span m='727070'>work</span> <span m='727300'>out</span> <span m='727540'>to</span> <span m='728150'>5</span> <span m='728900'>e</span> <span m='729210'>cubed</span> <span m='730300'>over</span> <span m='730680'>27</span> <span m='732380'>minus</span> <span m='734480'>2</span> <span m='736270'>over</span> <span m='739230'>27.</span> <span m='739900'>This</span> <span m='740070'>is</span> <span m='740180'>what</span> <span m='740340'>you</span> <span m='740420'>should</span> <span m='740580'>find</span> <span m='741430'>the</span> <span m='741540'>final</span> <span m='741860'>answer</span> <span m='742140'>to</span> <span m='742250'>be</span> <span m='742350'>when</span> <span m='742520'>you</span> <span m='742600'>work</span> <span m='742800'>it</span> <span m='742880'>all</span> <span m='743040'>out.</span> <span m='743580'>So I'll</span> <span m='743870'>end there.</span> </p>", 
    "_content_type_link_text": "text/plain", 
    "course_linking": [], 
    "_id": "integration-practice-iii", 
    "modification_date": "2016/09/25 01:17:36.090 GMT-4", 
    "media_index": [], 
    "always_publish": false, 
    "_owner": null, 
    "_permissions": {
        "Change portal events": {
            "acquire": false, 
            "roles": [
                "Editor", 
                "Manager", 
                "MetadataEditor", 
                "Owner"
            ]
        }, 
        "Modify portal content": {
            "acquire": false, 
            "roles": [
                "Manager", 
                "MetadataEditor"
            ]
        }, 
        "Access contents information": {
            "acquire": false, 
            "roles": [
                "Authenticated"
            ]
        }, 
        "List folder contents": {
            "acquire": false, 
            "roles": [
                "Editor", 
                "Manager", 
                "MetadataEditor", 
                "Owner"
            ]
        }, 
        "View": {
            "acquire": false, 
            "roles": [
                "Authenticated"
            ]
        }
    }, 
    "_properties": [
        [
            "title", 
            "Integration Practice III", 
            "string"
        ]
    ], 
    "creators": [
        "pgandhi3"
    ], 
    "courselist_features": [], 
    "_path": "/Plone/courses/mathematics/18-01sc-single-variable-calculus-fall-2010/unit-4-techniques-of-integration/exam-4/session-85-review-for-exam-4/integration-practice-iii"
}