{
    "rsi_top_html_area": "", 
    "text": "", 
    "_content_type_license": "text/plain", 
    "_uid": "f33bb8884fb585aaed0498e62a77a339", 
    "title": "Integration Practice IV", 
    "_ac_local_roles": {
        "pgandhi3": [
            "Owner"
        ]
    }, 
    "template_type": "Embed", 
    "location": "", 
    "_content_type_course_identifier": "text/plain", 
    "_atbrefs": {}, 
    "constrainTypesMode": 0, 
    "_content_type_section_identifier": "text/plain", 
    "technical_location": "https://ocw.mit.edu/courses/mathematics/18-01sc-single-variable-calculus-fall-2010/unit-4-techniques-of-integration/exam-4/session-85-review-for-exam-4/integration-practice-iv", 
    "software_requirements": [
        {
            "software_type_col": "Browser", 
            "minimum_version_col": "40.0", 
            "software_name_col": "Chrome", 
            "maximum_version_col": ""
        }, 
        {
            "software_type_col": "Browser", 
            "minimum_version_col": "8.0", 
            "software_name_col": "Safari", 
            "maximum_version_col": ""
        }, 
        {
            "software_type_col": "Browser", 
            "minimum_version_col": "38.0", 
            "software_name_col": "Mozilla Firefox", 
            "maximum_version_col": ""
        }, 
        {
            "software_type_col": "Browser", 
            "minimum_version_col": "9.0", 
            "software_name_col": "Internet Explorer", 
            "maximum_version_col": ""
        }, 
        {
            "software_type_col": "Browser", 
            "minimum_version_col": "13.1", 
            "software_name_col": "Edge", 
            "maximum_version_col": ""
        }
    ], 
    "_content_type_technical_location": "text/plain", 
    "start_time": "", 
    "_content_type_rights": "text/html", 
    "_directly_provided": [
        "Products.CMFEditions.interfaces.IVersioned"
    ], 
    "media_rights": "(CC BY-NC-SA)", 
    "parent_uid": "4699d63d2fc16b8bd7fc498a382dc972", 
    "excludeFromNav": false, 
    "about_this_resource_text": "", 
    "_content_type_unique_identifier": "text/plain", 
    "end_time": "", 
    "allowDiscussion": false, 
    "_content_type_materialtype": "text/plain", 
    "locallyAllowedTypes": [
        "OCWImage", 
        "OCWFile", 
        "OCWMediaAsset"
    ], 
    "optional_tab_title": "", 
    "ad_type": "HOUSE", 
    "creation_date": "2015/12/24 01:36:52.461 US/Eastern", 
    "aggregationlevel": 2, 
    "bottom_html_area": "", 
    "duration": "", 
    "immediatelyAddableTypes": [
        "OCWImage", 
        "OCWFile", 
        "OCWMediaAsset"
    ], 
    "_content_type_template_type": "text/plain", 
    "subject": [], 
    "_content_type_short_page_title": "text/plain", 
    "effectiveDate": "2015/12/30 08:31:09.045 US/Eastern", 
    "parent_module": "bfe41979b9593362793fd930b36efa01", 
    "is_mathml_document": false, 
    "bottomtext": "", 
    "short_page_title": "Integration Practice IV", 
    "section_identifier": "https://ocw.mit.edu/courses/mathematics/18-01sc-single-variable-calculus-fall-2010/unit-4-techniques-of-integration", 
    "show_captions_outside_player": false, 
    "related_mit_links": "", 
    "_content_type_ad_type": "text/plain", 
    "_layout": "custom_view", 
    "_workflow_history": {
        "page_workflow": [
            {
                "action": null, 
                "review_state": "waiting_for_authoring", 
                "comments": "", 
                "actor": "pgandhi3", 
                "time": "2015/12/24 01:36:52.474 US/Eastern"
            }, 
            {
                "action": "approve_to_staging", 
                "review_state": "ready_for_staging", 
                "actor": "sbabbar", 
                "comments": "", 
                "time": "2015/12/30 08:31:09.070 US/Eastern"
            }
        ]
    }, 
    "_content_type_transcript": "text/html", 
    "metadata_contributor_list": [], 
    "_userdefined_roles": [], 
    "_content_type_inline_embed_id": "text/plain", 
    "publisher": "MIT OpenCourseWare", 
    "nextPreviousEnabled": false, 
    "_gopip": 11, 
    "license": "http://creativecommons.org/licenses/by-nc-sa/3.0/us/", 
    "url_rewrite_patterns": [], 
    "widgets_features": [], 
    "category_features": [], 
    "resource_contributor_list": [
        {
            "res_contributor_entity": "Jerison, David", 
            "res_contributor_uid": "b28f05bbf3c3b44d28bc8f11fc7834cd", 
            "res_contributor_role": "Performer"
        }
    ], 
    "show_jump_back_5_seconds_button": false, 
    "firstTimeEdit": false, 
    "_content_type_media_rights": "text/plain", 
    "feature_requirements": [], 
    "list_in_left_nav": false, 
    "inline_embed_id": "36034770integrationpracticeiv59830665", 
    "_classname": "MediaResource", 
    "short_name_tlp": "", 
    "expirationDate": "None", 
    "_content_type_id": "text/plain", 
    "contributor_list": [
        {}
    ], 
    "is_media_gallery": false, 
    "contributors": [], 
    "media_locations": [
        {}
    ], 
    "_content_type_media_resource_type": "text/plain", 
    "_content_type_title": "text/plain", 
    "subtitle_exemption": "None", 
    "_content_type": "text/html", 
    "resource_index_text": "", 
    "_atrefs": {
        "BelongsTo": [
            "bfe41979b9593362793fd930b36efa01"
        ]
    }, 
    "media_slides": [], 
    "other_platform_requirements": "", 
    "language": "", 
    "rights": "This site (c) Massachusetts Institute of Technology 2015.  Content within individual courses is (c) by the individual authors unless otherwise noted. The Massachusetts Institute of Technology is providing this Work (as defined below) under the terms of this Creative Commons public license (\"CCPL\" or \"license\") unless otherwise noted. The Work is protected by copyright and/or other applicable law. Any use of the work other than as authorized under this license is prohibited. By exercising any of the rights to the Work provided here, You (as defined below) accept and agree to be bound by the terms of this license. The Licensor, the Massachusetts Institute of Technology, grants You the rights contained here in consideration of Your acceptance of such terms and conditions.", 
    "hide_Page_title": false, 
    "_defaultpage": "", 
    "related_resources_text": "", 
    "tcATmit_subject_tags": [], 
    "features_tracking": [], 
    "ad_champion_text": "", 
    "has_inline_embed": false, 
    "unique_identifier": "https://ocw.mit.edu/courses/mathematics/18-01sc-single-variable-calculus-fall-2010/unit-4-techniques-of-integration/exam-4/session-85-review-for-exam-4/integration-practice-iv", 
    "link_text": "Integration Practice IV", 
    "is_image_gallery": false, 
    "id": "integration-practice-iv", 
    "_content_type_subtitle_exemption": "text/plain", 
    "materialtype": "Other", 
    "optional_text": "", 
    "_type": "MediaResource", 
    "description": "", 
    "media_resource_type": "Video", 
    "course_identifier": "https://ocw.mit.edu/courses/mathematics/18-01sc-single-variable-calculus-fall-2010", 
    "_content_type_publisher": "text/plain", 
    "tcATmit_instructional_tags": [], 
    "transcript": "<p><span m='6920'>Hi.</span> <span m='7430'>Welcome</span> <span m='7820'>back</span> <span m='8030'>to</span> <span m='8130'>recitation.</span> <span m='9070'>In</span> <span m='9310'>lecture,</span> <span m='9660'>you've</span> <span m='9840'>learned</span> <span m='10100'>a</span> <span m='10130'>whole</span> <span m='10320'>bunch</span> <span m='10540'>of</span> <span m='10640'>different</span> <span m='10930'>integration</span> <span m='11500'>techniques.</span> <span m='12290'>So</span> <span m='12450'>I</span> <span m='12510'>have</span> <span m='12780'>here</span> <span m='13080'>a</span> <span m='13130'>couple</span> <span m='13400'>of</span> <span m='13500'>problems</span> <span m='13970'>that will</span> <span m='14190'>give</span> <span m='14370'>you</span> <span m='14460'>an</span> <span m='14530'>opportunity</span> <span m='15490'>to</span> <span m='16140'>apply</span> <span m='16450'>those</span> <span m='16650'>techniques,</span> <span m='17010'>and</span> <span m='17110'>figure</span> <span m='17400'>out</span> <span m='17540'>which</span> <span m='17710'>ones</span> <span m='18080'>to</span> <span m='18240'>apply.</span> </p><p><span m='19080'>So</span> <span m='20110'>in</span> <span m='20260'>particular</span> <span m='20720'>I</span> <span m='20780'>have</span> <span m='20910'>one</span> <span m='21240'>definite</span> <span m='21650'>integral,</span> <span m='22400'>the</span> <span m='22680'>integral</span> <span m='23030'>0</span> <span m='23350'>to</span> <span m='23480'>2</span> <span m='24140'>of</span> <span m='24350'>the</span> <span m='24430'>quantity</span> <span m='24910'>x</span> <span m='25390'>times</span> <span m='25940'>e to</span> <span m='26230'>the</span> <span m='26310'>1</span> <span m='26470'>minus</span> <span m='26740'>x</span> <span m='26940'>squared</span> <span m='27690'>with</span> <span m='27900'>respect</span> <span m='28230'>to</span> <span m='28310'>x.</span> <span m='28710'>And</span> <span m='28790'>the</span> <span m='28900'>second</span> <span m='29230'>one</span> <span m='29630'>is</span> <span m='29820'>an</span> <span m='29900'>indefinite</span> <span m='30510'>integral</span> <span m='31150'>of</span> <span m='31430'>2</span> <span m='31730'>arctan</span> <span m='32330'>x</span> <span m='33030'>divided</span> <span m='33440'>by</span> <span m='33620'>x</span> <span m='33910'>squared</span> <span m='34630'>with</span> <span m='34780'>respect to</span> <span m='35170'>x.</span> <span m='35800'>So</span> <span m='36290'>why</span> <span m='36470'>don't</span> <span m='36560'>you</span> <span m='37200'>pause the</span> <span m='37540'>video,</span> <span m='37830'>take</span> <span m='38080'>some</span> <span m='38200'>time</span> <span m='38490'>to</span> <span m='38590'>work</span> <span m='38820'>these</span> <span m='39020'>out,</span> <span m='39450'>come</span> <span m='39650'>back,</span> <span m='39870'>and</span> <span m='39960'>we</span> <span m='40040'>can</span> <span m='40160'>work them</span> <span m='40430'>out</span> <span m='40570'>together.</span> </p><p><span m='49630'>Welcome</span> <span m='50120'>back.</span> <span m='50400'>Hopefully</span> <span m='50790'>you</span> <span m='50870'>had</span> <span m='51050'>some</span> <span m='51180'>luck</span> <span m='51450'>working</span> <span m='51760'>on</span> <span m='51880'>these</span> <span m='52080'>integrals.</span> <span m='52710'>Let's</span> <span m='52920'>get</span> <span m='53080'>started.</span> <span m='53460'>We</span> <span m='53560'>can</span> <span m='53670'>do</span> <span m='53770'>the</span> <span m='53860'>first</span> <span m='54140'>one</span> <span m='54300'>first,</span> <span m='54750'>and then</span> <span m='54850'>we'll</span> <span m='54990'>go</span> <span m='55100'>on</span> <span m='55300'>to</span> <span m='55410'>the</span> <span m='55510'>second</span> <span m='55810'>one.</span> <span m='56750'>So</span> <span m='58100'>here</span> <span m='58480'>we</span> <span m='58620'>want to</span> <span m='58890'>compute</span> <span m='59220'>the</span> <span m='59770'>integral</span> <span m='60070'>from</span> <span m='60290'>0</span> <span m='60700'>to</span> <span m='60890'>2</span> <span m='61310'>of</span> <span m='61730'>x</span> <span m='62480'>e to the</span> <span m='63310'>1</span> <span m='63590'>minus</span> <span m='64050'>x</span> <span m='64410'>squared</span> <span m='65800'>dx.</span> </p><p><span m='66700'>So</span> <span m='66890'>in</span> <span m='66960'>order</span> <span m='67130'>to</span> <span m='67190'>do</span> <span m='67440'>this,</span> <span m='67630'>we</span> <span m='67720'>have</span> <span m='67840'>to, you know--</span> <span m='68620'>well,</span> <span m='70020'>we</span> <span m='70180'>could</span> <span m='70450'>look</span> <span m='70630'>at</span> <span m='70810'>it</span> <span m='70910'>and</span> <span m='71070'>say,</span> <span m='71290'>do</span> <span m='71450'>I</span> <span m='71550'>know</span> <span m='71770'>the</span> <span m='71940'>answer</span> <span m='72360'>immediately,</span> <span m='72860'>off</span> <span m='72980'>the</span> <span m='73050'>top</span> <span m='73200'>of</span> <span m='73280'>my</span> <span m='73360'>head?</span> <span m='73640'>And</span> <span m='74190'>this</span> <span m='74280'>is</span> <span m='74410'>not</span> <span m='75040'>one</span> <span m='75480'>of</span> <span m='75630'>the, you know,</span> <span m='76240'>ones</span> <span m='76610'>that</span> <span m='76720'>we</span> <span m='76830'>have</span> <span m='77680'>immediately</span> <span m='78240'>already</span> <span m='78970'>memorized a</span> <span m='79460'>formula</span> <span m='79950'>for.</span> <span m='80430'>So</span> <span m='80720'>then</span> <span m='80920'>you</span> <span m='81020'>say,</span> <span m='81150'>OK.</span> <span m='81350'>So</span> <span m='81470'>now</span> <span m='81630'>I</span> <span m='81700'>need</span> <span m='81840'>to</span> <span m='81930'>do</span> <span m='82210'>something</span> <span m='82710'>in</span> <span m='82810'>order</span> <span m='83040'>to</span> <span m='83520'>try to</span> <span m='83840'>integrate it.</span> <span m='84290'>And</span> <span m='84400'>so, you know,</span> <span m='85080'>you</span> <span m='85190'>have</span> <span m='85280'>a</span> <span m='85330'>whole</span> <span m='85450'>bunch</span> <span m='85660'>of</span> <span m='85740'>techniques.</span> <span m='86360'>And</span> <span m='86580'>for</span> <span m='86670'>this</span> <span m='86890'>one,</span> <span m='88040'>when</span> <span m='88210'>you</span> <span m='88320'>look</span> <span m='88480'>at</span> <span m='88620'>it,</span> <span m='88960'>the</span> <span m='89080'>technique</span> <span m='89520'>that</span> <span m='89650'>is</span> <span m='89760'>going to</span> <span m='89940'>work</span> <span m='90140'>for</span> <span m='90230'>you</span> <span m='90320'>is</span> <span m='90420'>just</span> <span m='90600'>the</span> <span m='90680'>simplest</span> <span m='91180'>technique</span> <span m='91470'>that</span> <span m='91580'>you</span> <span m='91660'>have,</span> <span m='91880'>which</span> <span m='92030'>is</span> <span m='92140'>just</span> <span m='92280'>a</span> <span m='92340'>straightforward</span> <span m='92920'>substitution.</span> </p><p><span m='93810'>And</span> <span m='94370'>one</span> <span m='94600'>way</span> <span m='94740'>to</span> <span m='95120'>figure</span> <span m='95430'>that</span> <span m='95640'>out,</span> <span m='95970'>is</span> <span m='96200'>that</span> <span m='96300'>you</span> <span m='96410'>can</span> <span m='96540'>look</span> <span m='96720'>at</span> <span m='96790'>this</span> <span m='96960'>and</span> <span m='97070'>you</span> <span m='97150'>can</span> <span m='97320'>see</span> <span m='97820'>that</span> <span m='97970'>here</span> <span m='98210'>we</span> <span m='98340'>have</span> <span m='98530'>a</span> <span m='98830'>composition</span> <span m='99440'>of</span> <span m='99540'>functions,</span> <span m='99950'>this</span> <span m='100190'>e to</span> <span m='100500'>the</span> <span m='100590'>1</span> <span m='100800'>minus</span> <span m='101120'>x</span> <span m='101370'>squared,</span> <span m='101850'>and</span> <span m='102070'>so</span> <span m='102170'>whenever</span> <span m='102450'>you</span> <span m='102550'>have</span> <span m='102660'>a</span> <span m='102720'>composition</span> <span m='103280'>of</span> <span m='103390'>functions,</span> <span m='103870'>there's</span> <span m='104020'>the</span> <span m='104160'>opportunity</span> <span m='104770'>for</span> <span m='104950'>there</span> <span m='105180'>to</span> <span m='105330'>have</span> <span m='105590'>been</span> <span m='105820'>a</span> <span m='105970'>chain</span> <span m='106430'>rule</span> <span m='106780'>somewhere.</span> <span m='107610'>And</span> <span m='108160'>in</span> <span m='108390'>this</span> <span m='108540'>case,</span> <span m='108760'>we</span> <span m='108880'>see</span> <span m='109440'>that</span> <span m='109590'>this</span> <span m='109730'>composition</span> <span m='109990'>of</span> <span m='110310'>functions</span> <span m='110630'>is</span> <span m='111880'>multiplied</span> <span m='112450'>by</span> <span m='112750'>x,</span> <span m='113280'>and</span> <span m='113670'>x</span> <span m='113980'>is</span> <span m='114160'>very</span> <span m='114420'>closely</span> <span m='114840'>related</span> <span m='115290'>to</span> <span m='115430'>the</span> <span m='116230'>derivative</span> <span m='116780'>of</span> <span m='117710'>1</span> <span m='117940'>minus</span> <span m='118300'>x</span> <span m='118540'>squared.</span> <span m='118890'>So</span> <span m='119090'>that's</span> <span m='119380'>what's</span> <span m='119880'>suggesting</span> <span m='120590'>for</span> <span m='120820'>us</span> <span m='121340'>a</span> <span m='121410'>nice</span> <span m='122150'>substitution.</span> <span m='122720'>And</span> <span m='123140'>so</span> <span m='123230'>the</span> <span m='123340'>substitution</span> <span m='123810'>we're</span> <span m='123940'>going to</span> <span m='124100'>try,</span> <span m='124390'>then,</span> <span m='124810'>is</span> <span m='125370'>that</span> <span m='125530'>we're</span> <span m='125640'>going to</span> <span m='126080'>put</span> <span m='126290'>this</span> <span m='126390'>inside</span> <span m='126850'>function,</span> <span m='127190'>this</span> <span m='127340'>1</span> <span m='127560'>minus</span> <span m='127830'>x</span> <span m='128100'>squared,</span> <span m='128340'>we're</span> <span m='128560'>going to set</span> <span m='128710'>u</span> <span m='128940'>equal</span> <span m='129220'>to</span> <span m='129330'>that. So, all right.</span> <span m='129900'>So</span> <span m='131490'>this</span> <span m='131600'>is</span> <span m='131720'>equal</span> <span m='131980'>to--</span> <span m='132090'>so I'm</span> <span m='132280'>going to say,</span> <span m='132960'>u</span> <span m='133330'>equal</span> <span m='134130'>1</span> <span m='134380'>minus</span> <span m='134790'>x</span> <span m='135060'>squared.</span> <span m='135870'>So</span> <span m='136040'>now</span> <span m='136170'>if</span> <span m='136250'>I</span> <span m='136320'>take</span> <span m='136530'>a</span> <span m='136580'>differential,</span> <span m='137170'>if</span> <span m='137280'>u</span> <span m='137490'>equals</span> <span m='137830'>1</span> <span m='138020'>minus</span> <span m='138230'>x</span> <span m='138370'>squared,</span> <span m='139230'>that</span> <span m='139420'>means</span> <span m='139680'>that</span> <span m='139940'>du</span> <span m='140920'>is</span> <span m='141130'>minus</span> <span m='141770'>2x</span> <span m='144310'>dx.</span> </p><p><span m='145700'>And</span> <span m='145870'>since</span> <span m='146050'>this</span> <span m='146210'>is</span> <span m='146320'>a</span> <span m='146390'>definite</span> <span m='146850'>integral,</span> <span m='147260'>I</span> <span m='147340'>also</span> <span m='147570'>need</span> <span m='147730'>to</span> <span m='147800'>change</span> <span m='148270'>the</span> <span m='148390'>bounds</span> <span m='148750'>of</span> <span m='148820'>integration.</span> <span m='149630'>So</span> <span m='149810'>when</span> <span m='150090'>x is</span> <span m='150480'>equal to</span> <span m='150720'>0,</span> <span m='152710'>that</span> <span m='152930'>means</span> <span m='153250'>that</span> <span m='153510'>u</span> <span m='154170'>is</span> <span m='154300'>equal</span> <span m='154510'>to,</span> <span m='154620'>well,</span> <span m='154860'>1</span> <span m='155150'>minus</span> <span m='155510'>0</span> <span m='155840'>squared</span> <span m='156095'>is</span> <span m='156350'>1,</span> <span m='156950'>so</span> <span m='157440'>that's</span> <span m='157680'>the</span> <span m='157770'>lower</span> <span m='158110'>bound.</span> <span m='158740'>And</span> <span m='158950'>when</span> <span m='159130'>x is</span> <span m='159450'>equal</span> <span m='159690'>to</span> <span m='159800'>2,</span> <span m='160780'>that</span> <span m='160970'>means</span> <span m='161240'>that</span> <span m='161340'>u</span> <span m='161820'>is</span> <span m='161930'>equal</span> <span m='162170'>to</span> <span m='162260'>1</span> <span m='162680'>minus</span> <span m='163130'>2</span> <span m='163350'>squared,</span> <span m='163730'>which</span> <span m='163880'>is</span> <span m='164000'>negative</span> <span m='164380'>3.</span> <span m='165600'>So</span> <span m='165830'>we</span> <span m='165960'>make</span> <span m='166190'>these</span> <span m='166360'>substitutions.</span> <span m='167120'>OK.</span> <span m='167370'>So</span> <span m='167510'>what</span> <span m='167660'>does</span> <span m='167840'>our</span> <span m='168010'>integral</span> <span m='168340'>become?</span> <span m='168950'>So</span> <span m='169160'>this</span> <span m='169320'>becomes</span> <span m='169685'>the</span> <span m='170050'>integral--</span> <span m='171740'>so</span> <span m='171880'>now</span> <span m='172080'>the</span> <span m='172230'>lower</span> <span m='172590'>bound</span> <span m='172950'>becomes</span> <span m='173560'>u</span> <span m='173940'>equals</span> <span m='174500'>1,</span> <span m='174970'>and the</span> <span m='175440'>upper</span> <span m='175810'>bound is</span> <span m='176160'>u</span> <span m='176590'>equals</span> <span m='177500'>negative</span> <span m='177950'>3.</span> </p><p><span m='178660'>OK.</span> <span m='178950'>So</span> <span m='179100'>now</span> <span m='179630'>e to the</span> <span m='180010'>1</span> <span m='180220'>minus</span> <span m='180580'>x</span> <span m='180820'>squared,</span> <span m='181260'>that's</span> <span m='181500'>just</span> <span m='181760'>e</span> <span m='181970'>to</span> <span m='182060'>the</span> <span m='182160'>u.</span> <span m='185480'>And</span> <span m='186166'>x</span> <span m='186510'>dx--</span> <span m='187430'>well,</span> <span m='187610'>that's</span> <span m='187790'>almost</span> <span m='188270'>du.</span> <span m='188940'>It's</span> <span m='189250'>du</span> <span m='189840'>divided</span> <span m='190290'>by</span> <span m='190670'>negative</span> <span m='191100'>2.</span> <span m='191840'>So</span> <span m='193680'>du</span> <span m='194710'>divided</span> <span m='195120'>by</span> <span m='196110'>negative</span> <span m='196560'>2.</span> </p><p><span m='197750'>So</span> <span m='198210'>we</span> <span m='198410'>make</span> <span m='198610'>the</span> <span m='198730'>substitution.</span> <span m='199510'>We</span> <span m='199740'>transform</span> <span m='200025'>our</span> <span m='200310'>integral</span> <span m='200770'>to</span> <span m='200850'>this</span> <span m='201060'>form.</span> <span m='201570'>Now,</span> <span m='201700'>this</span> <span m='201870'>is</span> <span m='201970'>a</span> <span m='202030'>very</span> <span m='202250'>nice,</span> <span m='202500'>simple</span> <span m='202840'>integral,</span> <span m='203040'>right?</span> <span m='203300'>This is</span> <span m='203560'>just</span> <span m='203770'>the integral of</span> <span m='204030'>e</span> <span m='204500'>to the u</span> <span m='205070'>with</span> <span m='205690'>a, you know, a</span> <span m='205810'>constant</span> <span m='206220'>multiple.</span> <span m='207180'>So, OK. So</span> <span m='207320'>we</span> <span m='207450'>can</span> <span m='207950'>do</span> <span m='208080'>this</span> <span m='208240'>right</span> <span m='208420'>away.</span> <span m='209030'>So</span> <span m='209210'>this</span> <span m='209410'>is--</span> <span m='210180'>I'll</span> <span m='210440'>pull</span> <span m='210690'>the</span> <span m='210800'>minus</span> <span m='211170'>1/2</span> <span m='212160'>out</span> <span m='212340'>in</span> <span m='212420'>front.</span> <span m='212900'>And</span> <span m='213160'>now</span> <span m='214170'>fundamental</span> <span m='214550'>theorem</span> <span m='214790'>of calculus.</span> <span m='215340'>Antiderivative</span> <span m='216100'>of the e to the</span> <span m='216370'>u is</span> <span m='216560'>just</span> <span m='216770'>e</span> <span m='216880'>to</span> <span m='216950'>the</span> <span m='217040'>u.</span> <span m='218620'>And</span> <span m='218760'>I</span> <span m='218790'>have</span> <span m='218890'>to</span> <span m='218990'>take</span> <span m='219290'>that</span> <span m='219770'>between</span> <span m='220130'>my</span> <span m='220250'>bounds.</span> <span m='220620'>So</span> <span m='220810'>between</span> <span m='221750'>u</span> <span m='222000'>equals</span> <span m='222480'>1</span> <span m='223470'>and</span> <span m='223690'>u</span> <span m='223840'>equals</span> <span m='224260'>minus</span> <span m='224640'>3.</span> </p><p><span m='225610'>So</span> <span m='225820'>notice</span> <span m='226120'>that</span> <span m='226200'>because</span> <span m='226510'>we</span> <span m='226600'>changed</span> <span m='226960'>bounds,</span> <span m='227250'>we</span> <span m='227350'>don't</span> <span m='227520'>have</span> <span m='227640'>to</span> <span m='228220'>go</span> <span m='228370'>back</span> <span m='228730'>and</span> <span m='229530'>convert</span> <span m='229850'>everything</span> <span m='230140'>back</span> <span m='230370'>to x.</span> <span m='230770'>We</span> <span m='230900'>can</span> <span m='231030'>just</span> <span m='231530'>plug</span> <span m='231810'>in</span> <span m='231880'>directly.</span> <span m='233410'>So</span> <span m='233620'>OK.</span> <span m='233840'>So</span> <span m='233960'>we</span> <span m='234050'>plug in</span> <span m='234340'>directly.</span> <span m='235060'>What</span> <span m='235210'>do</span> <span m='235270'>I</span> <span m='235380'>get?</span> <span m='235690'>So</span> <span m='236030'>first</span> <span m='236420'>I</span> <span m='236470'>get</span> <span m='236720'>minus</span> <span m='238100'>1/2</span> <span m='238770'>times--</span> <span m='239630'>all right,</span> <span m='239800'>so I'll</span> <span m='240100'>just pull</span> <span m='240290'>the</span> <span m='240370'>constant out</span> <span m='240790'>in</span> <span m='240850'>front.</span> <span m='241280'>So</span> <span m='241430'>the</span> <span m='241500'>first</span> <span m='241820'>term</span> <span m='242100'>is</span> <span m='242880'>e</span> <span m='243190'>to</span> <span m='243320'>the</span> <span m='243530'>minus</span> <span m='244100'>third</span> <span m='245060'>minus</span> <span m='246540'>e</span> <span m='246680'>to the</span> <span m='246900'>1.</span> <span m='249640'>OK.</span> <span m='249930'>And</span> <span m='250050'>if</span> <span m='250110'>I</span> <span m='250220'>wanted</span> <span m='250540'>to,</span> <span m='250650'>I</span> <span m='250750'>could</span> <span m='250930'>rewrite</span> <span m='251310'>this</span> <span m='251510'>as</span> <span m='252080'>e</span> <span m='252470'>minus</span> <span m='253365'>e</span> <span m='253660'>to</span> <span m='253900'>the</span> <span m='254020'>minus</span> <span m='254530'>3</span> <span m='254870'>over</span> <span m='255880'>2,</span> <span m='256380'>or in a</span> <span m='257060'>variety</span> <span m='257520'>of</span> <span m='257610'>other</span> <span m='257810'>ways.</span> </p><p><span m='258550'>All right.</span> <span m='258930'>So</span> <span m='260020'>this</span> <span m='260280'>one</span> <span m='260430'>was</span> <span m='260580'>a</span> <span m='260650'>pretty</span> <span m='260880'>straightforward</span> <span m='261790'>integration</span> <span m='262300'>by</span> <span m='262430'>substitution.</span> <span m='263470'>Definite</span> <span m='263820'>integral,</span> <span m='264520'>change</span> <span m='264860'>bounds,</span> <span m='265155'>and</span> <span m='265450'>at</span> <span m='265610'>the</span> <span m='265720'>end</span> <span m='265920'>you</span> <span m='266030'>get</span> <span m='266310'>this</span> <span m='266570'>answer.</span> <span m='267770'>So</span> <span m='268110'>let's</span> <span m='268430'>take</span> <span m='268650'>a</span> <span m='268710'>look</span> <span m='268830'>at</span> <span m='268890'>the</span> <span m='268960'>second</span> <span m='269280'>one.</span> <span m='269480'>So the</span> <span m='269560'>second</span> <span m='269850'>one is</span> <span m='269950'>a</span> <span m='270010'>bit</span> <span m='270160'>trickier,</span> <span m='270560'>I</span> <span m='270640'>think,</span> <span m='271460'>and</span> <span m='271770'>it</span> <span m='271860'>requires</span> <span m='272270'>a</span> <span m='272320'>bit</span> <span m='272500'>more</span> <span m='272690'>work.</span> <span m='272970'>So</span> <span m='273130'>here</span> <span m='273310'>it</span> <span m='273390'>is.</span> <span m='274210'>Let</span> <span m='274350'>me</span> <span m='274440'>rewrite</span> <span m='274760'>it.</span> <span m='274860'>So it's</span> <span m='275080'>the</span> <span m='275520'>antiderivative</span> <span m='276890'>of</span> <span m='277200'>2</span> <span m='279150'>arctan</span> <span m='281210'>x</span> <span m='282640'>over</span> <span m='282980'>x</span> <span m='283240'>squared</span> <span m='285150'>dx.</span> </p><p><span m='285910'>So</span> <span m='287700'>we</span> <span m='287850'>have</span> <span m='287990'>here</span> <span m='288280'>an</span> <span m='288570'>antiderivative</span> <span m='289170'>that</span> <span m='289260'>we</span> <span m='289340'>have</span> <span m='289470'>to</span> <span m='289560'>compute.</span> <span m='290440'>And</span> <span m='290610'>this</span> <span m='290710'>is</span> <span m='290800'>a</span> <span m='290850'>kind</span> <span m='291120'>of</span> <span m='291340'>messy-looking</span> <span m='292550'>expression</span> <span m='292890'>that</span> <span m='293230'>we're</span> <span m='293360'>working</span> <span m='293660'>with. All right?</span> <span m='295140'>So</span> <span m='295900'>this</span> <span m='296050'>is</span> <span m='297170'>not</span> <span m='297930'>very</span> <span m='298120'>pleasant.</span> <span m='299230'>So</span> <span m='299400'>there</span> <span m='299950'>are</span> <span m='300020'>a</span> <span m='300080'>couple</span> <span m='300330'>of</span> <span m='300410'>different</span> <span m='300670'>things</span> <span m='301560'>we</span> <span m='301720'>could</span> <span m='301850'>think</span> <span m='302090'>to</span> <span m='302240'>do.</span> <span m='302660'>So</span> <span m='303240'>one</span> <span m='303650'>thing</span> <span m='303950'>that</span> <span m='304060'>you</span> <span m='304160'>could</span> <span m='304300'>think</span> <span m='304510'>to</span> <span m='304600'>do</span> <span m='305325'>is</span> <span m='305650'>you</span> <span m='306010'>could</span> <span m='306110'>say,</span> <span m='307490'>I</span> <span m='307640'>really</span> <span m='307890'>don't</span> <span m='308060'>like</span> <span m='308260'>arctan.</span> <span m='309580'>I'm</span> <span m='309770'>going to</span> <span m='309930'>try</span> <span m='310100'>and</span> <span m='310300'>get</span> <span m='310530'>rid</span> <span m='310680'>of</span> <span m='310790'>arctan.</span> <span m='311590'>And</span> <span m='311740'>the</span> <span m='311800'>way</span> <span m='311900'>I'm</span> <span m='311990'>going to</span> <span m='312150'>get</span> <span m='312410'>rid</span> <span m='312580'>of</span> <span m='312680'>arctan</span> <span m='313180'>is</span> <span m='313280'>by</span> <span m='313400'>doing</span> <span m='313620'>a</span> <span m='313680'>substitution,</span> <span m='314380'>u</span> <span m='314590'>equals</span> <span m='314960'>arctan</span> <span m='315130'>x,</span> <span m='315950'>or x</span> <span m='316440'>equals</span> <span m='316790'>tan</span> <span m='317140'>u.</span> </p><p><span m='317900'>So</span> <span m='318100'>if</span> <span m='318170'>you</span> <span m='318280'>do</span> <span m='318510'>that,</span> <span m='318770'>that'll</span> <span m='318980'>get</span> <span m='319160'>rid</span> <span m='319320'>of</span> <span m='319410'>your</span> <span m='319590'>inverse</span> <span m='319980'>trigonometric</span> <span m='320520'>function,</span> <span m='321080'>but</span> <span m='321290'>it'll</span> <span m='321460'>introduce,</span> <span m='322110'>in</span> <span m='322270'>the</span> <span m='322380'>bottom,</span> <span m='322770'>you</span> <span m='322870'>have</span> <span m='322970'>this</span> <span m='323120'>x</span> <span m='323420'>squared,</span> <span m='323920'>so</span> <span m='324020'>that'll</span> <span m='324250'>introduce</span> <span m='325110'>like</span> <span m='325270'>a</span> <span m='325350'>tan</span> <span m='325840'>u</span> <span m='326290'>squared,</span> <span m='327180'>and</span> <span m='327430'>dx</span> <span m='327910'>will</span> <span m='328180'>give</span> <span m='328370'>you</span> <span m='328530'>some</span> <span m='328730'>more</span> <span m='329280'>trig</span> <span m='329580'>functions.</span> <span m='330210'>So</span> <span m='330490'>what</span> <span m='330660'>you'll</span> <span m='330760'>be</span> <span m='330870'>left</span> <span m='331150'>with,</span> <span m='331370'>then--</span> <span m='331540'>so</span> <span m='331640'>this</span> <span m='331840'>will</span> <span m='331930'>be</span> <span m='332100'>u</span> <span m='332580'>on</span> <span m='332770'>top.</span> <span m='333240'>So you'll have</span> <span m='333580'>u</span> <span m='334130'>times</span> <span m='334410'>a</span> <span m='334460'>product</span> <span m='334810'>of</span> <span m='334900'>trig</span> <span m='335120'>functions.</span> </p><p><span m='336790'>So</span> <span m='336940'>I</span> <span m='337040'>guess</span> <span m='337210'>it's</span> <span m='337310'>up</span> <span m='337490'>to</span> <span m='337590'>you</span> <span m='337710'>whether</span> <span m='337970'>you</span> <span m='338100'>think</span> <span m='338380'>that</span> <span m='339030'>a polynomial,</span> <span m='339820'>or</span> <span m='339950'>a</span> <span m='340030'>power</span> <span m='340440'>of</span> <span m='340900'>u</span> <span m='341240'>times</span> <span m='341590'>a</span> <span m='341670'>bunch</span> <span m='341850'>of</span> <span m='341920'>trig</span> <span m='342100'>functions,</span> <span m='342520'>is</span> <span m='342690'>simpler</span> <span m='343190'>than</span> <span m='343990'>an</span> <span m='344100'>inverse</span> <span m='344490'>trig</span> <span m='344720'>function</span> <span m='345110'>times</span> <span m='345940'>a</span> <span m='346030'>power.</span> <span m='347510'>It's</span> <span m='347680'>not</span> <span m='348420'>clear</span> <span m='348650'>to</span> <span m='348730'>me</span> <span m='348830'>that</span> <span m='348990'>it's</span> <span m='349090'>actually</span> <span m='349440'>that</span> <span m='349610'>much</span> <span m='349820'>simpler.</span> <span m='351590'>And</span> <span m='351730'>in</span> <span m='351810'>any</span> <span m='351990'>case,</span> <span m='352200'>we</span> <span m='352320'>wouldn't</span> <span m='352680'>sort</span> <span m='352860'>of</span> <span m='352930'>be</span> <span m='353040'>finished</span> <span m='353460'>at</span> <span m='353540'>that</span> <span m='353730'>stage.</span> <span m='354030'>There</span> <span m='354150'>would</span> <span m='354250'>still</span> <span m='354460'>be</span> <span m='354570'>a</span> <span m='354630'>fair</span> <span m='354820'>amount</span> <span m='355060'>more</span> <span m='355240'>work</span> <span m='355470'>to</span> <span m='355580'>do.</span> </p><p><span m='356560'>So</span> <span m='356670'>we</span> <span m='356760'>can</span> <span m='356880'>think</span> <span m='357020'>about,</span> <span m='357150'>what</span> <span m='357350'>other</span> <span m='357630'>things</span> <span m='358060'>could</span> <span m='358230'>we</span> <span m='358350'>do?</span> <span m='359170'>That's</span> <span m='359790'>kind</span> <span m='359970'>of</span> <span m='360030'>the</span> <span m='360110'>only</span> <span m='360320'>obvious</span> <span m='360800'>substitution</span> <span m='361450'>here.</span> <span m='361860'>But</span> <span m='362060'>another</span> <span m='363070'>thing</span> <span m='363350'>that</span> <span m='364660'>suggests</span> <span m='365170'>itself,</span> <span m='365750'>is</span> <span m='366430'>that</span> <span m='366520'>we</span> <span m='366610'>could</span> <span m='366780'>try</span> <span m='367060'>an</span> <span m='367290'>integration</span> <span m='367650'>by</span> <span m='367800'>parts.</span> <span m='368450'>And</span> <span m='368770'>one</span> <span m='368920'>reason</span> <span m='369180'>is,</span> <span m='369310'>this</span> <span m='369430'>is</span> <span m='369500'>a</span> <span m='369590'>product</span> <span m='370420'>of</span> <span m='370590'>things.</span> <span m='370980'>You</span> <span m='371060'>know,</span> <span m='371140'>here</span> <span m='371370'>it's</span> <span m='371540'>arctan</span> <span m='371760'>x</span> <span m='372210'>times</span> <span m='372820'>1</span> <span m='373070'>over</span> <span m='373250'>x</span> <span m='373450'>squared.</span> <span m='373840'>And</span> <span m='375170'>arctan</span> <span m='375370'>x</span> <span m='375670'>is</span> <span m='376000'>something</span> <span m='376370'>that</span> <span m='376950'>works</span> <span m='377190'>nicely</span> <span m='377600'>with</span> <span m='377740'>integration</span> <span m='378170'>by</span> <span m='378260'>parts</span> <span m='378550'>if</span> <span m='378710'>you</span> <span m='378820'>can</span> <span m='378990'>differentiate</span> <span m='379330'>it.</span> <span m='380160'>Right?</span> </p><p><span m='380380'>So</span> <span m='380960'>inverse</span> <span m='381490'>trigonometric</span> <span m='381910'>functions</span> <span m='382550'>behave</span> <span m='382970'>like</span> <span m='383200'>logarithms</span> <span m='384100'>with</span> <span m='384330'>respect</span> <span m='384810'>to</span> <span m='385530'>integration</span> <span m='386010'>by</span> <span m='386120'>parts.</span> <span m='386430'>By</span> <span m='386530'>which</span> <span m='386690'>I</span> <span m='386740'>mean,</span> <span m='387110'>they</span> <span m='387270'>really</span> <span m='387580'>like</span> <span m='387920'>to</span> <span m='388030'>be</span> <span m='388190'>differentiated.</span> <span m='389120'>Because</span> <span m='389300'>when</span> <span m='389410'>you</span> <span m='389480'>differentiate</span> <span m='390050'>an</span> <span m='390140'>arctan,</span> <span m='390540'>you</span> <span m='390630'>get</span> <span m='390770'>something</span> <span m='391300'>much</span> <span m='391560'>simpler.</span> <span m='392020'>Well,</span> <span m='393380'>simpler,</span> <span m='393830'>anyhow.</span> <span m='394240'>Maybe</span> <span m='394460'>not</span> <span m='394640'>much</span> <span m='394880'>simpler.</span> <span m='395680'>You</span> <span m='395790'>get</span> <span m='395990'>1</span> <span m='396300'>over</span> <span m='396600'>1</span> <span m='396860'>plus</span> <span m='397070'>x</span> <span m='397260'>squared.</span> <span m='397670'>So if</span> <span m='397960'>you</span> <span m='398090'>can</span> <span m='398240'>apply</span> <span m='398630'>integration</span> <span m='399060'>by</span> <span m='399170'>parts and</span> <span m='399610'>differentiate</span> <span m='400250'>the</span> <span m='400350'>arctan,</span> <span m='401090'>that</span> <span m='401350'>makes</span> <span m='401540'>your</span> <span m='401670'>life</span> <span m='402220'>nice.</span> <span m='402590'>And so,</span> <span m='402820'>then,</span> <span m='403440'>in</span> <span m='403580'>order</span> <span m='403800'>for</span> <span m='403970'>that</span> <span m='404150'>to</span> <span m='404260'>work,</span> <span m='404520'>you</span> <span m='404640'>need</span> <span m='404980'>for</span> <span m='405120'>everything</span> <span m='405490'>else</span> <span m='405720'>to</span> <span m='405840'>be</span> <span m='406270'>something you</span> <span m='406700'>can</span> <span m='406860'>antidifferentiate,</span> <span m='407800'>and</span> <span m='408060'>here</span> <span m='408380'>everything</span> <span m='408730'>else</span> <span m='408910'>is</span> <span m='409010'>just</span> <span m='409220'>2</span> <span m='409430'>over</span> <span m='409690'>x</span> <span m='409900'>squared,</span> <span m='410440'>and</span> <span m='410630'>so</span> <span m='410720'>that's</span> <span m='410930'>something</span> <span m='411200'>that</span> <span m='411540'>we</span> <span m='411650'>know</span> <span m='411790'>how</span> <span m='411900'>to</span> <span m='412000'>integrate.</span> <span m='412590'>It's</span> <span m='412770'>easy</span> <span m='413040'>to</span> <span m='413140'>do.</span> </p><p><span m='413750'>So, OK.</span> <span m='413930'>So</span> <span m='414370'>let's</span> <span m='414880'>give</span> <span m='415050'>that</span> <span m='415200'>a</span> <span m='415250'>try,</span> <span m='415550'>then.</span> <span m='416550'>So</span> <span m='416650'>we're</span> <span m='416740'>going to</span> <span m='416910'>do</span> <span m='417030'>integration</span> <span m='417450'>by</span> <span m='417540'>parts,</span> <span m='418210'>so</span> <span m='418380'>I'm</span> <span m='418460'>going</span> <span m='418580'>to</span> <span m='418640'>set</span> <span m='419380'>u</span> <span m='420910'>equal</span> <span m='422410'>to</span> <span m='422910'>arctan</span> <span m='425070'>x.</span> <span m='426000'>So</span> <span m='426160'>that</span> <span m='426340'>means</span> <span m='426630'>u</span> <span m='426970'>prime</span> <span m='428190'>is</span> <span m='428350'>equal</span> <span m='428610'>to</span> <span m='428750'>1</span> <span m='429300'>over</span> <span m='430270'>1</span> <span m='430580'>plus</span> <span m='430950'>x</span> <span m='431300'>squared.</span> <span m='432510'>And</span> <span m='432800'>I'm</span> <span m='432900'>going to</span> <span m='433100'>let</span> <span m='433540'>v</span> <span m='433800'>prime</span> <span m='434760'>equal,</span> <span m='435160'>well,</span> <span m='435310'>I</span> <span m='435400'>guess</span> <span m='435560'>I</span> <span m='435670'>have</span> <span m='435780'>to</span> <span m='435890'>pick</span> <span m='436100'>up</span> <span m='436230'>the</span> <span m='436310'>2</span> <span m='436610'>somewhere,</span> <span m='437000'>so I might as well</span> <span m='437520'>pick it</span> <span m='437700'>up</span> <span m='438250'>here.</span> <span m='438590'>2</span> <span m='439120'>over</span> <span m='440480'>x</span> <span m='440930'>squared.</span> <span m='442090'>And</span> <span m='442290'>so</span> <span m='442460'>then</span> <span m='442690'>v,</span> <span m='443650'>so I</span> <span m='444000'>integrate</span> <span m='444490'>2</span> <span m='444670'>over</span> <span m='444900'>x</span> <span m='445150'>squared,</span> <span m='445680'>so</span> <span m='445800'>that</span> <span m='445940'>gives</span> <span m='446120'>me</span> <span m='447370'>x</span> <span m='447680'>to</span> <span m='447790'>the</span> <span m='447950'>minus</span> <span m='448420'>1,</span> <span m='449250'>with</span> <span m='449640'>a</span> <span m='449720'>minus</span> <span m='450090'>sign.</span> <span m='450530'>So it's minus</span> <span m='451710'>2</span> <span m='452420'>over</span> <span m='453500'>x.</span> </p><p><span m='454740'>So</span> <span m='454960'>these</span> <span m='455190'>are</span> <span m='455650'>u,</span> <span m='455940'>u</span> <span m='456080'>prime,</span> <span m='456440'>v</span> <span m='456570'>and</span> <span m='456720'>v</span> <span m='456860'>prime.</span> <span m='457230'>So</span> <span m='457440'>now OK, so now</span> <span m='458190'>I</span> <span m='458270'>apply</span> <span m='459000'>integration</span> <span m='460130'>by</span> <span m='460290'>parts,</span> <span m='460700'>and</span> <span m='460870'>that</span> <span m='461030'>tells</span> <span m='461260'>me</span> <span m='461800'>this</span> <span m='462520'>is</span> <span m='462880'>equal</span> <span m='463330'>to--</span> <span m='464260'>well,</span> <span m='464520'>let's</span> <span m='464660'>see.</span> <span m='464780'>So</span> <span m='464930'>it's</span> <span m='465100'>u*v,</span> <span m='466080'>which</span> <span m='466350'>is</span> <span m='466990'>minus</span> <span m='468400'>2</span> <span m='470470'>arctan</span> <span m='472370'>x</span> <span m='473760'>over</span> <span m='474120'>x.</span> <span m='474425'>That's</span> <span m='474730'>u*v.</span> <span m='475900'>Minus</span> <span m='477881'>the</span> <span m='478270'>integral</span> <span m='478980'>of,</span> <span m='479570'>now it's</span> <span m='480020'>the</span> <span m='480120'>second</span> <span m='480380'>part,</span> <span m='480570'>it's</span> <span m='481240'>v</span> <span m='482060'>u</span> <span m='482330'>prime</span> <span m='483490'>dx.</span> <span m='484600'>So</span> <span m='484740'>here</span> <span m='484960'>v</span> <span m='485490'>u</span> <span m='485690'>prime</span> <span m='486550'>is--</span> <span m='487160'>well,</span> <span m='487380'>OK.</span> <span m='487560'>So</span> <span m='487690'>they're</span> <span m='487840'>minus</span> <span m='488580'>2.</span> <span m='489190'>I'm</span> <span m='489520'>going to</span> <span m='489720'>pull</span> <span m='489940'>that</span> <span m='490120'>out</span> <span m='490290'>front.</span> <span m='491300'>So it's</span> <span m='491660'>plus</span> <span m='492300'>2--</span> <span m='492860'>all right.</span> <span m='493450'>And</span> <span m='493580'>then</span> <span m='493880'>the</span> <span m='494270'>rest</span> <span m='494680'>of</span> <span m='494770'>it</span> <span m='494870'>is</span> <span m='495010'>1</span> <span m='495840'>over</span> <span m='496265'>x</span> <span m='496690'>times</span> <span m='497800'>1</span> <span m='498250'>plus</span> <span m='499180'>x</span> <span m='499660'>squared</span> <span m='501320'>dx.</span> <span m='501940'>So</span> <span m='502070'>if</span> <span m='502130'>you</span> <span m='502220'>apply</span> <span m='502560'>integration</span> <span m='503010'>by</span> <span m='503140'>parts,</span> <span m='503930'>you</span> <span m='504120'>have</span> <span m='504210'>the</span> <span m='504320'>u*v</span> <span m='504720'>stuff</span> <span m='505200'>that</span> <span m='505330'>gets</span> <span m='505530'>kicked</span> <span m='505770'>out out</span> <span m='506110'>front,</span> <span m='506520'>and</span> <span m='506720'>then</span> <span m='506810'>what</span> <span m='506920'>you're</span> <span m='507040'>left</span> <span m='507280'>with</span> <span m='507450'>is</span> <span m='507580'>this</span> <span m='507690'>second</span> <span m='508060'>integral.</span> </p><p><span m='508780'>Now this is,</span> <span m='510780'>to</span> <span m='510930'>me</span> <span m='511130'>this</span> <span m='511310'>is</span> <span m='511440'>simpler-looking</span> <span m='512180'>than</span> <span m='512290'>what</span> <span m='512450'>we</span> <span m='512550'>started</span> <span m='512880'>with.</span> <span m='513060'>It's</span> <span m='513200'>still</span> <span m='513400'>not</span> <span m='513660'>simple,</span> <span m='514470'>but</span> <span m='514680'>it's</span> <span m='514830'>simpler.</span> <span m='515520'>So</span> <span m='516320'>it</span> <span m='516500'>seems</span> <span m='516730'>to</span> <span m='516820'>me</span> <span m='516890'>that, you know,</span> <span m='517680'>having</span> <span m='518050'>reached</span> <span m='518370'>this</span> <span m='518490'>stage,</span> <span m='518870'>we</span> <span m='518980'>can</span> <span m='519120'>say,</span> <span m='519240'>OK.</span> <span m='519420'>We've</span> <span m='519580'>made</span> <span m='519920'>some</span> <span m='520010'>progress,</span> <span m='520780'>and</span> <span m='521050'>now</span> <span m='521170'>we</span> <span m='521280'>have</span> <span m='521390'>to</span> <span m='521480'>keep</span> <span m='521700'>going.</span> <span m='522500'>Right?</span> </p><p><span m='522890'>So</span> <span m='523020'>it's</span> <span m='523110'>not</span> <span m='523710'>obvious</span> <span m='524120'>to</span> <span m='524220'>me</span> <span m='524310'>what</span> <span m='524530'>the</span> <span m='525040'>antiderivative</span> <span m='525720'>of</span> <span m='525920'>this</span> <span m='526090'>expression</span> <span m='526560'>should</span> <span m='526760'>be.</span> <span m='528340'>So</span> <span m='528530'>how</span> <span m='528690'>can</span> <span m='528820'>I</span> <span m='528880'>figure</span> <span m='529220'>that</span> <span m='529400'>out?</span> <span m='529640'>Well,</span> <span m='530530'>there are</span> <span m='530870'>a</span> <span m='530940'>couple</span> <span m='531210'>of</span> <span m='531300'>different</span> <span m='531570'>options</span> <span m='531900'>here.</span> <span m='532230'>One</span> <span m='532660'>thing</span> <span m='532850'>you</span> <span m='532940'>might</span> <span m='533340'>look</span> <span m='533590'>at</span> <span m='533870'>this</span> <span m='534450'>and</span> <span m='534670'>see,</span> <span m='534900'>is</span> <span m='535040'>you</span> <span m='535120'>might</span> <span m='535380'>see--</span> <span m='536020'>again,</span> <span m='536400'>I</span> <span m='536470'>have</span> <span m='536600'>a</span> <span m='536670'>1</span> <span m='536950'>plus</span> <span m='537210'>x</span> <span m='537450'>squared</span> <span m='537840'>in the</span> <span m='538060'>denominator,</span> <span m='538720'>and</span> <span m='538910'>so</span> <span m='539010'>that</span> <span m='539180'>might</span> <span m='539340'>make</span> <span m='539510'>you</span> <span m='539600'>tempted</span> <span m='540380'>to</span> <span m='540510'>do</span> <span m='540620'>a</span> <span m='540700'>trig</span> <span m='541040'>substitution</span> <span m='541590'>again.</span> <span m='542950'>And</span> <span m='543600'>in fact,</span> <span m='543990'>you</span> <span m='544080'>could</span> <span m='544290'>do a</span> <span m='544460'>trig substitution</span> <span m='545220'>here.</span> <span m='545390'>You</span> <span m='545500'>could</span> <span m='545650'>put</span> <span m='546070'>x equal</span> <span m='546360'>tan</span> <span m='546620'>theta,</span> <span m='547280'>and</span> <span m='548280'>you</span> <span m='548360'>would</span> <span m='548530'>be</span> <span m='548640'>able</span> <span m='548880'>to</span> <span m='549560'>solve</span> <span m='549730'>the</span> <span m='549830'>question</span> <span m='550180'>like</span> <span m='550370'>this.</span> </p><p><span m='550780'>But</span> <span m='550970'>I</span> <span m='551020'>don't</span> <span m='551180'>think</span> <span m='551310'>it's</span> <span m='551420'>the</span> <span m='551510'>simplest</span> <span m='552010'>way</span> <span m='552130'>to</span> <span m='552230'>go.</span> <span m='552670'>Because</span> <span m='553110'>in</span> <span m='553320'>addition--</span> <span m='553900'>well,</span> <span m='554380'>on the</span> <span m='554490'>one</span> <span m='554650'>hand,</span> <span m='554840'>this has</span> <span m='555060'>this</span> <span m='555200'>1</span> <span m='555410'>plus</span> <span m='555610'>x</span> <span m='555780'>squared</span> <span m='556040'>in</span> <span m='556110'>the</span> <span m='556210'>denominator,</span> <span m='556870'>but</span> <span m='557070'>on</span> <span m='557150'>the</span> <span m='557230'>other</span> <span m='557340'>hand,</span> <span m='557480'>this</span> <span m='557610'>is</span> <span m='557730'>just</span> <span m='557890'>a</span> <span m='557950'>rational</span> <span m='558450'>function.</span> <span m='559400'>Yeah?</span> <span m='559690'>It's</span> <span m='559880'>a</span> <span m='560200'>ratio</span> <span m='560680'>of two</span> <span m='560920'>polynomials.</span> <span m='561580'>The polynomial</span> <span m='562050'>on</span> <span m='562260'>top</span> <span m='562500'>is</span> <span m='562590'>just</span> <span m='562750'>1,</span> <span m='563120'>and</span> <span m='563210'>the</span> <span m='563290'>polynomial</span> <span m='563720'>on</span> <span m='563860'>the</span> <span m='563950'>bottom</span> <span m='564260'>is</span> <span m='564370'>this</span> <span m='564930'>product,</span> <span m='565320'>x</span> <span m='565710'>times</span> <span m='565980'>1</span> <span m='566170'>plus</span> <span m='566400'>x squared.</span> <span m='566950'>And</span> <span m='567140'>so</span> <span m='567210'>whenever</span> <span m='567470'>you</span> <span m='567580'>have</span> <span m='568230'>a</span> <span m='568360'>rational</span> <span m='568830'>function</span> <span m='569260'>that</span> <span m='569350'>you're</span> <span m='569450'>trying</span> <span m='569640'>to</span> <span m='569700'>integrate,</span> <span m='570190'>you</span> <span m='570390'>can</span> <span m='570510'>also</span> <span m='570830'>always</span> <span m='571200'>use--</span> <span m='572580'>what's</span> <span m='572770'>it</span> <span m='572840'>called--</span> <span m='574150'>partial</span> <span m='574430'>fraction</span> <span m='574850'>decomposition.</span> </p><p><span m='575950'>So</span> <span m='576120'>we</span> <span m='576230'>can</span> <span m='576350'>try</span> <span m='576550'>to</span> <span m='576610'>use</span> <span m='576770'>partial</span> <span m='577140'>fractions</span> <span m='577590'>on</span> <span m='577710'>the</span> <span m='577790'>second</span> <span m='578110'>expression.</span> <span m='579290'>And</span> <span m='579460'>so</span> <span m='579550'>I</span> <span m='579630'>think</span> <span m='579780'>I'd</span> <span m='579890'>like</span> <span m='580080'>to</span> <span m='581170'>do</span> <span m='581320'>it</span> <span m='581430'>that</span> <span m='581660'>way.</span> <span m='583140'>So</span> <span m='583300'>let's</span> <span m='584060'>do</span> <span m='584250'>that.</span> <span m='584760'>Let's</span> <span m='585000'>do</span> <span m='585140'>it</span> <span m='585240'>down</span> <span m='585480'>here.</span> <span m='585760'>So</span> <span m='588470'>partial</span> <span m='592200'>fractions</span> <span m='594020'>on</span> <span m='595400'>the</span> <span m='595500'>quantity</span> <span m='595950'>1</span> <span m='596420'>over</span> <span m='597530'>x</span> <span m='598900'>times</span> <span m='600090'>1</span> <span m='600510'>plus</span> <span m='600840'>x</span> <span m='601160'>squared.</span> </p><p><span m='602080'>So</span> <span m='602250'>if</span> <span m='602320'>you</span> <span m='602390'>remember</span> <span m='602800'>your</span> <span m='602940'>partial</span> <span m='603250'>fractions</span> <span m='603550'>here,</span> <span m='603680'>this</span> <span m='603830'>is</span> <span m='603950'>completely</span> <span m='604350'>factored.</span> <span m='605090'>This</span> <span m='605280'>quadratic</span> <span m='605800'>doesn't</span> <span m='606120'>factor.</span> <span m='607080'>It</span> <span m='607300'>doesn't</span> <span m='607580'>have</span> <span m='608360'>any</span> <span m='608840'>real</span> <span m='609110'>roots,</span> <span m='609380'>doesn't</span> <span m='609610'>factor.</span> <span m='610150'>So OK, so</span> <span m='611310'>we</span> <span m='611570'>have</span> <span m='612160'>a</span> <span m='612510'>single</span> <span m='613030'>linear</span> <span m='613390'>term,</span> <span m='613960'>and</span> <span m='614120'>a</span> <span m='614160'>single</span> <span m='614580'>non-factorable</span> <span m='615450'>quadratic</span> <span m='615930'>term.</span> <span m='616340'>So</span> <span m='616520'>partial</span> <span m='616890'>fractions</span> <span m='617330'>tells</span> <span m='617600'>us</span> <span m='617720'>that</span> <span m='617830'>we</span> <span m='617940'>can</span> <span m='618130'>write</span> <span m='618400'>this</span> <span m='618940'>in</span> <span m='619120'>the</span> <span m='619230'>form</span> <span m='620540'>A</span> <span m='621270'>over</span> <span m='621770'>x</span> <span m='623300'>plus--</span> <span m='623740'>and</span> <span m='623830'>now</span> <span m='623960'>because</span> <span m='624220'>the</span> <span m='624290'>second</span> <span m='624600'>term</span> <span m='624790'>is</span> <span m='624880'>quadratic,</span> <span m='625820'>it</span> <span m='625930'>needs</span> <span m='626130'>to</span> <span m='626240'>be</span> <span m='627030'>B*x</span> <span m='627720'>plus</span> <span m='628040'>C</span> <span m='629390'>over</span> <span m='629730'>1</span> <span m='630190'>plus</span> <span m='630610'>x squared.</span> <span m='631450'>Right?</span> <span m='631710'>So</span> <span m='631830'>when</span> <span m='631920'>you</span> <span m='631990'>have</span> <span m='632110'>a</span> <span m='633140'>quadratic</span> <span m='633660'>in</span> <span m='633750'>the</span> <span m='633820'>bottom,</span> <span m='634120'>you</span> <span m='634210'>get</span> <span m='634480'>two</span> <span m='635610'>constants</span> <span m='636100'>up at the top,</span> <span m='637370'>a</span> <span m='637460'>linear</span> <span m='638270'>polynomial.</span> <span m='638870'>And</span> <span m='638990'>then</span> <span m='639080'>you</span> <span m='639170'>can</span> <span m='639270'>always</span> <span m='639470'>check.</span> <span m='639760'>You</span> <span m='639850'>have</span> <span m='640000'>three</span> <span m='640710'>constants</span> <span m='641230'>here,</span> <span m='641910'>and</span> <span m='642120'>the</span> <span m='642620'>degree</span> <span m='643130'>of</span> <span m='643240'>the</span> <span m='643330'>denominator</span> <span m='643640'>is</span> <span m='643990'>3,</span> <span m='644340'>so</span> <span m='644510'>that's</span> <span m='644690'>one</span> <span m='644860'>way</span> <span m='645010'>of</span> <span m='645080'>checking</span> <span m='645420'>that</span> <span m='645530'>you're</span> <span m='645640'>not</span> <span m='646220'>completely</span> <span m='646700'>off</span> <span m='646950'>base,</span> <span m='647700'>that</span> <span m='648140'>the</span> <span m='648320'>degree</span> <span m='648660'>down</span> <span m='648860'>here</span> <span m='649040'>should</span> <span m='649190'>always</span> <span m='649400'>agree</span> <span m='649710'>with</span> <span m='649900'>the</span> <span m='649970'>number</span> <span m='650270'>of</span> <span m='650370'>constants</span> <span m='650680'>that</span> <span m='650990'>you're</span> <span m='651150'>solving</span> <span m='651380'>for.</span> </p><p><span m='652390'>OK.</span> <span m='653530'>Good.</span> <span m='653880'>So</span> <span m='653990'>now</span> <span m='654090'>we</span> <span m='654220'>need</span> <span m='654370'>to</span> <span m='654450'>solve</span> <span m='655040'>this</span> <span m='655330'>for</span> <span m='655760'>A,</span> <span m='655950'>B,</span> <span m='656080'>and</span> <span m='656290'>C.</span> <span m='657310'>And</span> <span m='657590'>so OK,</span> <span m='658010'>because</span> <span m='658360'>we</span> <span m='658460'>have</span> <span m='658590'>this</span> <span m='658740'>nice</span> <span m='659710'>single</span> <span m='660060'>linear</span> <span m='660310'>factor,</span> <span m='660620'>we</span> <span m='660720'>can</span> <span m='660810'>do</span> <span m='660920'>the</span> <span m='661010'>cover</span> <span m='661320'>up</span> <span m='661460'>method</span> <span m='662180'>there.</span> <span m='662730'>So</span> <span m='662960'>we</span> <span m='663090'>cover</span> <span m='663450'>up</span> <span m='664470'>x,</span> <span m='665810'>and</span> <span m='666050'>we</span> <span m='666180'>cover up</span> <span m='667320'>over</span> <span m='667640'>x, and we</span> <span m='668050'>cover</span> <span m='668250'>up</span> <span m='668360'>everything</span> <span m='668700'>else.</span> <span m='669430'>So</span> <span m='669630'>on</span> <span m='669760'>the</span> <span m='669840'>right-hand</span> <span m='670300'>side,</span> <span m='670530'>we</span> <span m='670620'>just</span> <span m='670800'>end</span> <span m='670970'>up</span> <span m='671070'>with</span> <span m='671320'>A,</span> <span m='672010'>and</span> <span m='672450'>on</span> <span m='672560'>the</span> <span m='672660'>left-hand</span> <span m='673060'>side,</span> <span m='673360'>well,</span> <span m='673670'>so</span> <span m='673930'>x.</span> <span m='674290'>So</span> <span m='674550'>that's</span> <span m='674820'>what</span> <span m='674970'>we</span> <span m='675100'>need,</span> <span m='675370'>we</span> <span m='675540'>get whatever</span> <span m='676200'>when</span> <span m='676400'>we</span> <span m='676500'>plug</span> <span m='676710'>in x</span> <span m='676990'>equals</span> <span m='677270'>0.</span> <span m='677960'>So</span> <span m='678210'>on</span> <span m='678780'>this</span> <span m='678910'>side,</span> <span m='679140'>we</span> <span m='679220'>get</span> <span m='679590'>1</span> <span m='679950'>over</span> <span m='680250'>1</span> <span m='680490'>plus</span> <span m='680710'>0</span> <span m='681080'>squared,</span> <span m='681900'>so</span> <span m='682130'>that's</span> <span m='683230'>just</span> <span m='683950'>1.</span> </p><p><span m='685060'>So</span> <span m='685210'>the</span> <span m='685290'>cover</span> <span m='685560'>up</span> <span m='685710'>method</span> <span m='686440'>gives</span> <span m='686670'>us</span> <span m='686840'>that</span> <span m='687030'>A</span> <span m='687960'>is</span> <span m='688090'>equal</span> <span m='688320'>to</span> <span m='688410'>1.</span> <span m='689770'>And</span> <span m='689970'>now</span> <span m='690100'>we</span> <span m='690180'>need</span> <span m='690290'>to</span> <span m='690390'>solve</span> <span m='690730'>for</span> <span m='690850'>B</span> <span m='691070'>and</span> <span m='691210'>C.</span> <span m='691630'>And</span> <span m='691850'>probably</span> <span m='692120'>the</span> <span m='692200'>most</span> <span m='692410'>straightforward</span> <span m='693080'>way,</span> <span m='693590'>in</span> <span m='693760'>this</span> <span m='693910'>case,</span> <span m='694150'>to</span> <span m='694300'>solve</span> <span m='694510'>for</span> <span m='694610'>B and</span> <span m='694850'>C,</span> <span m='695190'>is</span> <span m='696080'>you</span> <span m='696410'>can</span> <span m='696580'>always</span> <span m='696830'>just</span> <span m='696960'>multiply</span> <span m='697470'>through.</span> <span m='699340'>And if</span> <span m='699530'>you</span> <span m='699620'>multiply</span> <span m='700140'>through--</span> <span m='700990'>OK.</span> <span m='701310'>So</span> <span m='701750'>we'll</span> <span m='701860'>multiply</span> <span m='702220'>through</span> <span m='702340'>on</span> <span m='702420'>the</span> <span m='702500'>left-hand--</span> <span m='702830'>we'll</span> <span m='703100'>clear</span> <span m='703380'>denominators,</span> <span m='703900'>we'll</span> <span m='704190'>multiply</span> <span m='704340'>through</span> <span m='704470'>by</span> <span m='704735'>x</span> <span m='705000'>times</span> <span m='705570'>1</span> <span m='705850'>plus</span> <span m='706040'>x squared.</span> <span m='706500'>So on</span> <span m='706640'>the</span> <span m='706720'>left</span> <span m='706950'>we'll</span> <span m='707050'>get</span> <span m='707210'>just</span> <span m='707420'>1.</span> <span m='709240'>On</span> <span m='709500'>the</span> <span m='709600'>right--</span> <span m='709920'>OK.</span> <span m='710350'>So</span> <span m='710550'>we</span> <span m='710660'>multiply</span> <span m='711860'>A</span> <span m='712230'>over</span> <span m='712590'>x</span> <span m='713190'>times</span> <span m='714180'>x</span> <span m='714570'>times</span> <span m='715580'>1</span> <span m='715800'>plus</span> <span m='716010'>x</span> <span m='716210'>squared,</span> <span m='716830'>so that</span> <span m='717060'>gives us</span> <span m='717180'>A</span> <span m='717760'>times</span> <span m='718000'>1</span> <span m='718170'>plus</span> <span m='718330'>x squared,</span> <span m='718890'>but</span> <span m='719050'>we</span> <span m='719160'>know</span> <span m='719280'>that</span> <span m='719440'>A is</span> <span m='719780'>1,</span> <span m='720400'>so</span> <span m='720580'>this</span> <span m='720750'>is-- the</span> <span m='721230'>first</span> <span m='721700'>term</span> <span m='721890'>becomes</span> <span m='722190'>1</span> <span m='722580'>plus</span> <span m='723770'>x</span> <span m='724060'>squared,</span> <span m='725080'>and</span> <span m='725220'>the</span> <span m='725280'>second</span> <span m='725720'>term</span> <span m='726010'>we</span> <span m='726100'>multiply</span> <span m='726550'>through</span> <span m='727200'>by</span> <span m='727350'>x</span> <span m='727780'>times</span> <span m='728030'>1</span> <span m='728190'>plus</span> <span m='728360'>x</span> <span m='728560'>squared,</span> <span m='729170'>and</span> <span m='729350'>the</span> <span m='729500'>1</span> <span m='729730'>plus x</span> <span m='730050'>squareds</span> <span m='730340'>cancel,</span> <span m='730700'>and</span> <span m='730820'>we're</span> <span m='730920'>left</span> <span m='731150'>with</span> <span m='732250'>plus</span> <span m='732720'>x</span> <span m='733190'>times</span> <span m='734630'>B*x</span> <span m='736500'>plus</span> <span m='736770'>C.</span> </p><p><span m='738850'>Now,</span> <span m='739550'>if</span> <span m='739810'>you,</span> <span m='741390'>maybe</span> <span m='741690'>you</span> <span m='741760'>could--</span> <span m='742160'>at</span> <span m='742290'>this</span> <span m='742450'>point,</span> <span m='742820'>there</span> <span m='743180'>are a</span> <span m='743540'>number of</span> <span m='743830'>different</span> <span m='744090'>ways</span> <span m='744260'>to</span> <span m='744330'>finish.</span> <span m='744810'>But</span> <span m='745280'>one,</span> <span m='745670'>for</span> <span m='745780'>example, is</span> <span m='746120'>you</span> <span m='746240'>could</span> <span m='746400'>see, all right,</span> <span m='747040'>if</span> <span m='747130'>you</span> <span m='747230'>subtract</span> <span m='748290'>the</span> <span m='748420'>1</span> <span m='748700'>plus</span> <span m='748990'>x</span> <span m='749240'>squared</span> <span m='749570'>over</span> <span m='749750'>to</span> <span m='749820'>the</span> <span m='749920'>other</span> <span m='750150'>side,</span> <span m='750970'>you</span> <span m='751180'>have</span> <span m='752000'>minus</span> <span m='752540'>x</span> <span m='752820'>squared,</span> <span m='754630'>and</span> <span m='754820'>over</span> <span m='754980'>here,</span> <span m='755230'>you</span> <span m='755350'>have</span> <span m='755840'>B</span> <span m='756130'>x</span> <span m='756430'>squared</span> <span m='756840'>plus</span> <span m='757160'>C*x.</span> <span m='758540'>So</span> <span m='758700'>for</span> <span m='758810'>those</span> <span m='759080'>things</span> <span m='759370'>to</span> <span m='760000'>be</span> <span m='760120'>equal,</span> <span m='760370'>you</span> <span m='760470'>need</span> <span m='760830'>B</span> <span m='761580'>to</span> <span m='761710'>be</span> <span m='761850'>negative</span> <span m='762270'>1,</span> <span m='763040'>and</span> <span m='763190'>you</span> <span m='763260'>need</span> <span m='763510'>C</span> <span m='764330'>to</span> <span m='764460'>be</span> <span m='764560'>0.</span> <span m='765910'>Right?</span> </p><p><span m='767490'>So OK. So</span> <span m='771350'>good.</span> <span m='771700'>So</span> <span m='771910'>we</span> <span m='772030'>have</span> <span m='773750'>B</span> <span m='774260'>equals</span> <span m='774610'>minus</span> <span m='775030'>1,</span> <span m='776500'>C</span> <span m='776870'>equals</span> <span m='777270'>0.</span> <span m='778240'>So</span> <span m='778440'>the</span> <span m='778530'>partial</span> <span m='778870'>fraction</span> <span m='779250'>decomposition,</span> <span m='779400'>then,</span> <span m='780060'>if</span> <span m='780150'>we</span> <span m='780630'>plug</span> <span m='780940'>this</span> <span m='781110'>in,</span> <span m='781940'>is</span> <span m='782230'>1</span> <span m='782700'>over</span> <span m='783020'>x</span> <span m='784150'>minus</span> <span m='785780'>x</span> <span m='786280'>over</span> <span m='787370'>1</span> <span m='787830'>plus</span> <span m='789270'>x</span> <span m='789560'>squared.</span> </p><p><span m='792300'>So</span> <span m='792580'>this</span> <span m='792760'>is</span> <span m='792910'>the</span> <span m='793290'>partial</span> <span m='793630'>fraction</span> <span m='793980'>decomposition</span> <span m='794720'>of</span> <span m='795500'>this</span> <span m='797250'>rational</span> <span m='797670'>function.</span> <span m='798890'>So</span> <span m='798970'>you</span> <span m='799050'>apply</span> <span m='799340'>that</span> <span m='799490'>partial</span> <span m='799970'>fraction</span> <span m='800310'>decomposition.</span> <span m='800980'>What</span> <span m='801180'>do</span> <span m='801240'>you do? All right,</span> <span m='801560'>So now</span> <span m='801710'>you</span> <span m='802070'>carry</span> <span m='802450'>that</span> <span m='802650'>back</span> <span m='802880'>upstairs</span> <span m='803750'>to</span> <span m='803870'>the</span> <span m='804230'>integral</span> <span m='804640'>we</span> <span m='804860'>were</span> <span m='805000'>working</span> <span m='805310'>on.</span> <span m='809170'>So</span> <span m='809300'>our</span> <span m='809440'>integral</span> <span m='810110'>that</span> <span m='810240'>we</span> <span m='810340'>started</span> <span m='810710'>with</span> <span m='811700'>is</span> <span m='811950'>equal</span> <span m='812280'>to,</span> <span m='812470'>now--</span> <span m='812630'>well,</span> <span m='812820'>so</span> <span m='812960'>this</span> <span m='813410'>constant</span> <span m='814040'>is</span> <span m='814150'>still</span> <span m='814360'>out</span> <span m='814500'>in</span> <span m='814590'>front.</span> <span m='814910'>So it's</span> <span m='815090'>minus</span> <span m='816100'>2</span> <span m='817660'>arctan</span> <span m='818350'>x</span> <span m='821230'>over</span> <span m='821550'>x</span> <span m='823210'>plus--</span> <span m='825280'>so</span> <span m='825420'>now</span> <span m='825630'>we've</span> <span m='825690'>got</span> <span m='826080'>2</span> <span m='826400'>times--</span> <span m='827110'>all right.</span> <span m='827370'>So</span> <span m='827480'>first,</span> <span m='828410'>this</span> <span m='828640'>is</span> <span m='828750'>just</span> <span m='828910'>algebra</span> <span m='829310'>that</span> <span m='829400'>we've</span> <span m='829530'>done,</span> <span m='829700'>so</span> <span m='829790'>we</span> <span m='829890'>can</span> <span m='829990'>just</span> <span m='830180'>substitute</span> <span m='830400'>it in.</span> <span m='831210'>So</span> <span m='831340'>we</span> <span m='831460'>replace</span> <span m='832140'>this</span> <span m='832450'>1</span> <span m='832810'>over</span> <span m='833502'>x</span> <span m='833850'>times</span> <span m='834040'>1</span> <span m='834200'>plus</span> <span m='834360'>x</span> <span m='834530'>squared</span> <span m='835270'>by</span> <span m='836000'>1</span> <span m='836440'>over</span> <span m='836860'>x</span> <span m='837690'>minus</span> <span m='838970'>x</span> <span m='839500'>over</span> <span m='840300'>1</span> <span m='840680'>plus</span> <span m='841140'>x squared</span> <span m='843230'>dx.</span> <span m='844910'>OK.</span> <span m='845410'>And</span> <span m='845660'>now</span> <span m='845760'>using</span> <span m='846140'>the</span> <span m='846230'>properties</span> <span m='846760'>of</span> <span m='846850'>integration,</span> <span m='847810'>this</span> <span m='847990'>is</span> <span m='848140'>a</span> <span m='848290'>difference</span> <span m='848760'>of</span> <span m='848910'>two--</span> <span m='849420'>an</span> <span m='849540'>integral</span> <span m='849970'>of</span> <span m='850070'>a</span> <span m='850130'>difference</span> <span m='850510'>is</span> <span m='850680'>the</span> <span m='851180'>difference</span> <span m='851610'>of</span> <span m='851730'>the</span> <span m='851830'>two</span> <span m='852010'>integrals.</span> <span m='853440'>So we</span> <span m='853700'>just</span> <span m='854030'>integrate</span> <span m='854460'>them</span> <span m='854590'>separately,</span> <span m='855150'>right?</span> <span m='855780'>So</span> <span m='855920'>this</span> <span m='856110'>is</span> <span m='856280'>equal</span> <span m='856570'>to--</span> <span m='856740'>so</span> <span m='856980'>OK,</span> <span m='857140'>the</span> <span m='857240'>part</span> <span m='857440'>out</span> <span m='857590'>front</span> <span m='858380'>never</span> <span m='858630'>changes.</span> <span m='859460'>2</span> <span m='861420'>arctan</span> <span m='862610'>x</span> <span m='863470'>over</span> <span m='863800'>x,</span> <span m='864740'>plus</span> <span m='865290'>2</span> <span m='865590'>times--</span> <span m='866330'>OK.</span> <span m='866580'>So</span> <span m='867060'>you</span> <span m='867200'>integrate</span> <span m='867570'>1</span> <span m='867750'>over</span> <span m='867940'>x,</span> <span m='869120'>and</span> <span m='869290'>that</span> <span m='869340'>just</span> <span m='869590'>gives</span> <span m='869750'>you</span> <span m='870200'>ln</span> <span m='870640'>of</span> <span m='872190'>absolute</span> <span m='872330'>value of</span> <span m='872810'>x.</span> </p><p><span m='874180'>And</span> <span m='874510'>OK,</span> <span m='874840'>so</span> <span m='875040'>you</span> <span m='875170'>integrate--</span> <span m='875790'>so</span> <span m='875960'>the</span> <span m='876050'>second</span> <span m='876440'>part</span> <span m='876630'>is</span> <span m='876900'>x</span> <span m='877290'>over</span> <span m='877890'>1</span> <span m='878280'>plus</span> <span m='878560'>x</span> <span m='878820'>squared.</span> <span m='879300'>Now,</span> <span m='879690'>in</span> <span m='879960'>the</span> <span m='880760'>worst</span> <span m='881130'>case,</span> <span m='881380'>we</span> <span m='881500'>would</span> <span m='881590'>need</span> <span m='881750'>to</span> <span m='881830'>do</span> <span m='882350'>some</span> <span m='882550'>more</span> <span m='882720'>work</span> <span m='882980'>on</span> <span m='883110'>this</span> <span m='883240'>term</span> <span m='883480'>and</span> <span m='883590'>split</span> <span m='883890'>things</span> <span m='884170'>up.</span> <span m='884420'>And</span> <span m='884670'>one</span> <span m='884810'>of</span> <span m='884910'>them,</span> <span m='885050'>we</span> <span m='885170'>might</span> <span m='885310'>have</span> <span m='885400'>to</span> <span m='885500'>complete</span> <span m='885820'>the</span> <span m='885910'>square</span> <span m='886270'>or</span> <span m='886400'>something.</span> <span m='886820'>But</span> <span m='887000'>in</span> <span m='887060'>this</span> <span m='887190'>case,</span> <span m='887410'>it</span> <span m='887480'>actually</span> <span m='887760'>has</span> <span m='887890'>worked</span> <span m='888150'>out</span> <span m='888270'>kind</span> <span m='888460'>of</span> <span m='888540'>nicely.</span> <span m='889160'>This</span> <span m='889475'>x</span> <span m='889790'>over</span> <span m='890380'>1</span> <span m='890790'>plus</span> <span m='891040'>x</span> <span m='891230'>squared</span> <span m='891500'>is</span> <span m='892680'>a</span> <span m='892880'>simple</span> <span m='893270'>thing</span> <span m='893650'>to</span> <span m='894090'>handle.</span> <span m='894850'>That's</span> <span m='895020'>just</span> <span m='895360'>ln</span> <span m='895760'>of</span> <span m='896060'>1</span> <span m='896240'>plus</span> <span m='896450'>x squared.</span> <span m='896860'>Well,</span> <span m='897010'>actually,</span> <span m='897380'>one</span> <span m='897700'>half</span> <span m='898070'>of</span> <span m='898210'>ln</span> <span m='898550'>of</span> <span m='898660'>1</span> <span m='898830'>plus</span> <span m='899050'>x</span> <span m='899220'>squared.</span> <span m='900410'>So</span> <span m='900530'>this</span> <span m='900660'>is</span> <span m='900890'>minus</span> <span m='902010'>1/2</span> <span m='903890'>ln</span> <span m='904600'>of</span> <span m='906380'>1</span> <span m='906825'>plus</span> <span m='907270'>x</span> <span m='907570'>squared.</span> <span m='909500'>I</span> <span m='909630'>could</span> <span m='909860'>write</span> <span m='910110'>absolute</span> <span m='910510'>value,</span> <span m='910800'>but</span> <span m='910960'>1</span> <span m='911110'>plus</span> <span m='911290'>x squared</span> <span m='911640'>is</span> <span m='911720'>always</span> <span m='911950'>positive,</span> <span m='912400'>so</span> <span m='912860'>it doesn't matter</span> <span m='913287'>if I do or not.</span> <span m='915580'>And</span> <span m='915820'>if</span> <span m='915910'>I</span> <span m='916000'>wanted,</span> <span m='916290'>I</span> <span m='916340'>could</span> <span m='916500'>rewrite</span> <span m='916830'>this</span> <span m='916960'>a</span> <span m='917030'>bit.</span> <span m='917350'>I</span> <span m='917440'>could</span> <span m='917610'>rewrite</span> <span m='917730'>this</span> <span m='917900'>as--</span> <span m='919330'>just</span> <span m='919550'>to</span> <span m='919640'>finish</span> <span m='919970'>it,</span> <span m='920356'>I could write</span> <span m='921130'>2</span> <span m='922290'>arctan</span> <span m='922970'>x</span> <span m='924040'>over</span> <span m='924310'>x</span> <span m='925290'>plus</span> <span m='926030'>2</span> <span m='927200'>ln</span> <span m='927820'>absolute</span> <span m='928000'>value</span> <span m='928420'>of x</span> <span m='929320'>minus</span> <span m='930650'>ln of</span> <span m='932180'>1</span> <span m='932580'>plus</span> <span m='933780'>x</span> <span m='934260'>squared.</span> </p><p><span m='936550'>And</span> <span m='937290'>I</span> <span m='937420'>was</span> <span m='937700'>doing</span> <span m='937970'>an</span> <span m='938360'>antiderivative.</span> <span m='939020'>So</span> <span m='939210'>at</span> <span m='939310'>some</span> <span m='939510'>point,</span> <span m='939710'>whenever</span> <span m='939940'>I</span> <span m='940010'>finished</span> <span m='940360'>the</span> <span m='940440'>last</span> <span m='940760'>one,</span> <span m='940870'>I</span> <span m='940930'>should</span> <span m='941190'>have</span> <span m='941310'>added</span> <span m='941380'>a</span> <span m='941440'>constant.</span> <span m='942130'>So</span> <span m='942310'>this</span> <span m='942760'>should</span> <span m='942980'>have</span> <span m='943070'>had</span> <span m='943180'>a</span> <span m='943230'>plus</span> <span m='943520'>c</span> <span m='943760'>here,</span> <span m='944440'>and</span> <span m='944840'>it</span> <span m='944950'>should</span> <span m='945160'>have</span> <span m='945290'>a</span> <span m='945350'>plus</span> <span m='945726'>c</span> <span m='946480'>there.</span> <span m='948050'>Right,</span> <span m='949390'>good.</span> </p><p><span m='951140'>So OK, so</span> <span m='952400'>there's</span> <span m='952730'>my</span> <span m='954030'>answer.</span> <span m='954350'>And</span> <span m='954440'>let's</span> <span m='954580'>just</span> <span m='954920'>recap</span> <span m='955480'>quickly</span> <span m='955820'>how</span> <span m='956000'>we</span> <span m='956140'>arrived</span> <span m='956520'>at</span> <span m='956670'>it.</span> <span m='956940'>So</span> <span m='957140'>we</span> <span m='957230'>started</span> <span m='957620'>with</span> <span m='957800'>this</span> <span m='958890'>integral.</span> <span m='960720'>And</span> <span m='960900'>we saw, we</span> <span m='961520'>recognized</span> <span m='962090'>it</span> <span m='962200'>as</span> <span m='962360'>a</span> <span m='962720'>good</span> <span m='963470'>candidate</span> <span m='963950'>for</span> <span m='964150'>integration</span> <span m='964600'>by</span> <span m='964770'>parts,</span> <span m='965050'>and</span> <span m='965150'>so</span> <span m='965240'>we</span> <span m='965340'>applied</span> <span m='965710'>integration</span> <span m='966150'>by</span> <span m='966260'>parts,</span> <span m='966990'>seeing</span> <span m='967430'>that</span> <span m='967570'>the</span> <span m='968570'>arctan</span> <span m='969120'>part</span> <span m='969410'>was</span> <span m='969540'>the</span> <span m='969620'>part</span> <span m='969910'>that</span> <span m='970130'>really</span> <span m='970350'>wanted</span> <span m='970630'>to</span> <span m='970730'>be</span> <span m='970810'>differentiated,</span> <span m='971760'>and</span> <span m='971960'>that</span> <span m='972090'>the</span> <span m='972570'>1</span> <span m='972820'>over</span> <span m='972990'>x</span> <span m='973210'>squared</span> <span m='973500'>part,</span> <span m='974130'>you</span> <span m='974420'>know,</span> <span m='974680'>it</span> <span m='974760'>could</span> <span m='974930'>have</span> <span m='975030'>been</span> <span m='975160'>differentiated,</span> <span m='975670'>it</span> <span m='975760'>could've</span> <span m='975960'>been</span> <span m='976090'>integrated,</span> <span m='977230'>but</span> <span m='977470'>since</span> <span m='977730'>the</span> <span m='977960'>arctan</span> <span m='978170'>wanted</span> <span m='978510'>to</span> <span m='978630'>be</span> <span m='980080'>differentiated,</span> <span m='980740'>this</span> <span m='981320'>got</span> <span m='981530'>integrated.</span> </p><p><span m='984350'>Good.</span> <span m='984560'>So</span> <span m='984650'>we</span> <span m='984740'>did</span> <span m='984910'>integration</span> <span m='985340'>by</span> <span m='985430'>parts,</span> <span m='985910'>and</span> <span m='986160'>then</span> <span m='986270'>we're</span> <span m='986520'>left</span> <span m='986800'>with</span> <span m='987350'>a</span> <span m='987510'>rational</span> <span m='987920'>function</span> <span m='988740'>as</span> <span m='989040'>the</span> <span m='989370'>piece</span> <span m='989640'>of</span> <span m='989750'>the</span> <span m='989850'>integral</span> <span m='990160'>we</span> <span m='990250'>had</span> <span m='990420'>left</span> <span m='990630'>to</span> <span m='990710'>compute.</span> <span m='991320'>So</span> <span m='991520'>when</span> <span m='991650'>you</span> <span m='991710'>have</span> <span m='991840'>a</span> <span m='991890'>rational</span> <span m='992310'>function,</span> <span m='992880'>one</span> <span m='993170'>method</span> <span m='993500'>that</span> <span m='993800'>always</span> <span m='994180'>works</span> <span m='994710'>is</span> <span m='994930'>that</span> <span m='995030'>you</span> <span m='995140'>can</span> <span m='995250'>do</span> <span m='995350'>partial</span> <span m='995710'>fractions.</span> <span m='996690'>Now,</span> <span m='996880'>in this</span> <span m='997020'>case,</span> <span m='997480'>this</span> <span m='997640'>was</span> <span m='997780'>a</span> <span m='997870'>fairly</span> <span m='998240'>simple</span> <span m='998570'>partial</span> <span m='998890'>fractions</span> <span m='999380'>to</span> <span m='999480'>do.</span> <span m='999910'>First</span> <span m='1000180'>of</span> <span m='1000250'>all,</span> <span m='1000370'>the</span> <span m='1000760'>degree</span> <span m='1001300'>of</span> <span m='1001450'>the</span> <span m='1002020'>numerator</span> <span m='1002930'>was</span> <span m='1003690'>smaller</span> <span m='1004110'>than</span> <span m='1004260'>the</span> <span m='1004350'>degree</span> <span m='1004650'>of</span> <span m='1004830'>the</span> <span m='1004930'>denominator,</span> <span m='1005400'>so</span> <span m='1005500'>we</span> <span m='1005560'>didn't</span> <span m='1005740'>have</span> <span m='1005860'>to</span> <span m='1005960'>divide</span> <span m='1006400'>by</span> <span m='1006550'>anything,</span> <span m='1007320'>you</span> <span m='1007510'>know,</span> <span m='1007570'>we</span> <span m='1007660'>didn't</span> <span m='1007770'>have</span> <span m='1007860'>to</span> <span m='1007950'>do</span> <span m='1008060'>long</span> <span m='1008310'>division.</span> <span m='1008920'>And</span> <span m='1010000'>the</span> <span m='1010790'>denominator</span> <span m='1011280'>had</span> <span m='1011390'>a</span> <span m='1011420'>fairly</span> <span m='1011730'>simple</span> <span m='1012010'>form,</span> <span m='1012510'>so</span> <span m='1012600'>we</span> <span m='1012710'>could</span> <span m='1012820'>just</span> <span m='1013000'>do</span> <span m='1013110'>the</span> <span m='1013210'>cover</span> <span m='1013500'>up</span> <span m='1013620'>method,</span> <span m='1013910'>and</span> <span m='1014040'>then</span> <span m='1015180'>multiply</span> <span m='1015650'>through</span> <span m='1015870'>and</span> <span m='1016010'>be</span> <span m='1016120'>done</span> <span m='1016410'>fairly</span> <span m='1016710'>quickly.</span> </p><p><span m='1017430'>But</span> <span m='1017620'>in</span> <span m='1017700'>any</span> <span m='1017830'>case.</span> <span m='1018050'>So</span> <span m='1018140'>we did, we</span> <span m='1019380'>applied</span> <span m='1019790'>partial</span> <span m='1020100'>fractions,</span> <span m='1020550'>so</span> <span m='1020640'>we</span> <span m='1020740'>got</span> <span m='1020960'>this</span> <span m='1021410'>expression.</span> <span m='1022110'>So then</span> <span m='1022270'>we</span> <span m='1022370'>carried</span> <span m='1022710'>that</span> <span m='1022890'>back</span> <span m='1023070'>up</span> <span m='1023180'>to</span> <span m='1023260'>our</span> <span m='1023400'>integral,</span> <span m='1024180'>and</span> <span m='1024320'>integrated.</span> <span m='1025950'>OK, so</span> <span m='1026090'>then</span> <span m='1026260'>we</span> <span m='1026370'>had</span> <span m='1026590'>this</span> <span m='1027360'>integral</span> <span m='1027920'>with</span> <span m='1028270'>the</span> <span m='1028360'>partial</span> <span m='1028690'>fraction</span> <span m='1029330'>expression</span> <span m='1029900'>in</span> <span m='1030060'>it,</span> <span m='1030320'>and</span> <span m='1030580'>that</span> <span m='1030740'>was</span> <span m='1030880'>easy</span> <span m='1031130'>to</span> <span m='1031210'>integrate.</span> <span m='1033190'>So</span> <span m='1035120'>in</span> <span m='1035220'>this</span> <span m='1035330'>case,</span> <span m='1035580'>quite</span> <span m='1035910'>easy</span> <span m='1036120'>to</span> <span m='1036190'>integrate.</span> <span m='1036540'>Sometimes</span> <span m='1036920'>it's</span> <span m='1037030'>a</span> <span m='1037100'>little</span> <span m='1037540'>messier,</span> <span m='1038040'>but</span> <span m='1038770'>we</span> <span m='1038880'>came</span> <span m='1039070'>out</span> <span m='1039240'>pretty</span> <span m='1039590'>luckily</span> <span m='1040310'>this</span> <span m='1040490'>time. So OK.</span> <span m='1042320'>And</span> <span m='1042670'>so</span> <span m='1042800'>there</span> <span m='1042970'>you</span> <span m='1043040'>go.</span> <span m='1043170'>So</span> <span m='1043340'>that's</span> <span m='1043950'>going to</span> <span m='1044120'>be</span> <span m='1044210'>our</span> <span m='1044300'>final</span> <span m='1044580'>answer.</span> </p><p><span m='1045150'>Now,</span> <span m='1045300'>this</span> <span m='1045490'>was</span> <span m='1046090'>long</span> <span m='1046370'>and</span> <span m='1046480'>complicated.</span> <span m='1047240'>And</span> <span m='1047410'>so</span> <span m='1048060'>sometimes,</span> <span m='1048450'>when</span> <span m='1048540'>you</span> <span m='1048630'>do</span> <span m='1048770'>a</span> <span m='1048850'>long and</span> <span m='1049140'>complicated</span> <span m='1049610'>computation,</span> <span m='1050100'>you</span> <span m='1050190'>worry,</span> <span m='1050670'>did</span> <span m='1050780'>I</span> <span m='1050850'>make</span> <span m='1051080'>any</span> <span m='1051200'>stupid</span> <span m='1051530'>mistakes</span> <span m='1051890'>along</span> <span m='1052160'>the</span> <span m='1052240'>way?</span> <span m='1053490'>One</span> <span m='1053840'>way</span> <span m='1053950'>to</span> <span m='1054040'>check,</span> <span m='1054370'>always,</span> <span m='1054770'>when</span> <span m='1054880'>you've</span> <span m='1055010'>done</span> <span m='1055700'>an</span> <span m='1056030'>antiderivative,</span> <span m='1056800'>is</span> <span m='1056990'>you</span> <span m='1057060'>could</span> <span m='1057160'>always</span> <span m='1057410'>check,</span> <span m='1057840'>you</span> <span m='1058040'>could</span> <span m='1058140'>take</span> <span m='1058360'>the</span> <span m='1058450'>derivative</span> <span m='1058780'>of</span> <span m='1058990'>this</span> <span m='1059150'>expression.</span> <span m='1059870'>So</span> <span m='1060070'>that'll</span> <span m='1060530'>require</span> <span m='1060990'>you</span> <span m='1061080'>to</span> <span m='1061170'>use</span> <span m='1061400'>some</span> <span m='1061700'>product</span> <span m='1062070'>rule</span> <span m='1062440'>and</span> <span m='1063290'>some</span> <span m='1063520'>chain</span> <span m='1063770'>rule.</span> <span m='1064460'>But,</span> <span m='1064720'>you</span> <span m='1064940'>know,</span> <span m='1065550'>it's</span> <span m='1066390'>arithmetically</span> <span m='1068320'>a</span> <span m='1068390'>little</span> <span m='1069040'>difficult,</span> <span m='1069570'>but</span> <span m='1071050'>not</span> <span m='1071420'>sort</span> <span m='1071620'>of</span> <span m='1071740'>intellectually,</span> <span m='1072550'>right?</span> <span m='1072760'>You</span> <span m='1073070'>just</span> <span m='1073320'>are</span> <span m='1073500'>applying</span> <span m='1074050'>rules</span> <span m='1074490'>sort of</span> <span m='1075080'>automatically.</span> <span m='1076470'>So</span> <span m='1076630'>you</span> <span m='1076720'>can</span> <span m='1077220'>take</span> <span m='1077460'>the</span> <span m='1077560'>derivative</span> <span m='1077960'>of</span> <span m='1078070'>this</span> <span m='1078220'>expression,</span> <span m='1078860'>and</span> <span m='1079010'>check</span> <span m='1079310'>to</span> <span m='1079410'>make</span> <span m='1079560'>sure</span> <span m='1079790'>that</span> <span m='1079950'>it</span> <span m='1080490'>actually</span> <span m='1080900'>agrees</span> <span m='1081470'>with</span> <span m='1081660'>the</span> <span m='1081750'>thing</span> <span m='1081940'>that we</span> <span m='1082120'>started</span> <span m='1082380'>with.</span> </p><p><span m='1084330'>So</span> <span m='1085360'>good.</span> <span m='1085820'>I'll</span> <span m='1086090'>end</span> <span m='1086270'>there.</span> </p>", 
    "_content_type_link_text": "text/plain", 
    "course_linking": [], 
    "_id": "integration-practice-iv", 
    "modification_date": "2016/09/25 01:17:36.189 GMT-4", 
    "media_index": [], 
    "always_publish": false, 
    "_owner": null, 
    "_permissions": {
        "Change portal events": {
            "acquire": false, 
            "roles": [
                "Editor", 
                "Manager", 
                "MetadataEditor", 
                "Owner"
            ]
        }, 
        "Modify portal content": {
            "acquire": false, 
            "roles": [
                "Manager", 
                "MetadataEditor"
            ]
        }, 
        "Access contents information": {
            "acquire": false, 
            "roles": [
                "Authenticated"
            ]
        }, 
        "List folder contents": {
            "acquire": false, 
            "roles": [
                "Editor", 
                "Manager", 
                "MetadataEditor", 
                "Owner"
            ]
        }, 
        "View": {
            "acquire": false, 
            "roles": [
                "Authenticated"
            ]
        }
    }, 
    "_properties": [
        [
            "title", 
            "Integration Practice IV", 
            "string"
        ]
    ], 
    "creators": [
        "pgandhi3"
    ], 
    "courselist_features": [], 
    "_path": "/Plone/courses/mathematics/18-01sc-single-variable-calculus-fall-2010/unit-4-techniques-of-integration/exam-4/session-85-review-for-exam-4/integration-practice-iv"
}