{
    "text": "<p class=\"sc_nav\">&laquo; <a class=\"sc_prev\" href=\"./resolveuid/c0baf8c0ea3346ee54ad50f5dc690161\">Previous</a> | <a class=\"sc_next\" href=\"./resolveuid/7011962365c7a7e31179a33dc8e95275\">Next</a> &raquo;</p> <p>&nbsp;</p> <h2 class=\"subhead\">Introduction</h2> <p>The key concept upon which Calculus is built is the notion of &quot;limits.&quot; This unit covers topics related to limits, infinitely many, or infinitely small values.</p> <p><a href=\"./resolveuid/7011962365c7a7e31179a33dc8e95275\"><strong>Part A: L'Hospital's Rule and Improper Integrals</strong></a></p> <ul class=\"arrow\">     <li><a href=\"./resolveuid/c9916c2b11369b0f6489e2805c8cd4c5\">Session 87: L'Hospital's Rule</a></li>     <li><a href=\"./resolveuid/7a8cdab56a9e46b35225a2bc22295a0f\">Session 88: Examples of L'Hospital's Rule</a></li>     <li><a href=\"./resolveuid/2f33db827cc33056ef710f503d79cc8f\">Session 89: L'Hospital's Rule and Rates of Growth</a></li>     <li><a href=\"./resolveuid/6cc72b08f8717a2d7b737df7f698c876\">Session 90: Advanced Examples of L'Hospital's Rule</a></li>     <li><a href=\"./resolveuid/3fa268819900b3ee4bc8d590323f17dc\">Session 91: Improper Integrals</a></li>     <li><a href=\"./resolveuid/ed231e9c56356bb1e18c555d00f08398\">Session 92: Integral Comparison</a></li>     <li><a href=\"./resolveuid/f502f183c03e6d5e51e824f9afc4cf8c\">Session 93: Indefinite Integrals and Singularities</a></li> </ul> <p><a href=\"./resolveuid/1c9b92776c16c587013d2f3b4e9b94a0\"><strong>Part B: Taylor Series</strong></a></p> <ul class=\"arrow\">     <li><a href=\"./resolveuid/1825bfbbd3647c86fa9771d985c21513\">Session 94: Infinite Series</a></li>     <li><a href=\"./resolveuid/e6b5bcf01d4fe02cb8f15ed900b23542\">Session 95: Series Comparison</a></li>     <li><a href=\"./resolveuid/67af89504ffe36b570ec6996515b988c\">Session 96: Stacking Blocks</a></li>     <li><a href=\"./resolveuid/bcbb45fdbe1b69cc80a82c9f73ca8d5d\">Session 97: Power Series</a></li>     <li><a href=\"./resolveuid/30f32e825b1a1974da6c98b8de0aafd3\">Session 98: Taylor's Series</a></li>     <li><a href=\"./resolveuid/9714534fbc6217589e4ab69f5ad147a4\">Session 99: Taylor's Series, Continued</a></li>     <li><a href=\"./resolveuid/7aaff01423b922b346afdcd6c0328e83\">Session 100: Operations on Power Series</a></li>     <li><a href=\"./resolveuid/c22c320788f09de5fe78a6e305cad2b4\">Session 101: Conclusion</a></li> </ul> <p>&nbsp;</p> <p class=\"sc_nav_bottom\">&laquo; <a class=\"sc_prev\" href=\"./resolveuid/c0baf8c0ea3346ee54ad50f5dc690161\">Previous</a> | <a class=\"sc_next\" href=\"./resolveuid/7011962365c7a7e31179a33dc8e95275\">Next</a> &raquo;</p>", 
    "_content_type_license": "text/plain", 
    "_uid": "6e3abd11deb09fc49199b1e8893935e7", 
    "title": "5. Exploring the Infinite", 
    "_ac_local_roles": {
        "cc_akuma1": [
            "Owner"
        ]
    }, 
    "location": "", 
    "_content_type_course_identifier": "text/plain", 
    "_atbrefs": {
        "isReferencing": [
            "c0baf8c0ea3346ee54ad50f5dc690161", 
            "7011962365c7a7e31179a33dc8e95275"
        ]
    }, 
    "constrainTypesMode": 0, 
    "technical_location": "https://ocw.mit.edu/courses/mathematics/18-01sc-single-variable-calculus-fall-2010/unit-5-exploring-the-infinite", 
    "software_requirements": [
        {
            "software_type_col": "Browser", 
            "minimum_version_col": "40.0", 
            "software_name_col": "Chrome", 
            "maximum_version_col": ""
        }, 
        {
            "software_type_col": "Browser", 
            "minimum_version_col": "8.0", 
            "software_name_col": "Safari", 
            "maximum_version_col": ""
        }, 
        {
            "software_type_col": "Browser", 
            "minimum_version_col": "38.0", 
            "software_name_col": "Mozilla Firefox", 
            "maximum_version_col": ""
        }, 
        {
            "software_type_col": "Browser", 
            "minimum_version_col": "9.0", 
            "software_name_col": "Internet Explorer", 
            "maximum_version_col": ""
        }, 
        {
            "software_type_col": "Browser", 
            "minimum_version_col": "13.1", 
            "software_name_col": "Edge", 
            "maximum_version_col": ""
        }
    ], 
    "_content_type_technical_location": "text/plain", 
    "_content_type_rights": "text/html", 
    "_directly_provided": [
        "Products.CMFEditions.interfaces.IVersioned"
    ], 
    "parent_uid": "bfe41979b9593362793fd930b36efa01", 
    "excludeFromNav": false, 
    "_content_type_unique_identifier": "text/plain", 
    "allowDiscussion": false, 
    "metadata_contributor_list": [], 
    "locallyAllowedTypes": [
        "OCWImage", 
        "CourseSection", 
        "OCWExtFile", 
        "OCWFile", 
        "MediaResource"
    ], 
    "_content_type_text": "text/html", 
    "ad_type": "HOUSE", 
    "creation_date": "2012/11/08 02:15:02.187 US/Eastern", 
    "aggregationlevel": 3, 
    "duration": "", 
    "immediatelyAddableTypes": [
        "OCWImage", 
        "CourseSection", 
        "OCWExtFile", 
        "OCWFile", 
        "MediaResource"
    ], 
    "subject": [], 
    "_content_type_short_page_title": "text/plain", 
    "effectiveDate": "2012/11/09 03:19:00.344 US/Eastern", 
    "parent_module": "bfe41979b9593362793fd930b36efa01", 
    "is_mathml_document": false, 
    "bottomtext": "", 
    "short_page_title": "5. Exploring the Infinite", 
    "section_identifier": null, 
    "related_mit_links": "", 
    "_content_type_ad_type": "text/plain", 
    "_layout": "custom_view", 
    "_workflow_history": {
        "page_workflow": [
            {
                "action": null, 
                "review_state": "waiting_for_authoring", 
                "actor": "cc_akuma1", 
                "comments": "", 
                "time": "2012/11/08 02:15:02.198 US/Eastern"
            }, 
            {
                "action": "approve_to_staging", 
                "review_state": "ready_for_staging", 
                "actor": "ndhamija", 
                "comments": "", 
                "time": "2012/11/09 03:19:00.375 US/Eastern"
            }, 
            {
                "action": "decline", 
                "review_state": "waiting_for_authoring", 
                "comments": "", 
                "actor": "ndhamija", 
                "time": "2012/11/12 08:10:44.137 US/Eastern"
            }, 
            {
                "action": "approve_to_staging", 
                "review_state": "ready_for_staging", 
                "actor": "ndhamija", 
                "comments": "", 
                "time": "2012/11/12 08:12:11.410 US/Eastern"
            }, 
            {
                "action": "decline", 
                "review_state": "waiting_for_authoring", 
                "comments": "", 
                "actor": "asingh124", 
                "time": "2012/11/23 03:37:40.134 US/Eastern"
            }, 
            {
                "action": "approve_to_staging", 
                "review_state": "ready_for_staging", 
                "actor": "asingh124", 
                "comments": "", 
                "time": "2012/11/23 06:47:12.063 US/Eastern"
            }, 
            {
                "action": "decline", 
                "review_state": "waiting_for_authoring", 
                "comments": "", 
                "actor": "rverma83", 
                "time": "2014/09/05 05:19:43.160 GMT-4"
            }, 
            {
                "action": "approve_to_staging", 
                "review_state": "ready_for_staging", 
                "actor": "rverma83", 
                "comments": "", 
                "time": "2014/09/05 05:32:11.881 GMT-4"
            }
        ]
    }, 
    "_classname": "CourseSection", 
    "_content_type_materialtype": "text/plain", 
    "_userdefined_roles": [], 
    "publisher": "MIT OpenCourseWare", 
    "nextPreviousEnabled": false, 
    "language": "", 
    "url_rewrite_patterns": [], 
    "widgets_features": [], 
    "category_features": [], 
    "firstTimeEdit": true, 
    "feature_requirements": [], 
    "list_in_left_nav": false, 
    "short_name_tlp": "", 
    "expirationDate": "None", 
    "_content_type_id": "text/plain", 
    "contributor_list": [
        {}
    ], 
    "is_media_gallery": false, 
    "contributors": [], 
    "_gopip": 6, 
    "_content_type_title": "text/plain", 
    "course_linking": [], 
    "_atrefs": {
        "BelongsTo": [
            "bfe41979b9593362793fd930b36efa01"
        ], 
        "isReferencing": [
            "c9916c2b11369b0f6489e2805c8cd4c5", 
            "bcbb45fdbe1b69cc80a82c9f73ca8d5d", 
            "c22c320788f09de5fe78a6e305cad2b4", 
            "7aaff01423b922b346afdcd6c0328e83", 
            "ed231e9c56356bb1e18c555d00f08398", 
            "9714534fbc6217589e4ab69f5ad147a4", 
            "30f32e825b1a1974da6c98b8de0aafd3", 
            "2f33db827cc33056ef710f503d79cc8f", 
            "7a8cdab56a9e46b35225a2bc22295a0f", 
            "7011962365c7a7e31179a33dc8e95275", 
            "e6b5bcf01d4fe02cb8f15ed900b23542", 
            "1825bfbbd3647c86fa9771d985c21513", 
            "f502f183c03e6d5e51e824f9afc4cf8c", 
            "6cc72b08f8717a2d7b737df7f698c876", 
            "67af89504ffe36b570ec6996515b988c", 
            "3fa268819900b3ee4bc8d590323f17dc", 
            "1c9b92776c16c587013d2f3b4e9b94a0", 
            "c0baf8c0ea3346ee54ad50f5dc690161"
        ]
    }, 
    "other_platform_requirements": "", 
    "license": "http://creativecommons.org/licenses/by-nc-sa/3.0/us/", 
    "rights": "This site (c) Massachusetts Institute of Technology 2012.  Content within individual courses is (c) by the individual authors unless otherwise noted. The Massachusetts Institute of Technology is providing this Work (as defined below) under the terms of this Creative Commons public license (\"CCPL\" or \"license\") unless otherwise noted. The Work is protected by copyright and/or other applicable law. Any use of the work other than as authorized under this license is prohibited. By exercising any of the rights to the Work provided here, You (as defined below) accept and agree to be bound by the terms of this license. The Licensor, the Massachusetts Institute of Technology, grants You the rights contained here in consideration of Your acceptance of such terms and conditions.", 
    "hide_Page_title": false, 
    "_defaultpage": "", 
    "tcATmit_subject_tags": [], 
    "features_tracking": [], 
    "ad_champion_text": "", 
    "has_inline_embed": false, 
    "unique_identifier": "https://ocw.mit.edu/courses/mathematics/18-01sc-single-variable-calculus-fall-2010/unit-5-exploring-the-infinite", 
    "is_image_gallery": false, 
    "id": "unit-5-exploring-the-infinite", 
    "materialtype": "Other", 
    "_type": "CourseSection", 
    "description": "This section includes the unit on exploring the infinite, one of the five major units of the course. This unit covers topics related to limits, infinitely many, or infinitely small values.", 
    "course_identifier": "https://ocw.mit.edu/courses/mathematics/18-01sc-single-variable-calculus-fall-2010", 
    "_content_type_publisher": "text/plain", 
    "tcATmit_instructional_tags": [], 
    "_content_type": "text/html", 
    "creators": [
        "cc_akuma1"
    ], 
    "modification_date": "2016/09/24 07:49:18.657 GMT-4", 
    "always_publish": false, 
    "_content_type_description": "text/plain", 
    "_owner": null, 
    "_permissions": {
        "Change portal events": {
            "acquire": false, 
            "roles": [
                "Editor", 
                "Manager", 
                "MetadataEditor", 
                "Owner"
            ]
        }, 
        "Modify portal content": {
            "acquire": false, 
            "roles": [
                "Manager", 
                "MetadataEditor"
            ]
        }, 
        "Access contents information": {
            "acquire": false, 
            "roles": [
                "Authenticated"
            ]
        }, 
        "List folder contents": {
            "acquire": false, 
            "roles": [
                "Editor", 
                "Manager", 
                "MetadataEditor", 
                "Owner"
            ]
        }, 
        "View": {
            "acquire": false, 
            "roles": [
                "Authenticated"
            ]
        }
    }, 
    "_properties": [
        [
            "title", 
            "5. Exploring the Infinite", 
            "string"
        ]
    ], 
    "_id": "unit-5-exploring-the-infinite", 
    "courselist_features": [], 
    "_path": "/Plone/courses/mathematics/18-01sc-single-variable-calculus-fall-2010/unit-5-exploring-the-infinite"
}