{
    "rsi_top_html_area": "", 
    "text": "", 
    "_content_type_license": "text/plain", 
    "_content_type_duration": "text/plain", 
    "_uid": "49c67f0ff29868b44efcbae63048de55", 
    "title": "Clip 2: Rate of Growth of epx", 
    "_ac_local_roles": {
        "pgandhi3": [
            "Owner"
        ]
    }, 
    "_content_type_about_this_resource_text": "text/html", 
    "template_type": "thumbnail_popup", 
    "location": "", 
    "_content_type_course_identifier": "text/plain", 
    "_atbrefs": {}, 
    "constrainTypesMode": 0, 
    "_content_type_section_identifier": "text/plain", 
    "technical_location": "https://ocw.mit.edu/courses/mathematics/18-01sc-single-variable-calculus-fall-2010/unit-5-exploring-the-infinite/part-a-lhospitals-rule-and-improper-integrals/session-89-lhospitals-rule-and-rates-of-growth/clip-2-rate-of-growth-of-epx", 
    "software_requirements": [
        {
            "software_type_col": "Browser", 
            "minimum_version_col": "40.0", 
            "software_name_col": "Chrome", 
            "maximum_version_col": ""
        }, 
        {
            "software_type_col": "Browser", 
            "minimum_version_col": "8.0", 
            "software_name_col": "Safari", 
            "maximum_version_col": ""
        }, 
        {
            "software_type_col": "Browser", 
            "minimum_version_col": "38.0", 
            "software_name_col": "Mozilla Firefox", 
            "maximum_version_col": ""
        }, 
        {
            "software_type_col": "Browser", 
            "minimum_version_col": "9.0", 
            "software_name_col": "Internet Explorer", 
            "maximum_version_col": ""
        }, 
        {
            "software_type_col": "Browser", 
            "minimum_version_col": "13.1", 
            "software_name_col": "Edge", 
            "maximum_version_col": ""
        }
    ], 
    "_content_type_technical_location": "text/plain", 
    "start_time": "1784", 
    "_content_type_rights": "text/html", 
    "_directly_provided": [
        "Products.CMFEditions.interfaces.IVersioned"
    ], 
    "media_rights": "(CC BY-NC-SA)", 
    "parent_uid": "2f33db827cc33056ef710f503d79cc8f", 
    "excludeFromNav": false, 
    "about_this_resource_text": "<p>&raquo; <a target=\"_blank\" title=\"Open in a new window.\" href=\"./resolveuid/2c20d1536b34162e85f0a8c2d4e405f5\">Accompanying Notes (PDF)</a></p> <p class=\"scholar_medsm\">From Lecture 35 of <a href=\"http://ocw.mit.edu/courses/mathematics/18-01-single-variable-calculus-fall-2006/video-lectures/\"><em>18.01 Single Variable Calculus, Fall 2006</em></a></p>", 
    "_content_type_unique_identifier": "text/plain", 
    "end_time": "2102", 
    "allowDiscussion": false, 
    "_content_type_materialtype": "text/plain", 
    "locallyAllowedTypes": [
        "OCWImage", 
        "OCWFile", 
        "OCWMediaAsset"
    ], 
    "optional_tab_title": "", 
    "ad_type": "HOUSE", 
    "creation_date": "2015/12/24 03:36:11.908 US/Eastern", 
    "aggregationlevel": 2, 
    "bottom_html_area": "", 
    "duration": "00:05:00", 
    "immediatelyAddableTypes": [
        "OCWImage", 
        "OCWFile", 
        "OCWMediaAsset"
    ], 
    "_content_type_template_type": "text/plain", 
    "subject": [], 
    "_content_type_short_page_title": "text/plain", 
    "effectiveDate": "2015/12/30 08:35:28.370 US/Eastern", 
    "parent_module": "bfe41979b9593362793fd930b36efa01", 
    "is_mathml_document": false, 
    "bottomtext": "", 
    "short_page_title": "Clip 2: Rate of Growth of epx", 
    "section_identifier": "https://ocw.mit.edu/courses/mathematics/18-01sc-single-variable-calculus-fall-2010/unit-5-exploring-the-infinite", 
    "show_captions_outside_player": false, 
    "related_mit_links": "", 
    "_content_type_ad_type": "text/plain", 
    "_layout": "custom_view", 
    "_workflow_history": {
        "page_workflow": [
            {
                "action": null, 
                "review_state": "waiting_for_authoring", 
                "comments": "", 
                "actor": "pgandhi3", 
                "time": "2015/12/24 03:36:11.923 US/Eastern"
            }, 
            {
                "action": "approve_to_staging", 
                "review_state": "ready_for_staging", 
                "actor": "sbabbar", 
                "comments": "", 
                "time": "2015/12/30 08:35:28.400 US/Eastern"
            }, 
            {
                "action": "decline", 
                "review_state": "waiting_for_authoring", 
                "comments": "", 
                "actor": "rsharma20", 
                "time": "2016/01/05 20:22:53.559 US/Eastern"
            }, 
            {
                "action": "approve_to_staging", 
                "review_state": "ready_for_staging", 
                "actor": "rsharma20", 
                "comments": "", 
                "time": "2016/01/05 20:24:23.292 US/Eastern"
            }
        ]
    }, 
    "_classname": "MediaResource", 
    "metadata_contributor_list": [], 
    "_userdefined_roles": [], 
    "_content_type_inline_embed_id": "text/plain", 
    "publisher": "MIT OpenCourseWare", 
    "nextPreviousEnabled": false, 
    "_gopip": 5, 
    "license": "http://creativecommons.org/licenses/by-nc-sa/3.0/us/", 
    "url_rewrite_patterns": [], 
    "widgets_features": [], 
    "category_features": [], 
    "resource_contributor_list": [
        {
            "res_contributor_entity": "Jerison, David", 
            "res_contributor_uid": "b28f05bbf3c3b44d28bc8f11fc7834cd", 
            "res_contributor_role": "Performer"
        }
    ], 
    "show_jump_back_5_seconds_button": false, 
    "firstTimeEdit": false, 
    "_content_type_media_rights": "text/plain", 
    "feature_requirements": [], 
    "list_in_left_nav": false, 
    "_content_type_end_time": "text/plain", 
    "inline_embed_id": "40544972clip2:rateofgrowthofepx1373102", 
    "short_name_tlp": "", 
    "expirationDate": "None", 
    "_content_type_id": "text/plain", 
    "contributor_list": [
        {}
    ], 
    "is_media_gallery": false, 
    "contributors": [], 
    "media_locations": [
        {}
    ], 
    "_content_type_media_resource_type": "text/plain", 
    "_content_type_title": "text/plain", 
    "subtitle_exemption": "None", 
    "_content_type": "text/html", 
    "resource_index_text": "", 
    "_atrefs": {
        "BelongsTo": [
            "bfe41979b9593362793fd930b36efa01"
        ], 
        "isReferencing": [
            "2c20d1536b34162e85f0a8c2d4e405f5"
        ]
    }, 
    "media_slides": [], 
    "other_platform_requirements": "", 
    "language": "", 
    "rights": "This site (c) Massachusetts Institute of Technology 2015.  Content within individual courses is (c) by the individual authors unless otherwise noted. The Massachusetts Institute of Technology is providing this Work (as defined below) under the terms of this Creative Commons public license (\"CCPL\" or \"license\") unless otherwise noted. The Work is protected by copyright and/or other applicable law. Any use of the work other than as authorized under this license is prohibited. By exercising any of the rights to the Work provided here, You (as defined below) accept and agree to be bound by the terms of this license. The Licensor, the Massachusetts Institute of Technology, grants You the rights contained here in consideration of Your acceptance of such terms and conditions.", 
    "hide_Page_title": false, 
    "_content_type_start_time": "text/plain", 
    "_defaultpage": "", 
    "related_resources_text": "", 
    "tcATmit_subject_tags": [], 
    "features_tracking": [], 
    "ad_champion_text": "", 
    "has_inline_embed": false, 
    "unique_identifier": "https://ocw.mit.edu/courses/mathematics/18-01sc-single-variable-calculus-fall-2010/unit-5-exploring-the-infinite/part-a-lhospitals-rule-and-improper-integrals/session-89-lhospitals-rule-and-rates-of-growth/clip-2-rate-of-growth-of-epx", 
    "link_text": "Clip 2: Rate of Growth of epx", 
    "is_image_gallery": false, 
    "id": "clip-2-rate-of-growth-of-epx", 
    "_content_type_subtitle_exemption": "text/plain", 
    "materialtype": "Other", 
    "optional_text": "", 
    "_type": "MediaResource", 
    "description": "", 
    "media_resource_type": "Video", 
    "course_identifier": "https://ocw.mit.edu/courses/mathematics/18-01sc-single-variable-calculus-fall-2010", 
    "_content_type_publisher": "text/plain", 
    "tcATmit_instructional_tags": [], 
    "transcript": "", 
    "_content_type_link_text": "text/plain", 
    "course_linking": [], 
    "_id": "clip-2-rate-of-growth-of-epx", 
    "modification_date": "2016/09/25 01:19:46.622 GMT-4", 
    "media_index": [], 
    "always_publish": false, 
    "_owner": null, 
    "_permissions": {
        "Change portal events": {
            "acquire": false, 
            "roles": [
                "Editor", 
                "Manager", 
                "MetadataEditor", 
                "Owner"
            ]
        }, 
        "Modify portal content": {
            "acquire": false, 
            "roles": [
                "Manager", 
                "MetadataEditor"
            ]
        }, 
        "Access contents information": {
            "acquire": false, 
            "roles": [
                "Authenticated"
            ]
        }, 
        "List folder contents": {
            "acquire": false, 
            "roles": [
                "Editor", 
                "Manager", 
                "MetadataEditor", 
                "Owner"
            ]
        }, 
        "View": {
            "acquire": false, 
            "roles": [
                "Authenticated"
            ]
        }
    }, 
    "_properties": [
        [
            "title", 
            "Clip 2: Rate of Growth of epx", 
            "string"
        ]
    ], 
    "creators": [
        "pgandhi3"
    ], 
    "courselist_features": [], 
    "_path": "/Plone/courses/mathematics/18-01sc-single-variable-calculus-fall-2010/unit-5-exploring-the-infinite/part-a-lhospitals-rule-and-improper-integrals/session-89-lhospitals-rule-and-rates-of-growth/clip-2-rate-of-growth-of-epx"
}