{
    "text": "<p class=\"sc_nav\">&laquo; <a href=\"./resolveuid/6cc72b08f8717a2d7b737df7f698c876\" class=\"sc_prev\">Previous</a> | <a href=\"./resolveuid/ed231e9c56356bb1e18c555d00f08398\" class=\"sc_next\">Next</a> &raquo;</p> <p>&nbsp;</p> <h2 class=\"subhead\">Overview</h2> <p>Integration allows us to find the area under the curve.  Improper integrals let us find this area (if it's well defined) even when that curve extends to infinity.  Knowing whether the area under a graph up to a large, finite value of x is significantly different from the area under the entire graph can help us simplify calculations and avoid approximation errors.</p> <h2 class=\"subhead\">Lecture Video and Notes</h2> <h3 class=\"subsubhead\">Video Excerpts</h3> <div class=\"embedbg\"><div class=\"medialisting\"><p>45496115clip1:introductiontoimproperintegrals12343303</p></div> <div class=\"medialisting\"><p>48138387clip2:integralofe-kx89057501</p></div> <div class=\"medialisting\"><p>13319836clip3:integralofe-x283725556</p></div> <div class=\"medialisting\"><p>96191954clip4:integralof1/x44158134</p></div></div> <h2 class=\"subhead\">Worked Example</h2> <p>&nbsp;</p> <p>Integrating 1/(5x + 2)<sup>2</sup> from 1 to In\ufb01nity</p> <ul>     <li><a target=\"_blank\" title=\"Open in a new window.\" href=\"./resolveuid/a66fcfeb7409639c6cce6ad67831c25c\">Problem (PDF)</a></li>     <li><a target=\"_blank\" title=\"Open in a new window.\" href=\"./resolveuid/07163bb0b7ba935b72ae14d3d0850ed2\">Solution (PDF)</a></li> </ul> <h2 class=\"subhead\">Recitation Video</h2> <p>&nbsp;</p> <h3 class=\"subsubhead\">A Solid With Finite Volume and In\ufb01nite Cross Section</h3> <p>6467959asolidwithfinitevolumeandin\ufb01nitecrosssection95700288</p> <h2 class=\"subhead\">Lecture Video and Notes</h2> <h3 class=\"subsubhead\">Video Excerpts</h3> <div class=\"embedbg\"><div class=\"medialisting\"><p>48630180clip1:integralof1/(xp)85679469</p></div></div> <h2 class=\"subhead\">Recitation Video</h2> <p>&nbsp;</p> <h3 class=\"subsubhead\">Improper Integrals</h3> <p>70544736improperintegrals4310359</p> <p>&nbsp;</p> <p class=\"sc_nav_bottom\">&laquo; <a href=\"./resolveuid/6cc72b08f8717a2d7b737df7f698c876\" class=\"sc_prev\">Previous</a> | <a href=\"./resolveuid/ed231e9c56356bb1e18c555d00f08398\" class=\"sc_next\">Next</a> &raquo;</p>", 
    "_content_type_license": "text/plain", 
    "_uid": "3fa268819900b3ee4bc8d590323f17dc", 
    "title": "Session 91: Improper Integrals", 
    "_ac_local_roles": {
        "cc_akuma1": [
            "Owner"
        ]
    }, 
    "location": "", 
    "_content_type_course_identifier": "text/plain", 
    "_atbrefs": {
        "isReferencing": [
            "6e3abd11deb09fc49199b1e8893935e7", 
            "7011962365c7a7e31179a33dc8e95275", 
            "6cc72b08f8717a2d7b737df7f698c876", 
            "ed231e9c56356bb1e18c555d00f08398"
        ]
    }, 
    "constrainTypesMode": -1, 
    "_content_type_section_identifier": "text/plain", 
    "technical_location": "https://ocw.mit.edu/courses/mathematics/18-01sc-single-variable-calculus-fall-2010/unit-5-exploring-the-infinite/part-a-lhospitals-rule-and-improper-integrals/session-91-improper-integrals", 
    "software_requirements": [
        {
            "software_type_col": "Browser", 
            "minimum_version_col": "40.0", 
            "software_name_col": "Chrome", 
            "maximum_version_col": ""
        }, 
        {
            "software_type_col": "Browser", 
            "minimum_version_col": "8.0", 
            "software_name_col": "Safari", 
            "maximum_version_col": ""
        }, 
        {
            "software_type_col": "Browser", 
            "minimum_version_col": "38.0", 
            "software_name_col": "Mozilla Firefox", 
            "maximum_version_col": ""
        }, 
        {
            "software_type_col": "Browser", 
            "minimum_version_col": "9.0", 
            "software_name_col": "Internet Explorer", 
            "maximum_version_col": ""
        }, 
        {
            "software_type_col": "Browser", 
            "minimum_version_col": "13.1", 
            "software_name_col": "Edge", 
            "maximum_version_col": ""
        }
    ], 
    "_content_type_technical_location": "text/plain", 
    "_content_type_rights": "text/html", 
    "_directly_provided": [
        "Products.CMFEditions.interfaces.IVersioned"
    ], 
    "parent_uid": "7011962365c7a7e31179a33dc8e95275", 
    "excludeFromNav": false, 
    "_content_type_unique_identifier": "text/plain", 
    "allowDiscussion": false, 
    "metadata_contributor_list": [], 
    "locallyAllowedTypes": [
        "OCWImage", 
        "CourseSection", 
        "OCWExtFile", 
        "OCWFile", 
        "MediaResource"
    ], 
    "_content_type_text": "text/html", 
    "ad_type": "HOUSE", 
    "creation_date": "2010/11/17 16:18:23.018 US/Eastern", 
    "aggregationlevel": 3, 
    "duration": "", 
    "immediatelyAddableTypes": [
        "OCWImage", 
        "CourseSection", 
        "OCWExtFile", 
        "OCWFile", 
        "MediaResource"
    ], 
    "subject": [], 
    "_content_type_short_page_title": "text/plain", 
    "effectiveDate": "2010/11/17 16:18:32.833 US/Eastern", 
    "parent_module": "bfe41979b9593362793fd930b36efa01", 
    "is_mathml_document": false, 
    "bottomtext": "", 
    "short_page_title": "Session 91: Improper Integrals", 
    "section_identifier": "https://ocw.mit.edu/courses/mathematics/18-01sc-single-variable-calculus-fall-2010/unit-5-exploring-the-infinite", 
    "related_mit_links": "", 
    "_content_type_ad_type": "text/plain", 
    "_layout": "custom_view", 
    "_workflow_history": {
        "page_workflow": [
            {
                "action": null, 
                "review_state": "waiting_for_authoring", 
                "comments": "", 
                "actor": "Kcanavan", 
                "time": "2010/11/17 16:18:23.025 US/Eastern"
            }, 
            {
                "action": "approve_to_staging", 
                "review_state": "ready_for_staging", 
                "comments": "", 
                "actor": "Kcanavan", 
                "time": "2010/11/17 16:18:32.859 US/Eastern"
            }, 
            {
                "action": "decline", 
                "review_state": "waiting_for_authoring", 
                "actor": "cc_gegrov", 
                "comments": "", 
                "time": "2010/12/23 03:11:49.569 US/Eastern"
            }, 
            {
                "action": "approve_to_staging", 
                "review_state": "ready_for_staging", 
                "comments": "", 
                "actor": "cc_gegrov", 
                "time": "2010/12/23 06:57:08.207 US/Eastern"
            }, 
            {
                "action": "decline", 
                "review_state": "waiting_for_authoring", 
                "actor": "Carchidi", 
                "comments": "", 
                "time": "2010/12/23 14:46:17.716 US/Eastern"
            }, 
            {
                "action": "approve_to_staging", 
                "review_state": "ready_for_staging", 
                "actor": "Carchidi", 
                "comments": "", 
                "time": "2010/12/23 14:46:45.922 US/Eastern"
            }, 
            {
                "action": "decline_to_qa", 
                "review_state": "waiting_for_qa", 
                "comments": "", 
                "actor": "tabikoff", 
                "time": "2011/01/07 12:08:51.696 US/Eastern"
            }, 
            {
                "action": "approve_to_staging", 
                "review_state": "ready_for_staging", 
                "comments": "", 
                "actor": "tabikoff", 
                "time": "2011/01/07 12:10:23.675 US/Eastern"
            }, 
            {
                "action": "decline_to_qa", 
                "review_state": "waiting_for_qa", 
                "comments": "", 
                "actor": "Kcanavan", 
                "time": "2011/01/09 09:46:31.882 US/Eastern"
            }, 
            {
                "action": "approve_to_staging", 
                "review_state": "ready_for_staging", 
                "actor": "Kcanavan", 
                "comments": "", 
                "time": "2011/01/09 09:51:31.638 US/Eastern"
            }, 
            {
                "action": "decline_to_qa", 
                "review_state": "waiting_for_qa", 
                "comments": "", 
                "actor": "Kcanavan", 
                "time": "2011/01/10 13:47:35.395 US/Eastern"
            }, 
            {
                "action": "approve_to_staging", 
                "review_state": "ready_for_staging", 
                "actor": "Kcanavan", 
                "comments": "", 
                "time": "2011/01/10 14:10:05.774 US/Eastern"
            }, 
            {
                "action": "decline_to_qa", 
                "review_state": "waiting_for_qa", 
                "comments": "", 
                "actor": "Kcanavan", 
                "time": "2011/01/10 15:28:00.821 US/Eastern"
            }, 
            {
                "action": "approve_to_staging", 
                "review_state": "ready_for_staging", 
                "comments": "", 
                "actor": "Kcanavan", 
                "time": "2011/01/10 16:23:48.164 US/Eastern"
            }, 
            {
                "action": "decline_to_qa", 
                "review_state": "waiting_for_qa", 
                "actor": "Kcanavan", 
                "comments": "", 
                "time": "2011/01/12 10:21:42.681 US/Eastern"
            }, 
            {
                "action": "approve_to_staging", 
                "review_state": "ready_for_staging", 
                "actor": "Kcanavan", 
                "comments": "", 
                "time": "2011/01/12 10:24:09.534 US/Eastern"
            }, 
            {
                "action": "decline_to_qa", 
                "review_state": "waiting_for_qa", 
                "comments": "", 
                "actor": "Jcplayer", 
                "time": "2011/07/26 15:06:56.671 GMT-4"
            }, 
            {
                "action": "approve_to_staging", 
                "review_state": "ready_for_staging", 
                "actor": "Jcplayer", 
                "comments": "", 
                "time": "2011/07/26 17:13:37.194 GMT-4"
            }, 
            {
                "action": null, 
                "review_state": "waiting_for_authoring", 
                "actor": "cc_akuma1", 
                "comments": "", 
                "time": "2012/11/08 02:17:17.842 US/Eastern"
            }, 
            {
                "action": "approve_to_staging", 
                "review_state": "ready_for_staging", 
                "comments": "", 
                "actor": "ndhamija", 
                "time": "2012/11/09 04:00:22.399 US/Eastern"
            }, 
            {
                "action": "decline", 
                "review_state": "waiting_for_authoring", 
                "actor": "ndhamija", 
                "comments": "", 
                "time": "2012/11/12 07:37:48.334 US/Eastern"
            }, 
            {
                "action": "approve_to_staging", 
                "review_state": "ready_for_staging", 
                "comments": "", 
                "actor": "ndhamija", 
                "time": "2012/11/12 07:41:45.453 US/Eastern"
            }, 
            {
                "action": "decline", 
                "review_state": "waiting_for_authoring", 
                "comments": "", 
                "actor": "abohra", 
                "time": "2012/11/23 02:49:44.936 US/Eastern"
            }, 
            {
                "action": "approve_to_staging", 
                "review_state": "ready_for_staging", 
                "comments": "", 
                "actor": "asingh124", 
                "time": "2012/11/23 06:36:39.300 US/Eastern"
            }, 
            {
                "action": "decline_to_qa", 
                "review_state": "waiting_for_qa", 
                "actor": "kqli", 
                "comments": "", 
                "time": "2013/01/02 13:03:36.193 US/Eastern"
            }, 
            {
                "action": "approve_to_staging", 
                "review_state": "ready_for_staging", 
                "actor": "kqli", 
                "comments": "", 
                "time": "2013/01/02 13:04:05.049 US/Eastern"
            }, 
            {
                "action": "decline_to_qa", 
                "review_state": "waiting_for_qa", 
                "comments": "", 
                "actor": "Jcplayer", 
                "time": "2013/08/22 11:48:42.677 GMT-4"
            }, 
            {
                "action": "approve_to_staging", 
                "review_state": "ready_for_staging", 
                "actor": "Jcplayer", 
                "comments": "", 
                "time": "2013/08/22 11:49:47.975 GMT-4"
            }, 
            {
                "action": "decline", 
                "review_state": "waiting_for_authoring", 
                "comments": "", 
                "actor": "rverma83", 
                "time": "2014/09/05 05:19:56.327 GMT-4"
            }, 
            {
                "action": "approve_to_staging", 
                "review_state": "ready_for_staging", 
                "comments": "", 
                "actor": "rverma83", 
                "time": "2014/09/05 05:28:51.127 GMT-4"
            }, 
            {
                "action": "decline", 
                "review_state": "waiting_for_authoring", 
                "actor": "pgandhi3", 
                "comments": "", 
                "time": "2015/12/24 03:54:30.718 US/Eastern"
            }, 
            {
                "action": "approve_to_staging", 
                "review_state": "ready_for_staging", 
                "comments": "", 
                "actor": "srani11", 
                "time": "2015/12/30 02:09:00.880 US/Eastern"
            }, 
            {
                "action": "decline", 
                "review_state": "waiting_for_authoring", 
                "actor": "rsharma20", 
                "comments": "", 
                "time": "2016/01/05 22:30:58.604 US/Eastern"
            }, 
            {
                "action": "approve_to_staging", 
                "review_state": "ready_for_staging", 
                "comments": "", 
                "actor": "rsharma20", 
                "time": "2016/01/05 22:39:37.700 US/Eastern"
            }, 
            {
                "action": "decline_to_qa", 
                "review_state": "waiting_for_qa", 
                "actor": "Jcplayer", 
                "comments": "", 
                "time": "2016/08/09 15:17:06.745 GMT-4"
            }, 
            {
                "action": "approve_to_staging", 
                "review_state": "ready_for_staging", 
                "actor": "Jcplayer", 
                "comments": "", 
                "time": "2016/08/09 15:23:23.857 GMT-4"
            }
        ]
    }, 
    "_classname": "CourseSection", 
    "_content_type_materialtype": "text/plain", 
    "_userdefined_roles": [], 
    "publisher": "MIT OpenCourseWare", 
    "nextPreviousEnabled": false, 
    "language": "", 
    "url_rewrite_patterns": [], 
    "widgets_features": [], 
    "category_features": [], 
    "firstTimeEdit": true, 
    "feature_requirements": [], 
    "list_in_left_nav": false, 
    "short_name_tlp": "Session 91: Improper Integrals", 
    "expirationDate": "None", 
    "_content_type_id": "text/plain", 
    "contributor_list": [
        {}
    ], 
    "is_media_gallery": false, 
    "contributors": [], 
    "_gopip": 4, 
    "_content_type_title": "text/plain", 
    "course_linking": [], 
    "_atrefs": {
        "BelongsTo": [
            "bfe41979b9593362793fd930b36efa01"
        ], 
        "isReferencing": [
            "07163bb0b7ba935b72ae14d3d0850ed2", 
            "a66fcfeb7409639c6cce6ad67831c25c", 
            "ed231e9c56356bb1e18c555d00f08398", 
            "6cc72b08f8717a2d7b737df7f698c876"
        ]
    }, 
    "other_platform_requirements": "", 
    "license": "http://creativecommons.org/licenses/by-nc-sa/3.0/us/", 
    "rights": "This site (c) Massachusetts Institute of Technology 2010.  Content within individual courses is (c) by the individual authors unless otherwise noted. The Massachusetts Institute of Technology is providing this Work (as defined below) under the terms of this Creative Commons public license (\"CCPL\" or \"license\") unless otherwise noted. The Work is protected by copyright and/or other applicable law. Any use of the work other than as authorized under this license is prohibited. By exercising any of the rights to the Work provided here, You (as defined below) accept and agree to be bound by the terms of this license. The Licensor, the Massachusetts Institute of Technology, grants You the rights contained here in consideration of Your acceptance of such terms and conditions.", 
    "hide_Page_title": null, 
    "_defaultpage": "", 
    "tcATmit_subject_tags": [], 
    "features_tracking": [], 
    "ad_champion_text": "", 
    "has_inline_embed": true, 
    "unique_identifier": "https://ocw.mit.edu/courses/mathematics/18-01sc-single-variable-calculus-fall-2010/unit-5-exploring-the-infinite/part-a-lhospitals-rule-and-improper-integrals/session-91-improper-integrals", 
    "is_image_gallery": false, 
    "id": "session-91-improper-integrals", 
    "materialtype": "Other", 
    "_type": "CourseSection", 
    "description": "This section contains lecture video excerpts and lecture notes on improper integrals, problem solving videos, and a worked example.", 
    "course_identifier": "https://ocw.mit.edu/courses/mathematics/18-01sc-single-variable-calculus-fall-2010", 
    "_content_type_publisher": "text/plain", 
    "tcATmit_instructional_tags": [], 
    "_content_type": "text/html", 
    "creators": [
        "Kcanavan"
    ], 
    "modification_date": "2016/09/24 07:49:10.689 GMT-4", 
    "always_publish": true, 
    "_content_type_description": "text/plain", 
    "_owner": null, 
    "_permissions": {
        "Change portal events": {
            "acquire": false, 
            "roles": [
                "Editor", 
                "Manager", 
                "MetadataEditor", 
                "Owner"
            ]
        }, 
        "Modify portal content": {
            "acquire": false, 
            "roles": [
                "Manager", 
                "MetadataEditor"
            ]
        }, 
        "Access contents information": {
            "acquire": false, 
            "roles": [
                "Authenticated"
            ]
        }, 
        "List folder contents": {
            "acquire": false, 
            "roles": [
                "Editor", 
                "Manager", 
                "MetadataEditor", 
                "Owner"
            ]
        }, 
        "View": {
            "acquire": false, 
            "roles": [
                "Authenticated"
            ]
        }
    }, 
    "_properties": [
        [
            "title", 
            "Session 91: Improper Integrals", 
            "string"
        ]
    ], 
    "_id": "session-91-improper-integrals", 
    "courselist_features": [], 
    "_content_type_short_name_tlp": "text/plain", 
    "_path": "/Plone/courses/mathematics/18-01sc-single-variable-calculus-fall-2010/unit-5-exploring-the-infinite/part-a-lhospitals-rule-and-improper-integrals/session-91-improper-integrals"
}