{
    "rsi_top_html_area": "", 
    "text": "", 
    "_content_type_license": "text/plain", 
    "_uid": "16c3a93c75ed2b8f0a7c0ec1283c142b", 
    "title": "A Solid With Finite Volume and In\ufb01nite Cross Section", 
    "_ac_local_roles": {
        "pgandhi3": [
            "Owner"
        ]
    }, 
    "template_type": "Embed", 
    "location": "", 
    "_content_type_course_identifier": "text/plain", 
    "_atbrefs": {}, 
    "constrainTypesMode": 0, 
    "_content_type_section_identifier": "text/plain", 
    "technical_location": "https://ocw.mit.edu/courses/mathematics/18-01sc-single-variable-calculus-fall-2010/unit-5-exploring-the-infinite/part-a-lhospitals-rule-and-improper-integrals/session-91-improper-integrals/a-solid-with-finite-volume-and-infinite-cross-section", 
    "software_requirements": [
        {
            "software_type_col": "Browser", 
            "minimum_version_col": "40.0", 
            "software_name_col": "Chrome", 
            "maximum_version_col": ""
        }, 
        {
            "software_type_col": "Browser", 
            "minimum_version_col": "8.0", 
            "software_name_col": "Safari", 
            "maximum_version_col": ""
        }, 
        {
            "software_type_col": "Browser", 
            "minimum_version_col": "38.0", 
            "software_name_col": "Mozilla Firefox", 
            "maximum_version_col": ""
        }, 
        {
            "software_type_col": "Browser", 
            "minimum_version_col": "9.0", 
            "software_name_col": "Internet Explorer", 
            "maximum_version_col": ""
        }, 
        {
            "software_type_col": "Browser", 
            "minimum_version_col": "13.1", 
            "software_name_col": "Edge", 
            "maximum_version_col": ""
        }
    ], 
    "_content_type_technical_location": "text/plain", 
    "start_time": "", 
    "_content_type_rights": "text/html", 
    "_directly_provided": [
        "Products.CMFEditions.interfaces.IVersioned"
    ], 
    "media_rights": "(CC BY-NC-SA)", 
    "parent_uid": "3fa268819900b3ee4bc8d590323f17dc", 
    "excludeFromNav": false, 
    "about_this_resource_text": "", 
    "_content_type_unique_identifier": "text/plain", 
    "end_time": "", 
    "allowDiscussion": false, 
    "_content_type_materialtype": "text/plain", 
    "locallyAllowedTypes": [
        "OCWImage", 
        "OCWFile", 
        "OCWMediaAsset"
    ], 
    "optional_tab_title": "", 
    "ad_type": "HOUSE", 
    "creation_date": "2015/12/24 03:56:28.405 US/Eastern", 
    "aggregationlevel": 2, 
    "bottom_html_area": "", 
    "duration": "", 
    "immediatelyAddableTypes": [
        "OCWImage", 
        "OCWFile", 
        "OCWMediaAsset"
    ], 
    "_content_type_template_type": "text/plain", 
    "subject": [], 
    "_content_type_short_page_title": "text/plain", 
    "effectiveDate": "2015/12/30 08:39:32.678 US/Eastern", 
    "parent_module": "bfe41979b9593362793fd930b36efa01", 
    "is_mathml_document": false, 
    "bottomtext": "", 
    "short_page_title": "A Solid With Finite Volume and In\ufb01nite Cross Section", 
    "section_identifier": "https://ocw.mit.edu/courses/mathematics/18-01sc-single-variable-calculus-fall-2010/unit-5-exploring-the-infinite", 
    "show_captions_outside_player": false, 
    "related_mit_links": "", 
    "_content_type_ad_type": "text/plain", 
    "_layout": "custom_view", 
    "_workflow_history": {
        "page_workflow": [
            {
                "action": null, 
                "review_state": "waiting_for_authoring", 
                "comments": "", 
                "actor": "pgandhi3", 
                "time": "2015/12/24 03:56:28.419 US/Eastern"
            }, 
            {
                "action": "approve_to_staging", 
                "review_state": "ready_for_staging", 
                "actor": "sbabbar", 
                "comments": "", 
                "time": "2015/12/30 08:39:32.707 US/Eastern"
            }
        ]
    }, 
    "_content_type_transcript": "text/html", 
    "metadata_contributor_list": [], 
    "_userdefined_roles": [], 
    "_content_type_inline_embed_id": "text/plain", 
    "publisher": "MIT OpenCourseWare", 
    "nextPreviousEnabled": false, 
    "_gopip": 10, 
    "license": "http://creativecommons.org/licenses/by-nc-sa/3.0/us/", 
    "url_rewrite_patterns": [], 
    "widgets_features": [], 
    "category_features": [], 
    "resource_contributor_list": [
        {
            "res_contributor_entity": "Jerison, David", 
            "res_contributor_uid": "b28f05bbf3c3b44d28bc8f11fc7834cd", 
            "res_contributor_role": "Performer"
        }
    ], 
    "show_jump_back_5_seconds_button": false, 
    "firstTimeEdit": false, 
    "_content_type_media_rights": "text/plain", 
    "feature_requirements": [], 
    "list_in_left_nav": false, 
    "inline_embed_id": "6467959asolidwithfinitevolumeandin\ufb01nitecrosssection95700288", 
    "_classname": "MediaResource", 
    "short_name_tlp": "", 
    "expirationDate": "None", 
    "_content_type_id": "text/plain", 
    "contributor_list": [
        {}
    ], 
    "is_media_gallery": false, 
    "contributors": [], 
    "media_locations": [
        {}
    ], 
    "_content_type_media_resource_type": "text/plain", 
    "_content_type_title": "text/plain", 
    "subtitle_exemption": "None", 
    "_content_type": "text/html", 
    "resource_index_text": "", 
    "_atrefs": {
        "BelongsTo": [
            "bfe41979b9593362793fd930b36efa01"
        ]
    }, 
    "media_slides": [], 
    "other_platform_requirements": "", 
    "language": "", 
    "rights": "This site (c) Massachusetts Institute of Technology 2015.  Content within individual courses is (c) by the individual authors unless otherwise noted. The Massachusetts Institute of Technology is providing this Work (as defined below) under the terms of this Creative Commons public license (\"CCPL\" or \"license\") unless otherwise noted. The Work is protected by copyright and/or other applicable law. Any use of the work other than as authorized under this license is prohibited. By exercising any of the rights to the Work provided here, You (as defined below) accept and agree to be bound by the terms of this license. The Licensor, the Massachusetts Institute of Technology, grants You the rights contained here in consideration of Your acceptance of such terms and conditions.", 
    "hide_Page_title": false, 
    "_defaultpage": "", 
    "related_resources_text": "", 
    "tcATmit_subject_tags": [], 
    "features_tracking": [], 
    "ad_champion_text": "", 
    "has_inline_embed": false, 
    "unique_identifier": "https://ocw.mit.edu/courses/mathematics/18-01sc-single-variable-calculus-fall-2010/unit-5-exploring-the-infinite/part-a-lhospitals-rule-and-improper-integrals/session-91-improper-integrals/a-solid-with-finite-volume-and-infinite-cross-section", 
    "link_text": "A Solid With Finite Volume and In\ufb01nite Cross Section", 
    "is_image_gallery": false, 
    "id": "a-solid-with-finite-volume-and-infinite-cross-section", 
    "_content_type_subtitle_exemption": "text/plain", 
    "materialtype": "Other", 
    "optional_text": "", 
    "_type": "MediaResource", 
    "description": "", 
    "media_resource_type": "Video", 
    "course_identifier": "https://ocw.mit.edu/courses/mathematics/18-01sc-single-variable-calculus-fall-2010", 
    "_content_type_publisher": "text/plain", 
    "tcATmit_instructional_tags": [], 
    "transcript": "<p><span m='0'>PROFESSOR:</span> <span m='6890'>Welcome</span> <span m='7240'>back</span> <span m='7440'>to  recitation.</span> <span m='8750'>In</span> <span m='8900'>this</span> <span m='9080'>video</span> <span m='9250'>I</span> <span m='9370'>want</span> <span m='9560'>us</span> <span m='9720'>to</span> <span m='10060'>look</span> <span m='10210'>at</span> <span m='10280'>the</span> <span m='10350'>following</span> <span m='10720'>problem.</span> <span m='11320'>We're</span> <span m='11700'>going</span> <span m='11850'>to</span> <span m='11920'>let</span> <span m='12080'>f of x</span> <span m='12250'>equal</span> <span m='12790'>1</span> <span m='13110'>over</span> <span m='13300'>x.</span> <span m='14010'>And</span> <span m='14310'>I</span> <span m='14340'>want</span> <span m='14520'>to</span> <span m='14660'>consider</span> <span m='15150'>the</span> <span m='15260'>solid</span> <span m='15630'>generated</span> <span m='16290'>by</span> <span m='16450'>rotating</span> <span m='17100'>f</span> <span m='17300'>of x</span> <span m='17620'>about</span> <span m='17840'>the</span> <span m='18220'>x-axis</span> <span m='19290'>between</span> <span m='19590'>x</span> <span m='19860'>equal</span> <span m='19990'>1</span> <span m='20240'>and</span> <span m='20490'>x</span> <span m='20730'>equal</span> <span m='20950'>infinity.</span> <span m='22090'>I</span> <span m='22310'>want</span> <span m='22500'>you</span> <span m='22580'>to</span> <span m='22660'>find</span> <span m='22930'>the</span> <span m='22990'>area</span> <span m='23370'>of a</span> <span m='23470'>cross-sectional</span> <span m='24250'>slice,</span> <span m='24840'>and</span> <span m='25000'>then</span> <span m='25110'>I</span> <span m='25160'>want</span> <span m='25310'>you</span> <span m='25380'>to</span> <span m='25460'>find</span> <span m='25690'>the</span> <span m='25750'>volume</span> <span m='27590'>of</span> <span m='27730'>the</span> <span m='27830'>solid.</span> <span m='29080'>In</span> <span m='29220'>the</span> <span m='29550'>cross-sectional</span> <span m='29930'>slice,</span> <span m='30250'>the</span> <span m='30360'>one</span> <span m='30480'>I'm</span> <span m='30580'>interested</span> <span m='30980'>in</span> <span m='31180'>is</span> <span m='31360'>the</span> <span m='31460'>one</span> <span m='31620'>that</span> <span m='31710'>you</span> <span m='31820'>see</span> <span m='32050'>in</span> <span m='32160'>the</span> <span m='32680'>xy-plane.</span> </p><p><span m='33570'>So</span> <span m='33760'>my</span> <span m='33980'>suggestion</span> <span m='34640'>to</span> <span m='34740'>you</span> <span m='34930'>is</span> <span m='35060'>that</span> <span m='35190'>right</span> <span m='35390'>away</span> <span m='35630'>draw</span> <span m='35850'>yourself</span> <span m='36170'>a</span> <span m='36240'>picture,</span> <span m='37910'>just</span> <span m='38180'>at</span> <span m='38270'>least</span> <span m='38520'>a</span> <span m='38580'>rough</span> <span m='38820'>sketch</span> <span m='39380'>of</span> <span m='40370'>the</span> <span m='40500'>curve</span> <span m='40830'>y</span> <span m='41090'>equals</span> <span m='41380'>f of x,</span> <span m='41990'>and</span> <span m='42210'>then</span> <span m='42530'>what</span> <span m='42750'>that</span> <span m='42940'>cross-sectional</span> <span m='43530'>slice</span> <span m='43770'>will</span> <span m='43920'>look</span> <span m='44060'>like</span> <span m='44670'>and</span> <span m='44840'>start</span> <span m='45100'>off</span> <span m='45250'>from</span> <span m='45430'>there.</span> <span m='46150'>And</span> <span m='46920'>take</span> <span m='47100'>a while</span> <span m='47260'>to</span> <span m='47320'>work</span> <span m='47470'>on</span> <span m='47570'>that</span> <span m='47760'>and</span> <span m='47880'>then</span> <span m='47980'>I'll</span> <span m='48060'>be</span> <span m='48150'>back</span> <span m='48460'>and</span> <span m='48670'>show</span> <span m='48910'>you</span> <span m='49010'>what</span> <span m='49150'>I</span> <span m='49220'>did.</span> </p><p><span m='58450'>OK</span> <span m='58770'>welcome</span> <span m='59060'>back.</span> <span m='59600'>Well,</span> <span m='60860'>hopefully</span> <span m='61340'>you</span> <span m='61530'>were able to</span> <span m='61680'>make</span> <span m='61860'>some</span> <span m='61990'>headway</span> <span m='62290'>on</span> <span m='62440'>this</span> <span m='62590'>problem,</span> <span m='63100'>and</span> <span m='63460'>maybe</span> <span m='63850'>you</span> <span m='63960'>found</span> <span m='64250'>some</span> <span m='64370'>interesting</span> <span m='64740'>things.</span> <span m='65090'>Hopefully</span> <span m='65500'>you did.</span> <span m='66150'>And</span> <span m='66800'>we</span> <span m='66950'>will</span> <span m='67100'>see</span> <span m='67310'>what</span> <span m='67500'>I</span> <span m='67620'>find</span> <span m='68130'>and</span> <span m='68320'>if</span> <span m='68500'>they are</span> <span m='68780'>interesting,</span> <span m='69370'>which</span> <span m='69560'>I</span> <span m='69650'>think</span> <span m='69900'>they</span> <span m='70020'>are.</span> </p><p><span m='70930'>So</span> <span m='71180'>let's</span> <span m='71390'>start</span> <span m='71640'>off.</span> <span m='72140'>I</span> <span m='72310'>told</span> <span m='72560'>you</span> <span m='72770'>the</span> <span m='72880'>first</span> <span m='73130'>thing</span> <span m='73270'>you</span> <span m='73380'>should</span> <span m='73530'>do</span> <span m='73670'>is</span> <span m='73820'>get</span> <span m='74000'>a</span> <span m='74050'>rough</span> <span m='74330'>picture.</span> <span m='74710'>So</span> <span m='74820'>I'm</span> <span m='74980'>going</span> <span m='75160'>to</span> <span m='75220'>draw a</span> <span m='75700'>rough</span> <span m='75920'>picture</span> <span m='76280'>and</span> <span m='76470'>make</span> <span m='76590'>sure</span> <span m='77200'>that</span> <span m='77540'>those</span> <span m='77820'>match</span> <span m='78120'>up</span> <span m='78240'>well,</span> <span m='78590'>that my</span> <span m='78760'>picture</span> <span m='79170'>matches</span> <span m='79470'>up</span> <span m='79590'>with</span> <span m='79710'>yours.</span> <span m='81170'>So</span> <span m='81380'>let</span> <span m='81570'>me</span> <span m='82180'>give</span> <span m='82450'>you</span> <span m='83820'>the</span> <span m='84510'>xy-plane.</span> <span m='86600'>And</span> <span m='86800'>then</span> <span m='86950'>y</span> <span m='87180'>equals</span> <span m='87850'>1</span> <span m='88190'>over</span> <span m='88470'>x</span> <span m='88880'>is</span> <span m='89030'>a</span> <span m='89100'>curve</span> <span m='89510'>that</span> <span m='90380'>at</span> <span m='90570'>x</span> <span m='90870'>equal</span> <span m='91010'>1--</span> <span m='91530'>I'm</span> <span m='91670'>going to</span> <span m='91840'>make</span> <span m='92490'>y equal</span> <span m='92830'>1</span> <span m='93150'>up</span> <span m='93280'>here.</span> <span m='94110'>y equal</span> <span m='94350'>1</span> <span m='94540'>up</span> <span m='94650'>there.</span> <span m='94920'>x equal</span> <span m='95170'>1.</span> <span m='95510'>So</span> <span m='95650'>when</span> <span m='95720'>x</span> <span m='95910'>is</span> <span m='96030'>1,</span> <span m='96260'>y</span> <span m='96540'>is</span> <span m='96670'>1.</span> <span m='98590'>And</span> <span m='98770'>then</span> <span m='98920'>it's</span> <span m='99070'>going</span> <span m='99320'>to</span> <span m='99420'>decay</span> <span m='101240'>down.</span> <span m='102400'>As x</span> <span m='102710'>goes</span> <span m='102920'>to</span> <span m='103020'>infinity</span> <span m='103440'>it</span> <span m='103670'>decays</span> </p><p><span m='104740'>So it</span> <span m='104930'>looks</span> <span m='105080'>something</span> <span m='105420'>like</span> <span m='105590'>that.</span> <span m='106190'>And</span> <span m='106520'>then</span> <span m='106750'>I</span> <span m='106890'>actually</span> <span m='107160'>should</span> <span m='107310'>have</span> <span m='107400'>moved</span> <span m='107710'>this</span> <span m='107880'>1</span> <span m='108260'>because</span> <span m='108540'>I'm</span> <span m='108650'>going</span> <span m='108890'>to</span> <span m='109010'>need</span> <span m='110000'>that</span> <span m='110270'>side</span> <span m='110580'>to</span> <span m='110670'>get</span> <span m='110820'>my</span> <span m='110990'>cross-sectional</span> <span m='111830'>slice.</span> <span m='112370'>So</span> <span m='112530'>my</span> <span m='112650'>cross</span> <span m='112950'>sectional</span> <span m='113420'>slice</span> <span m='114350'>is</span> <span m='114420'>going</span> <span m='114610'>to</span> <span m='114680'>come</span> <span m='114870'>down</span> <span m='115070'>here</span> <span m='116400'>and</span> <span m='116590'>look</span> <span m='116730'>something</span> <span m='117010'>like</span> <span m='117150'>this.</span> <span m='118060'>Oops,</span> <span m='118430'>that's</span> <span m='118640'>supposed</span> <span m='118980'>to</span> <span m='119060'>be</span> <span m='119170'>symmetric.</span> <span m='120160'>That's</span> <span m='120500'>still</span> <span m='120760'>supposed</span> <span m='121110'>to</span> <span m='121190'>be</span> <span m='121300'>something</span> <span m='121740'>like</span> <span m='121950'>this.</span> <span m='122290'>It's</span> <span m='122430'>supposed</span> <span m='122740'>to</span> <span m='122820'>be</span> <span m='122940'>symmetric</span> <span m='123520'>about</span> <span m='123800'>the</span> <span m='124160'>x-axis.</span> <span m='125030'>And</span> <span m='125100'>the</span> <span m='125190'>cross-sectional</span> <span m='125830'>slice</span> <span m='127640'>is</span> <span m='127810'>the</span> <span m='127980'>area</span> <span m='128390'>of</span> <span m='128560'>that.</span> </p><p><span m='130250'>Now,</span> <span m='130980'>if</span> <span m='131220'>you</span> <span m='131400'>remember</span> <span m='131790'>what</span> <span m='131910'>you</span> <span m='131990'>saw in</span> <span m='132280'>lecture.</span> <span m='133950'>You</span> <span m='134360'>saw,</span> <span m='134540'>I</span> <span m='134690'>believe,</span> <span m='135150'>that</span> <span m='135270'>the</span> <span m='135390'>integral</span> <span m='136240'>from</span> <span m='136480'>1</span> <span m='136750'>to</span> <span m='137150'>infinity</span> <span m='137870'>of</span> <span m='138030'>1</span> <span m='138240'>over</span> <span m='138450'>x</span> <span m='138890'>dx</span> <span m='140420'>diverges,</span> <span m='143270'>because</span> <span m='143610'>you</span> <span m='143730'>end</span> <span m='143900'>up</span> <span m='144050'>with</span> <span m='145230'>log</span> <span m='145640'>evaluated</span> <span m='146230'>at</span> <span m='146370'>infinity</span> <span m='148150'>and</span> <span m='148330'>that</span> <span m='148570'>is</span> <span m='148730'>infinite</span> <span m='149210'>and</span> <span m='149350'>so</span> <span m='149440'>you</span> <span m='149550'>wind</span> <span m='149830'>up</span> <span m='149980'>with</span> <span m='150160'>this.</span> <span m='150420'>This</span> <span m='150640'>actually</span> <span m='150990'>diverges.</span> <span m='151960'>That</span> <span m='152280'>was</span> <span m='152430'>the</span> <span m='152570'>area</span> <span m='153070'>of</span> <span m='153230'>the</span> <span m='153340'>top</span> <span m='153680'>part</span> <span m='154000'>from</span> <span m='154240'>0</span> <span m='154600'>to</span> <span m='154780'>f</span> <span m='155000'>of</span> <span m='155100'>x.</span> <span m='155570'>So</span> <span m='155820'>of</span> <span m='155910'>course</span> <span m='156160'>if I</span> <span m='156300'>double</span> <span m='156640'>that,</span> <span m='157210'>I'm</span> <span m='157400'>still</span> <span m='157620'>going</span> <span m='157830'>to</span> <span m='157920'>get</span> <span m='158150'>that</span> <span m='158280'>it</span> <span m='158350'>diverges.</span> <span m='158950'>So</span> <span m='159110'>in</span> <span m='159200'>fact</span> <span m='159900'>the</span> <span m='160010'>cross</span> <span m='160300'>sectional</span> <span m='160710'>slice</span> <span m='161060'>area,</span> <span m='162130'>CSS</span> <span m='163320'>area,</span> <span m='165570'>is</span> <span m='165960'>infinite.</span> </p><p><span m='171020'>OK,</span> <span m='171680'>so</span> <span m='171850'>that's</span> <span m='172030'>one</span> <span m='172250'>part.</span> <span m='173400'>The</span> <span m='173510'>other</span> <span m='173690'>part</span> <span m='173980'>is</span> <span m='174140'>to</span> <span m='174240'>find</span> <span m='174540'>the</span> <span m='174600'>volume</span> <span m='175330'>of</span> <span m='175620'>the</span> <span m='175820'>solid</span> <span m='176070'>of</span> <span m='176170'>revolution.</span> <span m='177360'>So</span> <span m='177950'>the</span> <span m='178110'>second</span> <span m='178380'>part</span> <span m='178560'>was</span> <span m='178700'>take</span> <span m='180340'>this</span> <span m='180610'>piece</span> <span m='180940'>from</span> <span m='181250'>0</span> <span m='181620'>up</span> <span m='181750'>to</span> <span m='181840'>f of</span> <span m='181980'>x,</span> <span m='182370'>rotate it</span> <span m='182920'>around</span> <span m='183970'>the</span> <span m='184360'>x-axis</span> <span m='185010'>and</span> <span m='185510'>compute the</span> <span m='185890'>volume.</span> <span m='186280'>Now</span> <span m='186410'>we</span> <span m='186590'>know</span> <span m='186750'>how</span> <span m='186870'>to</span> <span m='186940'>compute</span> <span m='187210'>the</span> <span m='187280'>volume.</span> <span m='188380'>This</span> <span m='188540'>is</span> <span m='188740'>the</span> <span m='188850'>disc</span> <span m='189300'>method</span> <span m='189490'>that</span> <span m='189620'>I'm</span> <span m='189730'>going</span> <span m='189980'>to</span> <span m='190090'>use</span> <span m='190350'>here.</span> <span m='192090'>And</span> <span m='192370'>I</span> <span m='192490'>will</span> <span m='192740'>write</span> <span m='192990'>out</span> <span m='193210'>what</span> <span m='193340'>we</span> <span m='193450'>need</span> <span m='193600'>to</span> <span m='193690'>do</span> <span m='193880'>and</span> <span m='194010'>then</span> <span m='194130'>we'll look</span> <span m='194400'>at</span> <span m='194460'>what</span> <span m='194580'>the</span> <span m='194660'>integral</span> <span m='195000'>gives</span> <span m='195210'>us.</span> </p><p><span m='196310'>So</span> <span m='196540'>for</span> <span m='196710'>the</span> <span m='196830'>disc</span> <span m='197120'>method,</span> <span m='197870'>so</span> <span m='198080'>let's</span> <span m='198330'>say</span> <span m='198740'>this</span> <span m='198930'>is</span> <span m='199130'>the</span> <span m='199410'>volume</span> <span m='199800'>part.</span> <span m='202300'>So</span> <span m='202470'>the</span> <span m='202580'>volume,</span> <span m='203130'>it's</span> <span m='203310'>going</span> <span m='203510'>to</span> <span m='203580'>be</span> <span m='203640'>the</span> <span m='203750'>disc</span> <span m='203970'>method.</span> <span m='204300'>So</span> <span m='204420'>I</span> <span m='204510'>need</span> <span m='204720'>to</span> <span m='204830'>do</span> <span m='205040'>pi</span> <span m='205410'>r</span> <span m='205610'>squared.</span> <span m='206460'>And</span> <span m='206670'>in</span> <span m='206770'>this</span> <span m='206910'>case</span> <span m='207130'>I'm</span> <span m='207240'>integrating</span> <span m='207640'>from</span> <span m='207830'>1</span> <span m='208050'>to</span> <span m='208190'>infinity,</span> <span m='208680'>so</span> <span m='208820'>I need</span> <span m='209000'>pi</span> <span m='209330'>r</span> <span m='209530'>squared</span> <span m='210570'>dx.</span> <span m='211690'>I'm</span> <span m='211820'>going</span> <span m='212000'>to</span> <span m='212060'>be</span> <span m='212160'>integrating</span> <span m='212580'>something</span> <span m='212980'>that's</span> <span m='213160'>pi</span> <span m='213570'>r squared</span> <span m='213950'>dx.</span> <span m='215900'>And</span> <span m='216080'>I</span> <span m='216140'>know</span> <span m='216290'>the</span> <span m='216400'>bounds</span> <span m='216710'>are</span> <span m='216810'>1</span> <span m='217000'>to</span> <span m='217120'>infinity,</span> <span m='217560'>and</span> <span m='217770'>so</span> <span m='217890'>I</span> <span m='217960'>need</span> <span m='218160'>r in terms of,</span> <span m='219590'>as</span> <span m='219720'>a</span> <span m='219780'>function</span> <span m='220090'>of</span> <span m='220160'>x.</span> <span m='221100'>That's</span> <span m='221270'>fairly</span> <span m='221560'>easy.</span> <span m='221900'>r is</span> <span m='222240'>just</span> <span m='222470'>the</span> <span m='222520'>measure</span> <span m='222850'>from</span> <span m='223100'>0</span> <span m='223490'>up</span> <span m='223730'>to</span> <span m='223870'>f</span> <span m='224060'>of</span> <span m='224170'>x.</span> <span m='224870'>So</span> <span m='225100'>that's</span> <span m='225340'>just</span> <span m='225770'>1</span> <span m='226000'>over</span> <span m='226353'>x.</span> <span m='227060'>So</span> <span m='227240'>this</span> <span m='227410'>is</span> <span m='227530'>actually</span> <span m='227940'>the</span> <span m='228060'>integral--</span> <span m='228230'>I'm going to</span> <span m='228650'>pull</span> <span m='229080'>the</span> <span m='229510'>pi</span> <span m='229915'>out--</span> <span m='230320'>of</span> <span m='230620'>1</span> <span m='230830'>over</span> <span m='231040'>x</span> <span m='231260'>squared</span> <span m='232240'>from</span> <span m='232510'>1</span> <span m='232680'>to</span> <span m='232810'>infinity</span> <span m='234570'>dx.</span> </p><p><span m='237040'>OK</span> <span m='237310'>so</span> <span m='238360'>how</span> <span m='238480'>do</span> <span m='238580'>I</span> <span m='238660'>do</span> <span m='238800'>this</span> <span m='238930'>integral?</span> <span m='239100'>Well</span> <span m='239760'>you</span> <span m='239990'>were</span> <span m='240200'>shown</span> <span m='241770'>in</span> <span m='241930'>class</span> <span m='242300'>that</span> <span m='242460'>in</span> <span m='242540'>actuality</span> <span m='243210'>this</span> <span m='243420'>is</span> <span m='243560'>the</span> <span m='243660'>limit,</span> <span m='244040'>as</span> <span m='244940'>some</span> <span m='245210'>value</span> <span m='245550'>up</span> <span m='245690'>here</span> <span m='245860'>goes</span> <span m='246080'>to</span> <span m='246180'>infinity,</span> <span m='247270'>of</span> <span m='247670'>this</span> <span m='247880'>integral,</span> <span m='248320'>but</span> <span m='250100'>we're</span> <span m='250270'>just</span> <span m='250490'>going</span> <span m='250680'>to</span> <span m='250760'>do</span> <span m='250880'>it</span> <span m='251020'>the</span> <span m='251140'>shorthand</span> <span m='251600'>way</span> <span m='251780'>that</span> <span m='251920'>he</span> <span m='252000'>also</span> <span m='252250'>mentioned</span> <span m='252570'>in</span> <span m='252660'>class</span> <span m='252990'>and</span> <span m='253100'>keep</span> <span m='253270'>the</span> <span m='253350'>infinity</span> <span m='253790'>around.</span> <span m='254650'>So</span> <span m='254870'>we</span> <span m='254980'>can</span> <span m='255160'>keep</span> <span m='255370'>that</span> <span m='255560'>as</span> <span m='255680'>our</span> <span m='255790'>bounds,</span> <span m='256180'>knowing</span> <span m='256510'>we're</span> <span m='256670'>taking</span> <span m='257110'>limits</span> <span m='257620'>as</span> <span m='258480'>this</span> <span m='258870'>thing</span> <span m='259050'>goes</span> <span m='259300'>to</span> <span m='259420'>infinity.</span> </p><p><span m='261120'>So</span> <span m='261290'>the</span> <span m='261390'>integral</span> <span m='261730'>of</span> <span m='261860'>1</span> <span m='262040'>over</span> <span m='262240'>x</span> <span m='262430'>squared</span> <span m='263380'>is</span> <span m='263900'>negative</span> <span m='264600'>1</span> <span m='264810'>over</span> <span m='265010'>x.</span> <span m='265550'>So</span> <span m='265740'>I</span> <span m='265830'>get</span> <span m='266020'>minus</span> <span m='266470'>pi</span> <span m='267760'>times</span> <span m='268070'>1</span> <span m='268270'>over</span> <span m='268520'>x,</span> <span m='269380'>evaluated</span> <span m='270670'>at</span> <span m='270830'>1</span> <span m='271060'>in</span> <span m='271170'>infinity.</span> <span m='272670'>I</span> <span m='272800'>can</span> <span m='272950'>just</span> <span m='273130'>check</span> <span m='273360'>that</span> <span m='273560'>if</span> <span m='273660'>I</span> <span m='273730'>need</span> <span m='273930'>to,</span> <span m='274070'>but</span> <span m='274240'>this</span> <span m='274390'>is</span> <span m='274810'>x</span> <span m='274900'>to the</span> <span m='274950'>minus</span> <span m='275230'>1</span> <span m='275570'>and</span> <span m='275690'>its</span> <span m='275970'>derivative</span> <span m='276350'>is</span> <span m='276460'>negative</span> <span m='276900'>x to the</span> <span m='277210'>minus</span> <span m='277520'>2.</span> <span m='277950'>So</span> <span m='278120'>I</span> <span m='278180'>needed</span> <span m='278480'>that</span> <span m='278680'>negative</span> <span m='279050'>there.</span> <span m='280070'>And</span> <span m='280230'>then</span> <span m='280350'>I</span> <span m='280720'>evaluate</span> <span m='280820'>this.</span> <span m='281000'>Well</span> <span m='281200'>at</span> <span m='281500'>infinity,</span> <span m='282170'>1</span> <span m='282390'>over</span> <span m='282590'>x--</span> <span m='282900'>as</span> <span m='283240'>x goes to</span> <span m='283570'>infinity,</span> <span m='283900'>this</span> <span m='284100'>first</span> <span m='284520'>part</span> <span m='284710'>goes</span> <span m='284880'>to</span> <span m='284990'>0.</span> <span m='285620'>So</span> <span m='285800'>this</span> <span m='285970'>is</span> <span m='286130'>0</span> <span m='286470'>minus</span> <span m='287910'>negative</span> <span m='288400'>pi</span> <span m='290300'>times</span> <span m='290730'>1</span> <span m='291000'>over</span> <span m='291310'>1.</span> <span m='291700'>So</span> <span m='291850'>negative</span> <span m='292090'>pi</span> <span m='292300'>times</span> <span m='292490'>1.</span> <span m='292830'>So</span> <span m='293000'>this</span> <span m='293230'>is</span> <span m='293400'>just</span> <span m='294570'>pi.</span> </p><p><span m='296960'>OK,</span> <span m='297290'>so</span> <span m='297740'>hopefully</span> <span m='298240'>that</span> <span m='298670'>kind</span> <span m='298840'>of</span> <span m='298920'>blows</span> <span m='299180'>your</span> <span m='299290'>mind</span> <span m='299570'>a</span> <span m='299620'>little</span> <span m='299860'>bit,</span> <span m='300440'>that</span> <span m='300580'>you</span> <span m='300670'>could</span> <span m='300820'>have</span> <span m='301110'>something</span> <span m='301530'>where</span> <span m='302200'>this</span> <span m='302420'>cross-sectional</span> <span m='303170'>slice is</span> <span m='303610'>infinite,</span> <span m='304280'>but</span> <span m='304570'>in</span> <span m='304670'>fact</span> <span m='305360'>if</span> <span m='305580'>you</span> <span m='305690'>look</span> <span m='305870'>at</span> <span m='305990'>it</span> <span m='306080'>the</span> <span m='306170'>way</span> <span m='306310'>we</span> <span m='306430'>computed</span> <span m='306810'>the</span> <span m='306930'>volume,</span> <span m='307710'>we</span> <span m='307870'>have</span> <span m='308390'>in</span> <span m='308540'>fact</span> <span m='308880'>a</span> <span m='308930'>finite</span> <span m='309320'>volume.</span> <span m='311260'>So</span> <span m='312160'>I</span> <span m='312300'>don't</span> <span m='312450'>know</span> <span m='312530'>what</span> <span m='312660'>else</span> <span m='312810'>I'm</span> <span m='312880'>going to</span> <span m='313040'>say</span> <span m='313200'>about</span> <span m='313400'>that</span> <span m='313670'>except</span> <span m='313770'>I</span> <span m='313860'>think</span> <span m='314010'>it's</span> <span m='314110'>really</span> <span m='314390'>cool.</span> <span m='314750'>And</span> <span m='314890'>you</span> <span m='314970'>can</span> <span m='315120'>think</span> <span m='315310'>about</span> <span m='315690'>why</span> <span m='315970'>that</span> <span m='316170'>is.</span> </p><p><span m='316410'>And</span> <span m='316570'>in</span> <span m='316700'>fact</span> <span m='317320'>you</span> <span m='317490'>might</span> <span m='317710'>want to</span> <span m='318200'>notice</span> <span m='318455'>that</span> <span m='319060'>we</span> <span m='319370'>had</span> <span m='319490'>to--</span> <span m='319980'>we</span> <span m='320290'>computed</span> <span m='320860'>things</span> <span m='321140'>in</span> <span m='321270'>terms</span> <span m='321550'>of</span> <span m='321640'>cross-sectional</span> <span m='322260'>slices</span> <span m='322670'>coming</span> <span m='322930'>from</span> <span m='323090'>the</span> <span m='323170'>other</span> <span m='323320'>direction.</span> <span m='323730'>So</span> <span m='323870'>we</span> <span m='324020'>looked</span> <span m='324330'>at</span> <span m='325400'>these</span> <span m='325880'>cross-sectional</span> <span m='326610'>slices</span> <span m='328080'>and</span> <span m='328550'>we</span> <span m='328820'>got</span> <span m='328940'>our--</span> <span m='329430'>we</span> <span m='329530'>showed</span> <span m='329720'>our</span> <span m='329800'>volume</span> <span m='330190'>was</span> <span m='330340'>finite</span> <span m='330820'>there.</span> <span m='331860'>So</span> <span m='332000'>we</span> <span m='332100'>had</span> <span m='332250'>a</span> <span m='332390'>sum</span> <span m='332790'>of</span> <span m='332880'>a</span> <span m='332950'>bunch</span> <span m='333180'>of</span> <span m='333290'>finite</span> <span m='333720'>things</span> <span m='334030'>and</span> <span m='334150'>so</span> <span m='334280'>it</span> <span m='334380'>made</span> <span m='334610'>sense</span> <span m='334920'>that</span> <span m='335060'>you</span> <span m='335160'>were</span> <span m='335260'>going</span> <span m='335480'>to</span> <span m='335570'>get--</span> <span m='336350'>and the</span> <span m='336420'>finite</span> <span m='336700'>things</span> <span m='336870'>were getting</span> <span m='337160'>small</span> <span m='337490'>fast</span> <span m='337850'>enough.</span> <span m='338210'>That's</span> <span m='338450'>the</span> <span m='338540'>point.</span> <span m='339200'>That</span> <span m='339340'>when</span> <span m='339460'>you</span> <span m='339560'>add</span> <span m='339730'>up</span> <span m='339860'>these</span> <span m='340100'>finite</span> <span m='340420'>things</span> <span m='340690'>that</span> <span m='340800'>are</span> <span m='340870'>getting</span> <span m='341070'>small</span> <span m='341420'>fast</span> <span m='341780'>enough,</span> <span m='342050'>you</span> <span m='342160'>can</span> <span m='342340'>still</span> <span m='342610'>end</span> <span m='342800'>up</span> <span m='343320'>with</span> <span m='343540'>a</span> <span m='343590'>finite</span> <span m='343960'>number.</span> </p><p><span m='345300'>But</span> <span m='345450'>I</span> <span m='345510'>guess,</span> <span m='345720'>yeah,</span> <span m='345880'>that's</span> <span m='346100'>where</span> <span m='346210'>I'll</span> <span m='346300'>stop.</span> <span m='346560'>So</span> <span m='346670'>just</span> <span m='346880'>to</span> <span m='346990'>say</span> <span m='347210'>that</span> <span m='347710'>we</span> <span m='347830'>were</span> <span m='347950'>looking</span> <span m='348240'>at</span> <span m='348450'>this</span> <span m='348940'>sort</span> <span m='349090'>of</span> <span m='349160'>solid</span> <span m='349390'>of revolution</span> <span m='349910'>problem</span> <span m='350150'>again,</span> <span m='350480'>but</span> <span m='350610'>we were</span> <span m='350770'>dealing</span> <span m='351140'>with</span> <span m='352470'>improper</span> <span m='352980'>integrals,</span> <span m='353460'>and</span> <span m='353610'>we</span> <span m='353690'>were</span> <span m='353860'>showing</span> <span m='354510'>how</span> <span m='354640'>you</span> <span m='354770'>can</span> <span m='354910'>do</span> <span m='355020'>these</span> <span m='355190'>kinds</span> <span m='355370'>of</span> <span m='355440'>problems</span> <span m='356260'>with</span> <span m='356670'>improper</span> <span m='356940'>integrals.</span> <span m='357950'>So</span> <span m='358110'>now</span> <span m='358340'>I</span> <span m='358420'>really</span> <span m='358710'>will stop there.</span> </p>", 
    "_content_type_link_text": "text/plain", 
    "course_linking": [], 
    "_id": "a-solid-with-finite-volume-and-infinite-cross-section", 
    "modification_date": "2016/09/25 01:19:11.130 GMT-4", 
    "media_index": [], 
    "always_publish": false, 
    "_owner": null, 
    "_permissions": {
        "Change portal events": {
            "acquire": false, 
            "roles": [
                "Editor", 
                "Manager", 
                "MetadataEditor", 
                "Owner"
            ]
        }, 
        "Modify portal content": {
            "acquire": false, 
            "roles": [
                "Manager", 
                "MetadataEditor"
            ]
        }, 
        "Access contents information": {
            "acquire": false, 
            "roles": [
                "Authenticated"
            ]
        }, 
        "List folder contents": {
            "acquire": false, 
            "roles": [
                "Editor", 
                "Manager", 
                "MetadataEditor", 
                "Owner"
            ]
        }, 
        "View": {
            "acquire": false, 
            "roles": [
                "Authenticated"
            ]
        }
    }, 
    "_properties": [
        [
            "title", 
            "A Solid With Finite Volume and In\ufb01nite Cross Section", 
            "string"
        ]
    ], 
    "creators": [
        "pgandhi3"
    ], 
    "courselist_features": [], 
    "_path": "/Plone/courses/mathematics/18-01sc-single-variable-calculus-fall-2010/unit-5-exploring-the-infinite/part-a-lhospitals-rule-and-improper-integrals/session-91-improper-integrals/a-solid-with-finite-volume-and-infinite-cross-section"
}