{
    "rsi_top_html_area": "", 
    "text": "", 
    "_content_type_license": "text/plain", 
    "_uid": "efcee0c128c0baa1d7428326eface084", 
    "title": "Limit of a Series", 
    "_ac_local_roles": {
        "pgandhi3": [
            "Owner"
        ]
    }, 
    "template_type": "Embed", 
    "location": "", 
    "_content_type_course_identifier": "text/plain", 
    "_atbrefs": {}, 
    "constrainTypesMode": 0, 
    "_content_type_section_identifier": "text/plain", 
    "technical_location": "https://ocw.mit.edu/courses/mathematics/18-01sc-single-variable-calculus-fall-2010/unit-5-exploring-the-infinite/part-b-taylor-series/session-94-infinite-series/limit-of-a-series", 
    "software_requirements": [
        {
            "software_type_col": "Browser", 
            "minimum_version_col": "40.0", 
            "software_name_col": "Chrome", 
            "maximum_version_col": ""
        }, 
        {
            "software_type_col": "Browser", 
            "minimum_version_col": "8.0", 
            "software_name_col": "Safari", 
            "maximum_version_col": ""
        }, 
        {
            "software_type_col": "Browser", 
            "minimum_version_col": "38.0", 
            "software_name_col": "Mozilla Firefox", 
            "maximum_version_col": ""
        }, 
        {
            "software_type_col": "Browser", 
            "minimum_version_col": "9.0", 
            "software_name_col": "Internet Explorer", 
            "maximum_version_col": ""
        }, 
        {
            "software_type_col": "Browser", 
            "minimum_version_col": "13.1", 
            "software_name_col": "Edge", 
            "maximum_version_col": ""
        }
    ], 
    "_content_type_technical_location": "text/plain", 
    "start_time": "", 
    "_content_type_rights": "text/html", 
    "_directly_provided": [
        "Products.CMFEditions.interfaces.IVersioned"
    ], 
    "media_rights": "(CC BY-NC-SA)", 
    "parent_uid": "1825bfbbd3647c86fa9771d985c21513", 
    "excludeFromNav": false, 
    "about_this_resource_text": "", 
    "_content_type_unique_identifier": "text/plain", 
    "end_time": "", 
    "allowDiscussion": false, 
    "_content_type_materialtype": "text/plain", 
    "locallyAllowedTypes": [
        "OCWImage", 
        "OCWFile", 
        "OCWMediaAsset"
    ], 
    "optional_tab_title": "", 
    "ad_type": "HOUSE", 
    "creation_date": "2015/12/24 05:52:46.148 US/Eastern", 
    "aggregationlevel": 2, 
    "bottom_html_area": "", 
    "duration": "", 
    "immediatelyAddableTypes": [
        "OCWImage", 
        "OCWFile", 
        "OCWMediaAsset"
    ], 
    "_content_type_template_type": "text/plain", 
    "subject": [], 
    "_content_type_short_page_title": "text/plain", 
    "effectiveDate": "2015/12/30 08:30:22.995 US/Eastern", 
    "parent_module": "bfe41979b9593362793fd930b36efa01", 
    "is_mathml_document": false, 
    "bottomtext": "", 
    "short_page_title": "Limit of a Series", 
    "section_identifier": "https://ocw.mit.edu/courses/mathematics/18-01sc-single-variable-calculus-fall-2010/unit-5-exploring-the-infinite", 
    "show_captions_outside_player": false, 
    "related_mit_links": "", 
    "_content_type_ad_type": "text/plain", 
    "_layout": "custom_view", 
    "_workflow_history": {
        "page_workflow": [
            {
                "action": null, 
                "review_state": "waiting_for_authoring", 
                "comments": "", 
                "actor": "pgandhi3", 
                "time": "2015/12/24 05:52:46.164 US/Eastern"
            }, 
            {
                "action": "approve_to_staging", 
                "review_state": "ready_for_staging", 
                "actor": "asingh33", 
                "comments": "", 
                "time": "2015/12/30 08:30:23.028 US/Eastern"
            }
        ]
    }, 
    "_content_type_transcript": "text/html", 
    "metadata_contributor_list": [], 
    "_userdefined_roles": [], 
    "_content_type_inline_embed_id": "text/plain", 
    "publisher": "MIT OpenCourseWare", 
    "nextPreviousEnabled": false, 
    "_gopip": 8, 
    "license": "http://creativecommons.org/licenses/by-nc-sa/3.0/us/", 
    "url_rewrite_patterns": [], 
    "widgets_features": [], 
    "category_features": [], 
    "resource_contributor_list": [
        {
            "res_contributor_entity": "Jerison, David", 
            "res_contributor_uid": "b28f05bbf3c3b44d28bc8f11fc7834cd", 
            "res_contributor_role": "Performer"
        }
    ], 
    "show_jump_back_5_seconds_button": false, 
    "firstTimeEdit": false, 
    "_content_type_media_rights": "text/plain", 
    "feature_requirements": [], 
    "list_in_left_nav": false, 
    "inline_embed_id": "19136383limitofaseries70265727", 
    "_classname": "MediaResource", 
    "short_name_tlp": "", 
    "expirationDate": "None", 
    "_content_type_id": "text/plain", 
    "contributor_list": [
        {}
    ], 
    "is_media_gallery": false, 
    "contributors": [], 
    "media_locations": [
        {}
    ], 
    "_content_type_media_resource_type": "text/plain", 
    "_content_type_title": "text/plain", 
    "subtitle_exemption": "None", 
    "_content_type": "text/html", 
    "resource_index_text": "", 
    "_atrefs": {
        "BelongsTo": [
            "bfe41979b9593362793fd930b36efa01"
        ]
    }, 
    "media_slides": [], 
    "other_platform_requirements": "", 
    "language": "", 
    "rights": "This site (c) Massachusetts Institute of Technology 2015.  Content within individual courses is (c) by the individual authors unless otherwise noted. The Massachusetts Institute of Technology is providing this Work (as defined below) under the terms of this Creative Commons public license (\"CCPL\" or \"license\") unless otherwise noted. The Work is protected by copyright and/or other applicable law. Any use of the work other than as authorized under this license is prohibited. By exercising any of the rights to the Work provided here, You (as defined below) accept and agree to be bound by the terms of this license. The Licensor, the Massachusetts Institute of Technology, grants You the rights contained here in consideration of Your acceptance of such terms and conditions.", 
    "hide_Page_title": false, 
    "_defaultpage": "", 
    "related_resources_text": "", 
    "tcATmit_subject_tags": [], 
    "features_tracking": [], 
    "ad_champion_text": "", 
    "has_inline_embed": false, 
    "unique_identifier": "https://ocw.mit.edu/courses/mathematics/18-01sc-single-variable-calculus-fall-2010/unit-5-exploring-the-infinite/part-b-taylor-series/session-94-infinite-series/limit-of-a-series", 
    "link_text": "Limit of a Series", 
    "is_image_gallery": false, 
    "id": "limit-of-a-series", 
    "_content_type_subtitle_exemption": "text/plain", 
    "materialtype": "Other", 
    "optional_text": "", 
    "_type": "MediaResource", 
    "description": "", 
    "media_resource_type": "Video", 
    "course_identifier": "https://ocw.mit.edu/courses/mathematics/18-01sc-single-variable-calculus-fall-2010", 
    "_content_type_publisher": "text/plain", 
    "tcATmit_instructional_tags": [], 
    "transcript": "<p><span m='0'>PROFESSOR:</span> <span m='6890'>Hi,</span> <span m='7400'>welcome</span> <span m='7720'>back</span> <span m='7920'>to</span> <span m='8020'>recitation.</span> <span m='9040'>Today</span> <span m='9800'>we</span> <span m='10240'>are</span> <span m='10450'>going</span> <span m='10590'>to</span> <span m='10660'>talk</span> <span m='10890'>about</span> <span m='12020'>an</span> <span m='12160'>infinite</span> <span m='12550'>series</span> <span m='13150'>and</span> <span m='13630'>discuss</span> <span m='14040'>its</span> <span m='14180'>convergence.</span> </p><p><span m='14680'>So</span> <span m='15170'>in</span> <span m='15380'>particular</span> <span m='16830'>I</span> <span m='16950'>have</span> <span m='17220'>this</span> <span m='17350'>infinite</span> <span m='17730'>series.</span> <span m='18060'>The</span> <span m='18160'>sum</span> <span m='18520'>from</span> <span m='18710'>n</span> <span m='18930'>equals</span> <span m='19110'>1</span> <span m='19340'>to</span> <span m='19440'>infinity</span> <span m='20240'>of</span> <span m='20450'>1</span> <span m='20830'>divided</span> <span m='21220'>by</span> <span m='21350'>the</span> <span m='21460'>product</span> <span m='21970'>n</span> <span m='22300'>times</span> <span m='22570'>n</span> <span m='22790'>plus</span> <span m='23070'>1.</span> <span m='24000'>So</span> <span m='25160'>what</span> <span m='25310'>I'd</span> <span m='25410'>like</span> <span m='25600'>you</span> <span m='25670'>to</span> <span m='25830'>do</span> <span m='26410'>is</span> <span m='26690'>to</span> <span m='26780'>compute</span> <span m='27250'>a</span> <span m='27350'>few</span> <span m='27760'>terms</span> <span m='28240'>of</span> <span m='28450'>the</span> <span m='28670'>series,</span> <span m='29040'>compute a</span> <span m='29360'>few</span> <span m='29860'>partial</span> <span m='30270'>sums,</span> <span m='30820'>and</span> <span m='31070'>use</span> <span m='31340'>that</span> <span m='31740'>to</span> <span m='31880'>get</span> <span m='31990'>a</span> <span m='32040'>sense</span> <span m='32480'>for</span> <span m='33050'>what</span> <span m='33350'>you</span> <span m='33490'>think</span> <span m='33900'>the</span> <span m='34040'>series</span> <span m='34390'>is</span> <span m='34490'>doing.</span> <span m='34750'>Is</span> <span m='34840'>it</span> <span m='35290'>converging?</span> <span m='36080'>Is</span> <span m='36250'>it</span> <span m='36370'>diverging?</span> <span m='36930'>If</span> <span m='37030'>it's</span> <span m='37140'>converging,</span> <span m='37810'>can</span> <span m='37980'>you</span> <span m='38070'>figure</span> <span m='38370'>out</span> <span m='38460'>what</span> <span m='38680'>value</span> <span m='39010'>it's</span> <span m='39150'>converging</span> <span m='39660'>to?</span> <span m='40650'>So</span> <span m='41040'>why</span> <span m='41210'>don't</span> <span m='41390'>you</span> <span m='41930'>pause</span> <span m='42250'>the</span> <span m='42320'>video,</span> <span m='43250'>take</span> <span m='43470'>some</span> <span m='43600'>time</span> <span m='44300'>to</span> <span m='44750'>try</span> <span m='44980'>that</span> <span m='45150'>out,</span> <span m='45420'>see</span> <span m='45590'>what</span> <span m='45780'>you</span> <span m='46140'>get,</span> <span m='46700'>come</span> <span m='46900'>back</span> <span m='47130'>and</span> <span m='47220'>we</span> <span m='47310'>can</span> <span m='47420'>do</span> <span m='47540'>it</span> <span m='47630'>together.</span> </p><p><span m='56400'>So</span> <span m='56570'>this</span> <span m='56740'>is</span> <span m='56830'>a</span> <span m='56920'>nice</span> <span m='57250'>series.</span> <span m='57720'>It</span> <span m='57830'>has</span> <span m='58190'>terms</span> <span m='58610'>that</span> <span m='58730'>are</span> <span m='58810'>easy</span> <span m='59070'>to</span> <span m='59160'>compute.</span> <span m='59740'>And</span> <span m='59950'>I've</span> <span m='60080'>taken</span> <span m='60360'>the</span> <span m='60450'>liberty</span> <span m='60860'>of</span> <span m='61020'>computing</span> <span m='61460'>a</span> <span m='61520'>few</span> <span m='61720'>of</span> <span m='61820'>them</span> <span m='61940'>in</span> <span m='62120'>advance,</span> <span m='62440'>and</span> <span m='62550'>I've</span> <span m='62610'>put</span> <span m='62880'>them</span> <span m='63040'>up</span> <span m='63160'>over</span> <span m='63340'>here.</span> <span m='63550'>So</span> <span m='64020'>for</span> <span m='64190'>n</span> <span m='64560'>from</span> <span m='64740'>1</span> <span m='64970'>to</span> <span m='65090'>5,</span> <span m='66730'>the</span> <span m='67340'>terms</span> <span m='67840'>that</span> <span m='67960'>we're</span> <span m='68230'>adding</span> <span m='68570'>up</span> <span m='68760'>are</span> <span m='68910'>1</span> <span m='69190'>over</span> <span m='69700'>n</span> <span m='70040'>times</span> <span m='70220'>n</span> <span m='70390'>plus</span> <span m='70610'>1.</span> <span m='70920'>So</span> <span m='71060'>that's</span> <span m='71440'>when</span> <span m='71770'>n</span> <span m='71920'>equals</span> <span m='72130'>1,</span> <span m='72500'>that's</span> <span m='72680'>1</span> <span m='72900'>over</span> <span m='73130'>1</span> <span m='73360'>times</span> <span m='73670'>2,</span> <span m='73940'>which</span> <span m='74100'>is</span> <span m='74250'>1/2.</span> <span m='74620'>When</span> <span m='75000'>it is</span> <span m='75260'>2,</span> <span m='75560'>it's</span> <span m='75740'>1</span> <span m='76050'>over</span> <span m='76220'>2</span> <span m='76380'>times</span> <span m='76670'>3,</span> <span m='76900'>which</span> <span m='77080'>is</span> <span m='77160'>1/6.</span> <span m='77620'>Then</span> <span m='78030'>we've</span> <span m='78410'>got</span> <span m='78530'>1/12,</span> <span m='78990'>1/20,</span> <span m='79510'>1/30,</span> <span m='79900'>and</span> <span m='80030'>so</span> <span m='80190'>on.</span> <span m='80400'>So</span> <span m='80560'>those</span> <span m='80780'>are</span> <span m='80840'>the</span> <span m='80940'>things</span> <span m='81230'>we're</span> <span m='81340'>adding</span> <span m='81660'>up.</span> </p><p><span m='81940'>And</span> <span m='82250'>then</span> <span m='82360'>the</span> <span m='82440'>partial</span> <span m='82870'>sums,</span> <span m='83150'>the</span> <span m='83430'>nth</span> <span m='83660'>partial</span> <span m='83960'>sums.</span> <span m='84240'>Well,</span> <span m='84440'>the</span> <span m='84510'>first</span> <span m='84850'>one</span> <span m='85070'>is</span> <span m='85200'>just</span> <span m='85490'>the</span> <span m='85600'>first</span> <span m='86000'>term,</span> <span m='86400'>which</span> <span m='86600'>is</span> <span m='86720'>1/2.</span> <span m='87390'>The</span> <span m='87490'>second</span> <span m='87860'>one,</span> <span m='88270'>we</span> <span m='88460'>take</span> <span m='88930'>the</span> <span m='89050'>first</span> <span m='89430'>term</span> <span m='90090'>and</span> <span m='90270'>the</span> <span m='90330'>second</span> <span m='90660'>term</span> <span m='90850'>and</span> <span m='90940'>we</span> <span m='91020'>add</span> <span m='91260'>them</span> <span m='91410'>together.</span> <span m='91740'>So</span> <span m='91930'>1/2</span> <span m='92600'>plus</span> <span m='92960'>1/6</span> <span m='93370'>is</span> <span m='93630'>2/3.</span> <span m='94510'>The</span> <span m='94620'>third</span> <span m='94930'>one,</span> <span m='95110'>we</span> <span m='95240'>take</span> <span m='95440'>the</span> <span m='95520'>first</span> <span m='95940'>three</span> <span m='96160'>terms</span> <span m='96910'>and</span> <span m='97100'>add</span> <span m='97280'>them</span> <span m='97410'>together</span> <span m='97750'>and</span> <span m='97840'>that</span> <span m='97990'>gives</span> <span m='98140'>us</span> <span m='98290'>3/4.</span> <span m='99450'>And OK, so</span> <span m='99710'>I</span> <span m='99860'>computed</span> <span m='100270'>the</span> <span m='100360'>first</span> <span m='101100'>five</span> <span m='101520'>partial</span> <span m='101890'>sums</span> <span m='102210'>here</span> <span m='102430'>as</span> <span m='102560'>well.</span> </p><p><span m='103490'>Now,</span> <span m='103650'>if</span> <span m='103720'>you</span> <span m='103850'>look</span> <span m='104070'>at</span> <span m='104200'>this</span> <span m='104940'>column--</span> <span m='105230'>so</span> <span m='105720'>remember</span> <span m='106040'>that</span> <span m='106200'>the</span> <span m='106300'>limit,</span> <span m='106970'>that</span> <span m='107080'>the</span> <span m='107310'>value</span> <span m='107800'>of</span> <span m='107920'>an</span> <span m='107990'>infinite</span> <span m='108420'>series</span> <span m='109440'>is</span> <span m='109650'>defined</span> <span m='110110'>to</span> <span m='110210'>be</span> <span m='110290'>the</span> <span m='110430'>limit</span> <span m='110780'>of</span> <span m='110900'>its</span> <span m='111050'>partial</span> <span m='111410'>sums.</span> <span m='112070'>So</span> <span m='112290'>if we</span> <span m='112450'>want</span> <span m='112640'>to</span> <span m='112700'>know,</span> <span m='113120'>what</span> <span m='113410'>is</span> <span m='113650'>the</span> <span m='113760'>value</span> <span m='114220'>of</span> <span m='114340'>this</span> <span m='114500'>infinite</span> <span m='114930'>series</span> <span m='115240'>that</span> <span m='115340'>we</span> <span m='115430'>started</span> <span m='115680'>with,</span> <span m='115830'>does</span> <span m='116010'>it</span> <span m='116090'>converge,</span> <span m='116530'>does it</span> <span m='116810'>diverge,</span> <span m='117510'>what</span> <span m='117740'>we</span> <span m='117830'>have</span> <span m='117970'>to</span> <span m='118050'>do</span> <span m='118200'>to</span> <span m='118280'>figure</span> <span m='118550'>that</span> <span m='118720'>out</span> <span m='119050'>is</span> <span m='119240'>we</span> <span m='119300'>have</span> <span m='119400'>to</span> <span m='119500'>take</span> <span m='119770'>its</span> <span m='119910'>partial</span> <span m='120220'>sums</span> <span m='120800'>and</span> <span m='120980'>we</span> <span m='121050'>have</span> <span m='121140'>to</span> <span m='121230'>compute</span> <span m='121870'>their</span> <span m='122050'>limit.</span> <span m='122640'>And</span> <span m='122830'>if</span> <span m='122970'>we--</span> <span m='124010'>if</span> <span m='124170'>their</span> <span m='124300'>limit</span> <span m='124710'>doesn't</span> <span m='125000'>exist,</span> <span m='125450'>then</span> <span m='125610'>it</span> <span m='125720'>diverges.</span> <span m='126510'>If</span> <span m='126670'>their</span> <span m='126790'>limit</span> <span m='127100'>does</span> <span m='127320'>exist,</span> <span m='128000'>then</span> <span m='128660'>the</span> <span m='128890'>sum</span> <span m='129210'>of</span> <span m='129320'>the</span> <span m='129430'>series</span> <span m='129860'>is</span> <span m='129980'>equal</span> <span m='130270'>to</span> <span m='131210'>what</span> <span m='131560'>that</span> <span m='131830'>value</span> <span m='132320'>of</span> <span m='132410'>that</span> <span m='132580'>limit</span> <span m='132860'>is.</span> </p><p><span m='133460'>And</span> <span m='133620'>if</span> <span m='133680'>you</span> <span m='133790'>look</span> <span m='133980'>at</span> <span m='134070'>these</span> <span m='134260'>terms</span> <span m='134570'>here,</span> <span m='135560'>you'll</span> <span m='135740'>see</span> <span m='135980'>that they,</span> <span m='137490'>there's</span> <span m='137670'>a</span> <span m='137720'>little</span> <span m='137930'>bit</span> <span m='138040'>of</span> <span m='138120'>a</span> <span m='138180'>pattern</span> <span m='138550'>here,</span> <span m='139250'>right?</span> <span m='139870'>So these, </span> <span m='140580'>this</span> <span m='140780'>is</span> <span m='141270'>1/2,</span> <span m='141820'>2/3,</span> <span m='142430'>3/4,</span> <span m='142960'>4/5,</span> <span m='143560'>5/6.</span> <span m='144440'>That's</span> <span m='144610'>a</span> <span m='144680'>pretty</span> <span m='144900'>nice</span> <span m='145190'>sequence</span> <span m='145580'>of</span> <span m='145670'>numbers.</span> <span m='146480'>It's,</span> <span m='146800'>you</span> <span m='146920'>know,</span> <span m='147380'>we</span> <span m='147510'>could</span> <span m='147620'>probably</span> <span m='148000'>guess</span> <span m='148370'>at</span> <span m='148470'>this</span> <span m='148650'>point</span> <span m='149130'>that</span> <span m='149260'>the</span> <span m='149340'>next</span> <span m='149610'>one</span> <span m='149760'>is</span> <span m='149860'>going to</span> <span m='150050'>be</span> <span m='150140'>6/7</span> <span m='150940'>then</span> <span m='151100'>7/8</span> <span m='152280'>and</span> <span m='152520'>so</span> <span m='152760'>on.</span> <span m='153690'>So</span> <span m='155600'>that</span> <span m='155770'>would</span> <span m='155890'>be</span> <span m='156010'>a guess.</span> </p><p><span m='159810'>One way we can actually prove this is, so</span> <span m='159900'>we</span> <span m='160000'>have</span> <span m='160200'>this</span> <span m='160370'>guess that--</span> <span m='161950'>let</span> <span m='162060'>me</span> <span m='162130'>write</span> <span m='162320'>it</span> <span m='162420'>down.</span> <span m='165050'>Guess</span> <span m='165800'>is</span> <span m='166130'>that</span> <span m='166890'>S_n</span> <span m='167770'>is</span> <span m='168090'>equal</span> <span m='168470'>to</span> <span m='170040'>n</span> <span m='171890'>over</span> <span m='172180'>n</span> <span m='172390'>plus</span> <span m='172700'>1.</span> <span m='173600'>Now</span> <span m='173780'>if</span> <span m='173850'>you</span> <span m='173950'>wanted</span> <span m='174180'>to</span> <span m='174280'>confirm</span> <span m='174840'>this</span> <span m='175070'>guess,</span> <span m='175580'>what</span> <span m='175800'>you'd</span> <span m='175880'>have</span> <span m='176120'>to</span> <span m='176240'>do</span> <span m='176650'>is</span> <span m='176830'>you</span> <span m='176940'>have</span> <span m='177160'>to</span> <span m='177330'>just</span> <span m='177890'>figure</span> <span m='178240'>out</span> <span m='178700'>how</span> <span m='178950'>could</span> <span m='179110'>you</span> <span m='179190'>prove</span> <span m='179500'>that.</span> <span m='179770'>Well,</span> <span m='179990'>one</span> <span m='180170'>thing</span> <span m='180300'>you</span> <span m='180400'>can</span> <span m='180520'>do</span> <span m='180630'>is</span> <span m='180730'>you</span> <span m='180800'>can</span> <span m='180910'>say,</span> <span m='181000'>well,</span> <span m='181220'>S</span> <span m='181620'>n</span> <span m='181860'>plus</span> <span m='182175'>1</span> <span m='182490'>is</span> <span m='182660'>equal</span> <span m='182860'>to</span> <span m='182940'>S_n</span> <span m='183480'>plus</span> <span m='183710'>the</span> <span m='183800'>next</span> <span m='184130'>term,</span> <span m='184860'>right?</span> <span m='185140'>So</span> <span m='186290'>in</span> <span m='186410'>our</span> <span m='186580'>case,</span> <span m='187340'>S</span> <span m='187700'>n</span> <span m='188710'>plus</span> <span m='189080'>1</span> <span m='190410'>is</span> <span m='190560'>equal</span> <span m='190780'>to</span> <span m='190960'>S_n</span> <span m='192260'>plus</span> <span m='192890'>the</span> <span m='193000'>next</span> <span m='193390'>term,</span> <span m='193760'>the</span> <span m='194110'>n</span> <span m='194540'>plus</span> <span m='194850'>first</span> <span m='195600'>term,</span> <span m='196090'>which</span> <span m='196330'>in</span> <span m='196450'>our</span> <span m='196690'>case</span> <span m='197330'>is</span> <span m='197970'>1</span> <span m='198370'>over</span> <span m='199510'>n</span> <span m='199800'>plus</span> <span m='200170'>1</span> <span m='201090'>times</span> <span m='201390'>n</span> <span m='201620'>plus</span> <span m='201980'>2.</span> </p><p><span m='202570'>So, all</span> <span m='202930'>right,</span> <span m='203220'>so</span> <span m='203570'>that's</span> <span m='204040'>not</span> <span m='204410'>maybe</span> <span m='204820'>obvious</span> <span m='205210'>what</span> <span m='205400'>to</span> <span m='205500'>do</span> <span m='205610'>with</span> <span m='205760'>this,</span> <span m='206030'>but</span> <span m='206970'>you</span> <span m='207120'>could</span> <span m='207250'>split</span> <span m='207500'>this</span> <span m='207660'>up,</span> <span m='208180'>really</span> <span m='208750'>you</span> <span m='208910'>can</span> <span m='209050'>split</span> <span m='209310'>it up</span> <span m='209480'>by</span> <span m='209520'>partial</span> <span m='209870'>fractions.</span> <span m='211780'>And</span> <span m='211930'>you</span> <span m='212010'>can</span> <span m='212160'>write</span> <span m='212430'>this</span> <span m='212620'>as</span> <span m='213350'>say</span> <span m='213910'>S_n</span> <span m='214680'>plus--</span> <span m='215030'>so</span> <span m='215380'>if</span> <span m='215530'>you</span> <span m='216010'>split</span> <span m='216420'>this</span> <span m='216590'>up</span> <span m='216750'>by</span> <span m='216870'>partial</span> <span m='217240'>fractions,</span> <span m='217700'>what</span> <span m='217830'>you'll</span> <span m='217950'>get</span> <span m='218400'>is</span> <span m='218580'>that</span> <span m='218700'>it's</span> <span m='218860'>exactly</span> <span m='219340'>equal to</span> <span m='219760'>1</span> <span m='220520'>over</span> <span m='221360'>n</span> <span m='221570'>plus</span> <span m='221870'>1</span> <span m='222680'>minus</span> <span m='223230'>1</span> <span m='224170'>over</span> <span m='224480'>n</span> <span m='224720'>plus</span> <span m='225090'>2.</span> <span m='226350'>And</span> <span m='226480'>from</span> <span m='226620'>here</span> <span m='227100'>it's</span> <span m='227350'>easy</span> <span m='227640'>to</span> <span m='227740'>see</span> <span m='228280'>that,</span> <span m='228670'>well,</span> <span m='228850'>if</span> <span m='229330'>S_n</span> <span m='229840'>is</span> <span m='229930'>equal</span> <span m='230150'>to</span> <span m='230240'>n</span> <span m='230830'>over</span> <span m='231080'>n</span> <span m='231270'>plus</span> <span m='231500'>1,</span> <span m='232170'>then</span> <span m='232820'>this</span> <span m='233080'>will</span> <span m='233220'>be</span> <span m='233330'>equal</span> <span m='233540'>to</span> <span m='233610'>1</span> <span m='234060'>minus</span> <span m='234880'>1</span> <span m='235140'>over</span> <span m='235310'>n</span> <span m='235510'>plus</span> <span m='235740'>2,</span> <span m='235940'>which</span> <span m='236160'>is</span> <span m='236490'>n</span> <span m='236790'>plus</span> <span m='237050'>1</span> <span m='237270'>over</span> <span m='237450'>n</span> <span m='237650'>plus</span> <span m='237930'>2.</span> </p><p><span m='238450'>And</span> <span m='238650'>so</span> <span m='239430'>using</span> <span m='240360'>the</span> <span m='240470'>process</span> <span m='241060'>known</span> <span m='241260'>as</span> <span m='241360'>mathematical</span> <span m='241890'>induction,</span> <span m='242510'>you</span> <span m='242700'>have</span> <span m='242910'>that</span> <span m='243040'>it</span> <span m='243260'>follows</span> <span m='243990'>for</span> <span m='244160'>all</span> <span m='244350'>values</span> <span m='244680'>of</span> <span m='244770'>n.</span> <span m='245390'>So</span> <span m='245620'>because</span> <span m='246070'>of</span> <span m='246190'>this</span> <span m='246480'>nice</span> <span m='247270'>expression</span> <span m='247840'>for</span> <span m='247970'>the</span> <span m='248070'>term,</span> <span m='248660'>it's</span> <span m='248880'>easy</span> <span m='249120'>to</span> <span m='249220'>see</span> <span m='249360'>that</span> <span m='249500'>this</span> <span m='249660'>pattern</span> <span m='250100'>will</span> <span m='250390'>continue</span> <span m='250790'>forever.</span> </p><p><span m='252550'>OK,</span> <span m='253040'>and</span> <span m='253760'>so that, you know,</span> <span m='254410'>that's</span> <span m='254680'>just</span> <span m='254970'>a</span> <span m='255030'>sketch</span> <span m='255680'>of</span> <span m='255840'>how</span> <span m='255950'>you</span> <span m='256070'>would</span> <span m='256200'>prove</span> <span m='256450'>this.</span> <span m='256900'>Now</span> <span m='257020'>once</span> <span m='257220'>you've</span> <span m='257320'>proven</span> <span m='257700'>this,</span> <span m='258050'>it's</span> <span m='258450'>easy</span> <span m='258670'>to</span> <span m='258960'>see</span> <span m='259030'>that</span> <span m='259230'>the--</span> <span m='260940'>once</span> <span m='261140'>you</span> <span m='261230'>know</span> <span m='261440'>that</span> <span m='261620'>this</span> <span m='261800'>is</span> <span m='261900'>true,</span> <span m='262290'>it's</span> <span m='262490'>easy</span> <span m='262740'>to</span> <span m='262830'>see</span> <span m='263050'>what</span> <span m='263240'>this</span> <span m='263400'>limit</span> <span m='263670'>is,</span> <span m='263910'>right?</span> <span m='264160'>As</span> <span m='264280'>n goes to</span> <span m='264740'>infinity,</span> <span m='265500'>this just</span> <span m='265890'>approaches</span> <span m='266330'>1</span> <span m='266780'>and</span> <span m='266990'>that</span> <span m='267130'>means</span> <span m='267480'>the</span> <span m='267590'>series</span> <span m='267980'>converges</span> <span m='268740'>and</span> <span m='268900'>the</span> <span m='268960'>limit</span> <span m='269230'>of</span> <span m='269320'>the</span> <span m='269420'>series</span> <span m='269780'>is</span> <span m='269910'>1.</span> </p><p><span m='270730'>So</span> <span m='270850'>here</span> <span m='270990'>we</span> <span m='271080'>have</span> <span m='271190'>a</span> <span m='271230'>nice</span> <span m='271500'>example</span> <span m='271900'>of</span> <span m='271980'>a</span> <span m='272030'>series</span> <span m='272360'>that</span> <span m='272440'>converges</span> <span m='273050'>and</span> <span m='273330'>where it</span> <span m='273570'>actually</span> <span m='274190'>is</span> <span m='274390'>possible</span> <span m='274860'>to</span> <span m='274960'>compute</span> <span m='275920'>the</span> <span m='276050'>limit</span> <span m='276290'>of</span> <span m='276370'>this series.</span> <span m='276830'>This</span> <span m='276950'>isn't</span> <span m='277430'>possible</span> <span m='278430'>for most,</span> <span m='279540'>for all</span> <span m='279850'>series</span> <span m='280210'>or</span> <span m='280330'>even</span> <span m='280530'>for</span> <span m='280670'>most</span> <span m='281020'>series.</span> <span m='282370'>Even</span> <span m='282640'>ones</span> <span m='282870'>with</span> <span m='283000'>fairly</span> <span m='283280'>nice</span> <span m='283500'>terms,</span> <span m='283830'>it's</span> <span m='283940'>often</span> <span m='284270'>very</span> <span m='284540'>difficult</span> <span m='285510'>to</span> <span m='285650'>figure</span> <span m='285940'>out</span> <span m='286070'>what</span> <span m='286210'>their</span> <span m='286370'>limit</span> <span m='286610'>is,</span> <span m='286800'>but</span> <span m='286950'>in</span> <span m='287030'>this</span> <span m='287190'>case</span> <span m='288390'>it's</span> <span m='288530'>not</span> <span m='288750'>hard</span> <span m='288960'>to</span> <span m='289060'>do</span> <span m='289220'>and</span> <span m='289340'>we</span> <span m='289440'>have</span> <span m='290370'>precisely</span> <span m='290920'>that</span> <span m='291440'>the</span> <span m='291670'>value</span> <span m='292050'>of</span> <span m='292150'>the</span> <span m='292260'>series</span> <span m='292660'>is</span> <span m='292790'>1.</span> <span m='293130'>So I'll</span> <span m='293570'>end there.</span> </p>", 
    "_content_type_link_text": "text/plain", 
    "course_linking": [], 
    "_id": "limit-of-a-series", 
    "modification_date": "2016/09/25 01:19:47.521 GMT-4", 
    "media_index": [], 
    "always_publish": false, 
    "_owner": null, 
    "_permissions": {
        "Change portal events": {
            "acquire": false, 
            "roles": [
                "Editor", 
                "Manager", 
                "MetadataEditor", 
                "Owner"
            ]
        }, 
        "Modify portal content": {
            "acquire": false, 
            "roles": [
                "Manager", 
                "MetadataEditor"
            ]
        }, 
        "Access contents information": {
            "acquire": false, 
            "roles": [
                "Authenticated"
            ]
        }, 
        "List folder contents": {
            "acquire": false, 
            "roles": [
                "Editor", 
                "Manager", 
                "MetadataEditor", 
                "Owner"
            ]
        }, 
        "View": {
            "acquire": false, 
            "roles": [
                "Authenticated"
            ]
        }
    }, 
    "_properties": [
        [
            "title", 
            "Limit of a Series", 
            "string"
        ]
    ], 
    "creators": [
        "pgandhi3"
    ], 
    "courselist_features": [], 
    "_path": "/Plone/courses/mathematics/18-01sc-single-variable-calculus-fall-2010/unit-5-exploring-the-infinite/part-b-taylor-series/session-94-infinite-series/limit-of-a-series"
}