{
    "rsi_top_html_area": "", 
    "text": "", 
    "_content_type_license": "text/plain", 
    "_uid": "d0594d4f9dc1164d62d56d43b6723d15", 
    "title": "Finding Taylor's Series", 
    "_ac_local_roles": {
        "sbabbar": [
            "Owner"
        ]
    }, 
    "template_type": "Embed", 
    "location": "", 
    "_content_type_course_identifier": "text/plain", 
    "_atbrefs": {}, 
    "constrainTypesMode": 0, 
    "_content_type_section_identifier": "text/plain", 
    "technical_location": "https://ocw.mit.edu/courses/mathematics/18-01sc-single-variable-calculus-fall-2010/unit-5-exploring-the-infinite/part-b-taylor-series/session-98-taylors-series/finding-taylors-series", 
    "software_requirements": [
        {
            "software_type_col": "Browser", 
            "minimum_version_col": "40.0", 
            "software_name_col": "Chrome", 
            "maximum_version_col": ""
        }, 
        {
            "software_type_col": "Browser", 
            "minimum_version_col": "8.0", 
            "software_name_col": "Safari", 
            "maximum_version_col": ""
        }, 
        {
            "software_type_col": "Browser", 
            "minimum_version_col": "38.0", 
            "software_name_col": "Mozilla Firefox", 
            "maximum_version_col": ""
        }, 
        {
            "software_type_col": "Browser", 
            "minimum_version_col": "9.0", 
            "software_name_col": "Internet Explorer", 
            "maximum_version_col": ""
        }, 
        {
            "software_type_col": "Browser", 
            "minimum_version_col": "13.1", 
            "software_name_col": "Edge", 
            "maximum_version_col": ""
        }
    ], 
    "_content_type_technical_location": "text/plain", 
    "start_time": "", 
    "_content_type_rights": "text/html", 
    "_directly_provided": [
        "Products.CMFEditions.interfaces.IVersioned"
    ], 
    "media_rights": "(CC BY-NC-SA)", 
    "parent_uid": "30f32e825b1a1974da6c98b8de0aafd3", 
    "excludeFromNav": false, 
    "about_this_resource_text": "", 
    "_content_type_unique_identifier": "text/plain", 
    "end_time": "", 
    "allowDiscussion": false, 
    "_content_type_materialtype": "text/plain", 
    "locallyAllowedTypes": [
        "OCWImage", 
        "OCWFile", 
        "OCWMediaAsset"
    ], 
    "optional_tab_title": "", 
    "ad_type": "HOUSE", 
    "creation_date": "2015/12/24 06:08:03.043 US/Eastern", 
    "aggregationlevel": 2, 
    "bottom_html_area": "", 
    "duration": "", 
    "immediatelyAddableTypes": [
        "OCWImage", 
        "OCWFile", 
        "OCWMediaAsset"
    ], 
    "_content_type_template_type": "text/plain", 
    "subject": [], 
    "_content_type_short_page_title": "text/plain", 
    "effectiveDate": "2015/12/29 05:29:08.679 US/Eastern", 
    "parent_module": "bfe41979b9593362793fd930b36efa01", 
    "is_mathml_document": false, 
    "bottomtext": "", 
    "short_page_title": "Finding Taylor's Series", 
    "section_identifier": "https://ocw.mit.edu/courses/mathematics/18-01sc-single-variable-calculus-fall-2010/unit-5-exploring-the-infinite", 
    "show_captions_outside_player": false, 
    "related_mit_links": "", 
    "_content_type_ad_type": "text/plain", 
    "_layout": "custom_view", 
    "_workflow_history": {
        "page_workflow": [
            {
                "action": null, 
                "review_state": "waiting_for_authoring", 
                "comments": "", 
                "actor": "sbabbar", 
                "time": "2015/12/24 06:08:03.057 US/Eastern"
            }, 
            {
                "action": "approve_to_staging", 
                "review_state": "ready_for_staging", 
                "actor": "sbabbar", 
                "comments": "", 
                "time": "2015/12/29 05:29:08.704 US/Eastern"
            }
        ]
    }, 
    "_content_type_transcript": "text/html", 
    "metadata_contributor_list": [], 
    "_userdefined_roles": [], 
    "_content_type_inline_embed_id": "text/plain", 
    "publisher": "MIT OpenCourseWare", 
    "nextPreviousEnabled": false, 
    "_gopip": 11, 
    "license": "http://creativecommons.org/licenses/by-nc-sa/3.0/us/", 
    "url_rewrite_patterns": [], 
    "widgets_features": [], 
    "category_features": [], 
    "resource_contributor_list": [
        {
            "res_contributor_entity": "Jerison, David", 
            "res_contributor_uid": "b28f05bbf3c3b44d28bc8f11fc7834cd", 
            "res_contributor_role": "Performer"
        }
    ], 
    "show_jump_back_5_seconds_button": false, 
    "firstTimeEdit": false, 
    "_content_type_media_rights": "text/plain", 
    "feature_requirements": [], 
    "list_in_left_nav": false, 
    "inline_embed_id": "54103035findingtaylor'sseries37541763", 
    "_classname": "MediaResource", 
    "short_name_tlp": "", 
    "expirationDate": "None", 
    "_content_type_id": "text/plain", 
    "contributor_list": [
        {}
    ], 
    "is_media_gallery": false, 
    "contributors": [], 
    "media_locations": [
        {}
    ], 
    "_content_type_media_resource_type": "text/plain", 
    "_content_type_title": "text/plain", 
    "subtitle_exemption": "None", 
    "_content_type": "text/html", 
    "resource_index_text": "", 
    "_atrefs": {
        "BelongsTo": [
            "bfe41979b9593362793fd930b36efa01"
        ]
    }, 
    "media_slides": [], 
    "other_platform_requirements": "", 
    "language": "", 
    "rights": "This site (c) Massachusetts Institute of Technology 2015.  Content within individual courses is (c) by the individual authors unless otherwise noted. The Massachusetts Institute of Technology is providing this Work (as defined below) under the terms of this Creative Commons public license (\"CCPL\" or \"license\") unless otherwise noted. The Work is protected by copyright and/or other applicable law. Any use of the work other than as authorized under this license is prohibited. By exercising any of the rights to the Work provided here, You (as defined below) accept and agree to be bound by the terms of this license. The Licensor, the Massachusetts Institute of Technology, grants You the rights contained here in consideration of Your acceptance of such terms and conditions.", 
    "hide_Page_title": false, 
    "_defaultpage": "", 
    "related_resources_text": "", 
    "tcATmit_subject_tags": [], 
    "features_tracking": [], 
    "ad_champion_text": "", 
    "has_inline_embed": false, 
    "unique_identifier": "https://ocw.mit.edu/courses/mathematics/18-01sc-single-variable-calculus-fall-2010/unit-5-exploring-the-infinite/part-b-taylor-series/session-98-taylors-series/finding-taylors-series", 
    "link_text": "Finding Taylor's Series", 
    "is_image_gallery": false, 
    "id": "finding-taylors-series", 
    "_content_type_subtitle_exemption": "text/plain", 
    "materialtype": "Other", 
    "optional_text": "", 
    "_type": "MediaResource", 
    "description": "", 
    "media_resource_type": "Video", 
    "course_identifier": "https://ocw.mit.edu/courses/mathematics/18-01sc-single-variable-calculus-fall-2010", 
    "_content_type_publisher": "text/plain", 
    "tcATmit_instructional_tags": [], 
    "transcript": "<p><span m='7000'>Hi.</span> <span m='7390'>Welcome</span> <span m='7700'>back</span> <span m='7910'>to</span> <span m='8020'>recitation.</span> <span m='8850'>In</span> <span m='9090'>class,</span> <span m='9510'>Professor</span> <span m='9930'>Jerison</span> <span m='10390'>and</span> <span m='10490'>Professor</span> <span m='10900'>Miller</span> <span m='11450'>have</span> <span m='11620'>taught</span> <span m='11900'>you</span> <span m='12170'>a</span> <span m='12260'>little</span> <span m='12490'>bit</span> <span m='12600'>about</span> <span m='12850'>Taylor</span> <span m='13130'>series</span> <span m='13510'>and</span> <span m='13630'>some</span> <span m='13790'>of</span> <span m='13890'>the</span> <span m='13960'>manipulations</span> <span m='14680'>you</span> <span m='14750'>can</span> <span m='14890'>do</span> <span m='15010'>with</span> <span m='15200'>them,</span> <span m='15390'>and</span> <span m='15530'>have</span> <span m='15640'>computed</span> <span m='16040'>a</span> <span m='16090'>bunch</span> <span m='16320'>of</span> <span m='16390'>examples</span> <span m='16890'>for</span> <span m='17100'>you.</span> </p><p><span m='17450'>So</span> <span m='17640'>I</span> <span m='17680'>have</span> <span m='17800'>three</span> <span m='17970'>more</span> <span m='18200'>examples</span> <span m='18640'>here</span> <span m='18850'>of</span> <span m='18910'>functions</span> <span m='19600'>whose</span> <span m='19820'>Taylor</span> <span m='20160'>series</span> <span m='20490'>are</span> <span m='20580'>nice</span> <span m='20800'>to</span> <span m='20920'>compute.</span> <span m='22150'>So</span> <span m='22290'>the</span> <span m='22370'>first</span> <span m='22640'>one</span> <span m='22820'>is</span> <span m='23520'>cosh</span> <span m='23960'>x.</span> <span m='24460'>That's</span> <span m='24910'>the</span> <span m='25010'>hyperbolic</span> <span m='25540'>cosine.</span> <span m='26050'>So</span> <span m='26150'>just to</span> <span m='26380'>remind</span> <span m='26730'>you,</span> <span m='27210'>this</span> <span m='27990'>can</span> <span m='28130'>be</span> <span m='28220'>written</span> <span m='28540'>in</span> <span m='28630'>terms</span> <span m='28900'>of</span> <span m='28980'>the</span> <span m='29060'>exponential</span> <span m='29640'>function</span> <span m='30010'>as</span> <span m='30240'>e to</span> <span m='30450'>the</span> <span m='30580'>x</span> <span m='31530'>plus</span> <span m='32030'>e to</span> <span m='32250'>the</span> <span m='32370'>minus</span> <span m='32810'>x</span> <span m='33900'>over</span> <span m='34190'>2.</span> </p><p><span m='35940'>The</span> <span m='36040'>second</span> <span m='36340'>one</span> <span m='36470'>is</span> <span m='36570'>the</span> <span m='36660'>function</span> <span m='37040'>2</span> <span m='37350'>times</span> <span m='37600'>sine</span> <span m='37900'>of</span> <span m='38220'>x times</span> <span m='38480'>cosine</span> <span m='38910'>of x,</span> <span m='39170'>just</span> <span m='39400'>your</span> <span m='39510'>regular</span> <span m='40320'>sine and</span> <span m='40730'>cosine</span> <span m='41210'>here.</span> </p><p><span m='41720'>And</span> <span m='41870'>the</span> <span m='41930'>third</span> <span m='42240'>one</span> <span m='42690'>is</span> <span m='43562'>x</span> <span m='44000'>times</span> <span m='44330'>the</span> <span m='44440'>logarithm</span> <span m='45000'>of</span> <span m='45110'>the</span> <span m='45200'>quantity</span> <span m='45870'>1</span> <span m='46240'>minus</span> <span m='46620'>x cubed.</span> </p><p><span m='47620'>So</span> <span m='48060'>why don't</span> <span m='48370'>you</span> <span m='48510'>pause the</span> <span m='48910'>video,</span> <span m='49240'>take</span> <span m='49570'>some</span> <span m='49710'>time</span> <span m='50070'>to</span> <span m='50200'>work</span> <span m='50410'>out</span> <span m='50650'>the</span> <span m='51350'>Taylor</span> <span m='51610'>series</span> <span m='51950'>for</span> <span m='52070'>these</span> <span m='52200'>three</span> <span m='52450'>functions,</span> <span m='53180'>come</span> <span m='53390'>back,</span> <span m='53610'>and</span> <span m='53700'>we</span> <span m='53790'>can</span> <span m='53900'>work them</span> <span m='54180'>out</span> <span m='54320'>together.</span> </p><p><span m='62950'>So</span> <span m='63160'>here</span> <span m='63300'>we</span> <span m='63400'>have</span> <span m='63620'>three</span> <span m='64440'>functions</span> <span m='64970'>whose</span> <span m='65520'>Taylor</span> <span m='65780'>series</span> <span m='66060'>we're</span> <span m='66160'>trying</span> <span m='66390'>to</span> <span m='66460'>compute.</span> <span m='66960'>Let's</span> <span m='67370'>start</span> <span m='67680'>with</span> <span m='67780'>the</span> <span m='67850'>first</span> <span m='68100'>one</span> <span m='68250'>and</span> <span m='68380'>go</span> <span m='68530'>from</span> <span m='68730'>there.</span> </p><p><span m='69150'>So</span> <span m='69330'>this</span> <span m='69420'>first</span> <span m='69720'>one</span> <span m='69840'>is</span> <span m='69930'>the</span> <span m='70010'>hyperbolic</span> <span m='70510'>cosine</span> <span m='70940'>that's</span> <span m='71060'>given</span> <span m='71310'>by</span> <span m='71430'>the</span> <span m='71540'>formula</span> <span m='72060'>e to the</span> <span m='72400'>x</span> <span m='72800'>plus</span> <span m='72980'>e to the</span> <span m='73260'>minus</span> <span m='73525'>x</span> <span m='73790'>over</span> <span m='74000'>2.</span> <span m='74530'>So</span> <span m='74990'>there are a</span> <span m='75130'>couple</span> <span m='75410'>different</span> <span m='75660'>ways</span> <span m='75850'>you</span> <span m='75940'>could</span> <span m='76050'>go</span> <span m='76190'>about</span> <span m='76440'>this</span> <span m='76610'>one.</span> <span m='77030'>This</span> <span m='77220'>is</span> <span m='77580'>actually,</span> <span m='77930'>the</span> <span m='78010'>hyperbolic</span> <span m='78470'>cosine</span> <span m='79020'>is</span> <span m='79240'>very</span> <span m='79450'>susceptible</span> <span m='80130'>to</span> <span m='80260'>the</span> <span m='80360'>method</span> <span m='80700'>of</span> <span m='80890'>just</span> <span m='81050'>using</span> <span m='81420'>the</span> <span m='81530'>formula</span> <span m='82040'>that</span> <span m='82230'>you</span> <span m='82330'>have.</span> <span m='83440'>So</span> <span m='83990'>if you</span> <span m='84360'>remember,</span> <span m='84830'>the</span> <span m='84970'>derivative</span> <span m='85520'>of</span> <span m='85610'>the</span> <span m='85690'>hyperbolic</span> <span m='86170'>cosine is</span> <span m='86590'>the hyperbolic</span> <span m='87160'>sine.</span> <span m='87660'>The</span> <span m='87780'>derivative</span> <span m='88110'>of</span> <span m='88280'>the</span> <span m='88400'>hyperbolic</span> <span m='89000'>sine</span> <span m='89290'>is</span> <span m='89410'>the</span> <span m='89520'>hyperbolic</span> <span m='89900'>cosine</span> <span m='90360'>again.</span> <span m='90720'>So</span> <span m='90920'>this</span> <span m='91380'>function</span> <span m='91680'>has</span> <span m='91830'>very</span> <span m='92410'>easy-to-understand</span> <span m='93320'>derivatives,</span> <span m='93750'>which</span> <span m='93890'>you</span> <span m='93990'>can</span> <span m='94180'>see, you know,</span> <span m='95020'>just</span> <span m='95330'>by</span> <span m='95450'>looking</span> <span m='95750'>at</span> <span m='95850'>its</span> <span m='95950'>formula.</span> <span m='96390'>It's</span> <span m='96760'>easy</span> <span m='97030'>to</span> <span m='97120'>understand,</span> <span m='98010'>because</span> <span m='98990'>the exponential</span> <span m='99610'>function</span> <span m='99960'>has</span> <span m='100130'>very</span> <span m='100350'>simple</span> <span m='100660'>derivatives,</span> <span m='101140'>and</span> <span m='101550'>e to the</span> <span m='101820'>the</span> <span m='101910'>minus</span> <span m='102390'>x also</span> <span m='102630'>has</span> <span m='102810'>very</span> <span m='103000'>simple</span> <span m='103260'>derivatives.</span> </p><p><span m='104440'>So</span> <span m='104650'>you</span> <span m='104750'>could</span> <span m='104880'>do</span> <span m='105010'>it</span> <span m='105750'>like</span> <span m='105980'>that.</span> <span m='106180'>The</span> <span m='106280'>other</span> <span m='106450'>thing</span> <span m='106630'>you</span> <span m='106720'>could</span> <span m='106830'>do,</span> <span m='106930'>is</span> <span m='107050'>that</span> <span m='107150'>you</span> <span m='107250'>already</span> <span m='107520'>know</span> <span m='108240'>the</span> <span m='108640'>Taylor</span> <span m='108950'>series</span> <span m='109260'>for</span> <span m='109370'>e</span> <span m='109480'>to</span> <span m='109560'>the</span> <span m='109690'>x.</span> <span m='110270'>And</span> <span m='110470'>I</span> <span m='110510'>believe</span> <span m='110880'>you've</span> <span m='110990'>also</span> <span m='111270'>seen</span> <span m='111520'>the</span> <span m='111580'>Taylor</span> <span m='111880'>series</span> <span m='112230'>for</span> <span m='112370'>e</span> <span m='112500'>to</span> <span m='112570'>the</span> <span m='112650'>minus</span> <span m='113100'>x, and</span> <span m='113540'>even</span> <span m='113680'>if</span> <span m='113760'>you</span> <span m='113840'>haven't,</span> <span m='114120'>you</span> <span m='114230'>can</span> <span m='114960'>figure</span> <span m='115250'>it</span> <span m='115340'>out</span> <span m='115530'>just</span> <span m='115740'>by</span> <span m='115860'>substitution.</span> <span m='116800'>So</span> <span m='116980'>if</span> <span m='117050'>you</span> <span m='117120'>remember,</span> <span m='117460'>so</span> <span m='117650'>e to</span> <span m='117870'>the</span> <span m='117970'>x</span> <span m='119840'>is</span> <span m='120210'>given</span> <span m='120480'>by</span> <span m='120620'>the</span> <span m='120720'>sum</span> <span m='121780'>from</span> <span m='122150'>n</span> <span m='122560'>equals</span> <span m='123020'>0</span> <span m='123892'>to</span> <span m='124330'>infinity</span> <span m='125300'>of</span> <span m='125790'>x to</span> <span m='125900'>the</span> <span m='126000'>n</span> <span m='126980'>over</span> <span m='127220'>n</span> <span m='127480'>factorial.</span> <span m='127940'>I'm</span> <span m='128060'>going to</span> <span m='128210'>pull</span> <span m='128420'>the</span> <span m='128510'>1/2</span> <span m='129150'>out</span> <span m='129310'>in</span> <span m='129410'>front.</span> <span m='130410'>And</span> <span m='130640'>e to the</span> <span m='130970'>minus</span> <span m='131150'>x</span> <span m='132210'>is</span> <span m='132430'>given</span> <span m='132630'>by</span> <span m='132730'>the</span> <span m='132830'>same</span> <span m='133080'>thing,</span> <span m='133230'>if</span> <span m='133320'>you</span> <span m='133390'>put</span> <span m='133600'>in</span> <span m='134570'>minus</span> <span m='135100'>x</span> <span m='135810'>for</span> <span m='135990'>x.</span> <span m='136250'>So it's</span> <span m='136510'>n</span> <span m='136740'>equals</span> <span m='136980'>0</span> <span m='137425'>to</span> <span m='137870'>infinity,</span> <span m='138630'>so</span> <span m='139010'>that</span> <span m='139250'>works</span> <span m='139490'>out</span> <span m='139580'>to</span> <span m='139700'>minus</span> <span m='140080'>1</span> <span m='140740'>to</span> <span m='140860'>the</span> <span m='140940'>n</span> <span m='141980'>x to the</span> <span m='142440'>n</span> <span m='143500'>or</span> <span m='143720'>n</span> <span m='143950'>factorial.</span> </p><p><span m='145580'>Now,</span> <span m='145710'>when</span> <span m='145830'>you</span> <span m='146220'>add</span> <span m='146510'>these</span> <span m='146710'>two</span> <span m='146850'>series</span> <span m='147260'>together,</span> <span m='147560'>what</span> <span m='147690'>you</span> <span m='147780'>see</span> <span m='148190'>is</span> <span m='148390'>that</span> <span m='148470'>when</span> <span m='148620'>n</span> <span m='148810'>is</span> <span m='148930'>even,</span> <span m='149550'>over</span> <span m='149800'>here,</span> <span m='150110'>you</span> <span m='150240'>have</span> <span m='150430'>x to</span> <span m='150830'>the</span> <span m='150900'>n</span> <span m='151070'>over</span> <span m='151260'>n</span> <span m='151430'>factorial,</span> <span m='152240'>and</span> <span m='152460'>over</span> <span m='152620'>here,</span> <span m='152830'>you</span> <span m='152930'>have</span> <span m='153050'>x to the</span> <span m='153490'>n</span> <span m='153630'>over n</span> <span m='153950'>factorial.</span> <span m='154700'>So</span> <span m='154860'>what</span> <span m='154980'>you</span> <span m='155090'>get</span> <span m='155590'>is,</span> <span m='155920'>well,</span> <span m='156110'>you</span> <span m='156200'>get</span> <span m='156380'>2</span> <span m='156590'>x to the n</span> <span m='157120'>over</span> <span m='157270'>n</span> <span m='157420'>factorial,</span> <span m='158040'>and</span> <span m='158210'>then</span> <span m='158300'>you</span> <span m='158370'>multiply</span> <span m='158750'>by a</span> <span m='158930'>half,</span> <span m='159200'>so</span> <span m='159360'>you</span> <span m='159470'>just</span> <span m='159620'>get</span> <span m='159750'>x to</span> <span m='160000'>the</span> <span m='160130'>n</span> <span m='160270'>over n</span> <span m='160330'>factorial.</span> </p><p><span m='161900'>When</span> <span m='162060'>n</span> <span m='162180'>is</span> <span m='162410'>odd,</span> <span m='162930'>here</span> <span m='163230'>you</span> <span m='163340'>have</span> <span m='163470'>x to the</span> <span m='163800'>n</span> <span m='163930'>over</span> <span m='164090'>n</span> <span m='164230'>factorial,</span> <span m='164920'>and</span> <span m='165130'>here</span> <span m='165250'>you</span> <span m='165360'>have</span> <span m='165530'>minus</span> <span m='166040'>1</span> <span m='166540'>x to the</span> <span m='166960'>n over</span> <span m='167030'>n</span> <span m='167170'>factorial.</span> <span m='167730'>So</span> <span m='167830'>you</span> <span m='167920'>add</span> <span m='168170'>them</span> <span m='168310'>and</span> <span m='168400'>you</span> <span m='168470'>get</span> <span m='168640'>0.</span> </p><p><span m='169630'>So</span> <span m='169810'>what</span> <span m='169910'>happens</span> <span m='170380'>is</span> <span m='170590'>that</span> <span m='170700'>this</span> <span m='170820'>series</span> <span m='171230'>looks</span> <span m='171520'>just</span> <span m='171820'>like</span> <span m='172420'>the</span> <span m='172890'>series</span> <span m='173300'>for</span> <span m='173410'>e to</span> <span m='173560'>the x,</span> <span m='173980'>except</span> <span m='174980'>the</span> <span m='175200'>odd</span> <span m='175510'>terms</span> <span m='175850'>have</span> <span m='175970'>died</span> <span m='176270'>off.</span> <span m='176850'>So</span> <span m='177390'>we're</span> <span m='177500'>left</span> <span m='177850'>with</span> <span m='178020'>just</span> <span m='178330'>1</span> <span m='179370'>plus</span> <span m='179740'>x</span> <span m='180110'>squared</span> <span m='181280'>over</span> <span m='181510'>2</span> <span m='181690'>factorial</span> <span m='183000'>plus</span> <span m='183250'>x</span> <span m='183530'>to</span> <span m='183630'>the</span> <span m='183730'>fourth</span> <span m='184870'>over</span> <span m='185220'>4</span> <span m='185510'>factorial</span> <span m='186320'>plus</span> <span m='187550'>x</span> <span m='187820'>to</span> <span m='187900'>the</span> <span m='188010'>sixth</span> <span m='188510'>over</span> <span m='188700'>6</span> <span m='189050'>factorial,</span> <span m='190090'>and so</span> <span m='190530'>on.</span> <span m='190810'>And</span> <span m='190910'>if</span> <span m='190990'>you</span> <span m='191070'>wanted</span> <span m='191300'>to</span> <span m='191380'>write</span> <span m='191590'>this</span> <span m='191740'>in summation</span> <span m='192330'>notation,</span> <span m='193100'>you</span> <span m='193340'>could</span> <span m='193490'>write</span> <span m='193730'>it</span> <span m='193850'>as</span> <span m='194020'>the</span> <span m='194120'>sum</span> <span m='195200'>from</span> <span m='195440'>n</span> <span m='195710'>equals</span> <span m='196100'>0</span> <span m='196866'>to</span> <span m='197250'>infinity</span> <span m='198380'>of</span> <span m='198790'>x</span> <span m='199115'>to the</span> <span m='199440'>2n</span> <span m='200700'>over</span> <span m='201940'>2n</span> <span m='203780'>factorial.</span> </p><p><span m='204870'>So</span> <span m='205020'>this</span> <span m='205210'>is</span> <span m='205400'>the</span> <span m='206030'>Taylor</span> <span m='206360'>series</span> <span m='207060'>for</span> <span m='207200'>the</span> <span m='207300'>hyperbolic</span> <span m='207780'>cosine</span> <span m='208270'>function.</span> <span m='209880'>Also,</span> <span m='210650'>if</span> <span m='211050'>you</span> <span m='211150'>wanted,</span> <span m='211470'>say,</span> <span m='211680'>the</span> <span m='211780'>hyperbolic</span> <span m='212350'>sine</span> <span m='212660'>function,</span> <span m='213020'>you</span> <span m='213120'>could</span> <span m='213220'>do</span> <span m='213310'>something</span> <span m='213660'>very</span> <span m='213900'>similar,</span> <span m='214390'>or</span> <span m='214790'>you</span> <span m='214910'>could</span> <span m='215490'>remember</span> <span m='215950'>that</span> <span m='216110'>the</span> <span m='216180'>hyperbolic</span> <span m='216700'>sine</span> <span m='217000'>is</span> <span m='217120'>the</span> <span m='217210'>derivative</span> <span m='217500'>of the</span> <span m='217790'>hyperbolic</span> <span m='218310'>cosine,</span> <span m='218890'>and</span> <span m='219070'>just</span> <span m='219210'>take</span> <span m='219370'>a</span> <span m='219410'>derivative</span> <span m='219900'>right</span> <span m='220100'>from</span> <span m='220240'>this</span> <span m='220380'>expression.</span> </p><p><span m='221870'>One</span> <span m='222070'>other</span> <span m='222260'>thing that</span> <span m='223360'>you should</span> <span m='223790'>notice is</span> <span m='224140'>that</span> <span m='224270'>this</span> <span m='224420'>looks</span> <span m='224630'>very</span> <span m='224850'>similar</span> <span m='225230'>to</span> <span m='225370'>the</span> <span m='225850'>expression</span> <span m='226350'>of</span> <span m='226440'>the</span> <span m='226530'>Taylor</span> <span m='226830'>series</span> <span m='227170'>for</span> <span m='227320'>cosine of</span> <span m='227770'>x.</span> <span m='228010'>So</span> <span m='229440'>more</span> <span m='229800'>of our</span> <span m='229920'>sort</span> <span m='230110'>of</span> <span m='230570'>funny</span> <span m='230920'>coincidences</span> <span m='231730'>between</span> <span m='232570'>regular</span> <span m='232930'>trig</span> <span m='233170'>functions and</span> <span m='233610'>hyperbolic</span> <span m='234370'>trig functions.</span> </p><p><span m='235510'>All right.</span> <span m='235720'>That's</span> <span m='235900'>the</span> <span m='235990'>first</span> <span m='236230'>one.</span> <span m='236560'>How</span> <span m='236700'>about</span> <span m='236840'>the</span> <span m='236940'>second</span> <span m='237290'>one?</span> <span m='237450'>So</span> <span m='237770'>here</span> <span m='237940'>we</span> <span m='238040'>have</span> <span m='238420'>just</span> <span m='238630'>some</span> <span m='238700'>regular</span> <span m='239080'>trig functions.</span> <span m='239620'>We</span> <span m='239690'>have</span> <span m='239830'>2</span> <span m='240040'>sine</span> <span m='240340'>x</span> <span m='240630'>cosine</span> <span m='241045'>x.</span> <span m='241460'>Let</span> <span m='241690'>me</span> <span m='241830'>see</span> <span m='242120'>where</span> <span m='242290'>I've</span> <span m='242410'>got</span> <span m='242590'>some</span> <span m='242720'>space.</span> <span m='243660'>I</span> <span m='243880'>can</span> <span m='244070'>do</span> <span m='244190'>it</span> <span m='244290'>right</span> <span m='244460'>here.</span> <span m='245390'>Let</span> <span m='245880'>me</span> <span m='245990'>box</span> <span m='246360'>off a little</span> <span m='247650'>space</span> <span m='248040'>for</span> <span m='248150'>myself.</span> <span m='248820'>So</span> <span m='250970'>2</span> <span m='251220'>sine</span> <span m='251620'>x</span> <span m='253140'>cosine</span> <span m='253290'>x--</span> <span m='253640'>there are</span> <span m='254010'>a</span> <span m='254140'>couple</span> <span m='254410'>different</span> <span m='254680'>ways</span> <span m='254890'>you</span> <span m='254980'>could</span> <span m='255150'>proceed</span> <span m='256220'>with</span> <span m='256460'>this</span> <span m='257330'>function.</span> <span m='258430'>So</span> <span m='258560'>one</span> <span m='258760'>is,</span> <span m='258870'>you</span> <span m='259030'>know</span> <span m='259210'>the</span> <span m='259320'>Taylor</span> <span m='259610'>series</span> <span m='259910'>for</span> <span m='260010'>sine x</span> <span m='260460'>and</span> <span m='260550'>cosine</span> <span m='260760'>x</span> <span m='261080'>already.</span> <span m='261880'>So if</span> <span m='262110'>all</span> <span m='262310'>you</span> <span m='262430'>wanted</span> <span m='262650'>was</span> <span m='262760'>a</span> <span m='262820'>few</span> <span m='263050'>terms</span> <span m='263770'>of</span> <span m='263910'>this</span> <span m='264010'>Taylor</span> <span m='264330'>series,</span> <span m='264670'>one</span> <span m='264890'>natural</span> <span m='265240'>thing</span> <span m='265400'>to</span> <span m='265510'>do</span> <span m='265890'>would</span> <span m='266060'>be</span> <span m='266140'>to</span> <span m='266270'>take</span> <span m='266520'>the</span> <span m='266630'>series</span> <span m='266990'>for</span> <span m='267120'>sine x,</span> <span m='267800'>take</span> <span m='268000'>the</span> <span m='268080'>series for</span> <span m='268410'>cosine x,</span> <span m='269080'>multiply</span> <span m='269380'>them</span> <span m='269660'>together</span> <span m='269970'>like</span> <span m='270140'>you</span> <span m='270210'>would</span> <span m='270320'>multiply</span> <span m='270700'>polynomials,</span> <span m='271460'>and</span> <span m='271690'>what</span> <span m='271830'>you</span> <span m='271910'>would</span> <span m='272010'>get</span> <span m='272170'>is</span> <span m='272610'>the</span> <span m='272710'>Taylor</span> <span m='273000'>series</span> <span m='273300'>for</span> <span m='273440'>this expression, for this</span> <span m='276330'>function.</span> </p><p><span m='277520'>That's</span> <span m='277760'>one</span> <span m='277970'>way</span> <span m='278110'>to</span> <span m='278190'>proceed.</span> <span m='278550'>That</span> <span m='278680'>works</span> <span m='278900'>perfectly</span> <span m='279310'>well.</span> <span m='279740'>Another</span> <span m='280100'>thing</span> <span m='280250'>you</span> <span m='280370'>could</span> <span m='280470'>do,</span> <span m='280600'>is</span> <span m='280720'>you</span> <span m='280790'>could</span> <span m='280900'>try</span> <span m='281100'>taking</span> <span m='281430'>derivatives.</span> <span m='282080'>You could</span> <span m='282290'>have</span> <span m='282480'>a</span> <span m='282540'>situation</span> <span m='283090'>where</span> <span m='283230'>every</span> <span m='283420'>time</span> <span m='283830'>you</span> <span m='284040'>take</span> <span m='284230'>a</span> <span m='284280'>derivative,</span> <span m='284720'>you</span> <span m='284830'>apply</span> <span m='285090'>product</span> <span m='285540'>rule.</span> <span m='285980'>It's going to</span> <span m='286210'>get</span> <span m='286390'>more</span> <span m='286580'>and</span> <span m='286670'>more</span> <span m='286770'>complicated.</span> <span m='287510'>It</span> <span m='287720'>still</span> <span m='287890'>works.</span> <span m='288780'>It's</span> <span m='288950'>a</span> <span m='289020'>little</span> <span m='289190'>complicated</span> <span m='291340'>to</span> <span m='291480'>do it</span> <span m='291600'>that</span> <span m='291830'>way,</span> <span m='291950'>if</span> <span m='292040'>you</span> <span m='292120'>wanted</span> <span m='292500'>more</span> <span m='292760'>than</span> <span m='292940'>just</span> <span m='293160'>a</span> <span m='293220'>few</span> <span m='293440'>terms.</span> </p><p><span m='294560'>The</span> <span m='294690'>other</span> <span m='294870'>thing</span> <span m='295020'>you</span> <span m='295100'>could</span> <span m='295210'>do,</span> <span m='295300'>is</span> <span m='295400'>you</span> <span m='295470'>could</span> <span m='295570'>remember</span> <span m='295880'>your</span> <span m='296000'>trig</span> <span m='296260'>identities.</span> <span m='297400'>So</span> <span m='297530'>if</span> <span m='297600'>you</span> <span m='297720'>look</span> <span m='297850'>at</span> <span m='297940'>this</span> <span m='298060'>expression,</span> <span m='298960'>this</span> <span m='299090'>should</span> <span m='299670'>be</span> <span m='299810'>familiar</span> <span m='300230'>to</span> <span m='300380'>you,</span> <span m='300490'>because</span> <span m='300760'>it's</span> <span m='300940'>just</span> <span m='301390'>sine</span> <span m='301850'>of</span> <span m='302010'>2x.</span> <span m='306780'>So</span> <span m='306960'>once</span> <span m='307150'>you</span> <span m='307220'>realize</span> <span m='307650'>that</span> <span m='307770'>this is</span> <span m='307870'>sine</span> <span m='308240'>of</span> <span m='308340'>2x,</span> <span m='308740'>there's</span> <span m='308840'>a</span> <span m='308900'>much,</span> <span m='309140'>much</span> <span m='309340'>shorter</span> <span m='310130'>path</span> <span m='310550'>available</span> <span m='311000'>to</span> <span m='311150'>you,</span> <span m='311250'>which</span> <span m='311420'>is</span> <span m='311540'>that</span> <span m='311630'>you</span> <span m='311740'>already</span> <span m='311990'>know</span> <span m='312160'>the</span> <span m='312310'>Taylor</span> <span m='312610'>series</span> <span m='313210'>for</span> <span m='313320'>sine</span> <span m='313630'>of</span> <span m='313710'>x,</span> <span m='314120'>so</span> <span m='314290'>what</span> <span m='314420'>you</span> <span m='314510'>can</span> <span m='314610'>do,</span> <span m='314710'>is</span> <span m='314810'>you</span> <span m='314880'>can</span> <span m='314980'>just</span> <span m='315150'>plug</span> <span m='315430'>in</span> <span m='315760'>2x</span> <span m='316340'>into</span> <span m='316560'>that</span> <span m='316730'>Taylor</span> <span m='317000'>series.</span> <span m='317290'>So sine</span> <span m='317740'>of</span> <span m='317810'>x</span> <span m='318410'>is--</span> <span m='319150'>well,</span> <span m='319430'>so</span> <span m='320140'>OK.</span> <span m='320550'>So</span> <span m='320730'>sine</span> <span m='320870'>of</span> <span m='321250'>x</span> <span m='321330'>is</span> <span m='322090'>x--</span> <span m='322990'>so</span> <span m='323170'>in</span> <span m='323240'>this</span> <span m='323350'>case,</span> <span m='323560'>that's</span> <span m='323720'>going</span> <span m='323850'>to</span> <span m='323910'>be</span> <span m='324120'>2x--</span> <span m='325710'>then</span> <span m='326170'>minus,</span> <span m='326780'>so</span> <span m='327070'>in sine</span> <span m='327325'>of x,</span> <span m='327850'>we</span> <span m='327960'>have</span> <span m='328510'>x cubed</span> <span m='329160'>over</span> <span m='329360'>3</span> <span m='329580'>factorial.</span> <span m='330050'>So</span> <span m='330230'>here</span> <span m='330420'>we're</span> <span m='330550'>going to have</span> <span m='331080'>2x</span> <span m='334220'>cubed</span> <span m='335460'>over</span> <span m='335700'>3</span> <span m='335950'>factorial</span> <span m='337060'>plus--</span> <span m='337630'>OK.</span> <span m='337850'>So</span> <span m='338000'>then,</span> <span m='338180'>you</span> <span m='338400'>know,</span> <span m='338630'>and</span> <span m='338830'>so</span> <span m='339280'>on.</span> <span m='339730'>So</span> <span m='340110'>here</span> <span m='340350'>we'll</span> <span m='340520'>have</span> <span m='340860'>2x</span> <span m='342180'>to</span> <span m='342270'>the</span> <span m='342360'>fifth</span> <span m='343690'>over</span> <span m='343940'>5</span> <span m='344320'>factorial</span> <span m='345560'>minus--</span> <span m='346050'>so</span> <span m='346330'>on.</span> <span m='346700'>If you</span> <span m='346940'>wanted</span> <span m='347140'>to</span> <span m='347240'>write</span> <span m='347450'>this</span> <span m='347630'>in summation</span> <span m='348220'>notation,</span> <span m='348610'>you</span> <span m='349000'>could</span> <span m='349300'>write</span> <span m='349520'>it</span> <span m='349620'>as</span> <span m='349750'>the</span> <span m='349860'>sum</span> <span m='351190'>from</span> <span m='351430'>n</span> <span m='353020'>equals</span> <span m='354120'>0</span> <span m='354926'>to</span> <span m='355330'>infinity.</span> <span m='356570'>Well,</span> <span m='356730'>the</span> <span m='356830'>denominator</span> <span m='357530'>has</span> <span m='357660'>got to</span> <span m='357920'>be</span> <span m='358960'>2n</span> <span m='359700'>plus 1</span> <span m='360940'>factorial,</span> <span m='361500'>because</span> <span m='361610'>we</span> <span m='361680'>want it</span> <span m='361930'>to</span> <span m='362030'>go</span> <span m='362610'>through</span> <span m='362760'>the</span> <span m='362890'>odds.</span> <span m='363310'>And</span> <span m='363410'>then</span> <span m='363510'>we've</span> <span m='363700'>got</span> <span m='365740'>minus</span> <span m='366260'>1</span> <span m='366540'>to</span> <span m='366660'>the</span> <span m='366740'>n</span> <span m='367350'>times</span> <span m='367780'>2</span> <span m='368650'>to</span> <span m='368790'>the</span> <span m='368900'>2n</span> <span m='369440'>plus</span> <span m='369760'>1</span> <span m='370140'>times</span> <span m='370972'>x</span> <span m='371390'>to</span> <span m='371510'>the</span> <span m='371610'>2n</span> <span m='372830'>plus</span> <span m='373160'>1.</span> <span m='373360'>So</span> <span m='373490'>this</span> <span m='373650'>is</span> <span m='373970'>2x.</span> <span m='374625'>What</span> <span m='375060'>we've</span> <span m='375350'>got</span> <span m='375520'>here,</span> <span m='375700'>if</span> <span m='375770'>you</span> <span m='375860'>didn't</span> <span m='376070'>have</span> <span m='376230'>the</span> <span m='376340'>2's</span> <span m='376830'>there,</span> <span m='377340'>that</span> <span m='377500'>would</span> <span m='377600'>just</span> <span m='377770'>be</span> <span m='377870'>the</span> <span m='377970'>series</span> <span m='378370'>for</span> <span m='379030'>the</span> <span m='379170'>regular</span> <span m='379540'>sine.</span> </p><p><span m='380590'>OK.</span> <span m='380870'>So</span> <span m='381030'>this</span> <span m='381210'>is</span> <span m='381350'>the</span> <span m='381420'>series</span> <span m='381810'>for</span> <span m='382550'>this</span> <span m='382740'>function,</span> <span m='383150'>2</span> <span m='383320'>sine</span> <span m='383610'>x</span> <span m='383810'>cosine x.</span> <span m='384570'>And</span> <span m='384780'>I'll</span> <span m='384880'>go</span> <span m='385060'>over</span> <span m='385240'>here</span> <span m='385520'>to</span> <span m='385650'>do</span> <span m='385780'>the</span> <span m='386500'>third</span> <span m='386790'>one.</span> <span m='388140'>So</span> <span m='388350'>what</span> <span m='388460'>is</span> <span m='388540'>the</span> <span m='388640'>third</span> <span m='388910'>one?</span> <span m='389080'>It's</span> <span m='389410'>x</span> <span m='391010'>ln</span> <span m='392830'>1</span> <span m='393120'>minus</span> <span m='393460'>x</span> <span m='395030'>cubed.</span> <span m='395880'>Well,</span> <span m='396230'>what</span> <span m='396390'>can</span> <span m='396520'>we</span> <span m='396620'>do</span> <span m='396760'>with</span> <span m='396930'>this</span> <span m='397050'>series?</span> <span m='399400'>The x</span> <span m='399810'>out</span> <span m='400040'>front</span> <span m='401130'>is</span> <span m='401290'>just</span> <span m='401460'>multiplying</span> <span m='402540'>this</span> <span m='403270'>logarithm</span> <span m='403780'>part.</span> <span m='404290'>That's</span> <span m='404510'>something</span> <span m='404820'>we</span> <span m='404930'>can</span> <span m='405080'>save</span> <span m='405410'>until</span> <span m='405540'>the</span> <span m='405670'>end.</span> <span m='406190'>If</span> <span m='406350'>we</span> <span m='406450'>can</span> <span m='406560'>figure</span> <span m='406870'>out</span> <span m='406970'>what</span> <span m='407100'>the</span> <span m='407210'>Taylor</span> <span m='407490'>series</span> <span m='407840'>for</span> <span m='407950'>the</span> <span m='408060'>ln</span> <span m='408500'>of</span> <span m='408610'>1</span> <span m='408820'>minus</span> <span m='409140'>x cubed</span> <span m='409760'>part</span> <span m='410030'>is,</span> <span m='410590'>then</span> <span m='410980'>we</span> <span m='411200'>just</span> <span m='411360'>multiply</span> <span m='411755'>x</span> <span m='412150'>into</span> <span m='412480'>it,</span> <span m='412860'>and</span> <span m='413030'>that'll</span> <span m='413230'>give</span> <span m='413400'>us</span> <span m='413520'>the</span> <span m='413620'>Taylor</span> <span m='413880'>series</span> <span m='414180'>for</span> <span m='414300'>this</span> <span m='414450'>whole</span> <span m='414630'>thing.</span> <span m='414840'>So</span> <span m='414980'>the</span> <span m='415390'>x out</span> <span m='415570'>front</span> <span m='416030'>is</span> <span m='416580'>pretty</span> <span m='416800'>simple.</span> <span m='418010'>So</span> <span m='418180'>now</span> <span m='418370'>what</span> <span m='418490'>about</span> <span m='418670'>this</span> <span m='418870'>ln</span> <span m='419320'>of</span> <span m='419510'>1</span> <span m='419810'>minus</span> <span m='420590'>x cubed</span> <span m='421160'>stuff?</span> <span m='421460'>Well,</span> <span m='422210'>a</span> <span m='422320'>thing</span> <span m='422520'>to</span> <span m='422610'>remember</span> <span m='422880'>is,</span> <span m='422980'>does</span> <span m='423160'>it</span> <span m='423860'>remind</span> <span m='424210'>you of</span> <span m='424300'>anything</span> <span m='424650'>we've</span> <span m='424800'>done</span> <span m='424980'>before?</span> <span m='425500'>Well,</span> <span m='425740'>we</span> <span m='425850'>have</span> <span m='426030'>a</span> <span m='426080'>Taylor</span> <span m='426410'>series</span> <span m='426750'>for</span> <span m='426870'>a</span> <span m='426950'>logarithm</span> <span m='427450'>function,</span> <span m='427930'>right?</span> <span m='428320'>We've</span> <span m='428840'>already</span> <span m='429190'>seen</span> <span m='430730'>in</span> <span m='431240'>lecture,</span> <span m='432130'>I</span> <span m='432280'>believe,</span> <span m='432820'>we've</span> <span m='432940'>seen</span> <span m='433250'>that</span> <span m='433430'>ln</span> <span m='434920'>of</span> <span m='435040'>1</span> <span m='435450'>plus</span> <span m='436000'>x</span> <span m='436970'>is</span> <span m='437240'>equal</span> <span m='437530'>to</span> <span m='438950'>x</span> <span m='440340'>minus</span> <span m='440750'>x</span> <span m='440990'>squared</span> <span m='441480'>over</span> <span m='441730'>2</span> <span m='442830'>plus x</span> <span m='443600'>cubed</span> <span m='444860'>over</span> <span m='445100'>3,</span> <span m='446610'>minus</span> <span m='447040'>x to</span> <span m='447480'>the</span> <span m='447600'>fourth</span> <span m='448760'>over</span> <span m='449000'>four,</span> <span m='450900'>and</span> <span m='451180'>so</span> <span m='451390'>on,</span> <span m='451630'>alternating</span> <span m='452190'>signs.</span> <span m='452810'>Notice</span> <span m='453680'>that</span> <span m='454140'>the</span> <span m='454250'>denominators,</span> <span m='455030'>when</span> <span m='455150'>you</span> <span m='455210'>have</span> <span m='455320'>a</span> <span m='455390'>logarithm,</span> <span m='456070'>these</span> <span m='456300'>are</span> <span m='456380'>not</span> <span m='456550'>factorials.</span> <span m='457330'>These</span> <span m='457500'>are</span> <span m='457570'>just</span> <span m='457870'>the integer</span> <span m='458340'>2,</span> <span m='458740'>the</span> <span m='458840'>integer</span> <span m='459240'>3,</span> <span m='459520'>the</span> <span m='459640'>integer</span> <span m='459970'>4,</span> <span m='460240'>unlike</span> <span m='460630'>for</span> <span m='460910'>exponentials</span> <span m='461540'>and</span> <span m='461660'>trig</span> <span m='461900'>functions.</span> </p><p><span m='464100'>So</span> <span m='464250'>this</span> <span m='464420'>is</span> <span m='464690'>what</span> <span m='464870'>log</span> <span m='465040'>of</span> <span m='465350'>1</span> <span m='465720'>plus</span> <span m='466170'>x--</span> <span m='466990'>this</span> <span m='467270'>is</span> <span m='467540'>the</span> <span m='467620'>Taylor</span> <span m='467910'>series</span> <span m='468210'>for</span> <span m='468350'>log of</span> <span m='468650'>1</span> <span m='468970'>plus</span> <span m='469220'>x.</span> <span m='469560'>Well,</span> <span m='469770'>how</span> <span m='469890'>does</span> <span m='470040'>that</span> <span m='470140'>help</span> <span m='470400'>us?</span> <span m='470620'>Well,</span> <span m='471080'>log</span> <span m='471490'>of</span> <span m='471680'>1</span> <span m='472030'>minus</span> <span m='472390'>x cubed</span> <span m='473140'>we</span> <span m='473370'>can</span> <span m='473560'>get</span> <span m='473780'>from</span> <span m='473960'>log of</span> <span m='474250'>1</span> <span m='474530'>plus</span> <span m='474770'>x,</span> <span m='475100'>with</span> <span m='475600'>the</span> <span m='475690'>appropriate</span> <span m='476130'>substitution.</span> <span m='476780'>So</span> <span m='477130'>in</span> <span m='477300'>particular,</span> <span m='477880'>we</span> <span m='478060'>just</span> <span m='478150'>have</span> <span m='478280'>to</span> <span m='478370'>put</span> <span m='478550'>minus</span> <span m='479040'>x cubed</span> <span m='479750'>in</span> <span m='480330'>for x</span> <span m='480810'>here.</span> <span m='481430'>So</span> <span m='482020'>what does</span> <span m='482250'>that</span> <span m='482400'>give</span> <span m='482600'>us?</span> <span m='485130'>It</span> <span m='485240'>gives</span> <span m='485480'>us</span> <span m='485630'>the</span> <span m='485770'>ln</span> <span m='486180'>of</span> <span m='486310'>1</span> <span m='486700'>minus</span> <span m='487640'>x cubed</span> <span m='489290'>is</span> <span m='489480'>equal</span> <span m='489820'>to--</span> <span m='490320'>well,</span> <span m='492090'>minus</span> <span m='494120'>x</span> <span m='495600'>cubed</span> <span m='497290'>minus,</span> <span m='498770'>so</span> <span m='498890'>we</span> <span m='499000'>put</span> <span m='499200'>minus</span> <span m='499590'>x cubed</span> <span m='500010'>in</span> <span m='500260'>here,</span> <span m='500510'>we</span> <span m='500640'>square it,</span> <span m='500905'>and</span> <span m='501170'>we</span> <span m='501260'>just</span> <span m='501400'>get</span> <span m='501520'>x</span> <span m='501830'>to the</span> <span m='501930'>sixth.</span> <span m='502870'>x to</span> <span m='503320'>the</span> <span m='503585'>sixth</span> <span m='503850'>over</span> <span m='504300'>2.</span> <span m='505240'>Then,</span> <span m='505660'>all right.</span> <span m='505880'>So</span> <span m='505970'>minus</span> <span m='506450'>x cubed</span> <span m='507640'>quantity</span> <span m='508060'>cubed</span> <span m='508325'>is</span> <span m='508590'>minus</span> <span m='509030'>x to</span> <span m='509300'>the</span> <span m='509380'>ninth.</span> <span m='509660'>So</span> <span m='509800'>minus</span> <span m='510240'>x</span> <span m='510680'>to</span> <span m='511090'>the</span> <span m='511190'>ninth</span> <span m='512210'>over</span> <span m='512680'>3,</span> <span m='513740'>minus</span> <span m='514220'>x to the</span> <span m='514680'>twelfth</span> <span m='515710'>over</span> <span m='516120'>4,</span> <span m='517690'>and</span> <span m='517910'>so</span> <span m='518130'>on.</span> </p><p><span m='518710'>And</span> <span m='518860'>so</span> <span m='518950'>finally,</span> <span m='524790'>x</span> <span m='526160'>ln</span> <span m='526630'>of</span> <span m='526770'>1</span> <span m='527020'>minus</span> <span m='528010'>x cubed,</span> <span m='528840'>we</span> <span m='529030'>just</span> <span m='529230'>get</span> <span m='529390'>by</span> <span m='529510'>multiplying</span> <span m='530120'>this</span> <span m='530250'>whole</span> <span m='530430'>expression</span> <span m='530900'>through</span> <span m='531080'>by</span> <span m='531250'>x.</span> <span m='532660'>So</span> <span m='532810'>this</span> <span m='532960'>is</span> <span m='533140'>equal to</span> <span m='533340'>minus</span> <span m='534390'>x to</span> <span m='534760'>the</span> <span m='534870'>fourth</span> <span m='536110'>minus</span> <span m='536460'>x to</span> <span m='536725'>the</span> <span m='536990'>seventh</span> <span m='538020'>over</span> <span m='538250'>2</span> <span m='538920'>minus</span> <span m='539370'>x--</span> <span m='539760'>whoops,</span> <span m='539970'>not</span> <span m='540325'>ten--</span> <span m='540940'>minus</span> <span m='542203'>x</span> <span m='542910'>to the tenth</span> <span m='543690'>over</span> <span m='543950'>3,</span> <span m='545180'>minus x</span> <span m='545843'>to the</span> <span m='546550'>13</span> <span m='547356'>over</span> <span m='547760'>4,</span> <span m='548750'>and</span> <span m='549150'>so on.</span> <span m='549760'>And</span> <span m='549920'>I'll</span> <span m='550000'>leave</span> <span m='550190'>it</span> <span m='550260'>as</span> <span m='550400'>an</span> <span m='550480'>exercise</span> <span m='550960'>for</span> <span m='551070'>you</span> <span m='551170'>to</span> <span m='551270'>figure</span> <span m='551560'>out</span> <span m='551730'>how</span> <span m='551870'>to</span> <span m='551950'>write</span> <span m='552200'>this</span> <span m='552410'>in</span> <span m='552890'>summation</span> <span m='553360'>notation,</span> <span m='553850'>if</span> <span m='553980'>you</span> <span m='554060'>wanted.</span> </p><p><span m='554810'>So</span> <span m='554960'>just</span> <span m='555140'>quickly</span> <span m='555450'>to</span> <span m='555540'>summarize,</span> <span m='556280'>we</span> <span m='556520'>had</span> <span m='556660'>these</span> <span m='556840'>three power series, these three</span> <span m='559290'>functions</span> <span m='560160'>that</span> <span m='560290'>we</span> <span m='560390'>started</span> <span m='560710'>out</span> <span m='560860'>with,</span> <span m='561360'>and</span> <span m='561520'>we</span> <span m='561620'>used</span> <span m='561800'>a</span> <span m='561850'>bunch</span> <span m='562070'>of</span> <span m='562130'>different</span> <span m='562390'>techniques</span> <span m='562820'>that</span> <span m='562930'>we've</span> <span m='563100'>learned</span> <span m='563340'>in</span> <span m='563430'>order</span> <span m='563610'>to</span> <span m='563740'>compute</span> <span m='564100'>their</span> <span m='564220'>power</span> <span m='564480'>series.</span> <span m='565160'>So</span> <span m='565830'>over</span> <span m='566050'>here,</span> <span m='566560'>we</span> <span m='567190'>took</span> <span m='567550'>the</span> <span m='568050'>function</span> <span m='568830'>that</span> <span m='568980'>we'd</span> <span m='569170'>seen,</span> <span m='569520'>and</span> <span m='569640'>we</span> <span m='570780'>knew</span> <span m='571260'>a</span> <span m='571360'>formula</span> <span m='571760'>for it</span> <span m='572020'>in</span> <span m='572080'>terms</span> <span m='572300'>of</span> <span m='572410'>other</span> <span m='572610'>functions</span> <span m='573010'>that</span> <span m='573100'>we</span> <span m='573210'>already</span> <span m='573560'>knew,</span> <span m='573970'>and</span> <span m='574190'>so</span> <span m='574270'>we</span> <span m='574380'>plugged</span> <span m='574710'>in</span> <span m='574810'>those</span> <span m='575020'>power</span> <span m='575290'>series,</span> <span m='575760'>and</span> <span m='576000'>used</span> <span m='576150'>our</span> <span m='576470'>addition</span> <span m='576730'>rule</span> <span m='577090'>for</span> <span m='577270'>power</span> <span m='577550'>series.</span> <span m='578680'>We</span> <span m='578860'>could</span> <span m='578970'>have</span> <span m='579060'>also</span> <span m='579360'>done</span> <span m='579570'>this</span> <span m='579700'>one</span> <span m='579880'>directly</span> <span m='580300'>from</span> <span m='580450'>the</span> <span m='580560'>definition,</span> <span m='581030'>if</span> <span m='581140'>we had</span> <span m='581320'>wanted</span> <span m='581580'>to.</span> </p><p><span m='582130'>For</span> <span m='582240'>the</span> <span m='582320'>second</span> <span m='582680'>one,</span> <span m='582900'>for</span> <span m='583010'>the</span> <span m='583150'>2</span> <span m='583360'>sine x</span> <span m='583880'>cosine</span> <span m='584270'>x,</span> <span m='584670'>we</span> <span m='585040'>recognized</span> <span m='585730'>that</span> <span m='586030'>as</span> <span m='586570'>something</span> <span m='586890'>that is</span> <span m='587040'>susceptible</span> <span m='587710'>to</span> <span m='587850'>a</span> <span m='587900'>substitution,</span> <span m='589360'>although</span> <span m='590120'>also,</span> <span m='590750'>with</span> <span m='591290'>a</span> <span m='591340'>little</span> <span m='591540'>more,</span> <span m='591820'>work,</span> <span m='592070'>we</span> <span m='592170'>could</span> <span m='592290'>have</span> <span m='592390'>done</span> <span m='592560'>it</span> <span m='592660'>by</span> <span m='593120'>a</span> <span m='593240'>couple</span> <span m='593520'>of</span> <span m='593610'>different</span> <span m='593890'>methods.</span> <span m='594220'>For</span> <span m='594360'>example,</span> <span m='594720'>by</span> <span m='594840'>multiplying</span> <span m='595480'>two</span> <span m='595620'>power</span> <span m='595880'>series</span> <span m='596140'>together.</span> <span m='596810'>And</span> <span m='596980'>finally,</span> <span m='597360'>for</span> <span m='597480'>this</span> <span m='597600'>third</span> <span m='597970'>one,</span> <span m='598490'>for</span> <span m='598640'>the x</span> <span m='599070'>ln</span> <span m='599420'>of</span> <span m='599550'>1</span> <span m='599710'>minus</span> <span m='599990'>x cubed,</span> <span m='600650'>we</span> <span m='600960'>first</span> <span m='601390'>saw</span> <span m='601590'>the</span> <span m='601720'>substitution</span> <span m='602430'>here</span> <span m='602630'>that</span> <span m='602750'>we</span> <span m='602860'>could</span> <span m='603000'>make,</span> <span m='603400'>and</span> <span m='603630'>then</span> <span m='603730'>we</span> <span m='603840'>just</span> <span m='604030'>did</span> <span m='604180'>a</span> <span m='604250'>multiplication</span> <span m='604960'>by</span> <span m='605130'>a polynomial,</span> <span m='605740'>which</span> <span m='605910'>is a</span> <span m='606010'>relatively</span> <span m='606570'>easy</span> <span m='606830'>thing</span> <span m='607050'>to</span> <span m='607160'>do</span> <span m='607260'>for</span> <span m='607410'>power</span> <span m='607780'>series.</span> </p><p><span m='609970'>So</span> <span m='610110'>that's</span> <span m='610310'>what</span> <span m='610440'>we</span> <span m='610540'>did in</span> <span m='610810'>this</span> <span m='610920'>recitation,</span> <span m='611980'>and</span> <span m='612700'>I'll</span> <span m='612870'>leave</span> <span m='613050'>it</span> <span m='613120'>at</span> <span m='613240'>that.</span> </p>", 
    "_content_type_link_text": "text/plain", 
    "course_linking": [], 
    "_id": "finding-taylors-series", 
    "modification_date": "2016/09/25 01:17:41.809 GMT-4", 
    "media_index": [], 
    "always_publish": false, 
    "_owner": null, 
    "_permissions": {
        "Change portal events": {
            "acquire": false, 
            "roles": [
                "Editor", 
                "Manager", 
                "MetadataEditor", 
                "Owner"
            ]
        }, 
        "Modify portal content": {
            "acquire": false, 
            "roles": [
                "Manager", 
                "MetadataEditor"
            ]
        }, 
        "Access contents information": {
            "acquire": false, 
            "roles": [
                "Authenticated"
            ]
        }, 
        "List folder contents": {
            "acquire": false, 
            "roles": [
                "Editor", 
                "Manager", 
                "MetadataEditor", 
                "Owner"
            ]
        }, 
        "View": {
            "acquire": false, 
            "roles": [
                "Authenticated"
            ]
        }
    }, 
    "_properties": [
        [
            "title", 
            "Finding Taylor's Series", 
            "string"
        ]
    ], 
    "creators": [
        "sbabbar"
    ], 
    "courselist_features": [], 
    "_path": "/Plone/courses/mathematics/18-01sc-single-variable-calculus-fall-2010/unit-5-exploring-the-infinite/part-b-taylor-series/session-98-taylors-series/finding-taylors-series"
}