{
    "rsi_top_html_area": "", 
    "text": "", 
    "_content_type_license": "text/plain", 
    "_uid": "4148c44b846d05d1d938188ff3d052c4", 
    "title": "Taylor's Series of a Polynomial", 
    "_ac_local_roles": {
        "sbabbar": [
            "Owner"
        ]
    }, 
    "template_type": "Embed", 
    "location": "", 
    "_content_type_course_identifier": "text/plain", 
    "_atbrefs": {}, 
    "constrainTypesMode": 0, 
    "_content_type_section_identifier": "text/plain", 
    "technical_location": "https://ocw.mit.edu/courses/mathematics/18-01sc-single-variable-calculus-fall-2010/unit-5-exploring-the-infinite/part-b-taylor-series/session-98-taylors-series/taylors-series-of-a-polynomial", 
    "software_requirements": [
        {
            "software_type_col": "Browser", 
            "minimum_version_col": "40.0", 
            "software_name_col": "Chrome", 
            "maximum_version_col": ""
        }, 
        {
            "software_type_col": "Browser", 
            "minimum_version_col": "8.0", 
            "software_name_col": "Safari", 
            "maximum_version_col": ""
        }, 
        {
            "software_type_col": "Browser", 
            "minimum_version_col": "38.0", 
            "software_name_col": "Mozilla Firefox", 
            "maximum_version_col": ""
        }, 
        {
            "software_type_col": "Browser", 
            "minimum_version_col": "9.0", 
            "software_name_col": "Internet Explorer", 
            "maximum_version_col": ""
        }, 
        {
            "software_type_col": "Browser", 
            "minimum_version_col": "13.1", 
            "software_name_col": "Edge", 
            "maximum_version_col": ""
        }
    ], 
    "_content_type_technical_location": "text/plain", 
    "start_time": "", 
    "_content_type_rights": "text/html", 
    "_directly_provided": [
        "Products.CMFEditions.interfaces.IVersioned"
    ], 
    "media_rights": "(CC BY-NC-SA)", 
    "parent_uid": "30f32e825b1a1974da6c98b8de0aafd3", 
    "excludeFromNav": false, 
    "about_this_resource_text": "", 
    "_content_type_unique_identifier": "text/plain", 
    "end_time": "", 
    "allowDiscussion": false, 
    "_content_type_materialtype": "text/plain", 
    "locallyAllowedTypes": [
        "OCWImage", 
        "OCWFile", 
        "OCWMediaAsset"
    ], 
    "optional_tab_title": "", 
    "ad_type": "HOUSE", 
    "creation_date": "2015/12/24 06:08:07.159 US/Eastern", 
    "aggregationlevel": 2, 
    "bottom_html_area": "", 
    "duration": "", 
    "immediatelyAddableTypes": [
        "OCWImage", 
        "OCWFile", 
        "OCWMediaAsset"
    ], 
    "_content_type_template_type": "text/plain", 
    "subject": [], 
    "_content_type_short_page_title": "text/plain", 
    "effectiveDate": "2015/12/29 05:29:54.465 US/Eastern", 
    "parent_module": "bfe41979b9593362793fd930b36efa01", 
    "is_mathml_document": false, 
    "bottomtext": "", 
    "short_page_title": "Taylor's Series of a Polynomial", 
    "section_identifier": "https://ocw.mit.edu/courses/mathematics/18-01sc-single-variable-calculus-fall-2010/unit-5-exploring-the-infinite", 
    "show_captions_outside_player": false, 
    "related_mit_links": "", 
    "_content_type_ad_type": "text/plain", 
    "_layout": "custom_view", 
    "_workflow_history": {
        "page_workflow": [
            {
                "action": null, 
                "review_state": "waiting_for_authoring", 
                "comments": "", 
                "actor": "sbabbar", 
                "time": "2015/12/24 06:08:07.173 US/Eastern"
            }, 
            {
                "action": "approve_to_staging", 
                "review_state": "ready_for_staging", 
                "actor": "sbabbar", 
                "comments": "", 
                "time": "2015/12/29 05:29:55.624 US/Eastern"
            }
        ]
    }, 
    "_content_type_transcript": "text/html", 
    "metadata_contributor_list": [], 
    "_userdefined_roles": [], 
    "_content_type_inline_embed_id": "text/plain", 
    "publisher": "MIT OpenCourseWare", 
    "nextPreviousEnabled": false, 
    "_gopip": 12, 
    "license": "http://creativecommons.org/licenses/by-nc-sa/3.0/us/", 
    "url_rewrite_patterns": [], 
    "widgets_features": [], 
    "category_features": [], 
    "resource_contributor_list": [
        {
            "res_contributor_entity": "Jerison, David", 
            "res_contributor_uid": "b28f05bbf3c3b44d28bc8f11fc7834cd", 
            "res_contributor_role": "Performer"
        }
    ], 
    "show_jump_back_5_seconds_button": false, 
    "firstTimeEdit": false, 
    "_content_type_media_rights": "text/plain", 
    "feature_requirements": [], 
    "list_in_left_nav": false, 
    "inline_embed_id": "67054243taylor'sseriesofapolynomial98988180", 
    "_classname": "MediaResource", 
    "short_name_tlp": "", 
    "expirationDate": "None", 
    "_content_type_id": "text/plain", 
    "contributor_list": [
        {}
    ], 
    "is_media_gallery": false, 
    "contributors": [], 
    "media_locations": [
        {}
    ], 
    "_content_type_media_resource_type": "text/plain", 
    "_content_type_title": "text/plain", 
    "subtitle_exemption": "None", 
    "_content_type": "text/html", 
    "resource_index_text": "", 
    "_atrefs": {
        "BelongsTo": [
            "bfe41979b9593362793fd930b36efa01"
        ]
    }, 
    "media_slides": [], 
    "other_platform_requirements": "", 
    "language": "", 
    "rights": "This site (c) Massachusetts Institute of Technology 2015.  Content within individual courses is (c) by the individual authors unless otherwise noted. The Massachusetts Institute of Technology is providing this Work (as defined below) under the terms of this Creative Commons public license (\"CCPL\" or \"license\") unless otherwise noted. The Work is protected by copyright and/or other applicable law. Any use of the work other than as authorized under this license is prohibited. By exercising any of the rights to the Work provided here, You (as defined below) accept and agree to be bound by the terms of this license. The Licensor, the Massachusetts Institute of Technology, grants You the rights contained here in consideration of Your acceptance of such terms and conditions.", 
    "hide_Page_title": false, 
    "_defaultpage": "", 
    "related_resources_text": "", 
    "tcATmit_subject_tags": [], 
    "features_tracking": [], 
    "ad_champion_text": "", 
    "has_inline_embed": false, 
    "unique_identifier": "https://ocw.mit.edu/courses/mathematics/18-01sc-single-variable-calculus-fall-2010/unit-5-exploring-the-infinite/part-b-taylor-series/session-98-taylors-series/taylors-series-of-a-polynomial", 
    "link_text": "Taylor's Series of a Polynomial", 
    "is_image_gallery": false, 
    "id": "taylors-series-of-a-polynomial", 
    "_content_type_subtitle_exemption": "text/plain", 
    "materialtype": "Other", 
    "optional_text": "", 
    "_type": "MediaResource", 
    "description": "", 
    "media_resource_type": "Video", 
    "course_identifier": "https://ocw.mit.edu/courses/mathematics/18-01sc-single-variable-calculus-fall-2010", 
    "_content_type_publisher": "text/plain", 
    "tcATmit_instructional_tags": [], 
    "transcript": "<p><span m='0'>PROFESSOR:</span> <span m='6910'>Welcome</span> <span m='7240'>back</span> <span m='7420'>to</span> <span m='8220'>recitation.</span> <span m='8620'>In</span> <span m='8840'>this</span> <span m='8970'>video</span> <span m='9290'>what</span> <span m='9430'>I'd</span> <span m='9530'>like</span> <span m='9720'>us</span> <span m='9850'>to</span> <span m='9960'>do</span> <span m='10190'>is</span> <span m='10760'>practice</span> <span m='11380'>Taylor</span> <span m='11780'>series.</span> <span m='12350'>So</span> <span m='12550'>I</span> <span m='12610'>want us</span> <span m='12850'>to</span> <span m='12940'>write</span> <span m='13120'>the</span> <span m='13210'>Taylor</span> <span m='13470'>series</span> <span m='14360'>for</span> <span m='14690'>the</span> <span m='14800'>following</span> <span m='15140'>function,</span> <span m='16060'>f</span> <span m='16310'>of</span> <span m='16540'>x</span> <span m='16960'>equals 3</span> <span m='17210'>x</span> <span m='17705'>cubed</span> <span m='18200'>plus</span> <span m='18450'>4</span> <span m='18670'>x</span> <span m='18850'>squared</span> <span m='19640'>minus</span> <span m='20010'>2x</span> <span m='20880'>plus</span> <span m='21130'>1.</span> <span m='22130'>So</span> <span m='22340'>why</span> <span m='22510'>don't</span> <span m='22650'>you</span> <span m='22750'>pause</span> <span m='23240'>the</span> <span m='23330'>video,</span> <span m='23500'>take</span> <span m='23740'>some</span> <span m='23860'>time</span> <span m='24060'>to</span> <span m='24140'>work</span> <span m='24330'>on</span> <span m='24480'>that,</span> <span m='24940'>and</span> <span m='25750'>then</span> <span m='26020'>I'll</span> <span m='26190'>come</span> <span m='26380'>back</span> <span m='26700'>and</span> <span m='27030'>show</span> <span m='27170'>you</span> <span m='27270'>what</span> <span m='27400'>I</span> <span m='27500'>get.</span> </p><p><span m='35910'>All</span> <span m='36020'>right,</span> <span m='36520'>welcome</span> <span m='36800'>back.</span> <span m='37400'>Well,</span> <span m='37805'>we</span> <span m='38210'>want to</span> <span m='38550'>find</span> <span m='38740'>the</span> <span m='38810'>Taylor</span> <span m='39080'>series</span> <span m='39590'>for</span> <span m='39790'>this</span> <span m='40000'>polynomial</span> <span m='40590'>f</span> <span m='40810'>of x</span> <span m='41100'>equals</span> <span m='41390'>3</span> <span m='41650'>x</span> <span m='41915'>cubed</span> <span m='42180'>plus</span> <span m='42390'>4</span> <span m='42610'>x</span> <span m='42800'>squared</span> <span m='43160'>minus</span> <span m='43440'>2x</span> <span m='43730'>plus</span> <span m='43930'>1.</span> <span m='44860'>So</span> <span m='45330'>what</span> <span m='45560'>I'm</span> <span m='45790'>going to</span> <span m='46000'>do</span> <span m='46460'>is</span> <span m='46610'>I'm</span> <span m='46780'>just</span> <span m='46970'>going to</span> <span m='47490'>write</span> <span m='47840'>down</span> <span m='48120'>Taylor's--</span> <span m='48790'>or</span> <span m='49480'>the</span> <span m='50070'>expression</span> <span m='50640'>we</span> <span m='50770'>have</span> <span m='52140'>for</span> <span m='52320'>the</span> <span m='52740'>sum,</span> <span m='53120'>for</span> <span m='53230'>the</span> <span m='53350'>Taylor</span> <span m='53660'>series</span> <span m='54240'>in</span> <span m='54420'>general</span> <span m='55040'>and</span> <span m='55190'>then</span> <span m='55290'>I'm</span> <span m='55360'>going to</span> <span m='55550'>start</span> <span m='55820'>computing</span> <span m='56250'>what</span> <span m='56400'>I</span> <span m='56460'>need</span> <span m='57320'>and</span> <span m='57900'>I'm</span> <span m='58030'>going to</span> <span m='58200'>see</span> <span m='58340'>what</span> <span m='58450'>I</span> <span m='58510'>get.</span> <span m='59220'>So</span> <span m='59430'>what</span> <span m='59560'>do</span> <span m='59620'>I</span> <span m='59710'>need</span> <span m='59930'>to</span> <span m='60030'>remember?</span> <span m='60650'>Well</span> <span m='61330'>let's</span> <span m='61960'>remind</span> <span m='62240'>ourselves</span> <span m='63350'>what</span> <span m='63580'>the</span> <span m='63940'>formula</span> <span m='64500'>is.</span> <span m='65270'>We</span> <span m='65590'>should</span> <span m='65860'>get</span> <span m='67140'>f</span> <span m='67410'>of x</span> <span m='68700'>is equal</span> <span m='68800'>to</span> <span m='68900'>the</span> <span m='69000'>sum</span> <span m='69390'>from</span> <span m='69600'>n</span> <span m='69780'>equals</span> <span m='69950'>0</span> <span m='70830'>to</span> <span m='70990'>infinity</span> <span m='72390'>of</span> <span m='72570'>the</span> <span m='73130'>nth</span> <span m='73380'>derivative</span> <span m='73800'>of</span> <span m='74070'>f</span> <span m='74742'>at</span> <span m='75080'>0</span> <span m='76310'>over</span> <span m='76570'>n</span> <span m='76770'>factorial</span> <span m='77920'>times</span> <span m='78220'>x</span> <span m='78550'>to the</span> <span m='78730'>n.</span> <span m='79550'>So</span> <span m='79820'>that's</span> <span m='80130'>what</span> <span m='80350'>we</span> <span m='80470'>want.</span> </p><p><span m='80770'>So</span> <span m='80930'>what</span> <span m='81100'>I</span> <span m='81170'>obviously</span> <span m='81760'>need</span> <span m='82010'>to</span> <span m='82150'>start</span> <span m='82450'>doing</span> <span m='82840'>is</span> <span m='83030'>figuring</span> <span m='83430'>out</span> <span m='84120'>derivatives</span> <span m='84620'>of</span> <span m='84790'>f</span> <span m='85050'>at</span> <span m='85220'>0.</span> <span m='86440'>And</span> <span m='86730'>so</span> <span m='86850'>what</span> <span m='87030'>I'm</span> <span m='87150'>going to</span> <span m='87330'>do</span> <span m='87530'>is</span> <span m='87640'>I'm</span> <span m='87770'>just</span> <span m='87950'>going to</span> <span m='88110'>make</span> <span m='88300'>myself</span> <span m='88790'>a</span> <span m='88880'>little</span> <span m='89100'>table.</span> <span m='90230'>So</span> <span m='90390'>let's</span> <span m='90620'>see,</span> <span m='91010'>we're</span> <span m='91130'>going</span> <span m='91260'>to</span> <span m='91350'>say</span> <span m='94045'>f</span> <span m='94320'>0</span> <span m='94690'>at</span> <span m='95060'>0,</span> <span m='97310'>f</span> <span m='97650'>1</span> <span m='97990'>at</span> <span m='98330'>0,</span> <span m='100150'>f 2</span> <span m='100630'>at</span> <span m='101110'>0,</span> <span m='103150'>f 3</span> <span m='103560'>at</span> <span m='103970'>0,</span> <span m='105160'>f</span> <span m='105660'>4</span> <span m='106370'>at</span> <span m='106470'>0.</span> <span m='106810'>And</span> <span m='106910'>I'm</span> <span m='107000'>getting</span> <span m='107220'>tired</span> <span m='107450'>of</span> <span m='107520'>writing,</span> <span m='107890'>so</span> <span m='108000'>I'm</span> <span m='108070'>going to</span> <span m='108250'>stop</span> <span m='108590'>there.</span> <span m='109750'>OK,</span> <span m='109980'>so</span> <span m='110170'>let's</span> <span m='110510'>take</span> <span m='110850'>the</span> <span m='111110'>function--</span> <span m='111670'>the</span> <span m='111870'>zeroth</span> <span m='112190'>derivative</span> <span m='112520'>of</span> <span m='112850'>f is</span> <span m='113270'>just</span> <span m='113430'>the</span> <span m='113500'>function</span> <span m='113830'>itself,</span> <span m='114370'>so</span> <span m='114450'>let's</span> <span m='114740'>come</span> <span m='114880'>back</span> <span m='115080'>here.</span> <span m='115770'>What</span> <span m='116040'>is</span> <span m='116150'>the</span> <span m='116220'>function</span> <span m='116950'>if</span> <span m='117140'>I</span> <span m='117240'>evaluate</span> <span m='117580'>it at</span> <span m='118010'>x</span> <span m='118280'>equals</span> <span m='118490'>0?</span> <span m='119280'>0,</span> <span m='120240'>0,</span> <span m='120950'>0,</span> <span m='121810'>1.</span> <span m='122250'>I</span> <span m='122370'>get</span> <span m='122540'>1.</span> </p><p><span m='126440'>All</span> <span m='126590'>right.</span> <span m='127460'>What</span> <span m='127660'>is</span> <span m='127780'>the</span> <span m='127900'>first</span> <span m='128390'>derivative?</span> <span m='129120'>So</span> <span m='129500'>I'm</span> <span m='129610'>going to</span> <span m='129790'>write</span> <span m='130060'>out</span> <span m='130230'>the</span> <span m='130320'>first</span> <span m='130760'>derivative</span> <span m='131280'>and</span> <span m='131450'>then</span> <span m='131550'>I'm</span> <span m='131620'>going to</span> <span m='131810'>say I'm</span> <span m='132030'>evaluating</span> <span m='132700'>it</span> <span m='132890'>at</span> <span m='133080'>x</span> <span m='133310'>equals</span> <span m='133450'>0.</span> <span m='134220'>So</span> <span m='134410'>the</span> <span m='134520'>first</span> <span m='134990'>derivative</span> <span m='135380'>looks</span> <span m='135630'>like</span> <span m='135780'>it's</span> <span m='136470'>9</span> <span m='136900'>x</span> <span m='137200'>squared</span> <span m='138130'>plus</span> <span m='138510'>8</span> <span m='138750'>x</span> <span m='139630'>minus</span> <span m='140110'>2.</span> <span m='141020'>So</span> <span m='141230'>I'm</span> <span m='141320'>gonna</span> <span m='141480'>write</span> <span m='141690'>this</span> <span m='141900'>down.</span> <span m='143610'>9</span> <span m='143915'>x</span> <span m='144220'>squared</span> <span m='145040'>plus</span> <span m='145670'>8</span> <span m='146160'>x</span> <span m='146690'>minus</span> <span m='147280'>2.</span> <span m='148340'>Evaluate</span> <span m='148743'>it</span> <span m='149146'>at</span> <span m='149550'>x equals</span> <span m='149953'>0.</span> <span m='150760'>0,</span> <span m='151380'>0.</span> <span m='151800'>I</span> <span m='151870'>get</span> <span m='152040'>negative</span> <span m='152440'>2.</span> </p><p><span m='156680'>All right,</span> <span m='157180'>well,</span> <span m='157930'>let</span> <span m='158060'>me</span> <span m='158140'>take</span> <span m='158360'>the</span> <span m='158450'>second</span> <span m='158930'>derivative.</span> <span m='160080'>OK</span> <span m='160450'>let's</span> <span m='160720'>see</span> <span m='160860'>what</span> <span m='161000'>I</span> <span m='161070'>get</span> <span m='161240'>here.</span> <span m='162020'>I</span> <span m='162250'>get</span> <span m='163640'>18x</span> <span m='166350'>plus</span> <span m='166970'>8.</span> <span m='167790'>And</span> <span m='168200'>I'm going to</span> <span m='168700'>evaluate</span> <span m='168830'>that at</span> <span m='169030'>x</span> <span m='169460'>equals</span> <span m='170320'>0.</span> <span m='171180'>This</span> <span m='171500'>is</span> <span m='171670'>just</span> <span m='171870'>a</span> <span m='171980'>way</span> <span m='172660'>to</span> <span m='172810'>write,</span> <span m='173760'>I'm</span> <span m='173880'>going to</span> <span m='174020'>evaluate</span> <span m='174530'>what's</span> <span m='174690'>here</span> <span m='175480'>at</span> <span m='175760'>x equal</span> <span m='176180'>this</span> <span m='176400'>number,</span> <span m='176760'>so if</span> <span m='177030'>you</span> <span m='177100'>haven't</span> <span m='177350'>seen</span> <span m='177540'>that</span> <span m='177720'>before.</span> <span m='178810'>So</span> <span m='178940'>I</span> <span m='179020'>get</span> <span m='179500'>8.</span> <span m='182040'>OK</span> <span m='183560'>and</span> <span m='183730'>then</span> <span m='183900'>the</span> <span m='183980'>third</span> <span m='184440'>derivative</span> <span m='185232'>is 18, oh</span> <span m='187070'>just</span> <span m='187310'>18.</span> <span m='188500'>Evaluate</span> <span m='188850'>it</span> <span m='189200'>at x</span> <span m='189490'>equals</span> <span m='189620'>0.</span> <span m='190710'>I get</span> <span m='192160'>18.</span> <span m='193180'>And then</span> <span m='193620'>the</span> <span m='193820'>fourth</span> <span m='194190'>derivative.</span> <span m='194640'>What's the</span> <span m='194880'>derivative of</span> <span m='195310'>a</span> <span m='195420'>constant</span> <span m='195880'>function?</span> <span m='196230'>It's</span> <span m='196380'>0.</span> <span m='198710'>What</span> <span m='198820'>do</span> <span m='198880'>you</span> <span m='198960'>think</span> <span m='199130'>the fifth</span> <span m='199310'>derivative</span> <span m='200020'>is</span> <span m='200290'>evaluated</span> <span m='200900'>at</span> <span m='201000'>0?</span> <span m='201460'>Looks</span> <span m='201920'>like it'll</span> <span m='202190'>be</span> <span m='202350'>0.</span> <span m='203580'>You</span> <span m='203680'>take</span> <span m='203820'>the</span> <span m='203940'>sixth</span> <span m='204450'>derivative.</span> <span m='205190'>Looks</span> <span m='205350'>like</span> <span m='205500'>everything</span> <span m='205990'>bigger</span> <span m='206360'>than</span> <span m='206790'>3--</span> <span m='207940'>so</span> <span m='208620'>the</span> <span m='208730'>nth</span> <span m='209260'>derivative</span> <span m='209940'>at</span> <span m='210110'>0</span> <span m='210570'>is</span> <span m='210780'>equal</span> <span m='210900'>to</span> <span m='211020'>0</span> <span m='212070'>for n</span> <span m='213140'>bigger</span> <span m='213370'>than</span> <span m='215720'>3.</span> </p><p><span m='217770'>So</span> <span m='217900'>it</span> <span m='217970'>looks</span> <span m='218160'>like</span> <span m='218300'>we</span> <span m='218420'>should</span> <span m='218560'>only</span> <span m='218790'>have</span> <span m='219790'>4</span> <span m='220140'>terms</span> <span m='220560'>in this.</span> <span m='221270'>So</span> <span m='221510'>that maybe</span> <span m='221990'>seems</span> <span m='222270'>a</span> <span m='222330'>little</span> <span m='222560'>weird,</span> <span m='222920'>but</span> <span m='223720'>let's</span> <span m='223950'>keep</span> <span m='224180'>going</span> <span m='224920'>and</span> <span m='225110'>see</span> <span m='225300'>what</span> <span m='225430'>happens.</span> <span m='225750'>Let's</span> <span m='225880'>start</span> <span m='226140'>plugging</span> <span m='226450'>things</span> <span m='226680'>in.</span> <span m='226890'>So</span> <span m='227770'>again,</span> <span m='228060'>let's</span> <span m='228450'>remember</span> <span m='228840'>the</span> <span m='228930'>formula.</span> <span m='229300'>I'm</span> <span m='229380'>going to</span> <span m='229540'>walk</span> <span m='229790'>over</span> <span m='229940'>here</span> <span m='230210'>to</span> <span m='230310'>the</span> <span m='230410'>right</span> <span m='230610'>and</span> <span m='230710'>I'm</span> <span m='230770'>going</span> <span m='230890'>to</span> <span m='230960'>start</span> <span m='231230'>using</span> <span m='231590'>that</span> <span m='231780'>formula</span> <span m='232200'>and</span> <span m='232620'>using</span> <span m='232980'>these</span> <span m='233400'>numbers</span> <span m='233900'>that</span> <span m='234030'>I</span> <span m='234110'>have</span> <span m='235020'>and</span> <span m='235210'>writing</span> <span m='235490'>it</span> <span m='235570'>out.</span> <span m='236300'>So</span> <span m='236530'>the</span> <span m='236640'>first</span> <span m='237040'>term</span> <span m='239820'>is</span> <span m='240110'>going to</span> <span m='240310'>be</span> <span m='241200'>the</span> <span m='241370'>function</span> <span m='241860'>evaluated</span> <span m='242220'>at</span> <span m='242360'>0</span> <span m='243080'>divided</span> <span m='243420'>by</span> <span m='243560'>0</span> <span m='243840'>factorial</span> <span m='244820'>times</span> <span m='245130'>1.</span> <span m='245930'>0</span> <span m='246190'>factorial</span> <span m='246770'>is</span> <span m='246920'>1,</span> <span m='247640'>so</span> <span m='247820'>it's</span> <span m='247920'>just</span> <span m='248080'>going to</span> <span m='248220'>be</span> <span m='248300'>the</span> <span m='248400'>function</span> <span m='248810'>evaluated</span> <span m='249450'>at</span> <span m='249590'>0</span> <span m='250600'>times</span> <span m='250890'>1.</span> <span m='251170'>The</span> <span m='251260'>function</span> <span m='251630'>evaluated</span> <span m='251910'>at</span> <span m='252120'>0,</span> <span m='252550'>we</span> <span m='252760'>said</span> <span m='253050'>was</span> <span m='253210'>1,</span> <span m='254150'>so</span> <span m='254310'>that's</span> <span m='254490'>the</span> <span m='254580'>first</span> <span m='254810'>term</span> <span m='255050'>in the</span> <span m='255130'>Taylor</span> <span m='255450'>series.</span> </p><p><span m='256850'>OK</span> <span m='257130'>what's</span> <span m='257390'>the</span> <span m='257500'>next</span> <span m='257820'>term?</span> <span m='258070'>The</span> <span m='258160'>next</span> <span m='258470'>term,</span> <span m='258720'>remember,</span> <span m='259090'>is the</span> <span m='259240'>first</span> <span m='259570'>derivative</span> <span m='259880'>evaluated</span> <span m='260510'>at</span> <span m='260560'>0</span> <span m='261390'>divided</span> <span m='261760'>by</span> <span m='261880'>1</span> <span m='262180'>factorial,</span> <span m='262450'>which is</span> <span m='262920'>still</span> <span m='263390'>1,</span> <span m='263860'>times</span> <span m='264170'>x.</span> <span m='265130'>So</span> <span m='265260'>the</span> <span m='265360'>first</span> <span m='265750'>derivative,</span> <span m='265930'>if</span> <span m='266140'>I</span> <span m='266210'>come</span> <span m='266410'>back</span> <span m='266620'>over</span> <span m='266800'>here,</span> <span m='267570'>evaluated</span> <span m='268170'>at</span> <span m='268210'>0,</span> <span m='268880'>I</span> <span m='269160'>get</span> <span m='269340'>negative</span> <span m='269710'>2.</span> <span m='270750'>So</span> <span m='271010'>I'm</span> <span m='271170'>going to</span> <span m='271350'>get</span> <span m='272240'>minus</span> <span m='273150'>2x.</span> <span m='276390'>The next term, so</span> <span m='276530'>I</span> <span m='276580'>had</span> <span m='277120'>zeroth</span> <span m='278000'>derivative,</span> <span m='278120'>first</span> <span m='278490'>derivative,</span> <span m='279370'>now</span> <span m='279570'>I'm</span> <span m='279680'>at</span> <span m='279770'>the</span> <span m='279860'>second</span> <span m='280380'>derivative.</span> <span m='280900'>Now</span> <span m='281100'>it's</span> <span m='281210'>getting</span> <span m='281390'>confusing.</span> <span m='281840'>I'm</span> <span m='281930'>going to</span> <span m='282100'>start</span> <span m='282350'>writing</span> <span m='282650'>the</span> <span m='282740'>things</span> <span m='282980'>above.</span> <span m='283430'>The</span> <span m='283540'>second</span> <span m='283860'>derivative</span> <span m='284830'>evaluated at</span> <span m='285270'>0</span> <span m='285630'>divided</span> <span m='286000'>by</span> <span m='286100'>2</span> <span m='286320'>factorial</span> <span m='287330'>times</span> <span m='287560'>x</span> <span m='287730'>squared.</span> <span m='288280'>That's</span> <span m='288440'>what</span> <span m='288540'>I</span> <span m='288590'>should</span> <span m='288770'>have</span> <span m='288970'>here.</span> </p><p><span m='289725'>Let's</span> <span m='290160'>come</span> <span m='290330'>over</span> <span m='290480'>here.</span> <span m='290820'>Second</span> <span m='291300'>derivative</span> <span m='292630'>evaluated</span> <span m='293010'>at</span> <span m='293120'>0</span> <span m='293250'>was</span> <span m='293530'>8.</span> <span m='295180'>So</span> <span m='295430'>it's</span> <span m='295540'>going to</span> <span m='295750'>be</span> <span m='297000'>8</span> <span m='297250'>over</span> <span m='297470'>2,</span> <span m='298970'>'cause</span> <span m='299170'>2</span> <span m='299280'>factorial</span> <span m='299670'>is</span> <span m='299880'>2,</span> <span m='300460'>x</span> <span m='300680'>squared.</span> <span m='301330'>So it's</span> <span m='301620'>going to</span> <span m='301810'>be</span> <span m='301970'>plus 4</span> <span m='302345'>x</span> <span m='302720'>squared.</span> <span m='304050'>And</span> <span m='304200'>then</span> <span m='304310'>I</span> <span m='304370'>have</span> <span m='304540'>to</span> <span m='304620'>have</span> <span m='304820'>the</span> <span m='304920'>third</span> <span m='305310'>derivative</span> <span m='306990'>evaluated at</span> <span m='307270'>0</span> <span m='307690'>divided</span> <span m='308010'>by</span> <span m='308110'>3</span> <span m='308400'>factorial</span> <span m='309690'>times</span> <span m='309960'>x</span> <span m='310040'>cubed.</span> <span m='311380'>What's</span> <span m='311600'>3</span> <span m='311890'>factorial?</span> <span m='312130'>3</span> <span m='312320'>factorial</span> <span m='312570'>is</span> <span m='313340'>6.</span> <span m='314700'>What</span> <span m='314840'>was</span> <span m='315010'>the</span> <span m='315110'>third</span> <span m='315350'>derivative</span> <span m='315750'>evaluated</span> <span m='316280'>at</span> <span m='316370'>0?</span> <span m='316760'>It</span> <span m='316880'>was</span> <span m='317040'>18.</span> <span m='318180'>18</span> <span m='318600'>divided</span> <span m='318900'>by</span> <span m='319040'>6</span> <span m='319550'>is</span> <span m='319840'>3.</span> <span m='320680'>So</span> <span m='320780'>I</span> <span m='320840'>get</span> <span m='321080'>plus 3</span> <span m='321190'>x</span> <span m='321470'>cubed.</span> <span m='322940'>And</span> <span m='323120'>all</span> <span m='323380'>the</span> <span m='323490'>other</span> <span m='323690'>terms</span> <span m='324040'>were</span> <span m='324180'>0,</span> <span m='326080'>so</span> <span m='326290'>I'll</span> <span m='326440'>just</span> <span m='326660'>stop</span> <span m='326950'>writing</span> <span m='327260'>them.</span> </p><p><span m='328830'>OK</span> <span m='330060'>now</span> <span m='330320'>if</span> <span m='330400'>you</span> <span m='330500'>watched</span> <span m='330720'>the</span> <span m='330820'>video</span> <span m='331030'>all</span> <span m='331230'>the</span> <span m='331300'>way</span> <span m='331450'>through</span> <span m='331660'>here,</span> <span m='331890'>at</span> <span m='332020'>some</span> <span m='332330'>point</span> <span m='332760'>maybe</span> <span m='333170'>you</span> <span m='333330'>said</span> <span m='334380'>\"Christine,</span> <span m='334880'>this</span> <span m='335050'>is</span> <span m='335210'>madness.\"</span> <span m='336160'>Well</span> <span m='336310'>why</span> <span m='336610'>is it</span> <span m='336850'>madness?</span> <span m='337440'>Because</span> <span m='337700'>what</span> <span m='337940'>is</span> <span m='338170'>this?</span> <span m='338690'>Well</span> <span m='338800'>this</span> <span m='338990'>is</span> <span m='339100'>the</span> <span m='339250'>function</span> <span m='339670'>again,</span> <span m='340550'>right?</span> <span m='340910'>It's</span> <span m='341070'>exactly</span> <span m='341460'>what we</span> <span m='341580'>started with.</span> <span m='341850'>The</span> <span m='341950'>order is</span> <span m='343110'>opposite</span> <span m='343530'>of</span> <span m='343610'>what</span> <span m='343750'>it</span> <span m='343820'>was</span> <span m='344020'>before</span> <span m='344440'>'cause</span> <span m='344620'>now</span> <span m='344770'>the</span> <span m='344890'>powers</span> <span m='345350'>go</span> <span m='345530'>up</span> <span m='346180'>instead</span> <span m='346500'>of</span> <span m='346600'>down,</span> <span m='346910'>but</span> <span m='347030'>it's</span> <span m='347170'>the</span> <span m='347290'>same</span> <span m='347590'>polynomial.</span> </p><p><span m='349500'>OK</span> <span m='349670'>we</span> <span m='349840'>talked</span> <span m='350130'>about</span> <span m='350380'>this</span> <span m='350620'>briefly,</span> <span m='351210'>I</span> <span m='351360'>think,</span> <span m='351710'>when</span> <span m='351860'>we</span> <span m='351960'>were</span> <span m='352090'>doing</span> <span m='352440'>some</span> <span m='352630'>quadratic</span> <span m='353090'>approximations.</span> <span m='354370'>And</span> <span m='354530'>I</span> <span m='354600'>mentioned</span> <span m='355120'>way</span> <span m='355520'>back</span> <span m='356420'>that</span> <span m='356590'>quadratic</span> <span m='357080'>approximations</span> <span m='357970'>of</span> <span m='358300'>polynomials</span> <span m='359920'>at</span> <span m='361090'>x</span> <span m='361410'>equals</span> <span m='361510'>0</span> <span m='361670'>are</span> <span m='361910'>just</span> <span m='362170'>the</span> <span m='362240'>polynomials</span> <span m='362900'>again.</span> <span m='363620'>This</span> <span m='363850'>is</span> <span m='363990'>the</span> <span m='364120'>exact</span> <span m='364510'>same</span> <span m='364850'>kind</span> <span m='365060'>of</span> <span m='365150'>thing</span> <span m='365430'>happening.</span> <span m='366270'>Because</span> <span m='366700'>what</span> <span m='366950'>is</span> <span m='367130'>the</span> <span m='367320'>Taylor</span> <span m='367650'>series?</span> <span m='368090'>It's</span> <span m='368340'>just</span> <span m='368600'>better</span> <span m='368920'>and</span> <span m='369060'>better</span> <span m='369260'>approximations</span> <span m='370450'>as</span> <span m='370700'>n</span> <span m='370980'>gets</span> <span m='371140'>larger</span> <span m='371470'>and</span> <span m='371600'>larger.</span> <span m='372300'>So</span> <span m='373130'>if</span> <span m='373360'>I</span> <span m='373450'>wanted</span> <span m='374260'>to</span> <span m='374420'>have</span> <span m='374870'>a</span> <span m='375010'>fourth</span> <span m='375390'>order</span> <span m='375740'>approximation</span> <span m='376520'>of</span> <span m='376630'>this</span> <span m='376830'>function</span> <span m='377230'>f</span> <span m='377470'>of</span> <span m='377550'>x</span> <span m='379030'>at</span> <span m='379420'>x</span> <span m='379720'>equals</span> <span m='379930'>0,</span> <span m='380390'>I</span> <span m='380480'>would</span> <span m='380650'>get</span> <span m='381150'>the</span> <span m='381360'>same</span> <span m='381710'>function</span> <span m='382180'>back.</span> </p><p><span m='382660'>That's</span> <span m='383000'>really</span> <span m='383390'>the</span> <span m='383500'>idea</span> <span m='383770'>of</span> <span m='383840'>what's</span> <span m='383990'>happening</span> <span m='384430'>here.</span> <span m='385050'>So</span> <span m='385760'>maybe</span> <span m='386150'>you</span> <span m='386320'>saw</span> <span m='386780'>the</span> <span m='386890'>sort</span> <span m='387090'>of</span> <span m='387190'>trick</span> <span m='387490'>in</span> <span m='387590'>this</span> <span m='387750'>question,</span> <span m='388280'>and</span> <span m='388460'>when</span> <span m='388600'>you</span> <span m='388740'>saw</span> <span m='389060'>this</span> <span m='389240'>problem</span> <span m='389690'>you</span> <span m='389860'>laughed</span> <span m='390220'>at</span> <span m='390290'>me</span> <span m='390500'>and</span> <span m='390680'>you</span> <span m='390800'>said,</span> <span m='391250'>\"Well</span> <span m='391770'>I'm</span> <span m='391880'>just</span> <span m='392050'>going to</span> <span m='392200'>write</span> <span m='392390'>down</span> <span m='392570'>the</span> <span m='392640'>function</span> <span m='392980'>again</span> <span m='393250'>and</span> <span m='393340'>I'll</span> <span m='393450'>be</span> <span m='393600'>done.\"</span> <span m='394560'>Maybe</span> <span m='394890'>you</span> <span m='394960'>didn't</span> <span m='395230'>see</span> <span m='395330'>that</span> <span m='395520'>right</span> <span m='395720'>away,</span> <span m='396040'>and</span> <span m='396140'>if</span> <span m='396210'>you</span> <span m='396270'>didn't</span> <span m='396530'>see</span> <span m='396660'>that</span> <span m='396810'>right</span> <span m='396960'>away</span> <span m='397130'>that's</span> <span m='397310'>OK.</span> <span m='397690'>I bet</span> <span m='397890'>you're</span> <span m='398000'>in</span> <span m='398080'>good</span> <span m='398300'>company.</span> <span m='399150'>And</span> <span m='399480'>it's</span> <span m='399680'>totally</span> <span m='400060'>fine</span> <span m='400370'>because</span> <span m='400600'>now</span> <span m='400820'>you've</span> <span m='401090'>seen</span> <span m='401390'>this.</span> <span m='401720'>You've</span> <span m='401920'>seen</span> <span m='402370'>how</span> <span m='402710'>it</span> <span m='402820'>works</span> <span m='403070'>out.</span> <span m='404050'>And</span> <span m='404220'>you</span> <span m='404320'>know, hey,</span> <span m='405440'>now</span> <span m='406000'>any</span> <span m='406220'>time</span> <span m='406500'>I</span> <span m='406590'>see</span> <span m='406780'>a</span> <span m='407070'>polynomial</span> <span m='407590'>and</span> <span m='407760'>I</span> <span m='407830'>want to</span> <span m='408020'>do the</span> <span m='408230'>Taylor</span> <span m='408560'>series</span> <span m='409440'>for</span> <span m='409590'>this</span> <span m='409700'>polynomial,</span> <span m='410550'>I</span> <span m='410670'>just</span> <span m='410830'>have</span> <span m='410940'>to</span> <span m='411020'>write</span> <span m='411180'>down</span> <span m='411340'>the polynomial</span> <span m='412050'>again.</span> </p><p><span m='413130'>So</span> <span m='413350'>that</span> <span m='413550'>was</span> <span m='413680'>the</span> <span m='413760'>main</span> <span m='414000'>goal</span> <span m='414280'>of this</span> <span m='414460'>video.</span> <span m='414800'>It</span> <span m='415140'>took</span> <span m='415310'>us a</span> <span m='415370'>long</span> <span m='415720'>time</span> <span m='415930'>to</span> <span m='416000'>get</span> <span m='416220'>there,</span> <span m='416440'>but</span> <span m='416600'>I</span> <span m='416660'>think</span> <span m='416860'>we</span> <span m='416970'>got</span> <span m='417240'>it.</span> <span m='417760'>So</span> <span m='417970'>the</span> <span m='418100'>answer</span> <span m='418350'>to</span> <span m='419350'>the ultimate answer to the question</span> <span m='419800'>of</span> <span m='420620'>write</span> <span m='420770'>the Taylor</span> <span m='421150'>series</span> <span m='421420'>of</span> <span m='421530'>this</span> <span m='422040'>function,</span> <span m='423340'>it's</span> <span m='423530'>just</span> <span m='423760'>this</span> <span m='423910'>function</span> <span m='424260'>again.</span> <span m='425950'>All</span> <span m='426070'>right,</span> <span m='426300'>that's</span> <span m='426470'>where</span> <span m='426570'>I'll stop.</span> </p>", 
    "_content_type_link_text": "text/plain", 
    "course_linking": [], 
    "_id": "taylors-series-of-a-polynomial", 
    "modification_date": "2016/09/25 01:17:41.982 GMT-4", 
    "media_index": [], 
    "always_publish": false, 
    "_owner": null, 
    "_permissions": {
        "Change portal events": {
            "acquire": false, 
            "roles": [
                "Editor", 
                "Manager", 
                "MetadataEditor", 
                "Owner"
            ]
        }, 
        "Modify portal content": {
            "acquire": false, 
            "roles": [
                "Manager", 
                "MetadataEditor"
            ]
        }, 
        "Access contents information": {
            "acquire": false, 
            "roles": [
                "Authenticated"
            ]
        }, 
        "List folder contents": {
            "acquire": false, 
            "roles": [
                "Editor", 
                "Manager", 
                "MetadataEditor", 
                "Owner"
            ]
        }, 
        "View": {
            "acquire": false, 
            "roles": [
                "Authenticated"
            ]
        }
    }, 
    "_properties": [
        [
            "title", 
            "Taylor's Series of a Polynomial", 
            "string"
        ]
    ], 
    "creators": [
        "sbabbar"
    ], 
    "courselist_features": [], 
    "_path": "/Plone/courses/mathematics/18-01sc-single-variable-calculus-fall-2010/unit-5-exploring-the-infinite/part-b-taylor-series/session-98-taylors-series/taylors-series-of-a-polynomial"
}